name,counts
2,7
3,29
4,6
5,5
8,17
9,2
11,5
13,3
15,5
18,9
21,8
22,3
23,1
24,2
25,3
26,2
27,8
28,2
29,2
30,2
31,1
33,1
34,3
35,1
36,3
37,4
38,1
39,2
40,3
41,11
42,5
43,1
45,1
46,5
47,5
48,2
49,1
50,1
51,1
52,2
56,4
57,2
59,1
60,4
61,1
62,5
63,3
64,2
66,10
67,4
68,3
72,1
73,2
74,6
75,1
76,4
77,1
78,2
79,21
82,2
83,2
85,5
86,3
87,7
88,2
89,4
90,3
91,2
92,6
93,1
94,4
95,5
97,5
98,4
100,1
101,11
102,1
104,7
105,1
107,6
108,2
110,8
111,1
112,6
113,6
115,2
116,6
118,7
119,3
120,6
123,3
124,1
125,1
127,2
128,5
129,2
132,8
133,3
134,1
135,1
139,2
141,1
144,3
145,2
148,2
149,5
150,1
151,3
156,1
158,3
159,2
162,7
163,1
165,1
168,1
172,2
175,1
177,1
179,3
181,2
184,10
185,4
186,1
187,1
188,7
191,10
193,3
194,12
195,2
200,1
201,7
202,1
205,3
206,10
207,5
208,1
211,2
212,3
214,4
216,2
217,1
223,5
225,1
226,4
227,8
228,9
230,1
231,2
232,5
233,1
235,1
237,4
238,2
239,3
240,2
243,5
246,5
250,7
252,3
254,13
255,3
257,2
258,7
260,8
261,4
262,6
264,1
265,1
266,3
268,2
269,1
270,1
271,1
273,1
275,2
277,1
280,2
284,1
286,3
288,2
289,1
291,1
292,3
293,5
295,2
298,1
301,1
305,1
306,2
309,1
313,3
323,1
324,1
326,1
327,1
328,1
329,1
335,1
338,1
351,1
353,1
354,2
359,4
365,2
378,1
382,5
385,1
387,3
391,1
397,7
398,50
402,3
403,3
404,6
405,2
407,1
410,1
412,1
413,4
415,2
416,1
418,4
419,3
423,3
427,6
429,1
432,2
434,1
438,1
440,2
441,2
446,4
449,1
450,6
456,1
458,2
459,9
460,18
461,4
463,2
468,1
469,1
470,2
472,5
476,1
479,1
481,5
482,1
483,1
484,1
487,1
491,3
493,1
495,1
496,1
498,2
499,2
504,7
506,2
508,1
513,1
514,1
516,2
517,1
519,3
521,1
522,1
523,4
526,1
527,3
528,6
530,2
531,1
533,4
535,2
536,2
537,1
538,3
539,2
540,4
542,2
549,2
550,1
551,1
553,8
554,5
557,2
558,1
559,2
561,6
563,1
564,1
565,2
566,1
568,1
570,2
571,1
573,1
574,4
575,1
579,1
580,2
581,5
583,3
584,1
585,3
587,1
589,2
591,5
592,8
593,17
594,2
595,7
596,10
597,2
598,1
599,6
600,1
601,8
603,1
604,7
605,1
606,1
607,1
613,3
614,2
617,1
618,1
620,1
626,3
628,1
629,3
632,1
634,1
635,1
636,1
638,1
639,2
640,1
641,3
644,1
645,1
646,3
647,1
649,1
651,1
652,1
654,1
658,3
660,1
661,1
663,1
664,3
665,1
667,1
668,1
671,1
672,36
673,10
674,10
675,6
676,4
677,5
678,17
679,6
680,16
681,23
682,24
683,15
684,8
686,4
687,15
688,2
689,3
690,1
692,2
693,3
694,29
695,1
696,1
697,2
698,2
699,5
700,6
701,1
705,1
707,1
708,6
711,1
712,2
719,1
721,1
733,2
737,1
744,1
745,1
747,1
748,2
754,1
755,2
759,1
760,1
768,2
775,1
778,1
780,1
781,2
789,1
791,11
792,4
796,1
799,2
808,1
809,1
816,2
827,1
830,2
831,7
836,1
843,1
848,1
859,1
860,1
868,1
869,2
872,1
874,1
876,2
885,1
886,3
889,1
893,1
896,1
898,1
899,2
903,1
905,1
913,2
927,1
929,2
931,3
936,5
938,1
941,3
943,7
944,3
946,2
951,1
955,1
959,1
961,1
964,1
967,1
968,1
969,1
971,1
973,12
979,1
982,1
983,1
992,1
995,2
998,2
1003,1
1004,1
1007,3
1008,2
1013,1
1014,1
1015,1
1017,1
1021,1
1023,1
1028,2
1036,1
1046,38
1047,5
1048,1
1053,1
1055,2
1057,1
1063,2
1065,1
1069,1
1073,2
1076,1
1078,2
1081,1
1082,1
1084,1
1086,1
1088,1
1094,2
1095,2
1096,1
1097,1
1101,2
1103,3
1105,1
1106,1
1120,5
1123,1
1129,2
1130,1
1131,2
1132,2
1135,1
1138,6
1140,1
1141,6
1142,4
1143,2
1145,1
1157,1
1160,2
1169,2
1174,2
1176,2
1182,1
1183,9
1188,1
1190,2
1213,6
1215,1
1219,5
1221,1
1223,2
1224,1
1227,1
1228,1
1234,4
1235,1
1237,2
1239,3
1241,4
1243,1
1245,1
1248,16
1250,1
1253,22
1258,2
1262,1
1263,1
1265,4
1266,2
1267,1
1269,3
1270,1
1279,1
1285,2
1289,3
1292,1
1295,1
1299,1
1303,1
1313,1
1323,1
1325,3
1327,2
1329,1
1331,2
1334,1
1337,2
1340,1
1346,1
1348,1
1351,1
1354,1
1356,1
1360,1
1362,1
1365,2
1366,1
1367,1
1377,2
1379,2
1380,1
1381,4
1382,1
1384,1
1387,3
1388,1
1389,3
1390,1
1391,1
1394,2
1396,1
1398,2
1399,5
1400,1
1401,1
1403,2
1409,2
1416,1
1417,1
1419,1
1420,1
1422,3
1426,1
1427,2
1429,3
1432,1
1437,1
1448,1
1450,2
1459,3
1465,2
1466,2
1469,3
1471,11
1474,2
1476,5
1477,6
1481,1
1485,1
1486,1
1488,1
1493,2
1498,1
1499,1
1501,3
1504,2
1508,1
1509,2
1510,1
1512,1
1518,1
1519,2
1525,1
1530,2
1533,2
1539,2
1540,1
1543,1
1544,1
1550,1
1555,2
1556,1
1557,1
1559,2
1564,2
1571,1
1583,1
1593,1
1595,3
1601,2
1606,1
1616,2
1620,1
1622,5
1631,2
1639,2
1641,3
1643,1
1647,3
1652,2
1656,2
1659,15
1661,4
1663,1
1665,1
1666,1
1670,1
1674,2
1678,2
1679,5
1680,1
1682,1
1686,1
1687,38
1688,1
1689,2
1697,1
1700,1
1702,1
1708,1
1720,1
1725,1
1730,1
1734,1
1759,1
1777,2
1780,3
1787,1
1788,1
1790,1
1798,1
1803,1
1806,1
1812,1
1814,16
1820,2
1822,1
1842,1
1843,1
1848,2
1853,1
1855,1
1857,1
1859,1
1860,5
1870,4
1871,1
1875,1
1883,4
1888,4
1892,2
1898,2
1901,6
1904,1
1911,1
1914,2
1915,2
1919,2
1920,17
1931,1
1932,4
1933,1
1936,1
1940,7
1941,1
1942,1
1944,1
1947,2
1949,1
1954,1
1964,2
1969,1
1971,1
1972,1
1978,1
1984,1
1990,1
1991,1
1993,3
1997,1
1998,1
2001,2
2008,1
2015,1
2018,1
2028,5
2040,1
2041,1
2045,3
2047,1
2051,1
2054,2
2060,1
2062,1
2064,1
2065,3
2066,4
2067,4
2069,5
2070,2
2071,1
2072,1
2073,3
2077,1
2082,1
2083,2
2085,1
2086,2
2093,1
2094,2
2109,2
2111,1
2112,1
2116,1
2118,2
2119,1
2123,5
2124,1
2129,1
2134,2
2136,1
2139,1
2143,1
2145,1
2146,1
2148,1
2153,3
2154,1
2155,1
2157,5
2158,8
2159,5
2160,1
2161,2
2162,8
2164,3
2166,3
2169,9
2170,5
2171,5
2172,1
2173,3
2174,3
2175,5
2177,1
2179,3
2182,2
2185,3
2186,4
2187,2
2189,1
2190,4
2191,5
2192,1
2196,2
2198,1
2203,1
2208,1
2211,2
2213,5
2214,2
2217,2
2227,1
2229,1
2230,1
2231,2
2232,5
2236,1
2237,3
2238,1
2239,1
2242,1
2244,1
2248,2
2249,1
2250,7
2251,1
2252,5
2253,2
2254,12
2257,2
2265,3
2267,3
2273,3
2275,1
2278,12
2279,1
2282,1
2283,3
2296,1
2298,1
2300,1
2301,1
2304,5
2305,5
2306,2
2308,1
2314,1
2315,1
2316,6
2318,3
2319,1
2324,4
2325,1
2326,13
2327,6
2328,1
2329,1
2331,1
2333,4
2334,2
2341,1
2342,5
2343,1
2344,1
2346,3
2347,2
2349,2
2350,2
2353,1
2354,1
2357,28
2358,1
2359,48
2363,3
2364,8
2365,1
2367,1
2372,2
2373,3
2376,1
2377,1
2378,4
2379,1
2381,2
2386,1
2388,4
2391,1
2393,1
2395,3
2396,2
2397,1
2400,1
2401,2
2412,2
2415,1
2416,1
2420,1
2424,2
2429,1
2430,1
2434,1
2435,2
2444,2
2446,2
2447,1
2452,1
2454,2
2455,2
2459,6
2460,1
2463,3
2468,3
2471,3
2472,1
2473,1
2474,1
2475,1
2481,3
2483,1
2487,1
2492,1
2494,1
2502,1
2505,10
2511,2
2513,1
2514,1
2515,3
2516,2
2517,3
2518,1
2519,1
2520,1
2522,1
2525,2
2532,2
2537,1
2546,1
2548,1
2552,1
2553,1
2558,1
2559,1
2561,2
2564,1
2569,1
2572,1
2575,10
2580,1
2582,1
2584,1
2589,1
2590,1
2591,1
2592,1
2595,1
2596,2
2597,1
2602,1
2603,6
2607,1
2615,1
2618,4
2621,1
2622,1
2625,2
2628,2
2630,1
2635,4
2636,1
2637,2
2640,1
2645,1
2649,1
2650,2
2651,1
2661,1
2668,1
2671,1
2676,2
2678,1
2682,1
2694,3
2695,1
2699,3
2700,2
2703,3
2704,5
2709,1
2713,1
2715,1
2716,1
2717,7
2718,1
2721,1
2727,2
2728,1
2730,2
2732,1
2733,4
2734,1
2736,1
2738,1
2740,1
2741,2
2744,1
2746,14
2747,3
2750,1
2751,4
2755,1
2758,2
2760,1
2765,1
2773,3
2775,1
2785,2
2792,1
2794,2
2800,3
2803,1
2808,1
2812,3
2813,4
2817,1
2818,2
2821,1
2825,1
2826,1
2828,6
2833,1
2834,1
2835,1
2838,1
2840,2
2844,1
2848,1
2849,1
2850,3
2854,2
2864,1
2869,1
2874,1
2878,1
2884,3
2894,1
2895,2
2896,2
2899,1
2907,1
2908,2
2909,1
2910,2
2913,1
2919,2
2925,3
2927,1
2928,1
2936,1
2938,2
2940,1
2941,1
2944,2
2945,1
2946,1
2948,1
2949,1
2951,1
2954,1
2955,1
2956,1
2958,3
2959,12
2964,12
2967,1
2968,1
2969,4
2970,2
2971,1
2976,1
2979,2
2981,1
2984,3
2989,1
2990,1
2994,1
2995,1
3002,1
3003,2
3004,2
3005,1
3008,1
3010,1
3011,1
3013,1
3014,3
3018,4
3024,1
3026,1
3029,1
3030,1
3032,1
3035,1
3036,2
3038,1
3039,1
3042,1
3043,2
3045,2
3047,2
3049,2
3050,1
3051,3
3054,1
3057,1
3058,3
3059,2
3060,1
3061,6
3062,5
3063,5
3064,3
3065,5
3069,4
3075,1
3076,4
3077,3
3079,1
3084,2
3085,2
3088,1
3089,3
3091,1
3093,1
3098,1
3099,1
3103,1
3104,1
3116,1
3124,4
3125,1
3128,1
3133,2
3134,5
3139,1
3146,1
3147,1
3151,3
3152,1
3156,5
3157,2
3158,1
3159,5
3160,3
3165,1
3170,9
3171,1
3178,1
3181,2
3184,1
3187,1
3188,1
3189,1
3191,1
3193,4
3194,1
3198,1
3207,1
3209,9
3210,1
3215,1
3217,4
3229,1
3230,1
3235,2
3238,1
3239,1
3240,2
3244,1
3245,1
3247,11
3248,2
3249,2
3252,5
3255,1
3256,1
3258,2
3259,2
3263,2
3264,3
3268,5
3269,2
3271,1
3272,3
3273,1
3276,1
3279,2
3280,1
3281,2
3283,4
3287,2
3288,1
3293,1
3294,3
3295,1
3297,1
3298,9
3299,4
3302,2
3308,1
3310,2
3315,2
3316,1
3318,1
3325,3
3328,1
3331,2
3335,1
3336,2
3338,1
3339,1
3341,4
3345,1
3353,9
3358,1
3360,1
3369,3
3372,1
3373,1
3374,1
3376,1
3377,1
3380,1
3383,2
3388,1
3394,1
3399,1
3400,4
3403,2
3406,1
3408,1
3412,1
3413,1
3417,1
3418,7
3419,1
3420,1
3421,6
3426,1
3427,1
3440,2
3443,1
3445,2
3447,1
3448,3
3449,2
3452,9
3453,1
3457,3
3466,5
3467,1
3468,3
3469,1
3472,1
3476,16
3477,1
3479,2
3480,1
3485,5
3487,2
3488,3
3489,3
3490,1
3491,8
3492,5
3493,1
3494,3
3505,7
3506,1
3507,5
3509,1
3510,14
3511,5
3512,2
3513,1
3514,3
3515,3
3517,13
3518,1
3519,2
3520,2
3521,4
3522,15
3523,3
3524,7
3525,1
3528,1
3529,1
3530,1
3532,1
3536,2
3538,6
3553,1
3558,1
3561,1
3564,1
3567,1
3568,3
3569,1
3575,4
3577,1
3578,1
3580,1
3588,4
3589,4
3590,2
3592,1
3593,2
3594,1
3598,1
3606,1
3607,1
3608,2
3611,1
3612,2
3615,1
3616,2
3626,1
3628,1
3629,1
3630,5
3632,1
3634,1
3638,1
3642,3
3643,4
3644,1
3645,1
3646,7
3650,2
3654,1
3655,1
3656,12
3661,1
3662,1
3663,1
3672,3
3673,1
3682,3
3683,1
3690,2
3691,1
3693,1
3706,1
3707,1
3709,1
3712,1
3717,3
3719,1
3722,1
3723,1
3726,4
3728,1
3730,1
3731,2
3732,1
3737,2
3738,1
3747,1
3754,1
3759,18
3762,18
3764,2
3766,1
3777,1
3785,7
3786,2
3787,8
3789,1
3791,1
3796,1
3804,1
3815,1
3821,3
3822,10
3824,4
3825,14
3826,7
3827,21
3830,5
3834,3
3835,18
3836,12
3837,15
3842,3
3843,12
3844,4
3847,5
3848,1
3850,4
3851,1
3854,1
3862,2
3864,1
3866,3
3869,2
3870,10
3871,2
3875,5
3878,2
3883,8
3886,1
3894,1
3897,1
3901,2
3902,2
3904,1
3915,2
3922,1
3923,1
3924,1
3926,1
3928,4
3935,2
3938,1
3943,1
3949,1
3951,4
3952,2
3955,1
3956,1
3957,1
3959,1
3962,1
3966,2
3968,2
3979,4
3980,11
3981,3
3982,1
3984,40
3986,3
3987,3
3988,1
3997,1
3998,1
3999,1
4003,1
4007,4
4008,1
4010,1
4012,1
4013,1
4016,3
4017,1
4018,1
4019,6
4020,1
4024,1
4032,5
4034,1
4038,3
4050,2
4060,1
4081,1
4083,1
4086,1
4089,6
4090,1
4107,1
4117,1
4119,1
4121,1
4124,1
4125,1
4131,2
4133,3
4135,2
4136,2
4137,1
4138,1
4141,2
4143,3
4147,1
4154,2
4155,1
4157,1
4167,2
4169,5
4171,4
4172,2
4174,2
4192,1
4194,1
4199,2
4204,1
4205,1
4211,3
4213,1
4217,1
4223,2
4224,2
4225,1
4226,1
4227,2
4231,1
4233,1
4234,1
4235,1
4237,4
4253,1
4254,2
4259,22
4261,3
4265,1
4275,1
4279,10
4280,46
4284,1
4288,3
4292,2
4301,1
4302,2
4307,16
4311,2
4316,1
4317,1
4324,1
4325,1
4328,1
4335,1
4338,1
4342,5
4346,4
4347,1
4348,1
4349,1
4351,2
4355,1
4356,1
4357,1
4358,1
4362,4
4363,1
4365,1
4374,1
4375,1
4376,1
4377,8
4378,20
4381,2
4382,2
4389,4
4391,2
4392,5
4395,3
4396,1
4397,4
4398,13
4399,15
4400,12
4401,40
4402,24
4403,4
4404,6
4405,8
4408,1
4409,4
4411,1
4412,3
4414,1
4416,1
4418,2
4425,5
4431,1
4432,1
4434,2
4446,1
4447,14
4450,2
4453,1
4454,1
4456,1
4458,7
4459,2
4460,1
4461,1
4468,1
4470,3
4472,1
4476,6
4477,2
4478,1
4479,1
4481,8
4482,1
4483,1
4487,1
4488,1
4490,1
4492,4
4493,1
4494,1
4497,3
4498,1
4499,1
4503,2
4507,2
4508,4
4509,3
4510,1
4511,7
4512,1
4516,1
4517,2
4518,1
4525,2
4526,1
4527,2
4528,1
4532,2
4534,1
4535,1
4537,1
4538,8
4539,5
4541,2
4542,1
4544,1
4548,2
4549,1
4551,1
4554,2
4557,2
4559,2
4560,3
4561,1
4567,2
4569,2
4572,2
4574,1
4575,2
4576,2
4577,1
4578,7
4579,1
4581,2
4582,21
4583,4
4585,2
4586,1
4587,2
4588,2
4592,3
4596,2
4597,1
4598,1
4600,15
4601,11
4604,1
4605,1
4612,1
4614,4
4615,1
4616,1
4619,2
4625,1
4628,1
4631,3
4632,1
4633,2
4635,2
4636,1
4637,1
4639,1
4640,1
4642,1
4646,1
4651,3
4654,1
4656,1
4658,1
4660,1
4661,3
4662,1
4667,1
4669,2
4670,2
4676,1
4677,1
4681,1
4682,1
4683,5
4685,1
4688,1
4695,6
4696,1
4698,1
4700,3
4702,1
4703,1
4706,10
4707,2
4711,1
4712,1
4718,3
4720,1
4721,1
4725,1
4729,5
4732,1
4735,1
4743,3
4745,1
4749,1
4751,1
4756,1
4757,1
4758,1
4761,1
4762,2
4764,3
4768,1
4772,1
4781,1
4782,1
4784,2
4786,1
4787,2
4788,2
4789,3
4791,2
4794,1
4795,2
4796,3
4797,2
4798,2
4799,1
4800,1
4801,1
4803,2
4805,2
4806,1
4813,4
4815,1
4820,1
4821,1
4823,4
4824,3
4825,1
4829,3
4832,1
4834,3
4836,1
4837,1
4839,1
4840,2
4841,1
4842,7
4843,2
4845,1
4848,2
4849,1
4851,3
4853,1
4854,1
4860,3
4863,4
4864,1
4868,2
4869,1
4870,2
4871,2
4872,1
4873,1
4874,1
4875,1
4876,2
4880,1
4885,22
4886,25
4887,5
4889,1
4891,11
4892,1
4893,31
4902,1
4904,2
4906,1
4908,1
4910,1
4911,2
4912,7
4914,1
4933,1
4945,1
4946,1
4951,2
4953,3
4954,3
4957,1
4959,1
4963,5
4964,1
4967,1
4969,1
4971,1
4975,2
4979,2
4992,1
4993,1
4999,1
5005,1
5010,2
5013,5
5021,1
5022,1
5024,1
5030,1
5031,1
5032,1
5033,2
5037,155
5038,1
5040,1
5041,15
5047,4
5048,3
5050,2
5051,1
5054,2
5055,2
5058,2
5060,2
5062,2
5063,1
5066,3
5069,1
5071,1
5072,2
5073,5
5078,1
5080,1
5086,1
5090,2
5091,2
5099,2
5100,1
5103,1
5106,1
5124,1
5127,1
5129,1
5130,2
5131,2
5133,1
5138,3
5139,4
5142,1
5143,4
5147,1
5151,1
5158,1
5159,3
5161,3
5166,1
5169,1
5171,2
5172,6
5174,1
5180,1
5183,2
5185,1
5188,1
5190,1
5191,5
5192,1
5197,1
5204,2
5206,1
5207,1
5211,1
5212,1
5213,1
5214,1
5216,2
5218,1
5219,1
5223,1
5226,1
5227,2
5231,2
5232,1
5233,4
5236,1
5238,1
5242,1
5243,1
5245,2
5246,3
5250,1
5253,1
5258,1
5259,1
5263,1
5265,1
5266,1
5271,2
5276,2
5277,1
5279,2
5285,1
5286,1
5289,2
5290,3
5291,2
5295,1
5297,3
5301,2
5303,5
5307,2
5308,1
5311,1
5313,4
5314,1
5315,1
5316,16
5317,22
5319,22
5323,2
5324,1
5325,1
5328,2
5330,2
5331,2
5332,1
5337,2
5339,6
5340,4
5341,1
5349,1
5350,2
5355,1
5357,1
5358,2
5362,1
5366,1
5368,1
5372,1
5373,4
5374,2
5375,1
5378,1
5379,2
5380,2
5383,2
5385,1
5386,3
5387,25
5389,1
5392,2
5394,1
5396,1
5398,3
5401,3
5403,1
5404,1
5408,1
5409,1
5424,4
5425,1
5430,3
5431,2
5437,1
5442,5
5443,5
5445,1
5451,6
5452,2
5455,1
5458,1
5459,3
5460,1
5461,1
5462,2
5465,1
5467,2
5468,2
5476,1
5479,1
5484,3
5485,1
5488,1
5490,1
5492,1
5493,1
5494,18
5495,1
5499,4
5504,2
5507,1
5510,1
5511,1
5514,3
5516,5
5517,4
5520,1
5524,1
5525,1
5526,1
5527,1
5528,1
5529,1
5530,1
5533,2
5536,1
5541,3
5550,1
5554,1
5556,1
5557,7
5558,1
5561,3
5564,4
5565,1
5566,1
5568,3
5570,1
5571,9
5572,9
5573,1
5574,15
5575,3
5577,6
5578,2
5579,3
5580,2
5581,2
5582,1
5584,1
5585,3
5586,1
5587,5
5588,4
5589,1
5590,1
5593,2
5596,3
5598,2
5600,1
5601,1
5602,9
5603,4
5605,3
5607,3
5608,5
5609,3
5610,6
5616,4
5617,3
5618,20
5623,12
5625,1
5627,1
5628,1
5629,37
5630,49
5631,20
5632,4
5633,5
5634,2
5635,3
5636,2
5637,11
5638,40
5639,3
5640,5
5642,2
5643,14
5647,3
5648,1
5650,12
5654,2
5655,2
5656,1
5657,2
5659,2
5660,1
5661,1
5662,1
5663,1
5664,14
5665,8
5666,15
5670,1
5672,1
5675,2
5676,1
5678,2
5679,8
5680,7
5681,10
5682,130
5683,106
5684,10
5685,5
5686,2
5687,15
5688,10
5689,5
5690,4
5691,1
5692,6
5693,13
5694,5
5695,23
5696,4
5697,5
5698,17
5699,4
5700,7
5701,11
5702,9
5703,8
5704,7
5705,5
5706,5
5707,22
5708,3
5709,5
5711,5
5712,18
5713,20
5714,1
5715,46
5716,14
5717,1
5718,1
5719,3
5721,8
5722,4
5723,1
5725,1
5726,2
5727,1
5728,3
5730,1
5732,1
5733,3
5736,1
5739,1
5743,4
5745,1
5746,5
5747,2
5749,9
5750,5
5751,1
5753,3
5755,3
5756,3
5757,4
5758,9
5759,6
5760,32
5761,13
5762,17
5763,14
5764,43
5765,38
5766,66
5767,6
5768,7
5769,32
5770,17
5771,18
5772,18
5773,14
5774,20
5775,14
5776,3
5777,2
5778,1
5779,2
5780,2
5781,6
5782,10
5783,86
5784,15
5785,27
5786,24
5787,89
5788,24
5789,31
5790,16
5791,18
5792,1
5793,6
5794,63
5795,1
5796,6
5797,3
5798,5
5799,6
5800,2
6108,30
6109,26
6110,69
6111,22
6112,29
6113,5
6114,8
6115,2
6116,2
6117,8
6118,1
6119,7
6120,19
6122,5
6124,1
6125,3
6126,34
6127,19
6128,1
6129,2
6131,1
6152,7
6159,2
6161,1
6162,1
6163,2
6164,1
6167,1
6168,2
6203,13
6205,1
6208,1
6209,1
6210,1
6211,1
6212,2
6226,1
6228,3
6229,5
6230,39
6231,1
6232,26
6233,53
6234,17
6236,7
6237,22
6242,1
6243,28
6244,13
6251,77
6252,81
6253,3
6254,1
6255,1
6256,2
6257,35
6258,2
6259,2
6261,1
6262,1
6264,1
6268,2
6269,1
6270,1
6271,3
6272,1
6275,1
6276,2
6278,2
6281,2
6285,1
6287,3
6288,2
6289,1
6291,1
6292,1
6293,1
6294,1
6296,1
6298,2
6300,1
6302,1
6303,1
6304,1
6305,3
6306,4
6308,1
6312,3
6313,3
6314,1
6315,2
6316,2
6321,2
6322,4
6323,4
6324,3
6325,17
6326,6
6327,4
6328,2
6329,4
6330,25
6331,5
6332,5
6346,15
6347,4
6348,18
6349,4
6350,6
6351,12
6352,10
6353,7
6354,10
6355,6
6356,16
6357,22
6358,7
6359,6
6360,3
6361,3
6362,4
6363,16
6364,18
6366,1
6367,1
6368,5
6369,7
6370,5
6371,3
6372,3
6373,2
6374,12
6375,13
6376,178
6377,127
6378,9
6379,6
6380,3
6381,3
6382,6
6383,11
6384,4
6385,4
6386,1
6388,3
6390,29
6391,22
6392,1
6394,2
6396,2
6397,2
6398,1
6399,8
6400,1
6401,2
6402,2
6408,3
6410,1
6411,1
6412,1
6413,3
6415,7
6416,6
6421,6
6422,6
6424,2
6425,2
6426,1
6427,2
6429,2
6432,2
6433,1
6437,2
6439,1
6444,16
6445,4
6447,2
6448,1
6449,1
6451,1
6456,1
6457,1
6458,2
6459,2
6461,1
6464,2
6467,5
6469,1
6470,2
6471,1
6474,17
6475,1
6478,1
6479,2
6480,1
6481,1
6484,4
6486,9
6487,1
6488,1
6492,1
6497,2
6498,1
6499,2
6503,1
6504,1
6506,1
6507,10
6508,1
6509,1
6510,11
6511,14
6512,18
6513,5
6514,2
6515,9
6516,10
6517,1
6518,8
6519,10
6520,2
6521,10
6522,14
6533,1
6535,1
6537,1
6539,3
6540,2
6542,3
6546,2
6550,23
6551,22
6552,13
6553,5
6554,1
6555,4
6556,8
6557,1
6558,17
6559,29
6560,27
6561,1
6562,3
6563,1
6564,4
6565,1
6566,2
6568,3
6569,2
6570,12
6571,9
6572,5
6573,2
6575,2
6576,14
6577,2
6578,8
6579,13
6580,4
6581,31
6582,2
6585,3
6586,1
6587,6
6589,10
6594,1
6595,1
6596,1
6599,1
6602,1
6607,4
6608,6
6609,1
6610,8
6612,6
6613,2
6616,1
6618,1
6619,2
6620,3
6622,2
6624,2
6625,2
6626,1
6630,1
6633,4
6640,1
6642,1
6643,15
6644,2
6646,1
6648,1
6651,7
6652,2
6655,5
6656,1
6657,1
6658,4
6659,6
6661,1
6662,6
6663,1
6664,1
6666,2
6669,1
6672,2
6674,3
6675,1
6678,1
6679,2
6680,1
6683,1
6684,3
6686,4
6688,2
6689,2
6695,1
6697,1
6698,4
6700,4
6701,9
6702,1
6703,5
6704,1
6705,1
6706,2
6707,3
6708,1
6709,1
6710,2
6711,1
6714,1
6716,2
6718,4
6719,7
6720,4
6722,8
6724,2
6725,1
6726,10
6727,1
6728,11
6729,71
6730,28
6731,16
6733,7
6736,6
6737,4
6738,2
6739,8
6742,1
6744,3
6746,1
6747,1
6751,1
6752,1
6753,1
6754,2
6755,2
6756,1
6757,1
6759,2
6761,2
6764,1
6765,1
6769,1
6770,1
6774,2
6775,5
6776,1
6777,1
6780,1
6785,1
6786,1
6790,1
6792,1
6798,1
6799,1
6800,2
6802,1
6803,1
6806,1
6809,6
6814,1
6817,1
6821,1
6822,1
6824,1
6825,2
6826,2
6833,3
6837,1
6838,2
6839,2
6840,8
6842,1
6847,4
6848,4
6849,3
6850,3
6854,4
6855,1
6858,2
6859,2
6861,3
6862,2
6863,2
6866,2
6868,1
6869,1
6873,1
6874,6
6877,1
6880,1
6882,2
6883,6
6889,1
6892,1
6894,2
6896,3
6898,2
6900,1
6907,2
6908,4
6913,1
6915,2
6921,1
6923,1
6929,1
6931,1
6934,2
6940,1
6948,1
6950,2
6953,1
6955,1
6958,1
6968,1
6979,1
6998,1
7001,1
7009,1
7011,1
7012,1
7013,2
7016,1
7017,1
7021,1
7026,2
7028,1
7030,1
7037,1
7040,1
7041,1
7050,10
7056,1
7058,2
7059,2
7061,2
7065,2
7069,1
7070,1
7072,1
7073,1
7075,1
7076,1
7077,7
7078,1
7079,8
7085,1
7086,1
7088,1
7089,2
7092,2
7094,1
7095,3
7096,3
7099,2
7100,7
7102,2
7106,2
7108,1
7111,1
7114,1
7115,1
7120,1
7121,2
7123,2
7124,2
7126,1
7127,2
7131,3
7132,1
7133,2
7134,1
7135,1
7141,1
7144,1
7145,1
7146,2
7149,1
7150,2
7151,7
7154,1
7156,1
7158,2
7159,1
7160,2
7161,2
7163,1
7165,1
7166,2
7168,2
7169,3
7170,2
7175,1
7176,1
7177,1
7178,1
7188,3
7195,1
7197,1
7201,1
7202,4
7203,2
7211,1
7212,1
7221,3
7227,4
7228,2
7230,1
7237,2
7238,1
7253,2
7254,3
7256,8
7257,9
7259,5
7260,6
7261,4
7262,14
7263,11
7264,3
7265,2
7266,2
7267,5
7268,8
7269,2
7270,1
7272,7
7273,1
7274,3
7275,2
7278,6
7281,1
7282,7
7283,3
7284,3
7285,2
7287,8
7288,11
7289,7
7290,3
7292,1
7293,5
7294,2
7295,6
7296,3
7298,1
7299,1
7300,1
7301,5
7302,1
7303,1
7308,3
7309,3
7312,2
7318,4
7319,1
7320,5
7321,3
7322,2
7323,6
7324,1
7325,4
7326,1
7327,14
7328,1
7329,7
7330,13
7331,8
7332,1
7333,1
7338,3
7341,3
7344,1
7345,2
7346,1
7348,1
7351,3
7360,2
7361,1
7363,3
7364,1
7365,1
7366,2
7367,1
7369,5
7370,2
7371,2
7373,6
7374,6
7375,1
7376,1
7377,3
7378,1
7380,2
7383,4
7384,15
7385,3
7387,12
7388,4
7389,1
7401,1
7404,5
7405,4
7406,2
7407,2
7411,1
7412,1
7413,1
7417,2
7418,5
7419,2
7420,2
7421,5
7422,1
7423,6
7424,3
7425,2
7426,2
7428,1
7430,1
7432,4
7435,1
7436,3
7437,1
7439,1
7440,1
7441,1
7444,2
7445,2
7448,1
7454,1
7455,1
7461,1
7462,2
7463,2
7467,2
7468,2
7469,1
7470,1
7479,3
7488,3
7489,1
7490,6
7491,11
7492,18
7494,4
7495,2
7496,4
7497,2
7498,4
7503,1
7508,1
7511,3
7512,2
7513,9
7514,9
7515,1
7516,6
7517,3
7518,1
7520,2
7525,1
7526,2
7528,1
7529,2
7531,1
7532,10
7533,7
7535,9
7536,6
7537,9
7538,1
7539,2
7540,1
7541,4
7542,2
7543,5
7545,6
7546,9
7547,4
7549,3
7550,43
7551,22
7552,8
7553,1
7556,3
7558,2
7559,2
7562,3
7564,1
7565,1
7567,1
7571,2
7573,1
7575,1
7577,1
7578,2
7579,2
7580,9
7581,1
7582,3
7583,3
7584,3
7585,1
7586,1
7588,3
7589,1
7590,1
7591,2
7592,1
7593,2
7596,2
7599,6
7600,4
7601,2
7603,2
7604,2
7607,1
7611,3
7612,1
7614,2
7615,1
7616,2
7618,7
7619,2
7621,3
7622,1
7623,1
7630,5
7631,1
7634,1
7637,1
7639,1
7642,1
7643,1
7644,4
7645,11
7646,11
7647,5
7648,3
7649,9
7650,5
7651,14
7652,5
7653,10
7654,47
7655,19
7656,5
7657,35
7659,3
7660,15
7661,12
7662,11
7663,7
7664,2
7665,3
7666,3
7667,7
7670,5
7671,1
7672,3
7674,10
7675,4
7676,3
7677,1
7678,2
7679,1
7680,4
7681,1
7683,6
7684,1
7685,4
7686,3
7687,1
7688,3
7690,1
7691,1
7692,4
7695,9
7696,6
7697,4
7698,17
7699,13
7700,14
7701,7
7702,3
7703,16
7704,17
7705,13
7706,45
7707,5
7708,1
7709,1
7710,13
7711,11
7712,7
7713,4
7714,6
7717,11
7718,1
7720,2
7727,2
7728,1
7730,1
7732,1
7733,1
7735,1
7738,1
7745,1
7746,1
7747,1
7751,3
7754,1
7756,1
7758,1
7760,1
7761,1
7762,1
7767,2
7770,1
7773,1
7777,1
7780,1
7790,1
7791,1
7793,1
7794,2
7795,3
7800,1
7802,1
7803,2
7804,2
7805,1
7808,1
7812,1
7814,2
7819,1
7824,1
7828,1
7830,1
7832,1
7838,1
7843,1
7847,4
7848,2
7849,3
7850,2
7851,1
7852,1
7860,1
7861,3
7863,1
7864,1
7867,1
7873,1
7874,1
7876,1
7880,1
7881,1
7886,1
7888,1
7895,4
7898,1
7900,1
7902,2
7904,1
7914,2
7917,3
7924,4
7931,1
7932,1
7937,1
7938,1
7940,1
7945,1
7948,1
7949,1
7951,2
7957,1
7963,1
7966,1
7969,1
7972,1
7973,1
7977,2
7987,1
7988,1
7989,2
7990,3
7992,1
7995,1
7998,2
8002,1
8004,2
8009,2
8012,2
8022,1
8029,1
8035,2
8046,2
8047,2
8049,1
8050,4
8052,1
8054,1
8064,3
8065,1
8069,3
8071,2
8072,7
8077,1
8079,1
8081,7
8091,1
8092,1
8094,2
8099,1
8100,1
8105,1
8106,3
8112,1
8116,1
8118,3
8119,1
8126,1
8142,1
8143,1
8144,1
8145,2
8146,1
8149,1
8156,1
8161,1
8173,1
8179,6
8188,2
8191,2
8197,1
8198,2
8205,2
8213,1
8214,2
8215,1
8219,4
8221,1
8223,1
8225,1
8226,2
8231,1
8234,4
8242,1
8246,1
8251,1
8259,1
8260,4
8263,1
8264,2
8265,3
8266,1
8274,1
8276,1
8278,1
8280,1
8281,1
8283,1
8287,1
8288,1
8289,1
8292,1
8295,2
8299,2
8300,1
8303,5
8306,1
8313,1
8316,3
8321,4
8323,2
8325,3
8326,3
8327,2
8330,1
8340,4
8341,6
8342,1
8343,1
8347,7
8352,1
8355,1
8356,1
8359,1
8360,1
8362,2
8367,1
8370,2
8375,7
8377,1
8378,1
8380,2
8384,1
8390,4
8392,2
8393,2
8394,1
8395,3
8396,1
8397,3
8398,1
8399,2
8400,3
8401,2
8404,2
8405,1
8406,15
8407,4
8409,2
8414,1
8419,1
8428,1
8432,2
8435,1
8438,1
8439,1
8444,1
8448,1
8450,1
8453,1
8460,1
8463,1
8468,1
8470,2
8480,1
8481,1
8482,1
8486,4
8488,3
8489,2
8496,1
8499,2
8500,1
8503,1
8504,1
8507,2
8509,2
8511,1
8512,1
8517,1
8518,2
8524,1
8526,5
8528,1
8531,3
8532,1
8533,3
8534,5
8537,1
8539,2
8541,2
8542,1
8544,1
8545,1
8547,1
8552,1
8559,1
8561,1
8562,1
8563,1
8565,1
8566,5
8569,1
8574,1
8579,1
8584,3
8585,2
8590,2
8594,1
8595,1
8596,2
8597,2
8599,1
8600,1
8601,1
8610,1
8611,3
8612,1
8614,1
8617,1
8620,5
8621,1
8625,1
8627,2
8628,5
8634,2
8635,5
8639,2
8645,1
8646,1
8649,4
8650,1
8653,2
8657,2
8662,1
8663,1
8665,1
8672,1
8678,2
8680,2
8686,1
8688,1
8690,1
8703,2
8705,6
8707,3
8708,1
8710,1
8716,1
8719,1
8724,2
8725,4
8735,2
8736,1
8740,1
8741,1
8742,2
8743,1
8745,2
8751,1
8753,2
8754,2
8755,3
8758,5
8762,1
8767,1
8770,1
8773,1
8776,4
8779,1
8783,1
8787,1
8788,2
8789,2
8791,1
8795,1
8796,3
8798,1
8801,3
8802,1
8805,4
8807,2
8809,1
8810,2
8816,2
8817,3
8819,3
8827,1
8833,2
8838,1
8842,1
8844,3
8845,1
8846,1
8851,1
8852,5
8855,1
8857,4
8862,1
8864,5
8865,4
8868,1
8872,1
8877,1
8878,1
8880,1
8881,3
8886,11
8892,2
8904,1
8910,2
8912,1
8916,1
8918,2
8920,9
8925,1
8938,3
8940,1
8942,1
8945,1
8950,1
8951,1
8966,1
8968,1
8972,1
8975,2
8978,1
8980,1
8982,1
8983,1
8987,1
8991,1
8992,2
8995,2
8999,1
9001,1
9002,1
9005,1
9007,2
9009,1
9011,3
9012,2
9014,1
9017,2
9022,1
9024,1
9026,2
9030,1
9031,4
9035,6
9038,3
9042,2
9045,1
9047,2
9055,1
9056,1
9064,1
9065,3
9066,1
9070,4
9071,1
9075,1
9077,1
9087,2
9089,1
9090,2
9091,2
9095,1
9097,1
9102,2
9103,1
9104,1
9105,1
9106,4
9108,1
9112,3
9115,3
9118,2
9119,1
9122,4
9139,1
9140,5
9142,1
9146,1
9148,1
9154,1
9159,1
9160,3
9161,2
9162,1
9164,1
9165,1
9169,1
9172,1
9174,1
9180,1
9182,1
9187,1
9188,1
9191,18
9195,1
9201,4
9203,4
9205,2
9206,4
9207,4
9208,2
9209,1
9210,2
9211,2
9212,1
9217,1
9218,1
9219,4
9221,1
9222,1
9227,1
9230,1
9231,1
9234,1
9238,2
9246,2
9247,2
9248,2
9249,4
9251,1
9252,2
9263,1
9268,1
9270,1
9291,4
9293,1
9297,3
9298,3
9299,1
9302,1
9303,2
9304,1
9307,1
9308,2
9309,2
9318,1
9322,2
9323,1
9325,2
9328,1
9329,1
9333,2
9335,8
9337,2
9338,8
9340,1
9341,1
9342,1
9343,1
9344,1
9345,1
9347,1
9349,2
9355,1
9359,6
9360,6
9366,1
9367,1
9369,1
9371,1
9373,5
9375,1
9377,2
9381,1
9382,1
9389,1
9392,5
9394,1
9405,1
9411,1
9412,1
9416,2
9417,1
9422,1
9426,1
9428,1
9438,1
9439,1
9441,4
9442,4
9443,2
9449,1
9453,3
9459,1
9460,1
9461,2
9463,1
9464,1
9467,4
9469,1
9470,3
9474,1
9476,3
9477,2
9483,1
9487,2
9495,2
9496,1
9497,1
9498,3
9505,1
9511,1
9513,1
9514,1
9521,1
9522,3
9527,1
9532,2
9533,3
9537,1
9541,4
9542,1
9546,1
9550,2
9551,1
9552,5
9554,1
9555,2
9556,1
9557,2
9558,1
9559,3
9560,3
9566,1
9568,2
9570,1
9576,1
9579,1
9582,1
9583,5
9584,9
9587,2
9593,3
9595,1
9599,1
9600,1
9606,2
9607,1
9612,2
9615,1
9616,1
9619,3
9625,2
9626,1
9631,6
9635,2
9643,2
9646,2
9650,2
9653,2
9657,1
9659,11
9671,1
9679,1
9682,1
9686,1
9690,1
9692,1
9695,1
9699,1
9701,1
9704,2
9710,2
9714,2
9715,1
9722,2
9725,2
9731,1
9734,1
9737,1
9740,1
9741,1
9742,1
9743,2
9747,1
9754,7
9758,1
9762,4
9767,1
9771,1
9774,3
9775,2
9778,1
9779,1
9780,1
9784,1
9786,9
9788,12
9789,17
9790,19
9791,21
9792,8
9793,16
9794,3
9795,12
9797,2
9799,5
9802,3
9804,1
9806,2
9808,2
9811,1
9816,3
9819,3
9821,1
9823,1
9824,1
9825,2
9826,1
9828,1
9830,3
9831,2
9832,1
9836,2
9837,1
9839,7
9842,2
9843,4
9844,1
9846,2
9848,1
9850,1
9851,1
9853,1
9856,1
9858,1
9859,2
9861,2
9866,2
9870,1
9874,1
9876,2
9882,1
9885,3
9886,1
9887,1
9888,1
9889,1
9892,3
9893,2
9894,1
9896,2
9898,1
9900,4
9902,2
9905,6
9907,3
9913,1
9915,1
9918,2
9919,4
9921,2
9922,1
9923,3
9925,1
9927,1
9928,1
9930,1
9931,1
9934,1
9936,3
9938,1
9939,2
9941,1
9943,6
9944,1
9945,22
9946,1
9949,1
9950,2
9951,3
9952,3
9953,1
9954,1
9957,2
9958,1
9961,2
9963,2
9964,1
9965,1
9967,4
9968,1
9970,2
9971,2
9972,1
9973,2
9975,2
9977,8
9982,1
9988,2
9989,3
9991,1
9994,2
9996,2
9999,9
10004,1
10006,3
10010,3
10011,4
10012,1
10013,4
10014,3
10015,3
10016,3
10018,1
10019,5
10020,4
10022,3
10023,1
10024,1
10025,1
10027,1
10028,1
10030,1
10031,13
10032,11
10033,3
10034,1
10035,7
10039,3
10041,1
10044,2
10046,1
10047,1
10049,2
10050,1
10053,8
10056,4
10058,3
10062,2
10064,1
10065,2
10068,2
10069,4
10073,3
10080,1
10082,8
10084,1
10085,1
10086,4
10087,3
10089,11
10091,3
10093,1
10094,1
10095,3
10096,11
10098,14
10102,3
10104,1
10105,5
10107,1
10112,1
10113,1
10114,2
10115,1
10116,4
10118,3
10120,3
10121,2
10122,2
10123,1
10124,1
10129,15
10130,1
10132,1
10136,1
10159,1
10161,1
10162,1
10163,1
10165,1
10172,1
10174,8
10177,1
10178,2
10180,4
10182,1
10183,1
10188,1
10192,1
10193,3
10195,2
10196,2
10200,1
10204,1
10208,1
10212,3
10214,1
10215,2
10216,3
10218,1
10220,1
10222,3
10225,3
10228,3
10233,5
10234,5
10235,37
10236,37
10239,5
10241,1
10247,3
10248,7
10249,5
10250,25
10251,2
10252,3
10253,3
10254,8
10255,15
10256,20
10257,17
10258,24
10259,5
10260,15
10261,13
10262,5
10263,4
10264,15
10265,9
10266,25
10267,31
10268,10
10269,4
10270,2
10271,1
10272,1
10273,1
10274,2
10276,6
10277,8
10278,11
10279,11
10280,3
10281,1
10283,1
10284,3
10287,2
10288,1
10290,1
10297,2
10298,1
10300,3
10302,1
10306,1
10309,1
10310,1
10315,5
10318,4
10319,1
10320,2
10322,4
10325,3
10326,3
10327,5
10328,2
10329,1
10335,2
10338,4
10340,2
10341,2
10343,1
10348,2
10349,2
10351,2
10352,2
10353,1
10354,1
10356,1
10357,1
10366,2
10367,1
10373,2
10374,1
10375,1
10377,2
10378,1
10379,1
10382,2
10386,1
10387,2
10388,3
10394,1
10398,1
10399,1
10405,1
10412,1
10413,2
10414,1
10417,1
10420,1
10422,3
10428,1
10434,1
10445,2
10446,2
10451,2
10453,1
10456,3
10457,7
10460,1
10462,1
10464,1
10465,2
10467,23
10472,1
10474,2
10475,14
10476,4
10479,1
10480,7
10496,1
10497,1
10504,2
10510,2
10513,3
10514,2
10515,1
10516,1
10518,1
10521,5
10524,3
10533,3
10534,1
10535,4
10536,1
10538,1
10541,4
10542,2
10545,2
10547,1
10551,1
10552,1
10554,22
10555,1
10556,4
10557,5
10558,1
10559,12
10560,1
10562,1
10563,2
10564,1
10567,2
10570,3
10573,1
10574,2
10577,1
10587,2
10588,1
10596,1
10598,2
10601,2
10602,2
10603,1
10610,1
10613,6
10615,2
10616,1
10617,1
10620,1
10624,1
10625,1
10633,2
10638,1
10639,1
10651,1
10652,2
10653,1
10656,2
10664,47
10667,2
10669,1
10679,1
10688,1
10689,5
10693,2
10695,2
10710,1
10713,2
10714,1
10717,3
10719,5
10722,3
10725,1
10726,6
10728,1
10731,1
10736,1
10737,3
10750,1
10753,1
10756,2
10757,4
10758,4
10760,1
10762,3
10763,1
10764,1
10765,1
10767,2
10769,1
10770,3
10772,2
10779,2
10790,5
10792,1
10793,2
10794,6
10796,1
10797,3
10798,2
10799,1
10801,2
10804,1
10805,2
10810,1
10811,5
10812,2
10813,2
10816,1
10817,3
10819,5
10826,2
10830,1
10834,1
10835,2
10838,1
10839,2
10840,1
10845,1
10851,5
10852,10
10854,1
10855,1
10858,1
10865,4
10867,1
10869,1
10870,1
10873,1
10876,1
10882,1
10884,1
10888,1
10889,1
10893,1
10894,2
10899,1
10900,1
10902,1
10906,1
10907,2
10908,2
10910,2
10915,1
10916,2
10917,1
10918,1
10919,1
10926,2
10927,1
10930,1
10933,1
10934,1
10938,1
10941,5
10945,1
10946,2
10952,1
10953,2
10958,2
10959,1
10961,1
10965,1
10967,1
10971,2
10972,1
10975,1
10977,1
10985,1
10986,2
10988,1
10991,2
10992,2
10996,4
10997,3
10998,1
10999,1
11003,1
11004,1
11007,1
11009,1
11016,2
11018,2
11019,1
11020,2
11025,2
11027,1
11028,1
11032,1
11036,1
11040,1
11048,4
11052,1
11056,9
11057,6
11061,2
11063,2
11072,2
11097,2
11107,1
11109,1
11111,1
11112,1
11117,1
11121,1
11122,1
11125,2
11129,2
11130,3
11131,1
11133,1
11137,1
11138,1
11142,1
11145,3
11146,5
11148,1
11150,1
11151,5
11159,3
11161,3
11169,1
11171,1
11172,1
11174,1
11175,1
11177,2
11179,5
11185,3
11186,1
11189,1
11190,1
11193,8
11194,4
11195,1
11197,13
11199,1
11202,1
11203,1
11211,1
11220,1
11229,1
11232,4
11234,1
11237,2
11240,5
11246,3
11247,2
11249,2
11250,2
11251,1
11254,6
11256,4
11257,1
11258,1
11260,1
11261,1
11264,1
11267,2
11272,1
11273,1
11274,3
11275,1
11278,2
11279,1
11284,1
11286,2
11293,12
11302,2
11312,1
11319,5
11323,1
11324,8
11327,7
11333,1
11335,2
11336,1
11337,1
11338,2
11344,1
11346,1
11350,3
11352,1
11354,11
11360,1
11362,1
11364,2
11365,1
11368,1
11375,3
11379,3
11382,1
11383,2
11387,5
11394,1
11398,1
11403,1
11404,1
11410,3
11411,2
11412,1
11413,1
11415,1
11433,1
11434,4
11436,1
11438,1
11443,1
11448,2
11450,2
11454,3
11457,1
11458,2
11464,1
11469,1
11470,1
11473,1
11476,3
11483,1
11484,4
11486,1
11489,2
11492,2
11493,1
11496,2
11503,4
11505,1
11511,1
11518,1
11524,1
11527,2
11531,1
11532,1
11544,5
11554,1
11556,1
11558,1
11559,1
11565,2
11568,1
11574,1
11579,3
11581,3
11583,2
11594,1
11595,4
11596,1
11599,1
11617,1
11623,1
11624,1
11625,1
11626,2
11630,1
11638,8
11642,1
11644,1
11645,1
11646,4
11648,1
11649,1
11650,1
11651,2
11656,1
11659,2
11664,1
11670,1
11672,18
11673,7
11675,1
11680,1
11681,2
11685,1
11688,2
11690,1
11691,1
11692,1
11693,2
11696,1
11697,2
11698,1
11700,2
11704,1
11707,1
11711,1
11714,3
11715,1
11718,1
11719,1
11721,1
11723,1
11726,1
11729,1
11730,1
11737,2
11738,1
11742,3
11743,1
11748,2
11749,2
11753,2
11755,2
11756,1
11760,1
11762,2
11765,2
11770,1
11773,1
11776,1
11782,2
11783,2
11787,1
11789,2
11793,1
11799,4
11801,2
11811,2
11812,1
11816,1
11819,1
11823,3
11824,3
11825,1
11835,2
11847,2
11850,1
11856,3
11860,3
11867,2
11874,2
11883,1
11885,2
11895,1
11897,2
11900,1
11913,2
11915,1
11918,1
11919,1
11922,1
11923,1
11925,1
11927,1
11934,1
11935,1
11936,2
11937,4
11939,4
11940,2
11949,1
11956,1
11958,1
11959,1
11960,3
11965,2
11966,1
11967,1
11969,3
11972,2
11978,1
11980,1
11981,1
11985,1
11986,1
11987,3
11990,1
11991,2
11996,2
11998,2
12001,1
12003,1
12006,1
12008,4
12010,3
12011,2
12013,4
12014,1
12020,1
12022,2
12023,2
12024,1
12025,1
12030,3
12033,2
12034,1
12036,1
12043,1
12047,3
12053,1
12062,1
12063,3
12064,2
12065,1
12068,1
12075,2
12079,1
12082,1
12086,1
12088,2
12089,4
12097,4
12102,2
12104,1
12105,1
12107,1
12112,1
12113,1
12114,1
12123,4
12125,3
12127,2
12128,1
12129,3
12132,1
12133,3
12137,1
12140,1
12142,1
12145,3
12147,3
12150,1
12153,1
12155,1
12156,1
12159,1
12161,1
12163,2
12167,1
12169,1
12176,2
12180,1
12186,1
12190,1
12191,1
12198,2
12199,3
12200,1
12202,1
12203,2
12204,6
12205,1
12206,1
12212,1
12215,1
12220,6
12221,1
12222,1
12224,1
12225,9
12227,1
12228,2
12229,14
12231,2
12233,6
12236,1
12240,2
12246,3
12247,1
12249,2
12250,6
12251,3
12256,2
12257,1
12258,1
12261,1
12263,1
12264,1
12266,1
12269,2
12274,1
12282,1
12283,1
12284,2
12288,3
12295,2
12298,1
12300,2
12305,1
12308,1
12313,3
12315,1
12316,1
12317,1
12319,2
12321,1
12322,1
12324,2
12333,1
12335,1
12338,4
12340,1
12342,1
12343,2
12346,1
12349,1
12352,3
12353,5
12356,2
12359,2
12360,2
12362,1
12366,1
12367,1
12370,1
12376,1
12377,1
12379,1
12382,1
12385,2
12388,1
12389,1
12390,3
12392,1
12400,1
12403,2
12407,2
12410,3
12412,1
12417,1
12420,1
12425,3
12426,1
12430,3
12431,1
12434,1
12436,1
12440,2
12441,1
12442,1
12448,7
12449,3
12457,1
12458,1
12459,3
12461,1
12465,1
12467,1
12471,1
12472,1
12474,5
12481,2
12482,1
12483,1
12485,1
12489,1
12491,1
12498,5
12500,1
12504,1
12513,1
12516,1
12519,1
12520,1
12523,1
12526,2
12527,2
12528,1
12534,3
12535,2
12538,1
12539,1
12541,2
12542,1
12547,4
12551,1
12565,1
12569,1
12571,1
12572,1
12573,1
12579,1
12581,1
12586,1
12588,1
12589,1
12590,1
12591,1
12592,1
12594,1
12595,1
12596,1
12599,2
12600,1
12609,1
12612,1
12613,1
12614,1
12615,1
12622,1
12623,1
12626,1
12628,1
12630,1
12631,1
12635,2
12637,2
12638,1
12640,2
12642,1
12643,1
12644,4
12645,1
12649,3
12650,4
12653,2
12655,1
12656,2
12661,5
12662,2
12663,3
12665,6
12671,2
12683,1
12684,2
12687,1
12689,1
12697,1
12698,2
12700,1
12701,1
12702,3
12703,1
12705,1
12712,2
12714,1
12715,3
12716,1
12717,2
12718,3
12723,1
12724,2
12725,1
12726,2
12728,1
12730,3
12731,1
12732,1
12733,1
12734,2
12736,1
12738,1
12741,1
12748,2
12759,2
12760,1
12762,1
12771,1
12774,1
12777,1
12778,1
12786,4
12788,1
12794,1
12797,1
12799,1
12809,1
12811,1
12826,2
12830,3
12831,1
12832,1
12835,2
12838,1
12839,1
12840,6
12841,2
12842,1
12844,3
12846,2
12847,4
12848,7
12849,1
12851,8
12852,1
12853,2
12854,5
12857,1
12858,6
12860,1
12861,2
12862,5
12863,2
12864,2
12865,8
12866,15
12869,1
12871,1
12872,9
12874,2
12876,3
12878,2
12880,1
12881,3
12884,1
12885,8
12886,4
12888,1
12889,2
12890,1
12892,5
12894,2
12907,7
12908,1
12909,1
12913,24
12914,2
12916,1
12917,7
12918,2
12921,2
12922,1
12925,1
12935,1
12938,1
12939,1
12941,1
12942,2
12945,2
12946,1
12947,1
12948,9
12949,1
12954,2
12955,1
12957,6
12959,1
12960,1
12961,1
12967,1
12969,1
12972,2
12982,1
12984,1
12989,1
12994,1
12995,6
12998,1
13002,1
13004,1
13006,2
13008,1
13009,1
13010,1
13015,1
13018,1
13021,1
13023,3
13024,2
13029,3
13032,1
13035,3
13037,5
13039,3
13041,3
13042,1
13045,2
13046,3
13050,1
13051,4
13052,2
13058,1
13059,6
13061,3
13062,2
13067,2
13068,2
13070,1
13071,3
13072,3
13076,3
13080,2
13082,1
13090,1
13101,1
13103,1
13105,1
13106,1
13110,6
13114,4
13115,1
13119,1
13126,1
13128,2
13129,1
13139,2
13145,2
13146,2
13148,1
13151,2
13160,1
13162,1
13164,1
13165,1
13166,2
13167,3
13171,2
13173,1
13175,3
13176,2
13181,3
13183,6
13184,2
13187,3
13188,1
13189,1
13195,2
13201,1
13202,2
13208,2
13209,2
13210,1
13212,1
13214,1
13215,2
13216,3
13218,4
13219,4
13221,1
13223,1
13224,3
13227,1
13233,1
13234,2
13257,9
13265,1
13267,6
13268,1
13273,2
13274,1
13276,1
13278,6
13286,1
13294,1
13296,1
13299,3
13303,4
13304,17
13308,1
13310,1
13312,2
13315,2
13317,1
13320,1
13322,1
13325,1
13326,1
13332,1
13333,1
13336,1
13338,1
13339,2
13341,1
13352,3
13360,2
13361,1
13363,1
13365,2
13368,1
13369,1
13371,2
13378,1
13386,1
13389,1
13390,10
13397,1
13398,4
13403,1
13406,2
13408,1
13412,3
13413,1
13415,1
13416,1
13417,1
13419,1
13420,1
13421,1
13424,2
13425,2
13426,1
13430,4
13431,3
13437,1
13438,4
13441,2
13445,1
13446,1
13450,4
13453,1
13454,6
13457,2
13458,7
13468,1
13472,5
13474,3
13477,1
13488,5
13490,1
13497,1
13500,3
13503,1
13507,1
13513,14
13515,2
13520,1
13521,3
13522,2
13523,1
13524,5
13526,4
13528,1
13529,1
13532,3
13533,1
13539,2
13542,3
13546,1
13547,1
13548,1
13551,1
13555,3
13556,1
13561,8
13563,3
13564,3
13568,1
13569,1
13570,7
13572,1
13575,1
13577,2
13579,2
13580,5
13581,1
13585,1
13586,1
13589,1
13590,1
13598,1
13601,1
13610,1
13612,1
13613,1
13625,1
13627,2
13628,2
13629,2
13630,2
13632,1
13634,1
13638,1
13639,3
13642,9
13649,1
13651,2
13658,2
13660,1
13662,1
13663,1
13669,1
13672,1
13674,5
13675,1
13677,1
13678,2
13679,3
13680,4
13684,3
13688,1
13691,1
13692,1
13698,7
13699,1
13700,1
13704,2
13705,1
13708,1
13716,2
13717,1
13718,1
13719,5
13721,1
13723,5
13734,1
13740,1
13747,1
13750,2
13752,2
13754,1
13756,1
13757,1
13761,1
13762,2
13764,1
13770,2
13773,21
13777,2
13778,3
13786,1
13789,1
13791,2
13792,1
13793,6
13794,1
13797,3
13800,1
13801,1
13805,1
13806,1
13809,1
13811,1
13815,1
13818,1
13819,2
13820,1
13824,2
13826,2
13830,1
13831,1
13832,1
13840,1
13841,6
13844,3
13845,6
13851,1
13852,1
13854,1
13859,3
13860,1
13861,1
13863,1
13864,2
13867,1
13869,1
13870,1
13871,1
13872,1
13874,2
13875,2
13877,2
13878,1
13883,1
13885,1
13890,2
13891,2
13892,4
13893,1
13897,1
13903,1
13904,3
13905,1
13906,1
13908,7
13909,1
13914,1
13915,6
13918,12
13919,8
13920,1
13922,4
13923,6
13928,1
13933,3
13934,1
13940,2
13943,1
13944,1
13947,2
13948,1
13949,1
13951,6
13952,2
13953,1
13954,9
13955,1
13956,1
13960,2
13972,1
13980,3
13981,1
13985,1
13988,1
13990,1
13991,1
13995,3
13996,1
14001,2
14002,2
14003,1
14004,1
14005,7
14006,1
14007,2
14014,1
14017,1
14018,1
14019,3
14024,1
14028,1
14029,1
14032,2
14035,1
14036,1
14037,4
14039,3
14042,4
14043,5
14044,4
14046,1
14047,2
14048,1
14050,2
14051,1
14052,2
14053,1
14054,1
14056,1
14059,2
14063,1
14066,1
14068,4
14070,4
14071,3
14072,1
14073,1
14074,2
14077,5
14081,1
14084,1
14087,1
14097,2
14099,2
14104,7
14107,1
14108,1
14111,1
14116,1
14118,1
14122,1
14125,1
14133,2
14134,1
14136,1
14139,1
14142,5
14147,2
14148,1
14152,1
14153,1
14158,1
14159,1
14161,1
14165,1
14167,1
14171,2
14173,2
14174,2
14175,1
14176,1
14178,1
14180,1
14182,2
14184,7
14185,4
14189,3
14190,1
14191,1
14192,1
14194,2
14198,1
14199,1
14202,3
14203,4
14204,3
14205,8
14206,14
14207,27
14208,1
14209,3
14210,24
14213,1
14214,2
14215,2
14218,2
14219,3
14220,1
14221,1
14225,5
14226,3
14228,3
14229,2
14232,1
14233,4
14234,1
14235,7
14247,1
14262,2
14263,3
14264,3
14272,4
14273,1
14275,9
14276,115
14277,88
14281,24
14282,4
14286,1
14288,1
14289,2
14293,3
14294,3
14295,1
14298,1
14302,5
14307,1
14309,1
14314,3
14317,4
14327,1
14330,2
14331,1
14332,10
14333,1
14334,6
14335,4
14339,2
14340,2
14343,1
14344,1
14347,2
14353,3
14354,3
14355,7
14356,1
14357,3
14358,33
14359,4
14360,5
14362,2
14364,1
14365,18
14371,1
14372,2
14373,8
14375,3
14376,35
14377,2
14378,2
14379,12
14380,3
14382,17
14385,1
14386,1
14387,5
14394,1
14395,1
14399,1
14401,2
14403,1
14405,2
14408,1
14411,1
14412,10
14413,1
14415,5
14416,2
14419,16
14420,16
14421,7
14422,3
14423,6
14424,3
14426,12
14427,10
14428,9
14429,29
14430,7
14431,1
14432,1
14433,7
14434,5
14435,1
14436,15
14437,7
14438,12
14444,1
14446,1
14449,3
14450,1
14454,6
14466,3
14471,1
14473,3
14475,1
14486,4
14488,2
14490,1
14491,1
14492,2
14496,2
14501,8
14504,1
14505,6
14513,2
14520,3
14524,6
14525,1
14528,1
14529,1
14532,1
14534,2
14535,4
14536,2
14537,5
14552,1
14556,1
14557,4
14559,1
14561,1
14562,3
14564,1
14566,1
14567,1
14575,1
14576,1
14578,2
14584,2
14585,1
14586,1
14588,1
14589,1
14596,2
14597,1
14600,3
14602,5
14603,3
14604,1
14611,1
14614,4
14616,1
14618,1
14621,1
14624,1
14625,2
14629,1
14633,1
14635,1
14640,2
14641,1
14645,1
14646,1
14649,4
14651,1
14655,1
14660,4
14661,3
14665,1
14676,1
14679,1
14683,1
14686,1
14688,1
14689,1
14690,1
14691,1
14694,6
14696,1
14697,3
14702,1
14703,1
14705,1
14709,1
14712,1
14713,1
14718,3
14719,1
14723,1
14726,1
14730,1
14732,1
14733,1
14735,1
14740,1
14742,1
14745,1
14748,1
14757,8
14762,2
14766,3
14768,1
14769,1
14770,1
14772,2
14774,2
14778,1
14780,2
14781,2
14785,6
14786,2
14788,1
14790,1
14792,1
14798,2
14804,1
14805,1
14807,2
14809,1
14813,1
14814,3
14816,1
14817,1
14818,2
14823,3
14835,1
14839,3
14841,1
14849,1
14850,1
14854,2
14855,5
14856,1
14859,1
14860,1
14862,5
14864,4
14865,3
14867,1
14873,1
14875,1
14877,3
14879,1
14885,1
14888,1
14893,1
14895,1
14897,1
14898,1
14899,2
14900,1
14901,5
14903,1
14904,2
14907,1
14908,1
14909,3
14911,4
14913,3
14914,2
14920,4
14923,3
14925,1
14928,2
14929,1
14930,1
14931,1
14932,2
14933,10
14934,1
14939,1
14941,1
14944,1
14945,1
14949,1
14950,9
14958,1
14960,2
14963,1
14966,1
14967,1
14968,1
14972,1
14979,3
14980,1
14982,2
14983,10
14984,2
14986,3
14988,1
14990,7
14991,2
14992,4
14993,1
14994,3
14995,6
14998,1
15000,4
15001,13
15002,8
15003,1
15004,18
15005,9
15006,2
15007,1
15009,6
15010,1
15012,3
15013,10
15014,23
15015,12
15016,5
15017,1
15018,4
15019,1
15020,5
15023,7
15024,4
15025,1
15026,1
15027,6
15028,2
15029,4
15030,7
15034,1
15036,4
15037,1
15042,1
15043,6
15048,1
15049,2
15050,1
15052,2
15055,3
15056,1
15061,1
15062,2
15063,2
15065,2
15069,2
15072,1
15075,9
15076,1
15079,1
15080,1
15081,2
15082,1
15086,1
15087,1
15090,1
15092,1
15095,1
15099,2
15100,1
15101,2
15103,1
15106,7
15107,2
15108,3
15113,3
15118,2
15119,1
15120,9
15122,1
15123,4
15124,1
15132,3
15138,4
15144,3
15145,1
15147,1
15149,2
15151,15
15153,3
15158,2
15161,9
15162,1
15178,1
15179,1
15181,2
15185,5
15188,2
15197,4
15199,1
15201,1
15202,1
15208,1
15214,2
15219,7
15221,6
15223,3
15224,77
15225,47
15226,2
15227,28
15228,71
15229,30
15230,17
15234,1
15235,1
15237,10
15238,25
15239,45
15240,15
15241,9
15242,8
15243,1
15244,2
15249,2
15252,1
15253,1
15259,1
15263,1
15267,1
15268,2
15273,2
15274,1
15275,1
15278,8
15279,13
15280,16
15281,13
15282,3
15283,18
15284,3
15285,17
15286,4
15287,2
15288,1
15289,1
15290,1
15294,1
15295,1
15301,1
15302,2
15305,1
15309,1
15312,2
15313,1
15314,2
15315,5
15318,2
15319,1
15321,2
15326,3
15327,4
15328,3
15329,1
15331,1
15332,4
15351,2
15354,2
15356,1
15360,1
15361,1
15362,1
15363,3
15364,2
15368,1
15371,3
15372,5
15373,3
15374,12
15375,2
15376,4
15377,1
15378,1
15379,6
15380,5
15381,5
15382,7
15384,1
15385,1
15386,2
15387,2
15392,1
15397,3
15398,1
15399,4
15400,5
15401,2
15402,5
15403,7
15404,1
15405,4
15406,3
15407,7
15408,11
15409,1
15410,2
15411,3
15412,9
15413,3
15415,10
15416,15
15417,5
15420,3
15425,4
15431,1
15436,2
15437,1
15439,2
15440,1
15442,2
15453,1
15456,1
15460,2
15463,3
15466,1
15467,3
15469,1
15470,3
15471,2
15475,5
15476,2
15481,4
15482,1
15486,4
15487,2
15488,2
15489,7
15490,1
15491,3
15495,1
15496,1
15497,1
15499,1
15503,1
15504,2
15506,3
15507,1
15508,3
15510,4
15511,1
15513,3
15515,1
15516,5
15517,1
15518,1
15521,2
15523,1
15529,1
15531,2
15533,4
15534,8
15535,7
15536,9
15537,5
15541,1
15542,1
15545,1
15549,2
15551,1
15553,1
15554,1
15556,2
15558,4
15560,1
15562,18
15567,3
15568,5
15571,2
15574,1
15577,1
15579,2
15580,1
15582,2
15586,1
15588,1
15589,1
15590,3
15594,2
15596,6
15597,1
15599,1
15600,6
15604,6
15606,1
15607,2
15610,1
15612,1
15613,1
15614,1
15616,6
15617,2
15620,1
15621,1
15622,2
15623,1
15627,19
15631,2
15634,7
15635,2
15638,2
15639,2
15643,2
15645,2
15646,2
15649,2
15652,6
15654,2
15655,2
15658,4
15661,1
15665,2
15667,1
15668,6
15669,6
15670,1
15671,1
15673,2
15679,2
15680,1
15685,1
15690,1
15693,9
15694,1
15695,1
15696,4
15697,1
15698,2
15699,2
15704,1
15705,1
15706,4
15707,1
15713,1
15714,4
15719,4
15720,23
15723,1
15724,1
15725,2
15727,3
15731,1
15732,1
15733,4
15736,3
15737,10
15738,2
15739,1
15742,4
15744,5
15745,4
15747,4
15748,3
15749,4
15751,2
15752,2
15753,2
15756,3
15757,6
15759,5
15760,9
15761,4
15762,3
15763,13
15765,69
15766,1
15767,1
15770,35
15771,5
15772,31
15773,5
15774,4
15775,15
15776,2
15777,5
15778,3
15780,2
15781,1
15783,8
15784,12
15785,10
15786,49
15787,7
15788,18
15789,4
15790,4
15791,4
15792,3
15793,2
15794,7
15796,2
15797,1
15798,5
15799,3
15800,3
15801,2
15803,2
15804,3
15805,4
15806,26
15807,5
15808,1
15809,6
15810,6
15811,2
15814,1
15815,17
15816,6
15817,3
15819,1
15820,2
15822,1
15824,2
15826,6
15827,2
15828,2
15830,1
15831,1
15832,7
15833,1
15834,24
15835,16
15836,6
15837,7
15838,2
15839,1
15840,4
15841,7
15842,12
15843,8
15844,4
15845,4
15846,9
15847,4
15848,8
15849,1
15850,3
15851,7
15852,2
15853,4
15854,8
15855,2
15856,4
15857,3
15858,14
15859,2
15863,20
15865,28
15866,4
15867,3
15868,1
15870,1
15871,8
15872,7
15873,3
15874,4
15875,5
15876,1
15878,2
15881,4
15882,1
15884,3
15887,1
15888,7
15889,1
15890,3
15891,1
15892,11
15893,4
15894,3
15896,8
15898,2
15899,8
15900,5
15901,1
15902,1
15903,6
15905,1
15908,9
15910,5
15911,10
15913,2
15914,6
15915,1
15916,5
15918,5
15921,8
15924,3
15928,2
15933,1
15934,9
