name,counts
1,47
2,19
3,13
4,9
5,17
6,16
7,6
8,13
9,18
10,14
11,3
12,11
13,11
14,17
15,10
16,28
17,9
18,19
19,18
20,10
21,20
22,16
23,15
24,22
25,5
26,9
27,13
28,2
29,6
30,8
31,3
32,6
33,9
34,1
35,3
36,4
37,16
38,9
39,27
40,1
41,11
42,16
43,9
44,3
45,6
46,22
47,9
48,11
49,5
50,12
51,19
52,17
53,12
54,7
55,4
56,3
57,1
58,6
59,11
60,1
61,2
62,3
63,3
65,2
66,4
67,1
68,1
71,4
72,4
73,2
76,1
77,6
78,3
79,1
80,57
81,14
82,2
83,7
84,8
85,3
86,7
87,3
88,3
89,2
90,11
92,30
93,6
94,4
95,5
96,2
97,8
98,1
99,5
100,5
101,7
102,3
103,2
104,6
105,6
106,12
107,7
108,12
109,2
110,3
111,14
112,5
113,10
114,4
115,7
116,3
117,12
118,3
119,39
120,20
121,17
122,2
123,5
124,3
126,7
127,3
128,5
129,5
130,5
131,3
132,4
133,6
134,2
135,63
136,48
137,70
138,25
139,35
140,16
141,2
142,7
143,3
144,1
145,1
147,2
148,1
149,2
150,3
151,3
152,2
154,2
155,1
156,2
157,2
158,1
159,15
160,3
162,2
164,2
166,3
167,7
168,1
169,1
170,1
172,2
174,3
175,2
176,2
177,1
178,4
179,1
180,4
181,2
183,2
186,3
187,3
188,6
189,13
190,2
191,2
192,1
193,2
194,3
195,13
196,1
197,2
199,3
200,2
201,2
202,5
203,3
204,1
205,2
206,2
208,1
210,44
211,3
212,1
213,3
214,1
215,2
216,3
217,3
218,2
219,4
220,2
221,6
222,1
224,5
225,1
226,3
227,5
228,7
229,13
232,3
234,2
235,2
236,2
237,10
238,3
243,7
244,5
245,4
246,2
247,5
248,5
249,6
250,17
251,22
252,2
253,6
254,7
256,1
257,2
258,3
259,2
260,1
261,1
263,1
265,4
266,3
267,3
268,3
270,2
271,2
272,2
273,3
274,2
276,5
277,6
278,8
279,3
280,9
281,3
282,2
284,4
285,3
286,6
287,1
288,1
290,3
292,3
293,2
294,5
295,13
296,11
297,2
298,2
299,2
300,2
301,5
302,4
303,1
304,3
305,1
306,2
307,2
308,3
309,2
310,1
311,2
312,4
313,2
315,1
317,1
319,4
321,2
322,1
324,3
325,5
327,2
328,2
329,4
330,3
331,2
332,17
333,6
334,2
335,2
336,8
337,1
338,42
340,2
341,1
342,1
344,1
345,1
346,1
347,1
352,1
356,5
358,3
360,1
361,1
362,1
363,17
364,2
365,1
369,2
370,2
371,2
372,7
374,4
375,2
377,4
378,4
379,2
380,2
381,7
383,5
384,19
387,6
388,8
389,3
390,3
391,1
393,2
394,1
395,2
396,1
397,1
398,1
399,4
400,2
401,2
402,1
403,1
404,1
406,5
408,1
409,4
410,1
411,3
412,1
413,5
414,15
415,5
416,1
417,4
418,2
419,3
422,2
423,2
424,4
425,6
426,1
427,2
428,2
429,2
430,2
431,5
432,19
433,13
434,17
435,17
436,4
437,5
438,11
439,6
440,3
441,1
442,1
443,9
444,2
446,3
447,7
448,6
449,2
450,10
451,20
452,2
453,3
454,3
455,4
456,13
457,4
460,3
461,11
462,3
463,2
464,10
465,5
466,21
467,7
469,8
470,9
471,2
472,77
473,12
474,1
475,5
476,7
477,2
478,5
479,5
480,4
481,2
483,3
484,2
485,2
486,2
487,3
489,2
490,3
491,5
492,7
493,3
494,3
495,7
497,4
498,1
499,2
501,11
503,7
504,8
505,3
507,2
508,1
510,2
511,2
512,2
513,3
514,1
515,11
516,1
517,2
518,2
519,3
520,3
521,7
522,1
523,1
524,4
525,4
526,3
527,4
528,4
529,1
530,3
531,1
533,1
534,1
535,1
536,3
537,1
539,4
540,5
541,8
542,1
543,2
544,9
545,1
546,5
547,6
548,3
549,3
550,18
551,5
552,3
553,1
555,4
557,2
559,3
560,3
561,1
562,1
563,7
564,3
565,2
566,7
567,3
568,3
569,1
570,5
571,2
573,1
574,1
575,1
576,1
577,3
579,3
580,3
582,6
583,1
584,2
585,3
586,2
588,4
589,4
590,3
591,3
592,16
593,12
594,8
595,1
596,3
597,4
598,2
599,2
601,6
602,2
603,5
604,4
605,1
606,3
607,2
608,4
609,5
610,5
611,4
612,7
613,24
614,4
615,1
616,8
617,4
618,4
619,2
620,2
621,2
624,1
625,5
626,1
627,7
628,1
630,2
631,4
632,16
633,1
634,9
635,1
636,1
637,3
638,3
639,6
640,1
642,11
643,1
644,4
646,2
647,2
648,4
649,2
650,15
651,6
652,5
653,5
654,7
655,5
656,4
657,6
658,3
659,5
660,14
661,2
662,3
663,2
664,2
665,3
666,1
667,3
668,4
669,5
671,9
672,2
674,3
675,3
676,3
677,2
678,1
679,1
680,5
681,2
682,2
683,2
684,10
685,6
686,2
688,2
689,3
690,6
691,10
692,3
694,10
695,1
696,20
697,5
698,9
699,17
701,7
702,21
703,14
704,18
705,30
706,3
707,1
708,8
711,1
712,1
713,2
714,5
715,4
716,3
718,10
719,4
720,1
722,4
723,4
724,2
726,8
727,2
728,1
729,9
730,9
731,2
732,12
733,3
735,4
737,4
738,2
739,2
742,3
743,1
744,4
745,2
746,6
747,3
748,3
750,1
751,1
752,18
753,20
754,1
756,1
757,7
758,11
759,1
760,1
761,1
763,1
765,31
766,33
767,21
768,27
769,19
770,10
771,2
773,3
774,15
775,7
776,2
777,8
778,1
779,1
780,1
781,5
783,2
785,3
786,5
787,2
788,1
789,1
790,1
791,7
792,3
793,1
794,4
796,15
797,44
798,7
800,3
801,1
802,6
803,2
804,12
805,1
807,6
808,3
810,2
812,1
817,2
818,8
822,1
824,2
825,3
827,7
828,4
829,5
830,1
831,3
832,1
834,7
835,8
839,2
840,2
841,2
843,4
844,1
845,5
846,3
847,4
848,4
851,3
852,22
853,4
855,1
856,56
857,1
858,3
859,2
861,3
862,16
863,2
864,2
865,2
866,1
867,1
868,1
869,5
870,7
871,3
872,3
873,6
875,2
876,29
877,4
878,4
879,10
880,45
881,82
882,5
883,5
884,3
885,5
887,4
890,17
891,2
892,11
893,1
894,4
895,1
896,10
897,10
898,3
899,6
900,5
901,2
902,10
903,8
904,4
905,2
906,4
907,4
908,14
909,4
910,3
911,3
912,7
913,1
914,4
915,5
916,11
917,29
918,5
919,3
920,19
921,13
923,6
924,3
925,1
926,1
927,8
928,4
929,1
930,1
931,4
932,3
933,4
934,5
936,2
937,8
938,1
939,6
940,5
941,2
942,12
943,2
944,4
945,2
946,5
947,2
949,4
950,1
951,1
952,3
953,6
954,1
955,1
957,4
958,8
959,5
960,9
961,5
962,1
963,5
964,1
965,9
966,3
967,4
968,5
969,11
970,3
971,5
972,3
973,5
974,5
975,6
976,3
977,22
978,31
979,43
981,3
982,3
983,10
987,1
989,1
990,1
991,8
992,2
993,6
994,2
995,3
996,2
999,2
1000,1
1001,1
1002,2
1003,5
1005,3
1006,1
1007,4
1008,157
1009,15
1010,9
1011,5
1012,4
1013,3
1014,4
1015,8
1016,2
1018,3
1019,2
1020,3
1021,1
1022,1
1025,1
1026,4
1027,3
1028,7
1029,5
1030,1
1031,1
1032,4
1033,3
1034,2
1035,9
1036,1
1037,3
1038,2
1039,6
1040,1
1041,2
1042,2
1043,4
1044,4
1045,1
1046,3
1047,7
1048,2
1049,4
1050,4
1051,1
1052,2
1053,2
1054,1
1055,2
1056,5
1057,1
1058,6
1059,3
1060,3
1061,7
1062,3
1063,7
1064,60
1065,4
1066,4
1067,3
1068,12
1069,1
1070,3
1071,1
1072,3
1073,1
1074,2
1075,8
1076,5
1077,3
1078,29
1079,3
1080,4
1081,5
1082,2
1085,5
1086,3
1087,2
1088,1
1089,11
1091,9
1092,5
1093,4
1094,4
1096,2
1097,4
1098,2
1099,21
1100,4
1101,2
1102,2
1103,4
1104,10
1105,2
1106,5
1107,2
1108,1
1109,3
1110,1
1111,1
1112,9
1113,8
1114,5
1115,37
1116,13
1117,7
1118,12
1119,2
1120,6
1121,17
1122,17
1124,27
1125,13
1126,88
1127,34
1128,61
1129,16
1130,16
1131,4
1132,6
1133,25
1134,16
1135,3
1136,18
1137,261
1138,36
1139,48
1140,37
1141,40
1142,35
1143,90
1144,19
1145,14
1146,7
1147,4
1148,2
1149,5
1150,21
1151,7
1152,54
1153,125
1154,128
1155,84
1156,10
1157,144
1158,184
1159,89
1160,22
1222,125
1223,66
1224,37
1225,9
1226,56
1227,1
1231,7
1232,2
1233,5
1234,3
1241,14
1242,3
1243,3
1246,48
1247,97
1248,29
1249,42
1251,163
1252,41
1253,3
1254,4
1255,5
1256,4
1257,3
1258,6
1259,4
1260,4
1261,6
1262,5
1263,9
1264,2
1265,30
1266,41
1267,10
1270,47
1271,45
1272,54
1273,41
1274,19
1275,33
1276,323
1277,28
1278,33
1279,25
1280,14
1281,4
1282,4
1283,12
1284,6
1285,16
1286,5
1287,3
1288,3
1289,20
1290,4
1291,1
1292,6
1293,3
1294,8
1295,19
1296,4
1297,5
1298,11
1299,1
1300,5
1301,2
1302,24
1303,48
1304,31
1305,24
1307,2
1308,6
1309,3
1310,25
1311,45
1312,82
1313,10
1314,19
1315,18
1316,41
1317,36
1318,17
1319,2
1320,2
1321,1
1322,19
1323,8
1324,7
1325,6
1326,2
1327,4
1328,1
1329,18
1330,2
1331,14
1332,12
1333,9
1334,3
1335,6
1336,4
1337,4
1338,8
1339,1
1340,9
1341,17
1342,9
1343,2
1344,17
1345,11
1346,121
1347,23
1348,20
1349,4
1350,2
1351,7
1352,4
1353,4
1354,2
1355,7
1356,3
1357,1
1358,2
1359,1
1360,4
1361,2
1362,7
1363,1
1364,1
1365,5
1366,2
1367,3
1368,13
1369,1
1370,14
1371,5
1372,4
1373,7
1374,4
1375,7
1376,2
1377,8
1378,1
1379,3
1380,6
1382,6
1383,3
1385,2
1386,1
1387,3
1388,1
1390,3
1391,2
1392,1
1394,1
1396,1
1400,1
1401,1
1402,1
1403,4
1404,2
1405,1
1406,4
1408,2
1409,1
1410,10
1412,5
1413,4
1414,2
1415,3
1416,17
1417,1
1418,4
1419,6
1420,12
1421,2
1422,3
1423,3
1424,1
1425,6
1426,3
1427,8
1429,3
1430,5
1431,8
1432,6
1433,4
1434,9
1435,1
1436,3
1438,3
1439,1
1440,1
1441,7
1443,2
1445,3
1446,7
1448,3
1451,5
1452,28
1453,34
1454,18
1455,13
1456,6
1457,16
1458,29
1459,14
1460,6
1461,7
1462,6
1463,2
1464,10
1465,16
1466,36
1467,10
1468,3
1469,6
1470,2
1471,3
1472,2
1473,6
1474,10
1475,15
1476,7
1477,22
1478,17
1481,10
1482,4
1483,3
1484,11
1485,17
1486,4
1487,5
1488,6
1489,5
1490,1
1491,2
1493,5
1494,6
1496,3
1498,10
1499,35
1500,10
1501,1
1502,1
1503,24
1504,12
1505,1
1506,5
1507,27
1508,19
1509,17
1510,59
1511,31
1512,7
1513,5
1514,1
1515,4
1516,14
1517,11
1518,6
1519,5
1520,12
1521,6
1522,1
1523,7
1524,11
1525,5
1526,5
1527,2
1528,2
1529,17
1530,33
1531,95
1532,58
1533,35
1534,15
1535,18
1536,11
1537,12
1538,8
1539,14
1540,54
1541,56
1542,65
1543,28
1544,14
1546,4
1547,3
1548,1
1549,1
1550,2
1551,4
1552,3
1553,2
1554,3
1555,1
1556,2
1558,1
1559,7
1560,1
1561,6
1562,1
1563,3
1564,1
1565,1
1566,2
1567,1
1568,1
1569,1
1570,11
1571,2
1572,1
1573,5
1574,1
1575,2
1576,2
1577,1
1578,2
1579,4
1580,2
1581,3
1583,2
1584,3
1585,4
1587,2
1588,3
1589,1
1590,2
1591,2
1592,1
1593,1
1594,2
1595,2
1596,2
1598,7
1599,2
1600,2
1601,3
1602,2
1603,2
1605,1
1606,1
1607,2
1610,9
1611,2
1613,4
1614,3
1615,9
1616,2
1617,7
1619,4
1620,2
1621,1
1622,3
1623,1
1624,5
1626,1
1629,5
1630,2
1632,1
1633,1
1635,1
1636,6
1638,2
1639,2
1640,3
1641,2
1643,4
1644,4
1645,3
1646,2
1647,5
1649,1
1650,1
1651,1
1652,5
1653,6
1654,1
1655,1
1656,3
1657,2
1658,3
1659,3
1660,3
1661,5
1662,1
1663,1
1664,3
1665,9
1666,6
1668,4
1669,8
1670,7
1671,2
1672,3
1673,2
1674,3
1675,7
1676,4
1677,1
1678,4
1679,8
1680,10
1681,5
1682,21
1683,1
1684,1
1686,1
1687,3
1688,2
1689,1
1690,2
1691,1
1692,1
1693,1
1694,3
1696,1
1697,2
1698,9
1700,4
1701,2
1702,4
1703,2
1704,3
1705,1
1706,6
1707,12
1708,3
1709,5
1710,1
1711,1
1712,1
1713,4
1714,6
1715,1
1716,1
1717,5
1718,2
1719,2
1720,6
1721,1
1722,1
1723,5
1724,6
1725,2
1726,7
1727,7
1728,2
1729,1
1730,6
1731,2
1732,2
1733,3
1735,1
1736,4
1738,3
1741,8
1742,5
1744,2
1745,6
1747,2
1748,2
1749,6
1751,8
1752,5
1753,1
1754,2
1755,1
1756,5
1757,1
1758,5
1759,2
1760,4
1761,8
1762,5
1764,8
1766,1
1767,2
1768,1
1769,5
1770,1
1771,7
1772,4
1773,10
1774,1
1775,1
1776,3
1777,3
1778,11
1779,2
1781,1
1782,2
1783,1
1784,12
1785,1
1788,4
1789,2
1790,1
1791,1
1794,2
1795,3
1796,2
1797,2
1798,1
1799,5
1800,1
1801,3
1802,3
1803,6
1804,2
1805,2
1806,3
1807,10
1808,3
1809,3
1810,2
1811,1
1812,1
1813,4
1814,5
1815,2
1816,1
1818,5
1819,3
1820,1
1821,5
1822,5
1823,6
1824,3
1825,4
1828,6
1829,1
1830,2
1831,1
1832,4
1833,5
1834,1
1835,2
1836,1
1837,1
1838,2
1839,19
1841,10
1842,13
1843,3
1844,6
1845,2
1846,2
1847,2
1848,2
1850,10
1851,3
1853,1
1854,2
1859,5
1860,7
1861,4
1862,5
1864,1
1865,5
1866,2
1867,10
1868,11
1869,5
1870,3
1871,1
1872,12
1874,3
1875,7
1876,2
1877,2
1878,1
1879,6
1881,1
1883,2
1884,3
1885,1
1886,2
1888,2
1889,10
1890,1
1891,3
1892,2
1893,4
1894,8
1895,1
1896,5
1897,1
1898,2
1899,2
1900,5
1901,1
1903,3
1905,4
1906,1
1907,5
1908,1
1909,5
1910,3
1911,9
1912,10
1914,4
1916,2
1917,15
1918,2
1919,4
1920,2
1922,3
1923,3
1924,4
1925,2
1926,1
1927,8
1929,2
1930,4
1931,2
1932,12
1935,1
1936,1
1937,1
1938,2
1939,2
1940,1
1941,3
1942,2
1943,3
1945,4
1947,2
1948,2
1949,4
1950,1
1951,7
1952,1
1953,4
1954,1
1955,6
1956,3
1957,1
1958,57
1959,60
1960,7
1961,4
1962,4
1963,1
1964,6
1965,5
1966,5
1967,3
1968,10
1969,7
1970,4
1971,2
1972,4
1973,2
1974,3
1975,1
1976,2
1977,4
1978,4
1979,6
1980,7
1981,8
1982,3
1983,2
1984,6
1985,7
1986,3
1987,2
1988,6
1989,30
1990,4
1991,8
1992,3
1993,6
1994,7
1995,7
1996,8
1997,1
1998,5
1999,3
2000,11
2001,1
2002,6
2003,15
2004,13
2005,6
2006,3
2007,35
2008,3
2009,3
2010,5
2011,8
2012,7
2013,5
2014,6
2015,3
2016,1
2017,10
2018,18
2019,8
2020,25
2021,9
2022,1
2023,5
2024,10
2025,6
2026,16
2027,1
2028,1
2032,1
2033,4
2035,9
2036,7
2037,2
2038,1
2039,6
2040,3
2041,1
2042,1
2043,6
2044,5
2045,6
2046,3
2047,47
2048,42
2049,1
2050,40
2051,31
2052,81
2053,46
2054,72
2055,5
2056,39
2057,5
2058,4
2060,6
2061,1
2062,3
2063,5
2064,7
2065,7
2066,11
2067,2
2068,6
2069,3
2070,4
2071,6
2072,2
2074,3
2075,4
2076,4
2077,2
2078,6
2079,1
2080,2
2081,1
2083,4
2084,2
2085,3
2086,1
2087,1
2089,2
2090,2
2091,3
2092,11
2093,4
2094,23
2095,17
2096,12
2100,2
2101,2
2102,2
2103,6
2104,2
2105,8
2107,8
2108,2
2109,8
2110,1
2111,25
2112,23
2113,4
2114,5
2115,3
2116,1
2118,3
2120,3
2121,5
2122,1
2123,8
2124,3
2125,2
2127,2
2128,2
2131,4
2132,2
2133,47
2134,3
2136,1
2138,6
2139,4
2142,1
2143,3
2144,8
2145,4
2146,7
2147,1
2148,4
2150,1
2151,1
2152,11
2153,6
2154,6
2155,2
2156,2
2158,5
2159,9
2160,7
2161,5
2162,1
2163,9
2164,9
2166,3
2167,3
2168,4
2169,1
2171,17
2172,1
2173,4
2174,3
2175,1
2176,1
2177,2
2178,2
2179,3
2180,2
2181,1
2182,7
2183,1
2184,5
2186,4
2187,2
2188,1
2189,6
2190,2
2191,3
2192,3
2193,2
2194,1
2195,4
2196,1
2197,1
2198,3
2199,4
2200,9
2201,2
2202,2
2204,7
2205,2
2206,2
2207,1
2208,2
2210,4
2211,1
2212,15
2213,4
2215,2
2220,2
2222,2
2223,2
2224,1
2225,4
2226,5
2227,2
2228,2
2229,4
2230,7
2231,5
2232,3
2233,3
2234,1
2235,4
2236,7
2237,3
2238,3
2239,13
2240,14
2241,2
2243,1
2244,1
2246,1
2247,5
2248,7
2250,9
2251,7
2252,7
2253,2
2254,2
2255,6
2256,3
2257,1
2258,2
2259,12
2261,2
2263,1
2264,5
2265,9
2266,7
2267,3
2268,4
2269,1
2270,4
2271,12
2272,1
2273,4
2274,1
2275,3
2276,3
2277,3
2278,5
2279,1
2280,1
2281,2
2282,3
2283,5
2287,5
2288,2
2289,1
2290,4
2291,3
2292,3
2293,1
2294,2
2295,1
2296,3
2297,5
2298,3
2299,3
2300,2
2301,5
2303,1
2304,1
2305,1
2306,2
2307,2
2309,5
2311,1
2312,3
2313,2
2314,1
2315,1
2316,3
2317,5
2319,5
2320,2
2324,1
2325,3
2326,3
2328,8
2329,3
2330,7
2331,2
2332,3
2333,1
2334,1
2335,26
2336,1
2337,3
2338,3
2339,4
2340,6
2341,1
2342,1
2343,5
2344,2
2345,2
2346,3
2348,3
2349,4
2350,4
2351,4
2352,2
2353,4
2354,1
2355,1
2356,1
2357,4
2358,3
2359,1
2360,4
2361,2
2363,3
2364,2
2365,7
2367,2
2370,3
2372,6
2374,2
2375,2
2377,3
2379,1
2380,3
2383,3
2384,2
2385,3
2386,1
2387,2
2388,12
2390,1
2392,6
2393,2
2394,5
2395,2
2396,2
2397,2
2398,5
2399,2
2400,4
2401,2
2402,8
2403,7
2404,1
2405,6
2406,3
2407,3
2408,1
2409,1
2410,3
2411,1
2413,7
2414,1
2415,2
2416,1
2417,1
2418,7
2420,4
2421,4
2422,1
2423,3
2425,7
2426,6
2427,4
2428,2
2429,4
2430,4
2431,2
2432,2
2433,3
2434,2
2436,3
2438,2
2439,1
2440,6
2441,10
2442,1
2443,2
2444,6
2445,12
2446,17
2447,8
2448,3
2450,12
2451,3
2452,4
2453,3
2454,3
2455,1
2457,4
2458,3
2459,2
2460,3
2461,1
2462,1
2463,4
2464,4
2465,4
2467,2
2468,5
2469,3
2470,2
2471,8
2472,6
2473,1
2474,3
2476,3
2477,3
2478,5
2479,1
2480,1
2481,2
2482,5
2483,1
2484,2
2485,3
2486,4
2487,2
2488,3
2489,2
2490,10
2492,5
2493,2
2494,1
2495,7
2497,5
2498,1
2499,1
2500,6
2501,1
2503,1
2504,3
2505,1
2506,5
2507,5
2508,2
2509,3
2510,4
2511,1
2513,1
2514,1
2515,3
2516,1
2517,1
2518,4
2519,4
2520,4
2522,1
2523,4
2525,2
2526,3
2527,3
2528,5
2529,7
2530,7
2531,3
2532,2
2533,16
2535,2
2537,3
2538,2
2540,4
2541,6
2543,6
2544,6
2545,4
2546,6
2547,5
2548,2
2549,1
2550,2
2552,3
2553,1
2555,2
2556,2
2558,5
2559,1
2560,2
2562,1
2563,1
2566,5
2567,4
2568,8
2569,6
2570,14
2571,16
2572,8
2573,19
2574,16
2575,12
2576,6
2577,12
2578,8
2579,7
2582,9
2583,26
2584,10
2585,4
2587,1
2588,2
2589,5
2590,12
2591,3
2592,8
2593,1
2594,2
2595,2
2597,2
2598,1
2599,7
2600,1
2601,2
2602,5
2603,1
2604,1
2605,6
2606,3
2607,4
2608,8
2609,6
2610,4
2611,6
2612,7
2613,5
2614,5
2615,6
2616,5
2617,1
2618,1
2621,3
2622,7
2623,5
2624,1
2626,4
2628,2
2629,2
2630,3
2631,2
2632,1
2633,3
2634,5
2635,6
2636,2
2637,11
2638,5
2639,2
2641,3
2642,5
2643,4
2644,11
2645,5
2646,1
2647,3
2652,9
2653,1
2654,7
2655,3
2656,7
2658,1
2659,1
2660,4
2661,21
2662,2
2663,4
2664,2
2665,2
2666,1
2667,2
2668,4
2669,1
2671,3
2672,2
2673,4
2674,2
2675,2
2676,1
2678,12
2680,5
2681,1
2682,3
2683,5
2684,4
2685,5
2686,5
2687,3
2688,5
2689,3
2690,5
2691,7
2692,9
2694,1
2695,8
2696,1
2698,6
2700,4
2701,1
2702,1
2703,16
2704,1
2705,11
2706,6
2707,4
2708,2
2709,3
2710,3
2711,4
2712,1
2713,14
2714,9
2715,2
2716,9
2717,2
2718,3
2720,1
2721,1
2722,1
2723,2
2725,1
2726,8
2727,2
2728,4
2729,9
2730,1
2731,2
2732,3
2733,2
2734,1
2735,7
2736,10
2737,3
2738,1
2739,2
2740,9
2741,3
2742,1
2744,9
2745,6
2747,1
2748,1
2750,3
2751,3
2752,2
2753,4
2754,2
2755,21
2756,5
2758,2
2759,10
2760,4
2761,2
2762,2
2763,2
2764,4
2765,2
2766,3
2767,2
2768,1
2769,15
2771,3
2772,4
2773,4
2774,3
2775,6
2776,3
2777,2
2778,2
2779,7
2780,1
2781,5
2782,9
2783,7
2784,21
2785,10
2786,1
2787,4
2788,2
2789,2
2790,4
2791,19
2792,3
2795,1
2796,3
2797,2
2798,2
2799,4
2800,1
2801,13
2802,3
2803,1
2804,5
2805,1
2806,2
2807,3
2808,8
2809,13
2810,6
2811,5
2812,3
2813,1
2814,9
2815,7
2816,5
2817,2
2818,1
2820,4
2821,7
2822,2
2823,1
2824,2
2825,2
2827,3
2828,2
2829,5
2830,3
2831,2
2832,2
2833,2
2834,1
2835,7
2836,3
2837,13
2838,4
2839,4
2840,2
2841,18
2842,69
2843,5
2844,6
2845,6
2846,8
2847,13
2850,1
2853,8
2855,14
2856,203
2857,28
2858,4
2859,7
2860,1
2861,5
2862,2
2863,3
2864,4
2866,3
2867,22
2868,4
2869,2
2870,2
2871,13
2872,46
2873,21
2875,14
2876,54
2877,18
2878,6
2879,2
2880,1
2881,5
2882,1
2883,17
2884,34
2885,19
2886,67
2887,15
2888,34
2889,1
2890,5
2891,6
2894,3
2895,5
2898,7
2899,3
2900,2
2901,15
2903,2
2904,3
2905,7
2906,2
2907,7
2908,7
2911,1
2912,6
2913,5
2914,2
2915,1
2916,3
2917,3
2918,3
2920,6
2921,9
2923,5
2924,2
2925,4
2926,1
2927,2
2928,2
2929,2
2930,5
2931,2
2932,4
2933,4
2936,2
2937,1
2938,4
2939,7
2940,4
2941,3
2942,1
2943,2
2944,4
2945,1
2946,2
2947,3
2948,1
2949,2
2950,1
2952,8
2953,2
2954,6
2955,4
2956,3
2957,8
2958,4
2959,1
2960,2
2961,2
2962,3
2963,4
2964,4
2965,3
2967,1
2968,3
2969,1
2970,2
2971,7
2972,3
2973,12
2974,1
2975,2
2976,4
2977,1
2978,1
2979,2
2980,5
2981,8
2982,5
2983,9
2984,4
2985,4
2986,4
2987,14
2988,1
2989,3
2990,10
2992,3
2993,1
2994,3
2995,1
2996,4
2997,14
2998,11
2999,16
3000,5
3001,49
3002,10
3003,48
3004,16
3005,12
3006,20
3007,1
3008,5
3009,7
3010,4
3011,5
3012,1
3013,7
3014,2
3015,10
3016,3
3017,3
3018,3
3019,2
3020,3
3021,3
3022,12
3023,3
3024,12
3025,6
3027,3
3028,4
3029,4
3030,3
3031,18
3032,2
3033,10
3036,2
3037,7
3038,2
3040,5
3041,2
3042,1
3043,2
3044,7
3045,133
3046,148
3047,2
3048,95
3049,20
3050,2
3051,2
3052,1
3053,1
3054,3
3055,4
3056,37
3057,54
3058,9
3059,2
3061,4
3062,1
3063,10
3064,3
3065,2
3066,11
3067,5
3071,4
3072,2
3073,7
3074,1
3075,25
3076,17
3077,14
3078,4
3079,1
3080,13
3081,19
3082,24
3083,25
3084,23
3085,4
3087,1
3088,6
3089,2
3091,1
3092,3
3093,3
3094,8
3095,7
3096,2
3097,5
3098,16
3099,4
3100,3
3101,3
3102,11
3103,5
3104,7
3105,3
3106,1
3107,21
3108,14
3109,3
3110,2
3111,3
3112,7
3113,18
3114,8
3115,3
3116,4
3117,2
3118,6
3119,2
3120,14
3121,6
3122,4
3123,3
3124,9
3125,4
3126,19
3127,11
3128,4
3129,4
3130,4
3131,10
3132,4
3133,3
3134,14
3135,3
3136,3
3137,1
3138,1
3139,11
3140,9
3141,2
3142,5
3143,5
3144,27
3145,4
3146,3
3147,6
3148,16
3149,13
3150,11
3151,6
3152,23
3153,89
3154,37
3155,60
3156,12
3157,31
3158,82
3159,16
3160,14
3161,11
3162,44
3163,20
3164,12
3165,3
3166,11
3167,49
3168,20
3169,35
3170,25
3171,23
3172,23
3173,48
3174,9
3175,27
3176,3
3177,8
3178,12
3179,19
3180,23
3181,9
3182,14
3183,19
3184,10
3185,11
3186,2
3187,10
