name,counts
1,77
2,84
3,96
4,75
5,65
6,57
7,51
8,25
9,31
10,19
11,41
12,16
13,28
14,15
15,21
16,6
17,18
18,9
19,19
20,24
21,23
22,27
23,32
24,14
25,34
26,11
27,16
28,12
29,27
30,11
31,16
32,24
33,12
34,14
35,27
36,21
37,24
38,19
39,6
40,24
41,13
42,15
43,29
44,25
45,16
46,10
47,20
48,14
49,10
50,2
51,31
52,15
53,15
54,5
56,27
57,11
58,11
59,8
60,3
61,8
62,19
63,4
64,12
65,36
66,9
67,17
68,36
69,25
70,25
71,45
72,14
73,14
74,7
75,28
76,15
77,25
78,17
79,14
80,13
81,20
82,43
83,5
84,13
85,11
86,26
87,6
88,122
89,32
90,23
91,11
92,3
93,14
94,7
95,11
96,6
97,12
98,7
99,12
100,44
101,19
102,27
103,6
104,68
105,13
106,21
107,17
108,10
109,14
110,14
111,11
112,24
113,15
114,16
115,29
116,17
117,10
118,9
119,10
120,16
121,19
122,15
123,23
124,27
125,31
126,35
127,31
128,13
129,18
130,34
131,3
132,16
133,27
134,16
135,6
136,14
137,4
138,28
139,20
140,25
141,15
142,12
143,12
144,31
145,9
146,10
147,23
148,21
149,16
150,21
151,9
152,13
153,10
154,18
155,12
156,32
157,48
158,25
159,21
160,42
161,14
162,11
163,13
164,5
165,11
166,5
167,7
168,15
169,7
170,19
171,4
172,26
173,25
174,19
175,10
176,15
177,21
178,7
179,25
180,5
181,61
182,21
183,11
184,14
185,10
186,22
187,8
188,18
189,18
190,24
191,10
192,12
193,11
194,14
195,6
196,12
197,18
198,9
199,9
200,10
201,2
202,27
203,57
204,10
205,6
206,9
207,12
208,20
209,12
210,9
211,6
212,14
213,10
214,21
215,14
216,42
217,21
218,32
219,14
220,8
221,6
222,35
223,12
224,7
225,30
226,15
227,28
228,10
229,10
230,10
231,3
232,13
233,6
234,7
235,22
236,9
237,6
238,5
239,18
240,8
241,3
242,12
243,4
244,21
245,147
273,242
274,88
275,8
276,4
277,27
278,4
279,7
280,4
281,10
282,10
283,6
284,3
285,6
286,9
287,8
288,4
289,13
290,5
291,12
292,3
293,3
294,9
295,20
296,17
297,14
298,8
299,9
300,41
301,16
302,7
303,7
304,5
305,13
306,7
307,4
308,8
309,3
310,1
311,5
312,2
313,1
314,2
315,6
316,1
317,4
318,3
319,6
320,4
321,7
322,5
323,2
324,6
325,6
326,20
327,25
328,20
329,18
330,37
331,26
332,26
333,6
334,2
335,8
336,8
337,9
338,5
339,11
340,2
341,21
342,8
343,4
344,10
345,20
346,8
347,5
348,9
349,8
350,14
351,17
352,30
353,9
354,9
355,10
356,31
357,16
358,19
359,20
360,22
361,15
362,15
363,66
364,31
365,12
366,8
367,7
368,25
369,7
370,11
371,7
372,13
373,134
374,15
375,7
376,8
377,16
378,61
379,11
380,5
381,4
382,19
383,18
384,21
385,18
386,39
387,14
388,20
389,20
390,6
391,4
392,13
393,12
394,17
395,18
396,12
397,7
398,11
399,9
400,4
401,24
402,18
403,6
404,10
405,2
406,10
407,10
408,15
409,65
410,24
411,30
412,32
413,13
414,12
415,8
416,64
417,5
418,11
419,17
420,14
421,6
422,4
423,7
424,6
425,18
426,5
427,9
428,30
429,66
430,49
431,60
432,36
433,65
434,53
435,23
436,29
437,10
438,7
439,9
440,6
441,9
442,12
443,18
444,21
445,45
446,9
447,13
448,14
449,27
450,28
451,16
452,8
453,10
454,27
455,14
456,23
457,28
458,20
459,21
460,4
461,5
462,5
463,6
464,9
465,16
466,6
467,6
468,10
469,14
470,4
471,20
472,16
473,16
474,21
475,10
476,8
477,6
478,13
479,17
480,113
481,14
482,14
483,22
484,35
485,13
486,16
487,18
488,14
489,34
490,15
491,76
492,21
493,4
494,7
495,35
496,17
497,21
498,19
499,22
500,33
501,9
502,30
503,26
504,24
505,26
506,11
507,18
508,39
509,16
510,29
511,28
512,20
513,13
514,29
515,33
516,34
517,19
518,12
519,7
520,5
521,7
522,15
523,6
524,9
525,33
526,84
527,30
528,42
529,45
530,53
531,40
532,19
533,77
534,70
535,58
536,10
537,32
538,82
539,35
540,49
541,9
542,16
543,61
544,40
545,22
546,29
547,29
548,94
549,52
550,22
551,36
552,51
553,14
554,16
555,18
556,15
557,19
558,59
559,59
560,26
561,17
562,24
563,58
564,37
565,6
566,4
567,11
568,24
569,6
570,9
571,9
572,47
573,9
574,26
575,12
576,16
577,25
578,10
579,15
580,8
581,26
582,13
583,6
584,18
585,22
586,60
587,35
