name,counts
2,4
3,22
4,29
5,19
8198,5
2564,1
8202,3
8204,1
8207,1
5464,1
8211,2
1910,1
8215,1
24,17
25,94
26,10
27,31
28,36
29,5
30,22
31,5
32,7
33,20
34,4
35,26
37,13
38,6
39,3
40,12
41,10
8234,3
43,8
44,7
45,4
46,9
47,3
48,7
49,7
50,20
51,8
52,11
53,10
54,16
55,1
56,9
57,5
8250,6
59,4
60,10
8253,1
62,3
63,12
64,8
65,9
8258,2
8260,4
8261,2
70,5
71,4
72,1
73,7
74,8
75,16
76,8
77,4
78,6
79,9
8272,2
81,6
82,3
84,9
85,5
86,7
87,12
88,4
89,4
90,6
91,4
92,19
93,6
8286,3
95,7
96,8
97,8
98,10
99,6
100,16
101,2
102,6
103,4
104,6
105,4
106,14
107,10
8300,5
109,2
111,8
112,7
113,24
8306,2
8307,9
116,2
8309,1
120,10
121,5
122,12
123,6
124,6
125,4
126,8
127,11
128,12
129,48
130,49
131,19
132,8
133,4
134,9
135,14
136,16
137,9
138,13
139,23
140,7
141,9
8334,2
143,3
144,12
145,10
146,6
8339,1
148,7
149,6
8342,1
8217,1
152,5
153,9
154,10
155,6
156,4
157,5
158,14
159,8
160,24
5488,2
162,4
163,35
164,9
165,7
166,5
167,11
12316,1
170,9
171,7
172,3
173,3
174,2
175,8
176,3
8369,1
8371,1
180,2
181,8
182,29
183,17
8376,6
9588,1
186,6
187,1
189,4
190,1
192,10
8385,5
8386,1
195,4
8388,2
8621,1
8391,1
8394,2
8399,2
8587,1
6862,1
8407,3
8408,2
12324,1
221,6
222,5
223,7
224,5
226,4
227,15
228,4
230,6
8423,1
232,5
233,2
237,11
15168,1
240,2
242,3
243,3
245,2
8438,8
247,3
248,4
249,3
8442,1
251,4
8444,2
42,5
255,3
256,1
258,1
8451,1
4373,1
262,1
8455,1
264,5
2775,2
8460,1
8461,3
8464,1
273,2
274,10
275,3
276,1
278,12
279,2
282,3
285,1
286,3
287,1
8480,1
292,48
8485,1
8486,4
8488,3
297,2
301,1
8494,1
303,1
9608,2
8498,1
12339,1
8500,1
309,1
312,3
8506,8
8507,2
8508,1
320,1
8513,1
322,2
8515,3
8516,1
325,2
326,1
2785,1
328,1
329,1
8522,1
4151,1
6882,1
8527,1
340,2
8533,3
342,2
345,1
346,4
58,3
8543,1
8544,2
355,1
356,10
358,1
359,2
8552,1
8252,1
8554,2
364,1
12560,1
61,4
369,1
370,1
6889,1
5468,1
378,1
8255,2
380,2
382,1
383,5
8576,1
8256,3
387,2
388,2
1414,2
391,1
8584,1
395,4
396,1
66,4
398,2
8591,1
8592,2
405,1
8598,2
407,2
68,9
410,1
8603,1
14471,1
413,2
414,3
8607,1
8609,22
8612,2
421,2
8614,2
4924,6
4258,1
8617,2
1378,1
430,1
5533,1
434,2
435,1
8629,2
3015,1
441,1
3288,2
445,1
7107,1
8640,2
8641,2
451,1
452,1
8645,3
454,1
455,1
15095,1
460,1
464,4
8657,5
469,2
8662,1
8663,2
8664,1
8666,3
15098,2
8671,1
481,1
482,1
8676,1
8678,1
3835,1
8680,1
490,1
8684,1
8274,1
15101,2
8689,1
8692,1
8698,1
8699,4
509,1
12292,1
8703,1
512,3
515,2
8708,1
518,1
8711,1
8712,2
524,1
8718,1
528,5
8721,1
531,1
8724,4
533,1
8726,1
8281,4
8728,2
6916,1
8282,2
542,2
543,1
8736,1
12566,1
547,1
549,12
550,1
8743,1
8744,3
8745,1
8748,1
557,1
15567,1
561,1
562,1
8756,5
565,1
8758,2
568,1
8761,1
8762,3
9839,1
574,3
575,1
576,1
577,5
10112,1
8771,7
580,1
581,1
582,5
8776,1
589,1
590,2
1929,1
593,1
594,3
8291,5
597,1
598,1
605,1
606,1
607,1
8804,1
8294,1
615,1
8808,1
8810,20
13114,1
620,1
8813,1
622,1
8815,2
8296,1
627,2
628,1
8733,2
8822,2
12393,3
8827,1
636,1
8829,1
8831,1
640,3
641,2
8834,2
643,6
8836,1
8838,3
108,9
652,2
654,8
8847,1
657,1
659,5
8853,2
11461,11
8856,1
8858,2
8860,1
6938,1
8862,1
1477,1
8864,1
673,1
674,1
8868,1
8869,2
8870,1
8872,1
682,1
8875,1
114,6
13389,1
8879,5
8880,1
115,26
8884,3
694,6
697,1
698,1
8891,1
5206,1
701,4
8894,1
117,1
704,1
708,2
8904,4
13772,1
8907,3
716,1
8911,2
720,2
722,2
8915,1
724,1
8920,1
8921,14
733,1
8926,1
735,1
8928,2
8930,6
8933,1
8935,1
744,1
8937,2
8939,1
8941,2
12413,1
752,2
753,1
754,2
8754,4
756,1
12414,2
759,5
760,4
761,8
762,2
763,5
2858,1
5366,1
767,1
771,3
8964,2
774,1
8321,2
8968,1
778,2
1495,1
782,2
8975,1
8976,1
785,8
789,1
1369,1
793,1
2863,3
8990,1
12421,2
800,1
801,1
8995,1
8997,3
13393,1
9000,1
9003,1
9004,13
9005,10
7977,1
815,1
9009,1
818,4
9012,25
9013,2
823,1
9017,1
9020,1
9021,5
831,2
9025,1
834,1
8331,4
9028,1
15158,2
9031,1
9034,1
843,2
9038,1
847,17
849,2
850,3
10453,1
9044,1
142,10
854,1
6969,1
9048,3
15577,1
8335,1
9053,2
9055,4
865,1
866,1
9061,1
9062,2
872,1
9068,1
9069,1
9071,1
880,2
5608,2
12435,1
9077,1
9082,2
9083,2
9088,1
9089,1
150,11
13669,1
9096,2
9097,1
9098,2
151,2
3849,1
9101,2
912,1
9105,1
9106,2
6979,6
918,1
6850,1
921,1
9114,1
923,1
9116,3
926,1
9712,2
12306,2
8347,1
932,1
9125,1
9126,1
9713,1
6983,4
941,22
942,40
9136,2
9137,3
946,1
11082,8
958,2
959,1
9152,1
8352,1
9157,1
966,2
9159,1
9160,1
970,9
9164,2
9165,2
9168,2
9169,1
979,2
9172,1
981,1
982,8
983,1
9176,5
985,1
9178,1
9179,1
9180,1
8489,3
9183,2
9185,1
1484,1
8358,1
9194,2
1003,2
9196,1
9197,1
9199,2
14082,1
9201,1
9202,2
9206,2
9208,1
15188,1
9212,12
8362,1
1023,3
9216,2
1026,1
9220,1
9221,1
9222,2
9223,1
1033,1
9226,2
6999,2
9228,1
9229,1
9232,3
9233,1
1044,1
9237,2
9241,1
9242,1
1051,2
9244,1
1055,1
9248,2
9249,1
9250,3
9252,1
9253,1
177,5
9256,1
1065,1
12919,1
1067,1
8354,1
406,1
1071,1
9267,1
9268,6
1081,2
9274,2
9275,1
9278,1
8373,1
9281,1
9283,1
9284,2
4128,1
1097,3
9290,1
8375,10
9292,1
1101,3
1102,1
184,14
9300,1
1109,1
9303,1
1112,2
9305,1
9306,1
9307,5
1116,1
9309,1
1118,1
1119,3
9313,1
1122,2
9315,1
1127,1
4284,1
1130,1
9323,73
9327,1
9329,3
9332,2
9334,2
9335,1
9336,1
1145,1
9339,1
9340,1
9343,1
12480,3
9347,2
1156,1
1157,1
1158,1
9351,1
1160,1
10155,1
1165,2
1166,1
2925,1
9363,4
1172,1
1175,2
1176,2
9371,1
1184,1
1185,3
9379,1
9380,1
8390,1
9383,2
9385,1
1196,1
1197,1
12488,1
9395,1
1566,2
1206,2
9401,1
5663,1
1213,1
1214,1
1217,1
8355,3
9413,2
9414,1
5665,1
8905,1
1228,1
9422,1
316,1
9425,1
9429,1
9430,1
1242,2
1245,3
1246,2
1248,4
9441,3
9443,1
9444,1
9445,1
9452,7
1261,2
1262,3
9456,1
1266,1
9459,1
9461,1
315,1
1274,2
9467,1
1276,1
9471,3
1281,2
1282,1
1579,2
10269,1
1285,1
15175,1
9483,1
8571,2
1293,3
9487,5
7043,1
9492,1
9494,1
9495,3
1305,1
1307,1
9500,1
13872,1
1314,3
9508,1
1318,2
1319,3
1320,1
1325,1
1326,1
9520,1
15240,1
9524,1
12865,1
9527,1
1336,3
8415,1
9536,3
9538,1
1351,1
9544,2
9546,1
1355,2
1357,1
9550,2
2413,1
9552,1
1361,1
1362,3
9555,4
9556,1
1368,1
9561,2
9564,1
9565,1
1375,1
1376,3
1377,2
10957,14
1379,1
15249,1
1385,1
9578,1
1392,1
9586,1
2963,2
1396,1
1398,2
9594,1
9598,33
1409,9
1411,20
9605,2
9606,5
9607,1
1416,1
1418,1
11159,1
1420,2
9613,1
9615,1
1425,18
9620,4
1429,6
1431,2
1432,1
5700,2
239,2
9628,7
1439,1
1441,2
1447,2
9641,1
8434,1
1454,3
9649,1
1459,2
1461,3
9654,1
9655,1
9662,1
1474,1
13899,1
246,2
1478,2
8575,1
9674,5
9675,1
9676,4
1485,2
1488,1
1490,1
5710,1
8441,3
9689,1
9690,1
9807,1
250,2
3596,1
9695,1
1504,2
9697,1
9698,1
8443,1
9700,1
1510,7
9703,1
252,2
2983,1
9708,3
1520,2
11176,3
9715,1
1525,1
1526,2
1529,1
9722,1
10212,2
13690,1
1534,1
1535,3
1536,6
9731,2
9734,1
9738,1
5507,1
9743,1
9745,1
1554,4
1555,2
1557,1
13922,1
9752,9
15279,2
9758,2
9759,9
147,1
1576,5
263,1
1582,1
9776,1
9782,1
1592,1
9823,1
9789,1
9791,1
9793,2
9794,2
12555,2
1605,1
5509,4
2999,2
1963,1
9806,1
269,1
9815,1
1624,6
1627,1
1628,1
1630,2
9829,1
1633,6
9826,1
1635,1
1637,4
1638,1
9831,1
1640,1
11196,4
9836,2
8466,2
11197,3
1648,2
1650,5
9843,2
9847,1
9849,1
1658,1
9851,2
1660,5
9853,7
9854,1
1663,1
1668,1
9861,2
1670,2
1671,3
1674,1
8471,1
9869,3
1678,1
1681,3
1682,1
1683,2
1686,1
9879,1
1688,1
1690,1
1647,1
9884,1
12877,1
9887,1
1697,16
1699,1
1701,1
9895,1
9897,1
1706,2
1707,1
1710,2
1711,2
15304,1
1714,1
9910,4
1719,2
13969,2
1722,2
1724,12
9917,1
1726,2
288,1
9922,2
1732,10
9925,1
1735,18
9929,6
10969,1
9931,1
9933,1
9934,1
1744,3
1745,2
4387,2
9941,3
1750,2
8484,3
1754,1
1756,2
9949,1
9952,2
1659,1
9961,2
1771,2
11218,4
1774,1
9967,2
9968,3
9969,1
1779,3
1662,1
9975,2
1784,1
9979,1
1788,1
1789,1
9984,1
1793,1
9987,4
9993,3
9995,1
9997,1
1806,1
9999,2
1808,2
1809,2
10002,1
1811,4
1812,7
15336,1
10006,5
1815,1
1820,2
1822,1
10015,1
10016,14
1825,3
10019,2
10021,1
10022,1
11839,1
10026,1
10027,2
306,1
10030,1
1839,1
7699,2
10034,1
10036,1
1846,1
10039,1
10040,1
1849,1
10042,1
1852,1
10049,3
10051,14
8518,1
1862,1
1863,2
10056,4
1865,1
1866,2
10059,1
10060,1
11234,1
5773,1
10066,1
10069,1
1879,1
15332,1
10074,1
1883,1
1888,1
10081,22
1890,2
10083,3
10086,2
10087,3
10088,1
10089,1
1898,1
7143,5
10092,1
1901,1
10095,1
10096,13
1905,1
10098,1
10099,1
10102,3
10104,1
8247,4
10106,3
12607,2
10109,1
10111,5
1920,1
1921,1
10114,3
1155,1
10117,1
1926,2
321,1
1928,5
7148,1
1930,3
9189,2
1933,1
10126,5
1935,1
10128,5
11794,1
323,3
10133,2
14522,2
10136,2
10137,1
10140,4
10141,5
10142,4
10144,1
7152,1
10147,1
10148,7
10149,1
10150,1
10153,1
10154,26
327,1
1964,1
1965,1
10159,4
1969,1
1972,3
10165,3
1977,1
1979,2
10172,1
12618,1
1984,1
13984,1
10178,12
4427,2
10181,1
1990,1
10184,1
1993,1
10186,6
1995,7
10188,1
10189,1
333,1
2000,1
10193,1
13987,1
2005,1
2006,1
10200,7
10978,2
12452,1
2013,1
2014,1
2016,1
4432,3
2019,1
2020,1
2022,2
2024,1
2025,2
10220,1
2029,1
2031,1
2034,1
12627,1
10228,1
10229,1
13993,2
3505,1
15071,2
10242,1
2051,1
2056,1
2057,1
10250,1
10252,1
10255,7
10256,2
10258,3
10259,1
10262,1
2071,7
2073,5
10267,1
8538,1
69,7
10272,2
11526,1
2085,5
10282,3
8541,1
10288,2
7176,4
2098,1
2099,1
2103,1
2525,1
10301,1
2110,3
10303,4
10309,2
10310,1
2120,1
10313,1
10314,4
10321,1
4509,1
2135,1
10328,1
8548,1
2138,1
2140,1
10333,1
2142,1
10437,3
12867,1
2150,1
6891,1
2153,1
10346,2
1283,1
2161,3
11283,1
2167,3
15380,1
2170,1
5823,1
2173,2
10366,15
7189,3
10368,4
10371,2
10375,1
2184,1
5801,1
2186,7
10379,1
2192,1
11061,1
10387,1
2197,1
10390,2
7193,1
2200,1
10393,4
2202,1
2204,1
10399,2
2208,2
2209,1
10402,1
10403,4
10404,7
14022,3
2215,1
12349,1
2222,1
10415,2
10418,1
4467,1
7198,1
10424,2
15350,2
10426,1
2238,1
10431,1
10432,1
10435,1
2244,6
2245,2
10438,2
10439,1
5836,2
2251,1
10444,1
7202,1
10446,1
2259,1
2260,1
1742,1
2262,4
10455,4
10456,2
2266,1
10459,1
621,1
10465,4
10466,8
10467,3
9623,1
9937,1
12668,4
10474,1
11260,1
2290,1
8574,1
10486,1
7209,1
10488,1
2297,1
10491,3
2301,3
2303,1
10497,1
10499,1
2308,1
10502,1
10505,2
2314,1
2315,1
10508,4
2317,1
2320,2
5848,1
2325,1
9352,1
10523,4
10524,1
2336,1
10529,1
2340,1
2342,1
7217,1
2344,2
2345,1
10539,3
10540,1
7218,7
2351,1
2352,2
10545,2
10547,1
10550,1
10552,1
10553,1
10554,1
9181,1
10556,3
2367,1
2368,1
2369,3
10562,1
2371,1
2372,1
10565,1
10566,1
2376,2
2377,1
2378,3
2379,1
2380,2
2381,1
397,1
10576,1
10578,1
10579,1
10580,7
10581,4
3080,3
10583,1
2392,1
2393,2
10586,1
2395,1
10588,1
10590,1
10591,1
2401,1
10594,2
10595,1
10596,3
2406,1
2407,1
10600,4
2409,2
2410,4
2411,1
10604,1
10605,1
10606,1
3133,1
10608,1
2417,1
2418,1
2419,1
3081,2
10613,1
10614,3
1769,1
10616,1
10618,1
10621,1
8537,1
10623,1
2433,1
2434,7
4502,1
10632,1
2443,1
10637,1
10639,10
12696,1
2451,1
10645,1
10648,6
10649,1
10653,1
10657,1
10658,3
4507,1
2469,1
10662,3
2471,6
2472,1
4508,2
2474,1
10667,2
10668,1
10670,3
2479,7
9227,1
10674,1
10675,2
10676,1
10677,1
2486,1
2487,1
2488,1
10681,1
10682,3
10685,2
10686,1
10687,3
10688,2
10691,1
2500,1
10693,1
2503,1
10697,1
10699,2
10701,2
7245,2
2512,1
10706,11
2515,1
2517,1
2520,9
10714,16
3151,1
2524,2
10717,1
2526,1
2532,2
2534,4
2538,1
2539,2
3154,2
9981,1
10736,16
10737,8
10738,1
2078,2
7177,1
10743,2
2555,2
2557,1
2559,1
2560,1
10753,1
10756,1
15446,1
10759,1
10763,2
10764,1
10765,2
13656,1
10767,1
2578,6
2579,1
2582,1
10179,7
10784,1
2593,1
10786,1
10793,1
6673,1
2604,1
10799,1
2609,1
2610,5
2614,1
1801,1
2617,1
2618,3
2619,3
10812,1
2621,2
10814,1
2623,1
10816,1
10818,2
10819,3
10821,5
10822,1
10823,1
2633,1
1997,2
2635,1
10829,5
10831,1
10832,1
2641,1
2643,2
10837,2
2647,2
2648,1
7268,2
2650,1
10845,1
10846,1
15461,2
2658,2
2659,1
2660,1
1927,1
10855,1
10858,4
2667,1
2668,1
2669,2
10862,1
10863,3
2673,2
10866,1
2675,2
2677,1
10873,1
2685,1
10878,1
1813,1
2688,2
448,1
10885,2
2694,1
12737,1
2699,2
2701,2
2702,4
2706,1
2708,3
10901,1
10902,1
2711,1
10904,3
2713,2
10906,6
10907,2
2717,1
10910,2
2719,1
10912,3
2723,2
10918,1
10919,2
909,3
2729,1
10922,1
2732,1
10926,1
10928,1
2739,1
2740,2
10014,8
10937,1
10938,1
10940,1
2750,1
2752,11
10945,1
2755,2
2756,1
3190,3
2746,1
10017,7
10953,2
10954,1
10955,1
2764,1
2765,2
2770,4
11549,1
10965,1
6639,1
10968,6
2777,2
9367,1
2781,1
10975,9
10977,1
2786,1
10981,1
10984,5
2793,1
10986,1
10987,2
10988,1
9784,1
7293,1
10994,2
2803,1
10999,3
2809,1
2810,3
12621,1
11007,1
11392,1
2821,3
2822,4
11015,1
2826,1
4567,1
2828,1
10187,2
11023,3
2839,2
2842,4
11035,1
2844,1
2845,1
2848,1
11045,3
2855,1
11050,1
11052,1
1842,2
80,6
11055,2
11057,1
2866,1
2869,1
11062,1
2871,1
11064,1
2873,2
13479,1
2877,1
4733,1
11072,1
2881,2
2883,2
10038,1
2888,1
2890,1
11083,9
11084,1
2893,1
2895,1
2896,2
1848,2
2898,1
2901,1
11097,1
11098,1
3215,1
11100,2
2909,2
2912,1
2913,3
2916,1
2918,2
11111,1
14009,1
2923,1
2924,2
11117,2
11118,1
9403,1
2932,1
2934,11
2935,1
2936,1
2939,1
11132,1
11133,1
11134,2
2943,1
11137,1
11141,3
11142,1
11143,1
2955,1
2956,1
11150,1
12781,1
6918,1
11155,13
2965,1
2966,1
2967,5
11160,6
11162,2
11163,11
11164,1
2973,1
11166,2
11167,1
11169,1
2978,1
9567,3
2981,1
2982,2
11175,1
2984,1
2985,1
2986,4
11182,1
7325,1
1864,3
11189,1
11191,2
14830,1
11194,1
3004,2
10058,1
11198,1
11199,1
7328,1
3010,1
3011,5
3075,1
15521,3
11209,1
3022,2
1869,1
3024,2
3026,1
3235,2
11220,1
11222,1
3031,1
11224,1
3033,4
3034,1
10063,1
3037,1
3039,2
11232,2
11233,3
3042,2
11235,2
11236,4
11239,5
11240,1
3049,1
11244,5
3055,1
3056,2
11249,1
11251,8
11013,1
3061,6
11254,4
3064,1
11258,1
511,1
3068,1
11261,6
3070,2
11263,1
3072,1
3073,3
7339,2
11268,3
11269,1
3078,2
3079,3
11272,1
11273,5
3082,1
11275,2
11279,2
3091,1
11287,1
3098,1
11295,3
11296,3
11297,1
3106,1
11299,1
3109,2
3114,1
11307,1
3118,1
11311,1
11312,1
3121,2
3122,2
11317,1
986,1
11319,2
3129,1
14175,2
3132,4
11325,1
3134,1
3135,2
3136,1
10080,1
15351,2
3139,1
11332,2
3141,3
11334,5
11335,2
3144,1
11337,1
3146,1
3147,1
3148,3
11341,1
11342,1
11343,1
3152,1
15544,1
11346,5
1891,1
11352,1
3163,1
3167,1
8720,1
3170,1
11364,1
3175,1
11369,1
11371,1
11374,1
3186,1
7358,1
11382,1
3191,1
11385,2
3194,1
11387,1
3823,1
3197,1
3200,1
3201,1
3203,1
11396,1
3205,2
3208,1
8727,1
3212,1
3213,1
3214,1
10093,3
3216,2
3220,2
3221,1
3222,4
3225,3
3226,1
3229,1
3230,1
11423,1
11424,1
11427,1
3239,1
3240,2
11435,1
11438,1
11439,4
3249,1
3250,1
8734,2
11447,1
11448,4
11450,4
4639,1
11453,1
11454,3
11455,1
11456,7
11458,2
13475,1
3272,1
3273,1
3274,3
11467,2
3278,1
3279,2
3281,2
11566,3
3284,1
3285,4
11478,10
11480,2
3289,2
8384,1
11471,1
11484,1
11485,2
3294,1
3295,3
10933,1
3297,1
1915,15
3300,2
12838,1
3302,2
11473,2
3304,1
3305,2
11501,1
11502,1
3312,1
11505,4
3314,1
11507,2
3316,1
11509,2
11840,1
11513,2
3322,1
1919,1
3324,2
3325,1
11518,3
11519,2
3328,1
3329,1
3332,1
3334,1
3335,2
11529,1
11531,2
3341,2
3343,1
1877,1
3345,2
10477,1
3348,1
11541,3
3350,1
11481,1
3353,2
3356,3
7386,4
3359,2
3362,1
3291,1
11557,2
7551,1
3369,4
11563,2
11564,1
11565,1
3374,1
11567,4
3376,2
10120,5
4659,3
11572,1
10121,1
3385,1
931,1
3391,1
12734,3
3393,1
3394,1
11587,5
11589,8
11594,1
3403,1
11597,1
10125,1
3409,1
3411,1
4478,1
569,1
11611,26
11612,2
11613,1
3422,1
11617,3
3426,2
3430,3
3432,1
3434,1
14299,2
3440,1
11634,1
11636,1
8766,1
11638,2
3450,1
8767,1
11644,2
8768,1
11652,15
3462,1
8769,5
3464,2
3465,2
15597,1
11664,2
4480,2
579,2
3478,5
11672,1
3482,1
11675,11
3485,3
3487,3
3488,2
11682,6
3494,1
3498,2
3500,1
11695,1
3504,1
11697,7
11698,2
15603,92
3509,1
11702,1
296,1
3519,1
11714,1
12875,1
11717,1
3526,1
3528,1
11721,2
3531,3
3532,8
3533,3
11727,9
11729,8
11730,1
3321,1
3544,2
1956,1
4687,1
11740,4
1482,1
11750,1
11752,1
11516,1
3564,1
8786,1
11760,1
11762,2
8787,2
3575,1
11769,5
3327,1
11773,6
11774,3
9121,1
11778,1
11779,1
3591,1
3594,1
11787,1
11788,5
3602,2
11799,1
11800,2
11801,3
11802,4
11804,3
11808,2
3618,12
11813,1
11814,1
11816,1
11817,1
3626,1
3628,1
3629,1
3630,1
3631,1
11824,3
11826,2
11827,1
11828,4
11829,1
3638,3
10164,4
4703,1
3645,1
3647,7
3648,2
11841,8
3339,1
11845,1
11846,1
3655,3
11848,1
11849,1
3660,1
1279,1
3662,1
11855,3
11859,2
3668,1
11861,2
11862,1
11863,1
3672,1
11535,1
11869,1
11871,2
3680,2
11876,1
3685,1
11879,1
11880,4
3690,2
3691,1
11885,2
12029,1
11887,2
11890,1
3699,1
3942,4
11894,1
3704,2
11898,2
3708,1
11901,1
11902,4
11904,2
11906,1
11909,2
11910,3
11912,1
11917,3
11919,1
11922,3
3731,2
11924,1
11925,1
11928,1
3737,1
623,4
3740,13
11934,2
3744,1
5853,1
11939,2
11940,1
11944,3
3755,1
11948,1
11950,1
3357,1
11953,2
3762,1
4723,1
3764,7
11957,1
11958,1
11961,1
11962,1
11963,2
11964,2
11965,1
3774,1
8821,2
11654,1
11969,1
3778,1
11971,2
11972,2
11974,1
3785,2
3786,1
11979,4
3788,2
11981,1
11983,4
11984,2
11986,2
11987,1
11988,6
11990,1
11991,2
11993,1
11994,2
1999,1
11996,2
3805,3
12000,1
12001,1
635,3
12005,2
12006,5
12009,1
12010,1
3822,1
637,2
12019,2
3828,1
3830,1
12026,1
12027,1
3837,2
3839,4
3841,1
3843,1
9948,1
12038,2
12039,3
12040,2
12041,1
12044,1
3854,3
12049,1
12051,1
3861,8
12054,1
12055,3
3864,1
12057,1
12058,1
12062,2
12063,2
12064,5
7472,1
12067,3
12070,1
3880,2
12073,2
12074,2
10205,5
11571,2
10206,4
12087,6
12088,8
3380,1
13496,1
12094,8
12095,3
12096,4
12097,4
12098,5
12099,1
8844,2
12109,2
4749,1
6409,1
12120,1
12121,10
12124,3
12125,1
3677,1
12127,2
12128,2
4752,1
14047,2
12134,2
12135,1
3944,2
12137,2
12138,2
3389,1
3952,2
3954,1
12148,2
12151,1
12948,1
3962,1
12157,1
3966,3
12949,2
3392,1
12164,1
12953,1
3977,2
12170,4
4759,1
2154,1
11586,1
12176,1
8316,1
3988,1
3989,2
3991,1
12184,2
3994,1
3997,1
3999,1
12193,2
4006,2
4008,1
12202,1
4011,1
12206,2
12209,4
7228,1
4022,4
4023,2
4025,1
12219,1
4028,1
3402,1
12223,1
15410,2
4036,1
4038,2
9409,1
680,1
4044,1
12237,1
12238,1
12240,2
12241,1
12242,1
12243,3
4052,2
4053,2
12246,2
4055,2
4056,1
12249,1
4058,1
12252,1
4062,3
677,1
6682,1
4067,1
12264,1
12266,1
4077,3
12271,1
12272,1
12273,1
12274,1
4084,3
12278,1
4087,2
4088,3
12282,1
12283,1
4092,1
4095,2
4097,2
4098,1
4100,1
12293,2
4102,1
12972,1
12298,2
4108,1
4114,6
12307,1
12308,2
12309,1
12310,1
4122,13
687,2
4124,2
4125,5
12319,1
12320,3
4129,3
3419,2
4132,1
4135,7
8429,1
12329,1
4141,1
4143,12
12336,1
4145,1
4147,1
12340,2
4150,1
12343,1
4153,2
4155,1
4157,2
12350,2
12981,2
12355,5
4164,1
4165,1
4167,1
12361,1
12362,2
4171,1
12364,1
4177,1
4178,2
4179,1
12373,3
4182,2
12375,1
12377,1
12378,2
12380,1
12381,3
12382,1
12385,1
12388,2
12389,1
4198,1
12392,1
4201,3
12396,2
2066,1
12398,2
8893,2
4209,1
4210,4
12404,3
4213,1
4214,1
4217,1
12411,2
4221,12
4222,2
4225,1
12418,1
4228,1
4229,2
4230,1
12423,1
12424,4
10263,1
4236,2
8266,3
4239,1
4242,2
4243,9
12438,3
12439,2
4248,2
12441,3
12442,3
12448,1
4257,2
12450,1
4260,8
12456,1
4266,3
12460,1
6416,1
12463,1
4273,1
12468,1
12469,1
12471,2
3138,1
12475,1
12476,3
12478,1
4287,1
4288,3
4289,7
4290,12
4291,1
12484,1
12486,1
4296,2
12493,1
12979,1
4884,1
4235,1
12501,1
12505,1
13007,1
4316,2
4318,1
4328,1
12521,2
4331,11
8914,1
12528,2
4339,1
12536,2
4347,1
4353,1
12420,1
4822,9
4358,7
12551,1
12552,3
13015,1
4365,1
4366,1
4368,8
4369,1
12562,11
12565,3
4374,1
4375,1
3460,2
4378,1
12571,1
193,3
12578,1
12579,1
12580,3
4389,1
2097,1
12584,2
12585,7
12587,4
4396,1
13021,1
12593,2
4403,7
4404,19
12597,1
12598,1
12599,1
12600,1
12601,2
4410,1
13023,1
12606,1
4415,1
4418,2
12611,11
4420,1
4423,1
4426,2
12619,3
12620,1
4429,1
4431,8
12624,7
4435,1
12630,1
4439,2
12632,1
4444,1
12637,3
13029,1
4448,1
12641,1
12642,1
4451,2
12645,3
4454,2
12647,11
4457,4
4460,4
4461,2
12654,1
12655,1
4464,1
12658,2
12659,2
4468,2
9696,1
12662,4
4474,1
4475,3
4476,2
12670,1
12672,1
4843,1
12677,2
12678,1
4487,2
4490,4
4492,1
749,3
3480,1
12690,1
12692,4
12693,4
12694,1
4504,1
4505,5
13789,1
4847,1
12700,2
12701,2
4511,5
4515,2
423,2
12710,1
12712,3
12713,2
12716,1
4527,1
4528,1
4529,1
8947,1
12724,1
12726,3
4535,1
4536,1
12731,1
4540,1
4542,1
4544,1
4545,3
4550,1
4553,1
4555,1
12749,3
12754,1
12755,1
4564,1
4857,1
12762,2
4572,1
1516,1
12768,1
12769,1
12771,1
12772,1
12775,1
12778,1
4589,1
4591,1
12787,1
4596,1
4599,6
12792,1
4601,1
12794,1
12797,1
4606,3
4608,1
4609,1
4611,3
12806,1
13057,2
12808,2
4617,1
13058,1
4623,1
4627,2
4628,1
12821,3
12823,1
12826,1
4636,1
12831,1
4640,2
4642,4
700,1
4644,3
4645,1
4646,9
4647,2
12840,2
4653,1
12846,1
12847,1
4657,1
4658,1
11699,1
4660,1
12853,1
12854,1
4663,1
12856,1
4666,4
4667,1
12861,1
1792,1
4672,1
4673,14
4675,2
12868,2
4678,2
14433,1
12874,7
4683,2
4684,3
4685,1
12879,14
12881,3
12884,1
13070,1
12888,1
4698,1
12891,3
4700,1
12894,3
12895,6
4704,1
12897,1
4706,1
4707,2
4708,1
4709,1
4712,5
12905,6
4714,1
10343,1
4716,2
4717,3
4719,2
4722,4
12915,2
4725,2
4727,1
12920,1
4729,1
4732,3
14442,1
4734,1
4735,1
4736,4
4737,1
12932,1
11069,1
12934,5
12935,5
12936,2
12937,1
4746,2
12939,1
12941,1
12944,1
12945,2
4756,1
4757,1
12950,5
12951,3
4760,1
4761,2
4765,1
12958,1
4767,1
12960,1
12963,1
12965,5
4774,1
6257,1
4779,8
4780,1
12975,2
12976,16
6259,1
4789,1
12982,2
12983,2
12986,7
12987,2
3062,1
12898,1
12990,1
12991,5
12992,4
12993,9
4802,1
11723,1
4804,3
12997,1
4807,3
13000,2
4810,1
4811,1
4812,5
4814,1
4815,2
4816,1
13009,1
13010,1
4819,3
4820,8
13014,8
4823,3
4824,2
4825,4
4826,6
4828,11
4829,4
4830,4
4831,6
4832,2
4833,2
13026,2
13027,3
4836,3
4837,2
13031,1
4840,3
4841,3
13035,1
4845,16
4846,1
13039,1
4852,1
2174,1
13046,8
4855,1
4856,1
13049,2
13051,2
13053,1
11073,1
4863,3
4864,3
4865,1
4866,5
4907,1
13062,1
13063,1
4874,3
4878,9
4879,1
13072,1
4882,1
13076,1
4885,1
4886,1
4887,1
4889,3
4890,1
13085,1
13086,1
4895,1
4897,2
4899,1
4900,3
4901,3
4902,4
4903,1
13097,12
13099,2
13101,1
13102,1
4911,2
4912,1
4914,2
4916,1
13109,3
13112,1
4921,1
4922,3
13115,1
13116,17
13119,1
13120,2
4929,1
4931,14
4932,7
4933,32
13126,1
4935,16
13128,3
13129,5
13134,1
13137,1
13138,1
13139,3
13141,1
13143,1
4953,1
4954,24
4955,45
4956,32
4957,39
4958,37
4959,31
4960,59
4961,34
4964,9
13158,6
13159,2
4968,1
4969,3
4971,3
13167,13
4978,1
13171,1
13172,1
4981,1
13174,2
13178,1
13180,1
13181,1
13184,2
4993,1
13189,2
10532,1
5000,1
5003,2
13196,1
5007,5
5010,1
13203,4
9878,1
5017,5
13210,1
5021,3
13214,17
13125,3
13216,9
3568,1
4934,5
5030,3
13225,1
2077,2
5037,1
13231,1
5040,5
11763,1
13239,2
13240,1
13244,1
13246,1
5055,1
5624,3
5066,1
5068,2
13261,1
13264,1
13265,1
13268,2
5079,1
13273,1
5085,5
2213,1
13283,2
5092,1
5093,1
9041,1
13291,1
13295,3
5104,1
13297,1
13299,1
13302,2
13303,1
5112,9
13306,2
13309,1
13310,2
13312,2
5121,2
5122,1
5125,7
5126,1
13319,2
13321,2
5130,2
5134,1
13328,1
856,1
13331,1
13332,1
13333,1
13337,4
1867,1
13341,1
13342,1
3172,1
13346,1
13147,1
14629,3
5159,1
13354,1
13356,1
5165,1
13149,2
13362,1
12720,1
5173,1
13368,2
5177,1
13370,2
13151,5
13372,2
12440,1
5182,1
5184,1
5185,1
5190,1
5193,17
5194,2
5195,1
13388,1
5197,2
13390,1
5201,1
5203,2
5205,1
13398,1
13400,1
5210,2
5211,2
13405,3
5215,1
5217,1
5219,2
5220,1
13413,1
5223,13
13417,8
4967,2
13420,1
5229,4
5233,1
362,1
5235,1
13428,10
13429,1
13433,2
13435,1
13436,1
13439,2
5252,1
13446,1
5257,1
5259,2
5261,1
5262,7
5263,2
13456,1
13457,2
5266,3
13459,1
13461,1
5270,1
13463,2
13467,1
5279,3
5280,1
13473,1
5283,5
5284,4
5286,4
5287,10
13482,4
13484,7
13485,1
13489,2
13490,2
5302,3
5303,2
5304,2
5305,1
13498,1
13499,2
13501,1
13503,2
11088,2
1781,1
11001,1
10443,1
13508,1
4982,2
13513,4
11810,3
5326,2
13519,1
5328,1
5330,1
5331,1
5332,2
13525,1
13526,1
13530,2
5339,2
13533,2
13535,3
5346,1
13539,3
13540,1
13541,2
5350,2
5351,1
13545,1
5354,2
5357,2
5358,3
3624,1
5363,5
13558,5
13561,4
13562,16
5373,1
5375,1
13568,3
13020,1
5379,4
13572,3
10454,2
13574,2
897,2
13577,2
5386,1
5387,3
13581,1
5390,1
13587,1
5396,1
13589,5
13591,4
13592,2
13595,1
13598,1
4997,4
5408,1
13602,2
2267,2
5412,5
13605,1
5414,1
11637,1
2908,3
5419,1
3634,1
5422,1
13615,3
13616,1
904,2
5429,1
13622,2
13623,2
5432,1
5434,1
5435,2
13630,6
13631,1
5440,1
13634,6
13635,1
13636,1
11830,1
5452,1
13645,14
13647,1
13648,4
14639,1
5458,1
2275,1
5463,2
11002,2
10468,2
5467,2
13660,1
13666,2
13667,1
5476,1
5477,4
13839,2
5480,1
13673,1
13674,1
5483,2
13679,2
13680,3
13682,3
5493,1
5494,1
5495,1
13688,5
5498,1
13691,2
13692,1
13693,1
13695,1
5505,4
5506,1
13699,11
5508,2
13701,3
5510,1
5639,1
5515,6
13709,3
5518,3
13711,1
5520,1
13713,2
13714,1
5523,2
5524,1
13717,1
13719,1
13722,1
5018,1
13728,2
5537,1
13733,1
13734,1
5543,3
5544,1
13737,1
8638,1
5550,1
13743,1
13744,1
13745,2
5559,2
5563,1
13757,1
5566,3
13760,2
5570,2
13765,1
13767,6
13768,2
13770,1
13771,1
5580,1
5581,4
13774,4
13775,2
13778,2
13779,1
13781,1
13782,1
13783,1
5595,1
14586,1
5029,2
6395,2
13800,2
13801,2
13804,1
5614,10
13807,1
5616,2
13809,2
3667,1
13812,3
13813,1
13814,2
13816,1
5627,1
13820,1
13822,1
5633,2
13827,3
13829,1
13831,3
13832,1
13835,3
13836,1
5645,1
5647,2
13841,1
13842,1
13843,1
9134,5
13846,1
5656,1
5657,1
13850,1
5662,2
13855,1
5664,1
13857,2
13859,1
5670,1
5671,2
13868,1
13871,2
5680,2
5682,1
13875,1
1553,1
13878,1
13879,6
13880,1
13881,1
5690,1
13884,1
5696,1
13889,1
13892,1
5706,1
5707,4
5709,4
13902,1
13903,2
5713,2
13906,1
13907,1
15466,1
3684,2
13914,2
13921,1
5730,1
5734,2
13927,2
13929,2
5739,3
5740,58
13933,1
5742,1
5743,1
13936,2
13944,2
13945,10
13947,1
13950,2
960,2
13954,2
13956,2
13957,2
13959,2
13960,3
13962,4
13963,1
5772,3
13965,1
13966,1
5777,1
13971,3
13972,1
13974,2
13978,1
13979,1
13980,1
5792,4
6427,1
5799,1
14620,1
13994,2
13996,2
13997,1
14000,4
14002,3
5811,1
14004,5
14005,1
14008,2
5817,1
11893,2
5825,1
5828,1
5829,1
5830,1
2337,1
14024,1
14028,1
5840,1
5843,1
5845,1
5847,2
14040,2
14628,3
14042,5
14045,1
5854,10
5855,65
5856,23
14049,1
14054,1
977,1
14057,2
10535,3
14064,2
10536,1
14066,1
14071,1
14072,1
14076,2
14079,3
14080,1
8925,1
14084,1
14086,1
6849,2
2349,1
14106,4
10543,3
14109,1
14110,3
14111,1
14112,2
14117,1
14118,2
14122,2
14124,4
14125,6
14127,1
10405,2
4835,3
14136,9
14139,2
94,2
14142,1
14145,2
14149,1
14150,2
14606,1
14156,1
14158,1
14159,18
14160,2
5091,1
14649,1
14168,4
14169,9
14170,8
6458,1
997,2
14176,1
12022,1
14180,3
3421,1
2364,1
14188,1
14189,1
14190,3
11923,2
8656,2
14200,3
14204,3
14205,1
14206,1
14208,3
14211,1
14213,1
14214,1
14215,2
14218,2
14219,1
2495,1
14221,2
13567,2
2383,1
14229,1
14232,1
10564,1
14234,13
14235,4
14237,1
14238,1
14239,13
14240,1
14244,1
14245,3
14246,1
14248,1
14253,1
14254,2
14264,3
14266,1
14267,1
14275,2
14276,1
5110,1
14280,2
14281,1
14285,2
14286,2
14288,1
14291,8
14293,2
14294,1
14298,3
6479,1
14301,2
14304,1
14311,4
14312,1
1020,1
3119,2
9870,1
1021,1
14322,1
14323,1
14324,1
477,1
9215,3
1505,2
14335,1
14336,1
14338,1
14662,2
14341,1
14344,5
14348,1
14351,1
14352,1
14353,1
10585,1
11951,1
14370,2
14373,4
14374,2
532,1
14376,1
14377,3
14379,1
14386,2
14387,2
2398,1
9225,2
14392,2
14401,1
14402,1
1372,4
14404,1
14405,1
14406,1
14408,2
14409,3
14410,1
14411,3
6498,1
14414,1
1037,2
14420,2
14422,2
2404,2
14426,1
1040,1
14434,1
14435,1
14436,2
12483,1
6247,46
6248,65
6249,90
6250,66
6251,74
6252,52
6253,1
6254,1
6255,1
14448,3
14449,1
6258,11
14451,1
6260,6
6261,33
6262,57
6263,1
6265,22
6266,6
6268,2
6269,8
6270,4
6271,3
6273,1
8225,1
14467,4
6276,2
6277,1
6278,6
6279,9
6284,1
6285,1
6287,2
14480,2
6289,2
6293,1
14486,4
12917,1
6297,2
6298,1
14703,1
6302,1
14498,1
9243,1
3782,2
6312,1
9551,1
14508,1
14510,1
14512,1
1847,1
14515,1
14519,1
6329,1
6330,6
14523,2
6332,2
14525,8
14526,4
14528,1
6338,1
14532,1
6343,1
11980,1
14538,2
14545,1
6355,1
6360,1
6361,2
14554,1
3791,2
14556,1
6366,1
13349,1
14561,1
14715,3
14564,9
6373,1
6375,2
1063,1
14572,1
14573,1
14574,1
6385,1
6387,1
6389,1
14583,2
6394,6
14587,1
6398,1
6402,5
6403,1
6404,1
6405,9
14599,1
14600,3
14601,1
14603,2
6412,3
6414,1
14608,1
14612,2
14613,3
14614,1
14617,1
6426,6
14619,1
6428,2
6429,1
6430,1
6431,1
1776,1
6433,1
14627,1
6436,1
6437,1
6442,1
6443,1
14636,1
14638,1
6447,2
14640,1
14642,1
6452,8
11126,1
14648,3
6457,1
14650,1
6461,1
6462,2
13365,1
14656,1
6465,1
14658,1
14659,1
6470,4
14663,1
6472,1
14665,1
6475,2
14668,1
6541,3
14672,2
6481,1
14674,3
14675,1
6488,1
6490,5
6493,1
4035,1
14687,2
14689,1
14690,1
14691,7
14692,1
6501,1
14694,2
6509,1
3490,2
14704,1
6516,1
14709,1
14711,1
5127,7
6521,1
14714,1
6523,2
6525,1
14719,2
14720,1
14721,1
14722,1
14723,5
14724,3
6550,1
14726,11
14727,1
14728,2
14729,7
14733,3
14734,1
14736,1
6545,1
14741,1
14742,2
6554,3
6555,1
6556,14
6557,1
6558,1
6559,1
14752,1
6562,19
6563,3
14757,2
7921,2
14762,1
6572,3
6573,1
6576,1
6577,1
3827,3
6580,2
9289,1
6584,2
6587,1
6588,2
14785,2
6594,1
6596,2
14789,1
1100,1
14795,1
14799,2
14800,7
6609,1
6610,1
10659,1
14806,6
6615,2
6619,2
6620,1
6621,1
10661,2
6627,1
14820,1
9297,2
6633,4
10663,1
14828,1
6638,1
14831,3
6640,1
10664,1
14834,2
6643,1
14837,1
14838,2
6650,2
6655,2
14850,1
2475,1
14853,1
8951,1
9304,1
6675,2
6680,1
14874,4
5383,1
14877,1
7042,1
14880,1
6693,5
6694,1
6695,11
6699,1
14896,2
14897,5
6707,1
6770,1
6711,1
14906,2
6718,1
14912,1
14913,1
4861,1
14916,1
6726,5
14919,1
14922,2
14923,1
9314,1
14926,1
6737,1
6738,1
14932,6
14934,14
14935,4
6744,2
6749,1
12227,1
14943,3
6753,1
14946,1
14948,1
14952,2
14953,4
14955,1
6764,1
14957,1
14958,1
2493,1
6768,1
14961,1
14962,2
3859,3
6772,1
6776,1
14969,2
14971,3
14972,2
6782,2
14975,1
14976,1
14977,3
14980,3
6789,1
6593,1
14985,1
12567,1
14993,2
14994,5
14995,3
14998,1
6808,1
15001,5
6810,1
15003,2
6814,14
15007,3
10029,1
15012,5
15013,1
15014,5
1137,3
6825,3
6827,1
15024,10
6833,1
15026,1
6836,1
13397,1
6838,2
5236,1
6843,3
6844,2
15037,1
15039,1
15040,5
15041,3
15042,11
2507,1
15044,1
6853,2
6854,1
6858,2
6860,1
6861,1
15054,2
15056,1
6865,1
15062,1
6872,1
6874,3
6877,1
6878,5
6879,7
10704,1
15074,2
15075,1
10322,2
15081,1
6890,1
15083,1
15085,2
6894,1
1383,2
12921,1
15090,1
6899,1
15092,1
15093,1
3881,1
6906,2
15099,1
6909,2
6910,1
3577,1
15106,1
6915,1
15108,1
15110,1
15111,1
15112,1
15113,1
10334,1
15116,1
15118,1
6929,2
15123,18
6934,2
6935,5
6936,3
3777,1
15134,9
6946,1
6947,1
6948,1
15141,3
15143,1
10716,1
15146,1
15149,1
14813,7
15153,2
6962,1
12083,1
6966,3
13449,1
15161,1
6971,1
15166,1
6976,4
5415,2
15170,1
15171,4
15173,2
5688,1
6986,2
6988,1
13453,1
6992,1
6994,6
4520,1
15191,1
7000,1
15194,1
7004,1
15197,1
15202,2
7011,5
7013,2
15206,1
5265,3
15208,1
15209,3
7018,3
7020,1
3507,2
7022,5
15217,2
15219,2
7029,2
7031,1
15224,2
9364,1
10730,1
7038,3
5269,1
7041,1
15234,2
15235,5
7048,1
7050,1
7051,1
10733,2
7057,3
15250,1
13874,2
7061,9
15255,3
15256,2
7065,6
15258,2
7067,1
7068,6
7069,4
15262,1
15265,2
15266,2
7076,1
15269,2
2545,2
7081,1
7083,1
7085,6
7086,1
10249,1
7088,1
15283,2
7093,2
15288,1
7097,1
15291,2
15292,3
15294,1
11966,1
15297,6
15299,2
6646,1
7110,1
15303,1
7112,3
7113,1
15310,1
15311,1
7120,1
7123,1
7125,3
7126,1
7127,2
7130,1
7132,19
7133,1
7134,2
7135,3
7136,3
7137,3
7138,1
7139,1
7140,1
7141,1
7142,3
15335,1
7144,1
7146,2
15339,2
15340,3
15341,1
10749,1
11777,2
15345,1
7155,4
7157,1
7158,2
7159,1
15352,2
7161,1
7162,4
15355,1
15356,2
7165,2
7166,1
15359,1
15361,1
15363,1
15367,2
15368,3
15369,1
15370,3
15375,3
15377,1
15378,7
15379,2
7188,2
15381,1
15382,3
15384,1
15385,2
3621,1
15387,1
7196,1
15390,2
10757,1
15392,4
15394,5
15396,1
7205,1
15398,1
15399,2
15401,3
15404,4
7214,1
15409,1
2968,4
15411,1
15412,1
7221,1
7222,2
15415,1
15416,4
15419,1
15420,2
15422,1
15424,1
7233,1
1030,1
15432,1
15433,2
13495,1
15436,2
15437,1
7246,1
15439,1
15440,2
15441,2
15443,1
15444,5
15445,2
7254,1
13497,2
15448,1
6704,1
15451,2
15452,2
15453,2
15454,2
7263,2
7267,4
15460,2
7269,2
15463,2
7272,3
7273,4
7274,2
7275,2
15468,8
15469,1
7281,2
7282,1
7283,1
15476,1
7285,4
15478,1
7289,1
15482,2
15485,5
15487,1
15488,1
15491,1
15492,1
7302,1
7303,1
7304,3
15497,1
7307,1
7308,1
7310,2
7311,2
7312,2
7313,1
15507,5
7317,3
7319,1
7323,1
15516,1
15517,6
7327,1
15520,1
7329,2
7330,1
15523,1
15525,1
7336,1
15530,9
15531,4
15532,1
15533,1
7342,1
15535,1
7344,1
7345,1
15541,1
7352,3
7353,22
7355,2
15548,1
15550,2
7360,2
15553,3
7365,3
15559,1
9247,1
7370,1
3283,1
5325,2
15568,9
7377,2
7378,11
15571,1
7380,1
7383,2
7385,5
15578,4
15579,1
7389,2
15583,4
6520,1
7394,1
15587,1
7396,1
15590,1
922,1
15594,2
7405,1
15599,10
15600,3
15601,16
7411,27
15604,2
7413,1
7414,9
7417,7
7419,2
7423,1
7424,1
7428,1
5334,1
2064,1
7439,1
7440,11
7442,3
7445,2
7448,1
1992,1
7457,3
7458,1
7459,6
7460,1
7462,1
11978,1
7465,1
3522,1
7475,4
7479,5
7480,7
5343,1
7485,1
7496,2
14903,1
7500,5
7503,1
5347,2
7513,1
7514,1
7518,1
5349,1
7520,1
7522,5
7532,1
14981,1
7539,1
7543,1
7544,2
7545,1
10815,2
13089,1
12181,1
7552,5
7554,2
7556,7
7559,30
7561,1
7562,2
7564,1
7568,1
7571,2
7576,1
7577,1
7578,1
7584,2
3253,1
8943,1
9800,1
7593,1
7594,1
7597,1
7598,1
7601,2
7603,1
7604,2
7608,1
9255,1
7613,1
7614,1
799,1
7617,1
7618,1
7620,2
7621,1
7622,6
11314,1
7633,4
7634,16
7638,1
7642,1
2639,1
5370,7
7649,1
7652,1
7658,1
13565,1
7666,1
1142,2
9257,2
6740,1
7675,1
7676,1
4010,1
7678,1
7681,2
7682,1
6742,1
7691,3
8985,1
7695,2
13571,1
7700,1
7702,1
7704,1
5381,3
7713,1
7714,2
7721,1
7723,2
7725,2
7726,1
7729,2
7730,1
7733,1
5385,1
7736,1
8630,1
13579,1
7754,2
12215,1
7756,1
3882,1
7760,1
1895,1
7768,1
7770,2
1295,2
7773,2
7774,2
4798,2
7777,2
7781,1
7782,2
7783,1
6533,1
7790,2
7792,1
7794,1
7796,1
7799,1
7800,1
7801,5
13626,1
7804,1
7805,1
7806,2
5397,5
7808,1
10859,1
7812,4
7813,1
6534,1
3107,1
7818,1
161,2
10861,1
7824,1
7827,1
7828,2
7829,1
7830,2
6767,1
7838,2
1352,1
7841,3
7845,1
7847,1
7853,1
7856,3
7859,1
10869,1
7873,1
7876,1
7887,1
14555,1
7893,1
2445,1
13604,1
7901,2
5413,3
7909,1
7915,4
7917,1
7918,1
7919,2
9512,2
12245,2
7937,2
13611,1
7940,1
7944,1
7947,1
9517,1
12248,3
7956,4
7957,2
7958,2
5423,2
7966,1
7967,2
7968,1
7969,1
7971,1
7972,2
10886,1
11995,1
7975,2
13359,1
7978,3
7979,2
7982,1
12254,2
7991,2
7999,2
8002,1
8005,1
8006,2
5431,1
4066,1
11178,3
817,1
3813,1
8022,1
11488,1
8029,1
8031,1
6801,2
8040,1
8041,1
8042,8
661,1
4072,1
1359,1
5178,1
5438,1
10361,4
10900,1
8058,75
8060,3
4074,2
3269,3
8072,6
8073,1
5442,1
12269,1
8080,2
2712,4
9833,1
10635,1
8093,15
13637,1
8099,1
8101,2
8105,1
15000,1
8107,2
8112,1
8113,1
8115,1
1634,1
8124,1
1354,1
2720,2
9547,2
10747,1
2453,2
8137,1
8138,1
3817,2
8145,1
10915,1
8152,1
5455,1
4090,7
8158,1
8160,1
8161,1
8164,1
6822,3
8166,1
5457,1
12284,1
8170,2
6823,2
13650,1
2728,2
13093,1
10921,1
14479,1
8185,4
8186,1
8189,1
