name,counts
2,6
3,10
4,6
5,9
6,6
7,2
8,9
9,7
10,3
11,40
12,58
15,2
16,3
19,5
21,2
22,1
23,1
26,1
27,1
31,1
32,1
38,3
39,1
48,1
49,1
52,2
54,2
55,2
56,1
59,2
62,5
63,1
67,9
68,2
69,3
70,1
73,1
74,1
75,2
80,1
82,2
84,3
91,1
92,1
98,13
106,1
111,1
114,1
120,2
125,1
128,1
130,1
133,1
137,11
138,1
147,1
148,1
151,1
152,4
156,3
158,1
163,1
174,1
178,1
185,1
186,2
193,1
196,1
197,2
204,1
213,2
214,6
219,1
221,1
222,1
224,4
225,3
226,5
227,1
233,1
235,3
242,1
252,1
256,1
258,1
260,1
262,1
269,1
271,4
272,2
273,3
274,1
276,1
277,1
278,1
280,1
282,1
286,1
287,1
290,1
291,3
293,3
295,19
298,1
299,2
301,1
305,1
306,1
308,9
309,1
311,1
312,1
313,1
318,9
320,1
321,1
322,1
323,1
326,2
327,1
328,1
331,1
332,1
337,2
338,3
341,2
342,1
343,1
345,3
347,1
348,1
349,2
350,1
351,1
353,1
354,1
357,2
358,1
359,7
360,1
361,4
366,4
368,2
370,1
371,1
374,13
375,2
382,1
383,2
384,2
390,2
393,1
400,1
403,1
404,1
410,1
413,2
414,1
417,1
420,1
421,1
422,1
425,1
426,2
427,2
428,1
430,1
436,1
437,1
441,1
446,4
448,3
449,3
456,1
463,3
470,1
475,1
477,2
484,2
485,4
488,1
489,1
496,1
500,1
501,9
505,1
507,1
508,1
510,1
511,2
512,1
514,2
515,1
517,4
518,1
521,1
524,1
531,2
534,3
538,1
540,3
542,2
545,1
550,2
551,1
556,1
557,1
559,2
561,1
568,1
569,6
571,1
577,2
578,1
586,1
587,1
590,1
593,1
595,1
596,4
597,2
598,1
603,1
604,6
605,1
611,1
618,1
622,1
628,3
630,1
631,1
632,1
633,1
638,2
639,1
644,2
647,14
650,2
661,1
664,1
672,1
676,3
686,1
688,3
690,1
695,2
696,2
699,1
702,1
703,1
704,3
705,2
708,3
710,5
711,1
712,2
713,1
714,2
715,1
716,1
718,2
722,1
723,1
728,2
729,3
730,2
733,1
735,4
741,11
742,4
744,1
747,1
748,1
754,1
757,2
758,1
768,1
773,1
778,1
779,1
786,1
797,1
798,3
805,2
806,4
807,9
810,2
811,2
817,1
823,1
825,1
830,1
835,3
838,2
839,2
840,1
842,19
846,1
848,1
852,1
855,2
858,8
860,1
862,1
864,1
865,1
866,1
872,6
876,2
879,1
880,1
882,2
883,2
885,2
886,3
887,1
888,2
890,1
891,1
892,2
893,1
895,1
900,1
901,1
902,2
903,6
904,2
909,1
911,4
912,1
916,1
917,1
918,1
920,1
923,1
929,1
930,2
932,1
935,3
942,1
943,1
950,1
952,2
956,1
959,3
960,1
965,1
968,8
969,1
974,2
977,1
978,1
979,1
982,19
986,1
998,2
999,2
1007,2
1015,1
1020,1
1024,1
1027,2
1032,1
1037,1
1042,2
1047,4
1049,2
1051,1
1054,2
1055,2
1056,1
1058,15
1061,19
1062,10
1063,9
1064,22
1065,6
1068,1
1069,1
1070,5
1071,1
1072,4
1073,2
1075,1
1076,3
1077,1
1078,1
1080,2
1081,1
1097,1
1102,5
1111,1
1115,1
1117,3
1120,2
1122,1
1123,1
1130,1
1131,2
1137,2
1138,4
1142,3
1144,1
1148,1
1153,1
1154,1
1161,2
1162,34
1163,5
1164,5
1165,30
1170,2
1175,1
1176,2
1177,1
1180,1
1181,10
1183,2
1187,2
1188,1
1189,5
1193,1
1194,3
1198,4
1203,1
1205,1
1206,4
1207,26
1208,46
1210,3
1213,1
1214,1
1216,1
1217,1
1218,7
1219,2
1220,1
1221,3
1222,25
1223,7
1224,5
1225,2
1227,2
1228,2
1229,1
1230,3
1233,1
1234,1
1235,1
1236,2
1237,2
1238,1
1242,6
1246,1
1247,1
1250,2
1261,1
1263,2
1264,1
1269,2
1271,1
1273,1
1274,4
1278,1
1281,1
1285,1
1292,4
1296,1
1298,4
1299,7
1302,1
1303,3
1306,7
1307,1
1308,10
1313,4
1315,6
1316,1
1319,1
1320,1
1321,1
1325,1
1329,3
1332,1
1337,3
1338,1
1339,2
1340,1
1344,2
1346,1
1347,1
1355,3
1358,2
1362,3
1363,1
1366,1
1368,15
1369,2
1370,1
1374,1
1376,2
1380,1
1383,1
1384,1
1386,2
1389,2
1394,1
1395,1
1396,3
1399,2
1404,1
1412,1
1413,1
1414,17
1415,10
1416,3
1417,6
1418,11
1419,40
1420,3
1421,13
1422,6
1423,39
1424,5
1425,18
1426,24
1427,15
1428,7
1429,4
1431,2
1432,5
1433,4
1434,6
1435,6
1437,2
1438,5
1439,1
1440,9
1441,9
1442,3
1444,9
1445,22
1446,7
1447,9
1448,2
1449,1
1450,2
1451,3
1452,4
1453,12
1454,28
1455,11
1456,3
1457,1
1458,1
1459,1
1460,9
1461,6
1462,6
1463,9
1464,2
1465,17
1467,4
1468,12
1471,1
1472,7
1475,1
1476,5
1477,2
1478,4
1479,2
1480,8
1481,8
1482,6
1483,2
1484,2
1485,14
1486,4
1487,14
1488,1
1489,2
1490,4
1494,1
1496,2
1497,1
1499,7
1500,2
1502,1
1503,7
1504,6
1505,1
1507,4
1508,3
1509,1
1510,7
1511,1
1512,2
1515,7
1516,2
1517,68
1518,42
1519,42
1520,35
1521,27
1522,7
1523,23
1524,8
1525,20
1526,42
1527,8
1528,37
1529,5
1530,32
1531,65
1532,40
1533,70
1534,27
1535,41
1536,33
1537,15
1538,17
1539,18
1540,19
1541,22
1542,3
2094,202
2095,8
2096,22
2100,1
2107,1
2112,1
2113,4
2118,1
2119,1
2123,3
2124,1
2125,1
2126,1
2128,1
2136,1
2139,1
2140,4
2141,4
2142,1
2143,3
2144,2
2145,5
2146,3
2147,3
2148,2
2150,4
2151,3
2154,2
2155,1
2160,2
2162,6
2163,2
2166,1
2171,2
2172,1
2174,1
2178,1
2180,1
2181,1
2185,2
2189,9
2193,1
2194,1
2199,1
2202,6
2204,1
2207,3
2208,4
2209,1
2213,1
2218,1
2221,1
2224,3
2226,1
2228,2
2235,2
2242,2
2244,2
2249,1
2251,4
2254,5
2255,1
2259,2
2262,4
2263,1
2265,1
2270,1
2271,1
2273,1
2276,1
2278,3
2280,4
2281,3
2282,4
2288,1
2291,2
2292,1
2293,2
2295,2
2300,1
2301,1
2304,2
2308,1
2311,1
2313,5
2314,2
2319,1
2321,2
2322,1
2331,3
2337,1
2342,1
2343,1
2347,5
2348,1
2350,1
2352,1
2354,8
2355,6
2358,1
2362,2
2363,1
2367,3
2368,2
2372,2
2375,3
2382,2
2383,1
2385,1
2386,3
2390,1
2395,2
2396,2
2403,1
2409,2
2412,1
2413,1
2414,1
2418,6
2429,2
2431,2
2432,1
2433,2
2434,2
2436,1
2437,2
2443,1
2444,2
2459,1
2460,1
2462,1
2463,10
2464,1
2465,2
2472,17
2475,1
2482,1
2486,1
2494,4
2495,1
2499,1
2503,1
2504,1
2511,1
2532,1
2537,1
2540,1
2541,1
2543,1
2547,2
2552,1
2558,4
2560,1
2562,1
2563,2
2565,1
2568,1
2569,2
2571,2
2572,1
2576,2
2579,1
2580,2
2581,2
2582,1
2583,1
2586,1
2592,1
2595,1
2599,2
2602,1
2604,1
2614,1
2620,1
2621,1
2622,1
2624,2
2625,2
2626,4
2629,2
2631,7
2646,1
2653,1
2660,16
2667,2
2668,4
2670,1
2673,2
2683,2
2684,14
2685,2
2694,1
2696,1
2698,2
2701,1
2706,3
2708,1
2711,1
2714,3
2715,2
2716,2
2717,1
2725,1
2729,2
2732,1
2734,1
2735,1
2738,1
2743,1
2744,1
2746,1
2752,4
2756,4
2757,2
2759,2
2766,2
2768,2
2775,6
2779,2
2780,1
2782,1
2783,1
2784,2
2785,1
2795,1
2798,1
2801,1
2804,3
2811,1
2812,1
2814,1
2816,4
2821,1
2822,2
2825,3
2827,1
2834,1
2837,1
2842,3
2845,1
2846,1
2848,1
2852,1
2853,1
2855,1
2859,1
2861,2
2864,1
2866,39
2868,3
2870,5
2872,1
2876,1
2877,1
2878,4
2879,1
2881,1
2885,3
2886,2
2887,1
2890,2
2891,1
2895,3
2901,3
2903,2
2904,1
2907,1
2915,3
2920,1
2922,4
2925,4
2930,1
2939,2
2940,1
2941,1
2943,1
2946,1
2948,2
2951,1
2955,2
2956,1
2960,1
2966,1
2969,1
2970,1
2976,2
2977,1
2981,1
2983,1
2986,2
2987,1
2990,1
2994,1
2999,2
3001,1
3003,5
3005,1
3006,1
3009,2
3010,2
3011,1
3019,1
3021,4
3027,2
3032,2
3035,1
3037,1
3039,2
3042,1
3043,2
3053,2
3054,1
3056,3
3060,1
3063,4
3064,1
3066,1
3071,1
3075,1
3076,2
3077,1
3088,1
3093,2
3096,3
3098,1
3100,2
3101,2
3103,1
3105,6
3109,1
3110,2
3114,2
3115,1
3117,1
3119,1
3121,2
3125,1
3126,1
3128,1
3130,2
3135,3
3136,10
3137,1
3139,3
3140,1
3141,4
3142,3
3145,2
3150,1
3151,1
3157,1
3158,1
3160,1
3162,1
3163,2
3164,1
3166,1
3168,3
3172,1
3176,4
3191,4
3192,1
3193,1
3196,1
3197,45
3199,2
3202,1
3203,1
3204,2
3208,1
3215,1
3216,1
3219,4
3222,1
3224,3
3234,1
3237,2
3242,3
3243,1
3245,2
3248,1
3249,1
3252,5
3258,1
3264,1
3268,4
3272,1
3275,1
3276,1
3277,5
3279,1
3281,1
3286,3
3287,3
3289,2
3290,1
3292,1
3304,1
3308,1
3309,2
3310,1
3315,1
3320,1
3325,1
3330,1
3335,1
3338,1
3345,2
3350,2
3353,1
3360,2
3366,3
3370,1
3374,1
3376,5
3378,3
3379,3
3382,3
3384,2
3385,1
3389,1
3393,1
3394,1
3397,4
3399,2
3401,1
3404,1
3413,2
3414,1
3415,4
3417,1
3423,2
3430,2
3431,1
3434,1
3438,4
3440,1
3441,5
3445,4
3449,1
3452,1
3455,1
3456,2
3463,1
3465,2
3472,4
3476,4
3483,1
3487,2
3488,1
3489,1
3490,3
3491,1
3497,2
3499,1
3500,2
3504,4
3506,1
3508,1
3510,1
3516,1
3517,2
3519,3
3521,4
3525,2
3528,3
3547,3
3553,1
3555,1
3558,3
3559,1
3568,1
3569,2
3579,1
3582,1
3583,1
3585,1
3591,1
3594,1
3595,1
3596,1
3597,2
3599,1
3603,1
3605,4
3608,1
3611,4
3612,5
3613,3
3615,4
3617,3
3619,2
3620,3
3621,2
3624,7
3625,6
3628,2
3630,1
3636,2
3638,1
3640,1
3642,2
3644,1
3646,1
3647,2
3649,2
3655,1
3658,1
3663,1
3664,1
3666,3
3667,2
3672,4
3675,5
3676,2
3681,1
3688,1
3690,2
3695,1
3708,5
3714,1
3716,2
3717,1
3718,1
3719,2
3723,2
3730,1
3731,2
3732,2
3736,1
3737,1
3738,2
3739,1
3750,1
3752,1
3754,1
3756,1
3759,3
3766,2
3770,1
3773,1
3783,5
3785,1
3786,3
3789,2
3795,5
3802,1
3804,1
3806,1
3814,1
3817,1
3819,1
3829,1
3831,2
3836,1
3841,1
3845,2
3849,1
3853,1
3855,1
3859,3
3862,1
3863,1
3867,1
3868,1
3884,1
3885,1
3895,1
3913,3
3920,2
3926,10
3931,1
3933,5
3934,5
3936,1
3941,2
3944,1
3950,1
3957,2
3958,3
3963,3
3967,5
3968,1
3975,1
3987,1
3991,2
3994,1
3999,1
4002,2
4003,2
4005,1
4007,1
4008,1
4011,1
4012,2
4018,4
4019,2
4024,1
4027,1
4028,2
4033,3
4037,2
4040,3
4042,2
4044,1
4049,1
4050,2
4052,1
4055,3
4057,1
4059,1
4060,1
4065,1
4071,1
4080,6
4081,1
4084,3
4085,3
4086,2
4087,1
4092,1
4094,1
4095,1
4096,1
4098,1
4101,1
4109,2
4113,1
4114,2
4115,1
4116,2
4123,1
4128,1
4129,1
4130,1
4131,1
4133,1
4137,1
4148,1
4151,1
4153,1
4154,2
4160,1
4164,12
4165,1
4168,1
4171,1
4178,2
4179,2
4187,1
4196,1
4197,2
4200,1
4204,1
4206,1
4208,1
4210,1
4211,1
4214,1
4216,1
4217,1
4225,1
4236,1
4240,1
4241,1
4248,1
4252,2
4254,1
4255,1
4261,1
4262,1
4267,1
4268,2
4274,5
4275,2
4276,2
4278,1
4279,2
4290,1
4294,1
4306,2
4308,1
4309,2
4311,2
4312,2
4318,2
4322,2
4324,2
4326,1
4328,3
4330,3
4333,3
4337,1
4338,1
4340,2
4341,1
4346,1
4351,1
4361,1
4364,1
4369,2
4370,2
4372,1
4386,1
4390,1
4395,1
4397,1
4402,1
4403,7
4411,1
4413,2
4414,1
4419,1
4421,1
4423,1
4426,1
4429,1
4433,7
4447,1
4452,1
4459,2
4460,1
4461,1
4466,1
4476,1
4477,2
4478,2
4479,1
4482,6
4488,1
4489,2
4493,2
4501,1
4503,3
4505,1
4514,1
4518,1
4520,1
4524,3
4526,1
4534,1
4542,2
4544,1
4546,1
4554,2
4555,1
4563,1
4565,4
4567,9
4568,2
4569,4
4573,1
4575,1
4576,2
4579,3
4580,1
4583,1
4584,1
4586,7
4588,4
4591,1
4592,1
4593,1
4594,1
4595,2
4596,1
4600,3
4602,2
4603,35
4604,4
4609,1
4610,1
4612,7
4613,2
4614,2
4615,1
4616,1
4620,2
4629,2
4630,1
4632,1
4634,1
4637,2
4639,1
4644,1
4645,2
4649,1
4655,1
4656,4
4660,1
4661,2
4663,1
4668,1
4671,1
4672,1
4673,1
4675,1
4682,1
4683,2
4687,1
4689,1
4690,1
4692,1
4693,7
4694,1
4696,1
4697,5
4703,1
4706,1
4707,5
4711,1
4712,2
4714,3
4717,1
4723,1
4724,1
4726,1
4730,1
4734,1
4735,1
4736,4
4741,5
4745,1
4747,1
4754,1
4755,1
4764,34
4765,3
4766,1
4767,6
4770,1
4771,6
4772,1
4783,1
4785,1
4786,1
4799,1
4801,3
4803,3
4804,1
4812,1
4814,1
4817,2
4818,1
4819,2
4821,1
4822,1
4823,2
4828,3
4832,1
4837,1
4839,1
4840,1
4845,1
4846,1
4848,4
4853,1
4861,1
4865,1
4867,6
4868,1
4871,1
4874,1
4884,1
4885,1
4886,1
4888,2
4895,4
4896,1
4897,1
4901,1
4902,1
4905,3
4906,1
4907,2
4908,2
4909,2
4910,2
4915,1
4922,4
4927,1
4930,1
4933,1
4934,1
4937,1
4938,1
4940,2
4944,1
4947,1
4949,1
4950,15
4957,4
4958,8
4959,1
4965,1
4966,1
4967,1
4968,2
4973,2
4976,1
4978,14
4980,2
4981,3
4985,2
4988,10
4989,1
4993,2
4994,1
4996,1
4997,1
4998,2
5000,2
5004,1
5006,1
5009,1
5011,1
5015,3
5016,4
5021,1
5026,2
5028,2
5029,5
5033,1
5035,3
5037,1
5041,2
5048,2
5049,1
5051,1
5058,1
5061,1
5063,1
5068,2
5069,2
5070,2
5071,1
5073,1
5074,3
5079,1
5080,1
5081,1
5082,2
5092,1
5093,1
5095,1
5099,1
5101,1
5105,1
5110,1
5114,1
5115,1
5116,2
5121,1
5123,1
5133,1
5138,3
5141,1
5142,1
5144,1
5145,1
5146,1
5147,2
5150,1
5153,1
5155,1
5156,1
5157,1
5161,3
5162,1
5163,1
5167,6
5168,8
5171,1
5175,6
5183,1
5184,4
5188,1
5189,1
5190,1
5192,1
5195,1
5197,1
5199,1
5200,1
5202,1
5203,1
5205,1
5206,2
5208,1
5211,2
5213,1
5217,2
5218,1
5221,2
5222,1
5223,1
5227,1
5228,1
5231,1
5236,1
5238,3
5242,2
5243,1
5244,1
5246,1
5248,1
5249,1
5250,1
5252,1
5255,3
5256,2
5258,3
5265,1
5266,2
5271,1
5282,3
5287,1
5288,1
5293,4
5295,1
5297,1
5300,1
5303,1
5310,1
5311,1
5316,1
5317,1
5318,6
5319,1
5320,1
5321,2
5322,4
5324,1
5331,1
5332,3
5335,2
5336,1
5339,3
5340,1
5341,2
5343,1
5347,1
5351,4
5352,1
5353,1
5354,2
5363,1
5364,1
5366,1
5367,1
5370,1
5372,1
5373,1
5374,1
5380,2
5386,2
5389,2
5396,1
5400,1
5403,1
5407,2
5410,1
5411,2
5413,1
5414,5
5415,1
5416,1
5421,2
5422,1
5423,1
5426,1
5428,2
5430,2
5431,1
5433,1
5435,10
5438,1
5446,2
5447,3
5448,1
5460,1
5462,2
5465,1
5467,1
5468,1
5475,2
5484,3
5489,3
5491,2
5494,1
5501,1
5503,1
5516,1
5519,1
5524,1
5533,1
5540,1
5547,4
5556,1
5559,2
5563,3
5564,2
5570,5
5572,2
5573,1
5574,2
5585,1
5587,1
5589,4
5590,1
5594,1
5598,1
5600,1
5604,2
5618,2
5623,1
5624,1
5627,4
5629,1
5631,4
5641,1
5642,6
5649,2
5653,1
5661,6
5670,1
5671,1
5679,2
5682,1
5684,4
5694,2
5698,1
5699,1
5703,8
5705,3
5706,2
5707,1
5708,2
5709,1
5715,2
5716,2
5720,1
5726,1
5727,1
5728,2
5733,3
5734,1
5736,3
5737,1
5738,1
5739,2
5743,1
5744,1
5747,2
5750,2
5752,1
5753,2
5755,1
5756,5
5759,1
5760,1
5761,1
5763,1
5764,3
5765,2
5766,1
5767,3
5768,3
5769,2
5770,2
5771,1
5772,2
5773,3
5774,1
5775,1
5776,1
5777,1
5778,1
5786,1
5787,1
5790,1
5792,1
5794,1
5795,1
5796,1
5802,1
5803,1
5806,1
5810,1
5814,10
5817,1
5818,2
5821,1
5828,1
5830,2
5832,2
5833,3
5834,1
5835,1
5836,2
5838,2
5839,3
5841,1
5842,1
5843,9
5848,1
5849,2
5850,2
5851,5
5852,1
5853,3
5854,1
5855,1
5858,1
5863,2
5871,2
5872,1
5874,2
5875,1
5895,1
5899,2
5900,1
5909,2
5912,1
5916,2
5917,3
5918,3
5923,3
5924,1
5928,1
5930,1
5932,3
5934,2
5938,1
5941,10
5954,1
5955,3
5969,1
5973,2
5978,1
5980,1
5982,1
5984,2
5985,2
5989,1
5991,2
5993,4
5997,8
5998,7
6001,1
6002,1
6004,6
6005,1
6017,3
6020,29
6022,1
6026,2
6028,3
6034,2
6047,1
6050,2
6052,1
6053,1
6056,3
6062,1
6068,1
6070,1
6072,1
6073,1
6074,1
6081,3
6085,2
6087,1
6089,1
6091,1
6101,2
6103,1
6108,1
6112,2
6113,1
6114,1
6115,1
6116,1
6117,2
6118,1
6122,1
6128,1
6129,1
6131,1
6144,1
6146,1
6147,1
6149,2
6150,1
6151,1
6152,3
6153,1
6154,4
6156,1
6157,2
6162,4
6164,1
6169,1
6171,2
6172,3
6177,1
6180,3
6184,1
6196,3
6198,1
6203,1
6206,2
6207,2
6209,1
6210,1
6216,1
6223,3
6224,1
6227,1
6229,4
6231,2
6236,6
6237,9
6238,1
6240,1
6241,1
6245,6
6257,1
6261,1
6265,2
6275,1
6278,1
6281,1
6283,3
6284,1
6285,1
6289,1
6290,2
6291,2
6292,1
6299,1
6307,5
6308,3
6310,3
6317,1
6327,2
6329,3
6333,3
6336,4
6340,3
6343,3
6344,1
6349,2
6350,7
6357,1
6360,3
6363,1
6365,1
6366,5
6367,5
6369,2
6372,1
6373,2
6375,2
6376,2
6378,1
6380,2
6381,2
6385,1
6387,2
6390,3
6393,4
6394,1
6397,1
6398,2
6399,1
6401,2
6405,1
6407,2
6408,2
6409,1
6410,1
6413,2
6419,1
6420,2
6421,2
6424,1
6425,1
6428,1
6439,1
6442,5
6446,2
6447,1
6450,2
6451,1
6455,4
6456,1
6458,1
6459,1
6461,1
6463,3
6473,1
6474,2
6482,1
6489,1
6493,2
6495,1
6499,1
6501,4
6502,2
6504,1
6505,1
6506,1
6513,1
6516,1
6522,1
6523,1
6524,1
6526,1
6530,1
6532,1
6533,2
6535,1
6537,2
6540,1
6543,1
6545,1
6548,1
6552,1
6555,1
6559,1
6561,1
6563,2
6564,1
6568,1
6574,1
6576,1
6578,2
6579,3
6580,1
6583,1
6584,1
6585,1
6586,1
6590,1
6594,1
6598,2
6599,3
6600,1
6601,1
6604,1
6605,1
6606,3
6611,1
6612,1
6616,1
6619,1
6621,1
6625,5
6629,2
6630,1
6633,1
6638,1
6641,2
6648,2
6649,1
6651,3
6666,2
6668,1
6669,1
6670,1
6673,1
6675,1
6677,1
6682,1
6687,1
6690,2
6691,1
6701,4
6703,2
6705,1
6707,1
6708,1
6711,1
6713,5
6714,1
6715,1
6720,1
6724,1
6726,2
6729,4
6730,2
6734,1
6735,4
6738,2
6741,1
6751,1
6756,1
6758,1
6759,2
6760,2
6761,3
6766,3
6769,1
6773,1
6778,2
6780,1
6784,2
6785,1
6787,1
6789,1
6790,2
6791,2
6792,2
6795,2
6796,1
6803,2
6810,2
6811,1
6816,3
6818,1
6819,2
6820,3
6823,2
6826,1
6828,15
6829,2
6831,1
6833,4
6835,1
6838,3
6839,1
6840,1
6841,6
6842,1
6846,1
6848,1
6851,1
6852,1
6854,2
6855,1
6856,2
6858,2
6859,1
6861,1
6869,1
6870,2
6872,1
6877,2
6879,3
6880,2
6881,2
6883,1
6884,1
6885,3
6886,2
6888,3
6889,1
6890,2
6895,1
6900,1
6901,1
6902,2
6904,2
6906,1
6909,1
6911,1
6913,1
6914,1
6917,1
6919,1
6923,1
6926,6
6928,1
6929,1
6932,1
6944,1
6946,6
6947,1
6950,1
6951,1
6954,1
6956,2
6959,2
6961,1
6962,1
6965,1
6966,1
6968,2
6971,1
6972,1
6977,5
6978,1
6985,1
6986,2
6987,7
6992,2
6993,2
6994,2
7001,1
7002,1
7006,5
7007,1
7011,3
7017,1
7031,1
7035,2
7036,1
7037,1
7041,1
7044,2
7053,1
7056,1
7058,1
7069,1
7071,5
7072,1
7075,2
7083,1
7084,2
7086,3
7094,1
7097,1
7098,1
7099,1
7100,1
7106,1
7107,1
7113,2
7114,2
7115,4
7118,1
7120,1
7121,1
7123,3
7127,2
7129,4
7131,2
7132,3
7135,3
7138,1
7145,2
7148,3
7155,2
7157,2
7159,1
7163,1
7166,2
7167,1
7168,2
7169,2
7173,1
7176,1
7183,2
7185,1
7186,1
7187,2
7197,4
7199,2
7201,1
7202,1
7209,1
7214,1
7215,3
7216,2
7224,2
7225,2
7227,2
7231,2
7232,1
7233,1
7234,1
7238,3
7239,1
7241,1
7245,1
7247,1
7251,1
7254,4
7262,4
7265,1
7266,1
7268,2
7270,1
7280,4
7282,1
7284,1
7285,2
7287,2
7293,1
7294,1
7295,1
7297,4
7298,7
7300,2
7306,1
7309,1
7310,2
7311,1
7317,1
7321,2
7322,1
7325,3
7326,1
7333,9
7337,1
7343,1
7345,5
7349,2
7352,1
7353,2
7356,1
7357,2
7365,1
7367,1
7368,1
7370,1
7374,1
7376,1
7379,1
7380,1
7384,5
7392,1
7395,1
7397,3
7398,1
7402,1
7403,3
7405,2
7407,1
7415,1
7418,4
7425,1
7430,2
7433,1
7434,2
7436,2
7437,1
7439,4
7440,15
7447,1
7450,3
7451,3
7452,2
7456,2
7457,2
7458,4
7459,1
7467,1
7468,1
7477,1
7478,1
7479,4
7481,1
7492,6
7493,1
7494,1
7495,1
7497,8
7500,1
7503,1
7504,4
7509,1
7511,2
7512,2
7513,8
7517,2
7521,2
7522,1
7524,2
7530,4
7534,3
7538,1
7542,2
7543,4
7552,1
7553,1
7557,1
7558,1
7559,1
7561,1
7562,2
7567,2
7569,1
7572,3
7573,1
7576,1
7580,1
7585,6
7586,1
7587,2
7588,2
7595,1
7596,2
7597,2
7599,1
7602,1
7604,3
7608,1
7611,4
7612,2
7613,1
7616,1
7624,2
7626,3
7632,4
7636,4
7639,3
7640,2
7642,1
7643,4
7649,1
7650,2
7652,3
7656,1
7658,1
7659,5
7660,3
7662,1
7665,2
7670,1
7671,1
7672,2
7674,1
7675,1
7676,2
7677,4
7678,4
7680,4
7682,3
7683,1
7684,1
7685,2
7686,4
7688,3
7689,2
7690,3
7693,2
7694,4
7695,4
7696,1
7697,1
7699,8
7703,5
7704,3
7707,6
7709,3
7712,1
7713,1
7714,1
7715,2
7716,3
7717,1
7718,1
7720,3
7726,2
7731,1
7732,1
7733,2
7735,1
7736,2
7738,1
7740,1
7743,1
7744,13
7748,1
7752,1
7755,1
7766,2
7767,1
7768,5
7770,3
7772,2
7774,2
7777,2
7781,2
7782,1
7784,2
7786,2
7787,4
7789,1
7792,2
7794,1
7796,5
7797,2
7798,4
7802,1
7806,3
7809,5
7812,1
7814,2
7818,1
7819,1
7820,1
7821,2
7824,1
7827,1
7831,1
7832,3
7836,1
7838,8
7839,1
7840,4
7843,1
7844,10
7845,1
7848,9
7849,7
7850,5
7851,7
7852,22
7857,2
7858,1
7859,5
7860,1
7861,4
7862,3
7863,2
7864,6
7866,10
7867,3
7868,1
7870,1
7871,4
7872,2
7873,2
7874,6
7876,4
7879,3
7880,3
7881,2
7882,7
7884,17
7885,6
7886,10
7887,2
7888,1
7890,2
7891,2
7892,8
7894,3
7895,6
7896,2
7898,5
7901,2
7902,7
7903,1
7904,32
7905,1
7906,1
7907,2
7908,2
7911,1
7912,2
7915,12
7921,2
7923,1
7924,2
7925,1
7926,1
7928,1
7929,2
7930,1
7931,8
7933,3
7934,8
7935,11
7936,5
7937,9
7938,6
7942,2
7943,4
7947,2
7948,5
7949,7
7950,2
7951,3
7953,2
7955,3
7956,1
7957,7
7958,2
7959,1
7961,1
7962,12
7963,13
7964,4
7965,2
7969,9
7970,4
7972,5
7973,3
7974,3
7975,5
7976,4
7977,1
7978,4
7979,3
7980,1
7981,7
7983,3
7984,3
7985,3
7986,1
7987,2
7988,2
7989,3
7990,6
7991,3
7992,2
7993,6
7995,6
7997,1
7999,1
8000,4
8002,10
8004,1
8006,1
8008,6
8011,1
8013,1
8014,1
8018,6
8019,6
8024,1
