name,counts
3,3
4,1
5,1
7,7
13,4
16,1
18,6
21,1
22,6
24,4
28,1
30,5
31,11
37,7
39,6
40,16
41,6
43,3
44,7
45,5
46,1
49,4
55,3
58,3
59,3
61,2
65,2
67,2
70,2
73,2
75,6
81,5
83,4
84,1
85,4
87,7
88,5
89,1
90,1
92,6
93,2
94,10
97,3
98,5
99,1
101,2
102,13
103,10
109,1
110,10
111,6
112,9
114,3
117,21
118,8
119,8
121,4
122,3
123,2
124,9
125,2
126,1
127,3
128,2
130,1
132,10
133,1
134,1
135,2
136,1
137,3
140,1
142,9
143,8
144,1
145,11
146,9
148,1
150,1
151,5
152,2
153,2
154,1
155,3
156,5
157,8
159,6
160,5
161,2
163,4
164,7
165,5
166,2
167,1
168,1
169,4
170,1
171,6
172,4
173,1
175,2
177,2
178,2
179,3
180,4
181,3
183,4
184,5
185,1
187,4
190,1
193,2
194,2
195,4
196,3
197,1
198,2
200,9
201,3
204,19
205,1
206,1
207,1
209,5
210,1
212,2
213,1
218,1
219,3
221,3
224,4
226,3
235,1
240,3
241,1
243,1
247,2
250,1
252,2
254,1
259,3
261,2
265,3
268,2
270,1
272,9
273,1
274,12
275,2
277,1
278,1
279,1
280,1
281,1
284,3
285,1
287,7
289,1
292,2
294,4
296,2
300,1
304,5
306,2
307,1
309,1
312,3
315,3
318,1
319,6
320,7
321,2
322,14
323,3
325,5
327,3
329,4
330,6
331,3
332,8
333,2
334,1
336,2
338,9
340,2
341,4
342,1
343,5
344,5
345,11
346,4
347,2
349,7
350,2
351,2
352,1
354,1
355,1
356,1
357,3
358,3
360,13
363,4
364,1
365,5
367,1
368,22
370,3
371,3
372,1
376,1
377,1
378,1
379,1
380,10
384,1
386,1
387,1
389,2
393,2
394,1
395,1
398,4
401,3
403,1
406,2
407,1
409,7
410,2
411,3
414,1
416,3
417,1
421,1
426,1
427,2
428,1
430,2
432,1
434,2
441,1
442,1
445,1
446,1
450,1
451,2
452,1
453,1
454,1
455,2
460,1
462,1
464,2
465,3
466,1
467,2
472,2
475,2
478,2
479,1
481,2
485,2
486,1
489,1
490,2
493,1
497,4
501,1
504,2
516,1
518,2
520,3
521,1
522,3
525,1
528,1
530,2
531,1
532,1
533,2
535,2
538,2
541,1
543,3
546,2
548,1
549,2
552,2
558,3
560,2
563,6
564,9
565,9
566,6
567,1
568,2
571,1
575,1
578,1
579,1
580,1
582,1
588,1
591,1
593,1
597,1
598,1
599,1
601,1
602,1
603,3
608,2
613,1
615,7
616,1
617,1
620,1
626,1
633,2
634,3
636,2
640,1
643,3
644,1
646,1
648,2
650,13
662,3
669,1
670,1
671,1
673,1
679,1
682,1
684,1
686,1
690,1
691,1
694,1
703,3
704,1
705,5
707,1
709,1
713,2
714,4
718,1
720,2
729,1
733,1
738,1
744,1
746,4
747,1
748,1
749,5
750,1
759,1
760,2
764,3
780,1
786,3
788,4
790,3
791,1
794,1
796,1
797,1
798,1
800,1
804,2
806,1
808,2
820,5
825,1
831,2
840,3
843,1
860,2
861,3
866,1
867,1
869,1
873,1
874,2
875,4
878,1
882,1
902,1
905,1
917,1
918,1
919,1
920,2
928,7
931,4
933,1
935,2
936,5
938,1
941,1
942,1
944,1
945,1
949,1
950,1
953,1
956,1
957,1
967,1
972,1
974,1
975,2
976,1
979,3
983,1
985,1
986,2
987,8
991,6
992,3
997,1
998,1
1000,1
1002,6
1003,1
1006,1
1009,4
1010,1
1013,1
1016,2
1019,1
1020,4
1022,3
1024,1
1028,1
1032,1
1034,1
1036,1
1038,1
1040,1
1043,1
1045,4
1049,5
1052,4
1054,2
1055,1
1056,1
1057,1
1058,2
1059,2
1061,2
1063,2
1064,2
1065,1
1070,2
1073,3
1074,3
1077,3
1078,6
1079,23
1080,4
1081,8
1082,3
1083,2
1086,2
1088,5
1089,1
1091,6
1092,2
1093,4
1096,1
1097,2
1101,3
1106,1
1109,1
1110,1
1111,3
1112,1
1113,1
1116,2
1117,1
1118,3
1120,1
1121,2
1122,1
1124,2
1126,8
1128,1
1129,1
1131,4
1134,1
1136,1
1138,1
1140,3
1142,1
1155,1
1157,1
1161,1
1162,2
1163,2
1164,3
1166,2
1167,1
1172,1
1176,2
1177,3
1181,1
1182,3
1186,3
1193,1
1198,3
1202,2
1203,3
1206,1
1207,1
1210,1
1213,3
1214,1
1216,2
1219,1
1235,4
1245,2
1252,1
1253,2
1255,1
1258,3
1259,1
1260,1
1264,3
1270,1
1272,1
1274,1
1276,6
1278,1
1280,1
1281,1
1283,1
1286,1
1287,4
1290,1
1291,1
1294,2
1295,3
1296,1
1298,2
1301,1
1302,1
1305,1
1307,4
1308,1
1309,1
1313,1
1316,1
1319,1
1322,1
1323,1
1325,1
1327,1
1332,1
1333,2
1334,2
1338,1
1340,2
1342,1
1343,1
1344,1
1345,1
1347,1
1348,3
1352,1
1353,1
1362,1
1363,1
1369,1
1372,3
1374,3
1378,2
1383,1
1386,2
1387,2
1394,3
1395,1
1398,1
1401,1
1402,1
1405,1
1406,1
1408,2
1410,3
1411,4
1412,1
1416,2
1423,2
1426,1
1427,1
1428,1
1431,1
1432,2
1439,1
1440,1
1441,1
1444,2
1445,3
1446,1
1447,4
1449,5
1450,3
1451,3
1458,4
1462,1
1464,1
1468,1
1469,1
1470,1
1474,2
1475,2
1477,2
1479,1
1481,6
1483,1
1486,10
1487,1
1489,1
1505,1
1508,2
1509,1
1510,1
1518,1
1519,1
1522,1
1524,2
1528,1
1531,2
1533,1
1536,3
1538,1
1540,12
1542,1
1543,1
1545,5
1548,2
1551,3
1552,2
1554,4
1556,1
1558,4
1560,1
1561,1
1562,6
1563,4
1564,1
1568,1
1569,4
1570,2
1571,6
1575,1
1579,2
1582,1
1584,1
1591,1
1600,2
1601,1
1602,5
1603,1
1604,1
1610,1
1611,1
1612,1
1619,1
1620,1
1622,1
1624,15
1625,1
1631,1
1640,1
1646,1
1650,2
1656,1
1660,7
1666,1
1680,2
1693,1
1700,1
1702,1
1703,1
1705,1
1707,1
1711,1
1727,2
1729,5
1732,5
1739,1
1741,1
1742,1
1743,1
1745,1
1752,1
1761,1
1764,1
1765,3
1771,1
1772,2
1773,1
1776,2
1777,2
1778,1
1786,2
1789,2
1791,3
1794,2
1795,2
1797,7
1802,3
1808,1
1810,1
1812,1
1815,2
1825,1
1829,1
1846,1
1849,2
1850,1
1853,1
1855,3
1859,1
1864,1
1865,1
1867,1
1870,2
1872,1
1873,2
1879,1
1880,1
1881,1
1892,2
1896,1
1900,1
1901,1
1904,1
1909,5
1917,13
1931,4
1932,3
1933,2
1935,1
1937,1
1939,1
1940,1
1941,1
1950,1
1952,1
1956,2
1957,1
1959,1
1961,1
1965,1
1968,1
1971,2
1974,2
1976,1
1981,3
1983,2
1988,1
1989,1
1990,2
1991,1
1994,4
1995,2
2000,1
2001,1
2004,1
2005,1
2007,2
2012,2
2013,1
2020,1
2022,1
2023,4
2024,2
2025,28
2028,1
2034,1
2036,2
2037,8
2038,2
2040,1
2041,1
2046,2
2050,2
2051,1
2053,5
2058,1
2060,1
2061,2
2063,4
2067,1
2069,2
2076,2
2083,3
2084,1
2098,3
2101,1
2102,2
2103,1
2106,1
2107,9
2111,1
2113,2
2119,5
2129,1
2132,1
2135,1
2139,2
2140,2
2143,3
2144,1
2147,1
2153,1
2161,1
2166,1
2167,1
2171,1
2172,1
2184,1
2186,1
2188,2
2189,3
2190,1
2191,11
2197,1
2198,2
2201,1
2202,3
2204,1
2209,2
2210,2
2211,2
2212,3
2214,2
2216,3
2217,6
2218,1
2220,2
2221,1
2223,1
2227,1
2229,3
2233,1
2238,1
2239,2
2241,1
2242,1
2250,1
2254,1
2259,1
2263,1
2264,1
2265,1
2268,1
2270,1
2272,1
2274,1
2282,1
2285,1
2291,1
2295,3
2297,1
2299,2
2304,1
2306,1
2310,1
2311,2
2316,2
2318,1
2319,2
2322,1
2323,6
2324,2
2328,1
2335,1
2339,1
2340,1
2346,1
2347,3
2348,1
2353,1
2359,2
2361,1
2364,2
2366,1
2369,1
2370,1
2371,1
2372,1
2374,2
2375,3
2377,2
2378,1
2380,1
2381,1
2384,1
2389,5
2390,1
2391,2
2397,2
2398,6
2402,3
2403,4
2404,2
2407,1
2408,1
2409,6
2410,2
2411,1
2420,10
2422,1
2425,1
2428,1
2429,1
2431,1
2434,3
2436,1
2442,1
2443,2
2445,1
2449,2
2453,2
2454,1
2460,1
2463,1
2466,1
2473,2
2477,1
2481,1
2482,2
2488,1
2491,1
2493,1
2496,2
2500,1
2501,1
2503,1
2507,3
2508,2
2509,3
2510,1
2511,1
2514,2
2515,1
2516,3
2518,1
2520,1
2521,1
2524,1
2525,3
2526,1
2527,1
2528,2
2530,1
2532,1
2538,2
2540,1
2541,1
2543,2
2551,1
2553,1
2554,7
2562,1
2563,1
2564,1
2566,4
2567,1
2568,5
2570,1
2571,2
2572,1
2573,1
2580,1
2582,1
2585,1
2588,1
2589,1
2590,1
2591,1
2592,9
2593,3
2595,1
2596,1
2598,1
2603,6
2605,2
2611,3
2612,1
2613,2
2615,1
2618,1
2620,2
2624,6
2628,4
2629,11
2630,1
2632,7
2633,1
2636,2
2637,1
2638,6
2639,2
2642,2
2643,4
2644,3
2645,5
2646,2
2647,1
2651,2
2652,4
2653,1
2656,1
2658,2
2659,2
2660,1
2662,1
2663,1
2666,1
2669,1
2671,3
2673,2
2674,1
2678,2
2680,9
2681,1
2682,1
2683,1
2684,1
2685,1
2687,1
2689,2
2694,3
2695,3
2704,2
2705,2
2707,3
2708,2
2710,4
2712,1
2713,2
2714,3
2721,1
2725,4
2726,2
2727,1
2728,3
2732,1
2736,6
2737,2
2738,2
2739,3
2742,3
2743,3
2744,2
2745,8
2746,1
2747,5
2748,1
2749,1
2750,3
2751,2
2752,2
2754,4
2755,12
2760,2
2762,3
2765,1
2766,1
2767,3
2773,1
2775,6
2777,1
2782,1
2789,2
2800,2
2806,1
2819,1
2825,1
2826,2
2830,1
2831,3
2839,1
2853,4
2855,1
2856,3
2857,1
2858,3
2859,2
2860,8
2862,1
2863,2
2865,1
2870,1
2872,5
2873,2
2879,1
2882,4
2883,1
2884,1
2885,1
2886,1
2887,2
2892,8
2893,2
2894,2
2897,2
2900,3
2901,1
2902,1
2903,2
2908,1
2910,2
2914,1
2915,2
2920,3
2923,1
2928,1
2929,1
2930,1
2939,1
2942,1
2944,1
2948,2
2952,2
2954,3
2957,1
2959,1
2960,1
2965,1
2966,1
2968,4
2969,1
2970,4
2971,1
2972,1
2973,1
2978,1
2981,1
2982,1
2983,1
2984,2
2988,1
2990,1
2991,3
2995,1
3001,1
3002,1
3007,1
3013,2
3015,1
3017,2
3020,1
3023,3
3030,1
3032,2
3033,1
3039,2
3040,1
3046,3
3047,3
3049,1
3051,3
3053,2
3057,1
3065,2
3066,1
3068,1
3070,3
3072,1
3073,1
3075,1
3076,1
3078,1
3079,1
3082,1
3083,1
3085,1
3086,1
3091,5
3092,2
3096,2
3104,1
3109,1
3112,2
3117,2
3118,4
3119,7
3120,5
3121,4
3127,2
3134,2
3136,1
3137,4
3138,1
3139,1
3140,1
3145,1
3149,2
3151,1
3153,2
3154,1
3157,1
3158,1
3172,5
3178,2
3180,1
3181,1
3183,1
3184,1
3189,2
3190,1
3194,1
3196,1
3197,1
3198,4
3199,1
3202,1
3203,2
3204,1
3206,2
3207,1
3209,3
3212,3
3219,1
3221,16
3222,1
3224,1
3228,2
3229,2
3230,3
3232,2
3233,2
3234,1
3235,1
3237,1
3240,1
3241,1
3244,1
3245,6
3247,3
3248,1
3250,1
3252,4
3258,2
3265,2
3267,1
3269,1
3271,1
3278,1
3280,1
3281,1
3292,4
3294,1
3295,2
3298,1
3301,1
3302,1
3312,4
3316,1
3317,3
3318,3
3319,1
3322,1
3326,3
3328,3
3329,1
3331,3
3332,1
3338,1
3339,4
3340,3
3342,1
3343,1
3345,2
3348,1
3349,1
3352,3
3353,4
3355,1
3356,6
3357,1
3360,3
3364,3
3368,1
3373,1
3374,1
3377,2
3378,1
3382,1
3385,5
3388,1
3390,2
3392,1
3395,3
3398,1
3399,1
3403,3
3420,2
3421,1
3422,3
3423,4
3425,3
3429,1
3431,1
3433,1
3435,3
3439,2
3441,1
3442,1
3444,1
3447,1
3451,5
3455,1
3458,3
3461,1
3464,1
3466,2
3475,3
3479,1
3481,2
3482,5
3488,1
3489,2
3491,1
3494,2
3497,1
3500,1
3501,1
3502,1
3506,1
3508,1
3509,2
3510,1
3514,1
3516,1
3524,1
3532,2
3537,2
3542,1
3546,1
3553,1
3554,1
3558,1
3563,4
3564,4
3565,4
3566,3
3568,1
3569,1
3570,2
3571,1
3572,1
3573,1
3591,1
3596,1
3600,1
3601,3
3604,2
3606,5
3610,3
3612,4
3618,1
3619,5
3620,1
3624,1
3625,1
3626,1
3632,1
3638,3
3640,1
3645,2
3647,3
3648,2
3650,1
3652,1
3656,7
3657,1
3659,7
3660,1
3664,1
3665,1
3675,1
3678,2
3679,1
3681,5
3685,2
3687,2
3689,3
3693,8
3697,2
3698,2
3701,2
3704,2
3706,4
3708,1
3710,2
3713,3
3714,1
3715,8
3718,3
3719,1
3722,1
3724,3
3725,1
3726,2
3729,4
3734,1
3736,3
3741,1
3742,1
3750,7
3751,3
3752,1
3755,2
3773,1
3774,2
3781,1
3782,29
3785,1
3786,1
3789,4
3790,1
3791,1
3794,2
3796,1
3799,2
3800,1
3802,3
3814,5
3817,1
3818,1
3820,1
3821,1
3823,3
3824,3
3828,3
3829,4
3830,1
3832,1
3835,1
3837,1
3839,3
3841,3
3846,2
3849,23
3853,1
3854,1
3855,1
3857,1
3859,2
3860,2
3864,1
3866,9
3867,2
3868,3
3869,2
3872,1
3874,1
3875,3
3876,1
3878,1
3879,2
3881,1
3882,2
3883,1
3889,2
3892,1
3893,1
3894,1
3896,1
3902,1
3905,8
3906,1
3909,1
3915,3
3918,3
3919,2
3920,2
3924,1
3926,1
3927,1
3929,1
3933,2
3934,3
3935,1
3940,1
3941,1
3947,1
3949,3
3960,1
3961,1
3963,4
3965,1
3971,2
3978,1
3979,2
3982,1
3983,4
4001,2
4002,4
4004,1
4007,2
4009,1
4015,3
4016,1
4017,1
4018,1
4019,1
4032,1
4040,1
4044,2
4047,1
4048,3
4051,3
4056,1
4070,1
4080,1
4084,1
4085,1
4086,1
4088,1
4092,1
4098,1
4100,3
4103,2
4116,2
4118,2
4121,1
4125,1
4128,9
4130,1
4137,1
4140,1
4142,2
4143,1
4145,1
4146,2
4147,1
4152,3
4160,2
4166,1
4168,1
4170,3
4175,2
4182,2
4183,10
4185,1
4186,2
4188,1
4190,4
4191,1
4192,2
4195,2
4196,5
4197,1
4199,1
4202,5
4204,5
4206,2
4208,4
4213,3
4215,1
4216,2
4217,1
4227,3
4231,1
4232,1
4236,2
4241,4
4248,1
4249,1
4251,1
4252,1
4253,2
4258,1
4260,5
4261,1
4262,1
4263,2
4267,2
4270,3
4271,1
4285,1
4288,1
4300,9
4303,1
4307,1
4317,1
4320,1
4330,4
4331,1
4334,2
4340,2
4344,1
4351,2
4355,2
4357,2
4358,2
4359,1
4360,1
4361,1
4363,3
4366,1
4367,3
4368,3
4369,4
4370,5
4371,1
4373,1
4376,2
4377,1
4378,3
4379,3
4380,2
4381,3
4383,1
4387,1
4388,6
4389,1
4390,3
4392,1
4396,3
4397,1
4398,1
4400,1
4402,2
4407,14
4408,1
4413,2
4416,4
4417,2
4419,1
4420,1
4423,2
4427,1
4429,4
4432,1
4433,3
4434,1
4435,5
4436,2
4438,1
4440,3
4442,1
4448,1
4451,1
4453,1
4460,2
4464,1
4468,2
4471,1
4472,2
4474,2
4477,1
4485,2
4497,2
4500,9
4506,2
4507,14
4508,10
4509,1
4510,1
4511,2
4514,1
4515,4
4520,2
4524,2
4527,2
4530,3
4531,2
4532,9
4540,5
4542,4
4547,1
4555,1
4557,1
4559,4
4561,2
4567,2
4572,2
4580,1
4581,1
4585,2
4587,1
4591,1
4592,3
4595,1
4599,2
4603,1
4615,1
4616,1
4617,1
4621,1
4623,1
4628,1
4638,2
4643,1
4645,1
4646,1
4648,2
4649,1
4662,1
4663,1
4682,3
4685,1
4686,3
4688,1
4691,2
4692,3
4693,1
4701,1
4703,3
4705,3
4706,4
4709,4
4711,3
4714,1
4721,1
4722,1
4725,1
4726,1
4727,3
4728,2
4733,1
4735,1
4737,1
4738,1
4744,8
4746,1
4747,3
4748,3
4751,3
4755,1
4757,1
4760,2
4761,1
4762,1
4765,1
4768,3
4770,1
4772,1
4774,3
4777,1
4779,2
4781,1
4782,3
4783,1
4784,1
4791,1
4794,1
4796,1
4798,1
4804,2
4807,1
4811,1
4822,1
4834,1
4837,1
4845,1
4850,1
4852,2
4855,1
4856,1
4857,4
4859,2
4860,3
4863,1
4872,1
4873,1
4875,5
4878,5
4880,1
4884,1
4890,2
4894,1
4909,2
4910,1
4913,3
4920,2
4921,1
4928,1
4929,1
4932,1
4938,1
4942,1
4943,1
4948,2
4950,1
4958,5
4959,2
4974,1
4977,2
4978,1
4986,1
4988,4
4998,1
4999,1
5000,1
5002,4
5003,4
5010,1
5013,1
5021,1
5024,1
5030,1
5032,2
5038,3
5039,2
5041,1
5042,1
5048,2
5050,1
5051,5
5054,1
5056,2
5057,2
5061,1
5064,1
5065,1
5074,1
5078,5
5083,3
5084,1
5088,1
5090,2
5093,1
5095,1
5097,1
5098,2
5101,1
5107,1
5109,1
5116,2
5119,1
5120,1
5128,1
5130,1
5134,1
5139,1
5142,2
5146,1
5147,2
5151,4
5153,1
5155,2
5158,1
5160,3
5168,1
5169,1
5171,1
5174,1
5175,1
5181,1
5182,1
5186,1
5187,1
5190,1
5192,1
5194,1
5196,2
5197,1
5203,1
5205,2
5208,2
5213,2
5215,1
5217,2
5222,3
5223,1
5225,2
5226,1
5228,1
5229,2
5231,1
5235,1
5237,3
5238,2
5241,1
5251,1
5252,1
5258,27
5268,1
5271,1
5272,6
5281,1
5284,2
5286,1
5293,2
5300,1
5303,1
5308,2
5312,1
5313,1
5322,1
5329,1
5331,1
5340,4
5342,1
5347,2
5348,1
5350,1
5354,1
5358,1
5360,6
5361,2
5363,2
5365,1
5370,1
5371,1
5372,2
5373,2
5377,1
5379,2
5380,2
5381,1
5382,3
5385,1
5386,2
5389,5
5390,5
5391,7
5393,9
5394,5
5397,1
5398,2
5399,2
5401,1
5406,11
5407,1
5409,2
5410,4
5415,1
5416,2
5421,1
5422,1
5425,1
5430,1
5449,1
5450,1
5451,3
5453,2
5459,1
5462,1
5464,1
5466,1
5467,1
5481,1
5484,2
5485,4
5487,2
5490,2
5493,2
5496,2
5497,3
5498,3
5503,2
5508,1
5509,2
5511,2
5519,1
5521,1
5523,1
5525,3
5527,6
5535,2
5536,1
5537,1
5538,2
5539,1
5541,1
5542,1
5544,5
5545,4
5553,1
5554,1
5555,3
5557,1
5559,2
5564,2
5566,3
5568,3
5571,2
5574,2
5575,2
5577,3
5578,2
5580,2
5582,3
5588,2
5589,5
5592,3
5593,5
5607,3
5615,1
5618,6
5621,1
5629,1
5634,1
5636,3
5637,1
5638,3
5639,1
5640,1
5641,2
5653,2
5659,1
5663,1
5669,2
5673,1
5676,2
5678,2
5680,4
5681,1
5690,2
5692,1
5696,1
5701,1
5702,1
5705,1
5714,1
5715,1
5720,3
5725,1
5728,1
5732,1
5737,2
5738,1
5740,3
5742,3
5743,2
5747,1
5749,2
5756,2
5757,5
5759,5
5760,11
5762,1
5773,2
5775,3
5776,3
5777,2
5785,1
5805,1
5806,1
5807,1
5812,2
5815,1
5816,3
5817,1
5821,4
5826,21
5830,1
5832,1
5839,5
5845,1
5847,72
5849,1
5861,3
5864,1
5879,1
5900,1
5901,2
5903,1
5908,1
5909,1
5912,2
5919,3
5927,1
5928,2
5929,3
5934,1
5946,1
5956,8
5958,2
5964,10
5974,1
5981,1
5984,4
5986,4
5997,1
6006,4
6007,1
6009,5
6011,1
6013,1
6014,1
6015,6
6016,1
6020,1
6027,1
6035,1
6039,2
6042,1
6043,5
6044,1
6047,1
6050,1
6051,1
6052,1
6061,1
6066,1
6068,1
6074,34
6076,1
6081,1
6086,1
6087,1
6093,9
6095,2
6096,1
6097,2
6098,2
6102,1
6107,5
6108,3
6109,3
6111,2
6112,2
6114,1
6116,2
6117,3
6123,10
6124,1
6125,1
6126,1
6128,1
6130,2
6132,9
6135,1
6136,1
6141,1
6142,12
6153,1
6156,1
6159,3
6160,2
6161,1
6162,1
6165,1
6166,2
6170,2
6178,2
6180,2
6181,1
6183,4
6188,1
6189,3
6193,1
6199,2
6201,1
6202,1
6203,4
6208,2
6214,1
6215,4
6218,1
6223,1
6227,1
6230,1
6241,1
6244,1
6248,1
6250,1
6251,1
6253,1
6254,1
6257,1
6261,1
6262,2
6263,1
6264,2
6265,1
6266,1
6267,4
6270,2
6271,1
6272,1
6284,3
6290,1
6295,1
6296,2
6303,1
6304,2
6305,1
6306,1
6307,1
6308,1
6316,2
6324,6
6329,1
6332,1
6338,2
6341,2
6351,1
6353,1
6361,1
6363,17
6366,1
6369,4
6371,3
6373,2
6379,1
6383,1
6385,3
6386,1
6389,2
6390,1
6392,6
6395,2
6397,2
6398,2
6399,1
6420,4
6422,1
6423,1
6426,3
6428,2
6430,1
6432,2
6433,1
6436,1
6441,2
6448,1
6452,5
6453,1
6457,2
6458,3
6459,2
6466,2
6467,1
6478,1
6479,1
6484,2
6487,1
6490,1
6493,2
6494,1
6498,1
6501,3
6502,4
6508,1
6509,1
6510,1
6511,1
6512,1
6514,1
6521,5
6526,1
6527,1
6534,1
6537,1
6541,1
6542,1
6543,1
6544,1
6552,1
6558,1
6561,2
6563,1
6565,1
6570,2
6576,1
6578,2
6579,1
6591,3
6594,1
6597,1
6606,1
6608,1
6610,1
6613,1
6619,3
6621,2
6622,2
6623,1
6626,1
6630,1
6632,2
6636,4
6637,1
6640,7
6642,1
6644,4
6658,2
6661,1
6674,2
6675,1
6678,3
6682,1
6684,1
6685,1
6688,1
6689,1
6693,1
6694,3
6706,2
6708,1
6712,2
6720,1
6723,1
6727,1
6734,1
6736,1
6739,1
6740,1
6744,1
6748,1
6751,10
6752,1
6754,2
6756,1
6760,1
6762,1
6764,1
6770,7
6773,2
6774,2
6781,1
6785,1
6786,1
6788,1
6789,1
6791,3
6793,2
6795,2
6802,1
6803,1
6813,2
6814,5
6818,2
6822,1
6827,3
6828,2
6830,9
6832,1
6833,1
6839,5
6840,7
6841,1
6849,1
6850,1
6852,1
6853,6
6854,3
6862,4
6867,1
6868,3
6878,4
6879,3
6883,2
6892,1
6895,6
6896,1
6898,11
6899,1
6901,2
6908,3
6911,1
6913,1
6914,1
6918,1
6920,5
6925,4
6929,1
6934,1
6936,3
6938,2
6940,1
6942,3
6943,1
6947,1
6948,2
6950,1
6951,3
6953,2
6954,3
6956,1
6958,1
6960,1
6963,1
6967,1
6971,1
6982,1
6985,1
6986,1
6987,2
6988,2
6990,3
6991,3
6994,1
6997,1
7005,1
7006,2
7007,2
7009,2
7010,1
7011,3
7015,3
7016,4
7017,1
7018,2
7019,2
7023,1
7024,1
7026,3
7027,3
7030,7
7031,2
7032,1
7034,2
7041,2
7042,1
7043,2
7044,3
7045,3
7046,2
7051,1
7055,1
7056,2
7062,2
7063,1
7068,3
7069,1
7070,5
7071,3
7073,1
7079,1
7082,6
7084,3
7086,1
7090,1
7094,3
7097,1
7098,2
7099,6
7100,4
7103,15
7104,4
7105,1
7106,5
7108,5
7110,1
7112,1
7114,2
7115,2
7116,3
7117,4
7118,1
7127,4
7134,1
7136,1
7137,1
7140,2
7141,1
7142,3
7143,1
7144,2
7149,5
7152,1
7153,2
7154,2
7155,3
7157,3
7158,4
7159,1
7161,2
7162,1
7167,2
7170,4
7172,1
7177,7
7178,1
7182,1
7186,2
7187,1
7199,6
7202,4
7204,1
7207,8
7211,2
7216,2
7217,3
7225,1
7226,1
7227,6
7231,1
7232,1
7233,2
7242,2
7243,6
7250,4
7256,4
7265,2
7270,1
7271,9
7273,1
7274,4
7276,2
7277,2
7278,2
7291,1
7296,1
7304,1
7306,3
7309,3
7313,1
7314,1
7317,4
7318,1
7320,1
7321,2
7323,5
7326,1
7328,2
7330,1
7331,2
7336,1
7364,1
7366,1
7368,3
7369,1
7371,18
7373,1
7378,1
7379,2
7380,2
7382,1
7389,1
7391,8
7392,3
7404,6
7407,6
7409,1
7412,2
7413,3
7414,1
7415,3
7416,2
7417,1
7418,1
7419,1
7421,5
7423,5
7426,4
7427,1
7429,1
7431,4
7434,3
7441,6
7442,3
7443,1
7445,1
7446,1
7447,3
7449,1
7450,1
7451,1
7454,7
7468,2
7475,2
7478,2
7480,1
7484,2
7485,1
7489,6
7494,2
7497,2
7503,1
7504,1
7515,1
7516,1
7520,1
7522,9
7526,1
7534,3
7536,1
7537,3
7542,1
7543,1
7547,2
7549,2
7552,5
7560,1
7561,1
7562,2
7566,9
7571,2
7572,1
7573,1
7580,1
7587,1
7595,3
7600,1
7603,1
7604,1
7605,1
7607,1
7612,1
7613,2
7618,3
7625,1
7628,1
7631,1
7632,1
7633,1
7634,1
7637,2
7640,2
7645,2
7646,1
7651,1
7655,1
7658,7
7665,1
7667,1
7668,1
7670,1
7671,2
7672,1
7673,1
7674,1
7678,17
7683,1
7684,1
7686,1
7687,1
7693,1
7695,2
7702,2
7707,1
7709,3
7710,4
7711,1
7714,3
7715,3
7717,1
7721,2
7722,1
7723,1
7724,3
7725,1
7727,4
7729,1
7730,1
7731,2
7732,5
7737,1
7738,2
7743,1
7744,3
7745,1
7746,1
7747,2
7752,1
7757,2
7758,1
7759,1
7761,1
7765,9
7766,1
7768,2
7769,6
7771,2
7774,2
7775,1
7776,7
7777,1
7779,1
7780,1
7782,1
7783,2
7785,3
7788,1
7793,2
7796,1
7797,7
7800,2
7801,1
7802,3
7804,1
7805,1
7806,2
7807,3
7809,1
7815,1
7818,1
7820,1
7828,1
7833,1
7838,1
7841,2
7842,1
7844,2
7845,1
7846,2
7853,1
7855,1
7858,1
7872,1
7873,1
7878,1
7879,1
7882,2
7887,2
7891,1
7892,1
7896,1
7897,1
7898,1
7899,1
7903,9
7909,7
7911,5
7912,1
7913,1
7914,3
7915,1
7916,3
7920,1
7922,1
7925,1
7928,2
7929,13
7930,2
7931,1
7935,4
7938,1
7941,2
7942,1
7943,1
7948,1
7952,1
7953,1
7954,5
7955,4
7958,3
7966,1
7968,1
7969,1
7970,2
7971,2
7976,2
7981,1
7983,1
7986,1
7988,2
7991,1
7994,2
7999,1
8012,1
8015,1
8027,3
8028,2
8030,1
8033,1
8036,1
8040,1
8044,1
8048,1
8049,1
8052,4
8053,1
8060,1
8066,1
8067,1
8068,1
8070,1
8073,1
8079,4
8081,1
8084,1
8085,2
8086,2
8088,2
8090,1
8092,1
8093,3
8097,1
8098,1
8103,1
8106,1
8112,3
8116,2
8119,1
8120,4
8121,2
8123,1
8124,1
8125,1
8126,1
8129,2
8132,1
8133,1
8139,2
8140,1
8143,1
8149,1
8152,1
8154,1
8156,1
8158,2
8160,1
8161,3
8165,1
8167,1
8169,1
8172,1
8177,1
8180,1
8185,2
8187,2
8189,2
8200,1
8206,1
8207,4
8215,1
8217,1
8218,2
8219,1
8220,2
8223,1
8225,1
8231,1
8234,2
8237,1
8240,2
8248,1
8250,1
8252,1
8254,1
8257,6
8258,1
8260,2
8271,3
8272,2
8279,3
8282,2
8288,5
8290,1
8297,1
8301,1
8302,2
8303,1
8307,1
8310,3
8311,3
8315,2
8316,1
8319,2
8321,1
8322,9
8324,1
8329,1
8334,1
8335,2
8336,1
8337,1
8339,2
8340,1
8348,1
8352,3
8354,1
8358,2
8359,1
8362,1
8363,1
8364,1
8372,1
8378,5
8379,2
8380,1
8387,2
8389,1
8401,1
8404,1
8406,1
8407,1
8408,1
8421,1
8425,2
8426,3
8428,3
8429,3
8430,8
8431,4
8433,1
8437,1
8438,1
8439,1
8445,4
8446,1
8449,1
8465,1
8467,1
8468,1
8469,1
8471,3
8473,2
8477,1
8478,20
8480,1
8484,5
8487,4
8488,1
8490,1
8491,1
8492,2
8495,2
8500,3
8503,1
8507,2
8511,9
8512,2
8513,1
8516,1
8522,2
8527,5
8529,2
8531,2
8532,4
8533,1
8534,4
8535,9
8537,4
8538,4
8540,1
8546,1
8549,3
8550,1
8552,1
8554,1
8555,1
8556,2
8557,4
8558,1
8559,2
8560,9
8562,2
8563,1
8564,3
8567,3
8568,1
8574,2
8578,1
8583,1
8585,1
8587,1
8591,1
8597,2
8599,1
8601,1
8604,2
8605,3
8606,1
8607,2
8608,3
8610,1
8611,2
8612,2
8613,2
8614,7
8616,1
8617,1
8618,3
8619,4
8620,1
8624,1
8627,1
8629,1
8632,3
8636,1
8638,3
8647,1
8648,2
8649,1
8655,4
8658,1
8660,1
8661,1
8663,3
8666,1
8667,5
8671,1
8672,3
8673,4
8674,1
8676,1
8679,1
8684,7
8685,5
8686,13
8687,20
8688,15
8689,10
8690,15
8691,9
8692,9
8693,4
8694,1
8695,3
8696,10
8697,9
8698,8
8699,3
8700,11
8701,7
8702,8
8703,13
8704,4
8705,5
8706,2
8707,3
8708,1
8709,3
8710,5
8711,2
8712,2
8713,13
8714,4
8715,13
8717,7
8718,6
8719,9
8720,5
8721,1
8722,2
8723,17
8724,3
8725,2
8726,7
8727,5
8728,8
8729,5
8730,9
8731,6
8732,12
8733,10
8734,14
8735,24
8736,45
8737,26
8738,37
8739,40
8740,46
8741,13
8742,17
8743,15
8744,1
8745,6
8746,2
8747,6
8748,5
8749,1
8750,2
8751,9
8752,3
8753,11
8754,2
8756,10
8757,29
8759,1
8760,3
8761,2
8762,1
8763,3
8764,2
8765,5
8766,4
8767,7
8768,4
8769,2
8770,3
8771,10
8772,7
8773,8
8774,6
8775,2
8776,15
8778,4
8779,3
8780,6
8781,2
8782,8
8783,8
8784,1
8785,6
8786,5
8787,6
8788,23
8789,11
8790,1
8791,11
8792,4
8793,4
8794,2
8795,4
8796,12
8797,3
8798,7
8799,3
8800,5
8802,1
8803,1
8808,1
8810,1
8811,2
8812,2
8813,1
8816,2
8818,1
8819,3
8821,2
8831,2
8836,1
8837,1
8844,1
8845,5
8846,1
8847,1
8848,1
8850,1
8853,5
8858,1
8860,1
8865,2
8870,3
8874,1
8876,2
8878,28
8879,27
8880,1
8881,59
8885,1
8886,1
8887,6
8888,1
8889,5
8890,6
8892,2
8893,2
8894,5
8895,9
8897,3
8898,1
8900,11
8901,3
8902,16
8903,12
8905,13
8906,1
8907,4
8908,1
8909,3
8910,1
8911,5
8912,7
8913,2
8915,2
8916,1
8917,1
8918,6
8919,2
8920,2
8921,1
8922,13
8923,2
8924,9
8925,2
8927,3
8928,3
8929,3
8930,7
8932,6
8933,3
8963,1
8979,1
8980,1
8982,8
8983,16
8984,21
8985,2
8986,4
8987,4
8988,8
8989,3
8990,1
8991,1
8992,9
8993,1
8994,9
8995,4
8996,2
8997,15
8999,2
9001,4
9002,6
9003,8
9004,2
9005,3
9006,1
9007,1
9009,10
9010,2
9011,11
9012,2
9013,1
9015,2
9018,9
9019,1
9020,2
9022,17
9023,21
9026,2
9028,12
9029,2
9033,1
9144,9
9145,39
9146,14
9147,18
9148,26
9149,9
9150,1
9151,5
9154,26
9155,33
9156,9
9157,34
9158,7
9159,9
9160,4
9161,11
9162,16
9163,7
9164,9
9165,6
9166,25
9167,6
9168,18
9169,39
9170,34
9171,55
9172,92
9173,27
9174,29
9175,29
9176,7
9177,2
9178,3
9179,40
9180,28
9181,24
9182,17
9183,2
9184,11
9185,28
9186,21
9187,16
9188,28
9189,69
9190,53
9191,23
9192,43
9193,9
9194,51
9195,34
9196,27
9197,26
9198,9
9199,3
9200,16
9201,32
9202,11
9203,5
9204,26
9205,9
9206,77
9207,40
9208,25
9210,45
9211,74
9212,60
9213,306
9214,171
9467,2
9468,1
9469,5
9470,2
9472,8
9474,31
9475,7
9476,1
9477,3
9480,3
9481,7
9482,16
9483,15
9484,11
9485,46
9486,12
9487,3
9488,14
9489,2
9490,2
9491,1
9493,3
9495,1
9499,1
9500,2
9503,1
9504,6
9507,3
9511,3
9512,2
9513,1
9514,1
9520,2
9522,1
9525,2
9526,1
9528,1
9529,2
9538,2
9541,1
9542,2
9543,1
9544,1
9546,1
9548,5
9549,4
9550,2
9552,1
9554,1
9555,2
9557,6
9558,14
9560,8
9564,1
9566,2
9576,1
9577,3
9578,2
9580,8
9581,2
9583,3
9584,7
9585,8
9586,40
9587,4
9588,10
9589,5
9590,16
9591,18
9592,7
9593,15
9594,21
9595,52
9596,72
9597,20
9598,4
9599,6
9600,3
9603,7
9606,7
9607,4
9610,3
9614,2
9617,1
9619,1
9620,4
9621,2
9622,1
9623,1
9626,4
9627,1
9628,5
9629,4
9630,4
9632,1
9636,1
9641,4
9643,1
9645,7
9646,2
9647,2
9648,1
9649,2
9650,4
9655,3
9657,1
9662,1
9663,1
9665,6
9666,2
9668,1
9669,1
9670,3
9671,1
9674,3
9675,1
9678,1
9680,4
9681,1
9683,3
9684,1
9685,3
9687,3
9691,3
9692,2
9694,4
9698,1
9701,2
9703,11
9704,7
9705,17
9706,11
9707,14
9709,11
9710,4
9712,10
9713,4
9714,6
9715,56
9716,50
9717,28
9718,11
9719,14
9720,37
9721,39
9722,4
9723,8
9725,15
9726,8
9727,3
9734,10
9738,9
9744,1
9750,4
9751,10
9752,16
9753,1
9754,8
9755,36
9756,32
9757,13
9758,5
9759,19
9760,1
9761,2
9762,5
9764,7
9765,2
9766,2
9769,7
9770,2
9772,1
9773,1
9774,2
9776,1
9777,1
9780,1
9781,1
9783,10
9785,2
9793,2
9802,1
9803,1
9804,15
9805,3
9808,2
9814,2
9821,2
9824,4
9825,1
9827,3
9828,3
9830,1
9832,1
9834,1
9839,2
9840,1
9848,3
9853,1
9854,1
9859,1
9866,2
9868,1
9872,1
9879,1
9880,1
9884,4
9887,1
9890,5
9891,2
9894,1
9896,2
9897,1
9900,1
9901,1
9902,1
9903,1
9908,2
9911,16
9916,2
9917,1
9919,1
9923,2
9924,1
9925,1
9926,2
9930,1
9931,3
9932,1
9933,2
9940,7
9941,3
9943,1
9946,1
9947,3
9949,2
9954,1
9955,1
9957,1
9958,1
9963,2
9965,1
9968,2
9971,1
9975,3
9983,1
9984,2
9985,2
9991,1
9994,1
9998,2
10001,1
10009,1
10010,3
10011,2
10016,2
10017,1
10019,1
10030,1
10031,3
10038,1
10039,2
10040,8
10041,1
10043,24
10045,1
10049,1
10051,4
10052,1
10058,1
10060,2
10062,3
10064,2
10072,1
10074,2
10075,2
10076,1
10085,2
10087,2
10090,1
10095,1
10096,1
10097,5
10099,3
10100,3
10101,1
10102,4
10103,1
10104,3
10106,1
10108,7
10109,1
10110,1
10120,2
10127,1
10128,3
10129,1
10131,1
10133,1
10135,1
10136,2
10137,2
10139,1
10142,4
10143,2
10147,2
10150,2
10151,2
10153,2
10154,1
10158,4
10160,1
10161,3
10162,2
10167,2
10170,2
10172,2
10173,3
10175,7
10177,2
10179,1
10180,1
10181,2
10183,2
10186,1
10187,2
10189,5
10199,1
10201,12
10203,2
10208,3
10212,1
10216,1
10217,6
10218,2
10225,1
10226,1
10234,1
10235,1
10237,4
10239,3
10240,1
10243,4
10244,2
10245,2
10246,1
10248,1
10251,6
10252,9
10253,4
10254,5
10257,2
10259,1
10267,1
10270,1
10274,1
10276,1
10277,3
10282,3
10288,3
10289,2
10297,3
10305,2
10308,1
10309,1
10321,1
10323,1
10324,2
10328,1
10329,3
10330,2
10331,2
10332,2
10341,1
10350,11
10353,1
10358,4
10359,2
10362,1
10365,2
10375,2
10376,1
10382,1
10384,1
10386,1
10387,2
10395,2
10401,2
10406,1
10410,1
10412,9
10420,1
10421,1
10423,1
10428,1
10430,1
10431,1
10438,1
10442,1
10451,1
10452,1
10454,1
10455,1
10457,2
10459,1
10461,2
10468,1
10470,1
10472,1
10474,1
10476,1
10478,1
10480,2
10486,2
10488,1
10489,2
10493,1
10495,2
10496,2
10498,1
10503,1
10506,2
10510,1
10512,1
10520,2
10521,1
10522,3
10524,2
10526,7
10527,5
10528,1
10529,1
10531,2
10532,1
10533,1
10537,3
10540,4
10547,3
10548,1
10555,2
10557,1
10559,1
10563,2
10565,2
10577,1
10584,1
10586,1
10590,2
10593,1
10594,2
10595,2
10604,1
10611,1
10614,3
10626,11
10627,1
10628,2
10629,2
10630,1
10632,1
10633,1
10635,16
10637,10
10638,2
10639,6
10640,13
10641,16
10642,4
10643,20
10644,4
10645,5
10646,11
10647,9
10648,7
10649,21
10650,7
10651,6
10654,3
10657,1
10666,1
10667,1
10670,2
10679,2
10680,2
10681,1
10683,1
10684,1
10685,1
10691,1
10692,1
10693,1
10701,2
10702,1
10710,1
10712,2
10718,2
10719,2
10720,1
10728,6
10730,1
10732,1
10734,1
10737,1
10739,1
10740,1
10747,1
10752,1
10755,3
10758,2
10760,1
10766,2
10777,1
10782,1
10783,6
10784,9
10785,5
10786,3
10787,7
10788,7
10789,19
10790,37
10791,11
10793,11
10797,1
10798,2
10801,2
10804,1
10805,1
10820,1
10826,2
10831,3
10834,1
10838,1
10843,1
10844,1
10847,2
10850,5
10852,3
10853,3
10857,2
10859,1
10860,5
10861,1
10866,17
10867,13
10868,2
10869,2
10870,1
10872,3
10875,6
10876,5
10877,1
10878,2
10879,1
10882,5
10887,1
10893,2
10899,1
10900,2
10907,1
10908,2
10909,2
10912,3
10919,2
10920,3
10923,3
10924,2
10925,2
10927,4
10931,3
10935,1
10938,2
10941,1
10942,3
10944,3
10947,2
10948,1
10953,1
10955,1
10956,1
10959,1
10964,2
10967,4
10969,3
10972,2
10973,2
10975,1
10977,5
10978,5
10980,2
10981,6
10982,3
10983,6
10984,4
10985,3
10986,6
10988,1
10990,2
10991,4
10992,5
10993,10
10999,3
11000,2
11001,2
11002,2
11004,2
11005,1
11006,3
11007,4
11008,3
11012,3
11013,2
11015,1
11017,3
11018,1
11019,9
11020,1
11022,1
11023,1
11025,2
11027,1
11030,9
11031,3
11032,1
11033,5
11034,3
11035,2
11036,3
11037,10
11038,8
11039,8
11040,5
11045,3
11046,5
11047,3
11052,3
11053,2
11054,5
11055,3
11056,3
11057,4
11058,3
11060,4
11061,7
11062,7
11063,4
11064,2
11065,2
11066,1
11067,1
11070,1
11071,1
11072,2
11073,1
11076,1
11077,2
11088,1
11089,2
11097,5
11099,1
11100,6
11102,1
11103,1
11104,5
11113,1
11114,1
11115,2
11116,2
11118,2
11123,14
11124,3
11126,3
11127,1
11128,5
11129,7
11130,7
11131,10
11132,12
11133,6
11134,5
11135,2
11136,10
11137,4
11138,4
11139,13
11140,8
11141,8
11142,9
11143,3
11144,4
11145,5
11146,5
11147,2
11148,8
11149,6
11150,3
11151,7
11153,2
11157,3
11158,2
11159,2
11160,11
11161,2
11162,4
11166,1
11167,1
11169,1
11173,1
11174,6
11175,8
11176,6
11177,15
11178,14
11179,24
11180,6
11181,6
11182,9
11183,5
11184,5
11185,6
11186,10
11187,5
11188,1
11189,2
11191,1
11195,34
11196,1
11199,4
11200,10
11201,8
11202,10
11206,2
11207,1
11208,1
11211,5
11212,3
11214,4
11215,2
11216,2
11218,1
11219,2
11220,1
11224,1
11230,1
11233,1
11235,8
11236,1
11237,15
11238,16
11239,9
11240,7
11241,9
11242,7
11243,8
11244,3
11245,23
11248,2
11249,1
11251,8
11253,2
11255,3
11256,1
11257,2
11259,1
11260,2
11262,1
11263,6
11265,1
11268,1
11269,1
11272,1
11273,1
11274,4
11278,3
11279,1
11284,5
11292,2
11293,1
11294,8
11302,1
11304,3
11305,1
11306,1
11309,2
11310,1
11311,1
11313,3
11316,2
11318,1
11319,2
11320,3
11324,5
11330,3
11335,1
11336,1
11340,10
11341,1
11342,25
11343,21
11344,6
11345,2
11346,14
11347,12
11348,10
11349,10
11350,16
11351,29
11352,15
11353,10
11354,16
11355,4
11356,10
11357,46
11358,52
11359,91
11360,184
11361,33
11362,48
11363,6
11364,3
11365,9
11366,14
11367,16
11368,1
11370,1
11374,2
11375,1
11376,1
11377,1
11378,2
11380,1
11381,1
11383,2
11394,4
11396,1
11397,1
11398,5
11400,3
11407,3
11409,2
11410,1
11412,1
11415,2
11417,1
11419,1
11420,1
11421,3
11427,1
11428,3
11429,1
11430,1
11434,1
11436,1
11438,1
11439,1
11444,1
11445,1
11448,1
11454,1
11465,1
11466,2
11467,2
11477,1
11482,1
11484,5
11485,1
11489,2
11490,1
11492,1
11495,1
11500,1
11504,3
11507,2
11511,1
11512,1
11514,2
11516,1
11519,1
11520,1
11521,1
11522,2
11525,1
11528,5
11529,2
11530,1
11531,3
11534,1
11535,1
11537,1
11538,1
11539,5
11543,3
11544,4
11545,1
11546,1
11547,1
11549,1
11554,2
11557,3
11559,2
11561,1
11562,1
11568,2
11569,8
11570,3
11578,1
11579,1
11580,1
11583,1
11586,1
11587,1
11589,1
11591,1
11593,1
11594,3
11595,4
11596,2
11601,1
11603,1
11606,12
11609,1
11615,1
11619,1
11622,4
11625,1
11627,1
11628,1
11631,1
11632,1
11634,2
11640,1
11641,1
11643,2
11646,1
11651,2
11652,2
11653,1
11656,1
11657,1
11662,1
11663,2
11664,1
11666,1
11667,1
11668,1
11670,2
11673,1
11676,1
11677,3
11679,2
11681,2
11682,2
11684,2
11691,4
11692,2
11693,1
11694,6
11695,3
11696,1
11698,2
11699,2
11700,1
11702,1
11705,1
11706,2
11708,4
11709,2
11710,1
11711,2
11713,1
11714,2
11716,3
11717,2
11719,1
11724,2
11725,2
11726,1
11727,1
11731,1
11733,1
11736,2
11739,1
11741,1
11742,2
11744,4
11747,14
11752,4
11753,3
11757,2
11760,2
11762,1
11763,9
11772,1
11774,1
11776,7
11778,1
11779,6
11781,5
11786,2
11793,2
11794,3
11795,6
11798,1
11803,1
11808,1
11810,10
11812,1
11814,3
11815,8
11816,1
11821,1
11822,3
11824,1
11827,6
11828,2
11829,2
11831,2
11837,1
11839,4
11841,1
11842,1
11843,1
11844,1
11846,2
11849,3
11851,1
11852,1
11858,2
11864,1
11865,1
11870,1
11873,1
11877,1
11878,3
11880,2
11882,1
11885,1
11890,4
11891,2
11892,2
11893,1
11898,1
11899,8
11900,3
11901,2
11909,1
11911,1
11912,2
11920,3
11924,2
11931,1
11932,1
11934,1
11937,3
11939,1
11944,1
11946,3
11949,3
11951,1
11952,2
11957,1
11963,1
11964,4
11969,3
11971,1
11974,1
11982,1
11985,1
11991,1
11996,1
11997,1
12003,2
12004,1
12005,2
12006,1
12008,1
12009,1
12010,3
12011,1
12014,2
12015,3
12019,3
12025,1
12028,3
12029,3
12031,1
12032,1
12036,1
12039,3
12040,2
12042,1
12043,1
12046,1
12048,6
12052,3
12053,1
12054,1
12056,1
12059,1
12065,1
12069,1
12070,1
12073,1
12075,2
12078,3
12080,1
12087,2
12089,1
12090,1
12093,2
12097,5
12098,1
12104,1
12108,1
12111,2
12114,4
12122,1
12123,6
12124,2
12125,1
12127,1
12129,1
12130,3
12135,1
12137,1
12138,1
12141,1
12144,1
12145,1
12146,1
12147,4
12149,1
12150,1
12151,1
12152,1
12159,2
12160,1
12162,13
12166,3
12167,1
12170,1
12172,1
12173,1
12174,3
12177,1
12178,2
12179,1
12183,1
12186,1
12190,1
12195,1
12201,2
12202,3
12205,1
12206,6
12209,3
12210,1
12215,1
12216,3
12218,1
12224,1
12227,1
12228,3
12232,3
12235,2
12236,1
12240,1
12250,1
12259,2
12261,1
12262,1
12264,2
12266,1
12268,1
12271,1
12272,1
12273,4
12275,1
12276,1
12279,2
12280,3
12282,1
12283,1
12287,1
12288,1
12303,1
12306,1
12310,2
12324,2
12326,4
12329,1
12335,3
12336,1
12338,1
12339,3
12340,2
12342,1
12344,2
12349,1
12351,1
12355,1
12360,1
12369,10
12371,2
12377,3
12392,2
12396,3
12399,1
12403,1
12408,1
12413,1
12415,9
12419,1
12423,1
12424,1
12425,1
12427,1
12437,7
12441,6
12442,1
12443,4
12444,1
12445,1
12447,1
12448,1
12450,2
12452,1
12453,2
12457,1
12458,1
12460,2
12465,2
12466,2
12467,1
12468,1
12469,1
12471,5
12472,1
12474,1
12476,1
12477,4
12478,1
12479,3
12480,4
12485,1
12487,7
12489,1
12490,1
12492,3
12493,2
12494,1
12495,1
12497,1
12499,3
12503,1
12505,2
12507,2
12508,2
12516,1
12518,1
12526,1
12533,1
12536,1
12538,1
12539,1
12542,1
12543,1
12548,1
12551,1
12552,1
12553,2
12557,1
12558,2
12559,1
12565,4
12566,4
12567,1
12571,3
12577,1
12578,1
12583,1
12584,1
12590,2
12595,5
12598,1
12599,1
12601,1
12609,2
12611,2
12612,3
12616,3
12618,8
12619,2
12620,1
12626,1
12633,1
12638,3
12652,1
12656,5
12657,4
12662,1
12670,5
12674,5
12675,1
12680,1
12681,1
12683,1
12688,2
12689,1
12690,1
12691,1
12695,1
12697,1
12705,2
12706,3
12709,4
12717,1
12719,1
12720,4
12721,1
12723,7
12724,1
12725,3
12726,2
12729,1
12732,2
12733,2
12736,1
12740,1
12750,3
12751,3
12752,1
12753,2
12755,1
12759,4
12761,1
12762,1
12763,1
12764,9
12765,1
12766,3
12767,1
12768,1
12770,1
12774,1
12775,1
12777,1
12779,14
12780,2
12782,1
12785,6
12786,3
12787,1
12788,1
12790,1
12792,2
12793,2
12795,6
12796,1
12799,1
12802,2
12803,2
12811,1
12813,2
12814,1
12816,1
12817,1
12819,3
12821,10
12822,6
12823,3
12824,1
12827,3
12829,1
12832,1
12835,2
12840,1
12841,2
12842,5
12845,1
12848,5
12851,1
12852,9
12857,1
12860,3
12863,1
12864,1
12865,1
12867,1
12868,3
12870,5
12877,1
12879,1
12884,4
12887,10
12895,4
12897,1
12900,4
12901,1
12902,1
12908,1
12909,1
12922,2
12925,1
12926,2
12930,1
12937,1
12938,3
12939,1
12942,2
12945,3
12950,4
12951,1
12953,1
12959,2
12965,2
12966,3
12969,2
12971,2
12972,1
12975,1
12985,1
12989,1
12990,2
12992,4
12993,2
12994,1
12995,1
12996,1
12997,19
12998,2
12999,4
13000,43
13001,7
13003,2
13004,1
13005,5
13006,17
13007,14
13008,10
13009,8
13010,5
13011,5
13012,13
13013,5
13014,3
13015,5
13016,13
13017,8
13018,5
13020,4
13021,7
13022,22
13023,39
13024,36
13025,8
13027,8
13029,2
13030,2
13035,3
13036,2
13038,1
13039,2
13040,2
13042,3
13043,10
13044,13
13045,6
13046,10
13047,8
13048,6
13049,10
13050,13
13051,2
13055,1
13058,4
13059,1
13060,1
13061,1
13062,13
13063,22
13064,40
13065,15
13066,19
13067,3
13068,8
13069,7
13070,2
13072,2
13074,2
13078,1
13088,1
13092,4
13093,1
13099,2
13102,2
13103,5
13104,1
13105,4
13108,2
13110,2
13111,2
13112,1
13115,1
13116,1
13117,1
13118,50
13119,19
13120,25
13121,7
13122,13
13123,23
13124,24
13125,4
13126,4
13127,5
13128,8
13129,18
13130,4
13131,3
13132,1
13133,13
13136,11
13137,34
13138,2
13139,2
13143,27
13144,1
13145,36
13146,2
13147,1
13148,7
13149,3
13150,1
13151,3
13152,2
13153,3
13154,13
13155,3
13160,8
13161,13
13162,2
13163,12
13164,2
13165,1
13166,1
13170,8
13173,15
13174,4
13175,2
13176,18
13177,17
13178,10
13179,6
13180,2
13181,9
13182,6
13183,5
13184,2
13187,1
13188,6
13189,13
13190,3
13191,6
13192,3
13194,1
13195,6
13196,16
13197,1
13198,2
13199,11
13200,1
13201,8
13202,31
13203,38
13204,12
13205,38
13206,19
13207,10
13208,16
13209,13
13210,17
13211,53
13212,8
13213,17
13214,29
13215,23
13216,26
13217,15
13218,15
13219,24
13220,8
13221,42
13222,21
13223,15
13224,4
13225,42
13226,19
13227,140
13229,10
13231,3
13232,9
13233,1
13235,3
13236,4
13237,17
13240,2
13244,4
13248,1
13249,2
13250,2
13252,1
13253,1
13255,2
13256,1
13257,3
13258,1
13262,1
13273,2
13276,1
13278,2
13279,4
13280,4
13281,3
13282,3
13284,2
13287,2
13289,3
13292,1
13293,1
13294,1
13295,1
13297,4
13301,1
13302,1
13307,1
13308,2
13309,1
13311,2
13313,4
13314,4
13316,2
13318,1
13321,2
13322,1
13326,1
13328,1
13329,1
13330,1
13331,5
13336,1
13338,1
13339,5
13341,1
13342,1
13344,1
13345,1
13347,8
13348,1
13349,1
13350,1
13353,1
13355,4
13356,5
13357,1
13358,1
13361,2
13362,3
13365,4
13366,1
13373,3
13374,1
13380,1
13384,1
13386,1
13388,1
13392,3
13393,1
13395,1
13396,1
13405,3
13407,4
13411,3
13413,2
13415,2
13416,6
13417,2
13418,1
13419,2
13421,2
13426,4
13427,2
13432,2
13434,2
13435,5
13439,1
13441,2
13442,1
13443,5
13445,4
13450,2
13461,12
13465,1
13470,1
13471,1
13472,4
13477,1
13479,2
13482,2
13483,5
13484,6
13485,1
13492,2
13497,2
13499,8
13504,1
13506,1
13512,3
13514,1
13516,1
13517,2
13525,1
13528,3
13530,2
13531,2
13535,1
13537,1
13541,1
13545,3
13549,1
13550,1
13552,38
13556,1
13559,1
13564,1
13566,1
13570,1
13571,2
13576,5
13577,3
13578,5
13580,1
13581,3
13582,2
13584,7
13585,3
13586,1
13587,7
13589,1
13590,1
13592,2
13593,1
13595,2
13596,2
13599,3
13614,1
13620,28
13621,1
13622,1
13625,1
13629,1
13630,2
13632,1
13633,1
13640,1
13641,1
13643,1
13645,1
13646,1
13655,1
13656,1
13658,1
13659,1
13660,1
13662,1
13665,3
13668,1
13672,1
13674,1
13675,1
13682,3
13684,1
13687,4
13688,1
13689,2
13690,3
13695,1
13707,1
13710,5
13716,1
13719,2
13723,1
13724,1
13725,1
13727,1
13728,1
13731,2
13732,4
13735,1
13737,1
13738,1
13740,7
13742,1
13749,1
13752,1
13754,1
13755,3
13758,1
13763,1
13765,3
13768,2
13770,1
13775,1
13779,1
13782,1
13784,4
13787,1
13789,1
13794,6
13795,1
13798,1
13799,3
13801,1
13806,4
13808,1
13809,1
13819,1
13829,4
13830,2
13831,12
13832,1
13833,1
13842,1
13843,1
13854,2
13860,1
13864,1
13873,1
13881,4
13885,2
13888,1
13891,2
13893,1
13898,1
13899,2
13901,1
13903,1
13907,2
13908,1
13912,2
13913,1
13915,1
13921,2
13922,1
13924,2
13926,1
13927,2
13928,2
13932,1
13934,4
13936,3
13938,2
13941,1
13947,4
13950,1
13953,1
13954,2
13955,1
13956,2
13957,1
13958,1
13962,1
13967,2
13970,1
13984,1
13985,1
13989,1
13993,1
13995,3
13996,1
13997,2
13999,1
14000,3
14002,1
14006,1
14015,2
14017,1
14020,1
14021,1
14024,1
14027,2
14028,1
14031,1
14032,1
14033,1
14038,1
14041,1
14044,2
14050,1
14051,1
14055,6
14056,1
14059,1
14060,3
14061,1
14062,1
14063,1
14065,3
14067,1
14068,1
14069,1
14071,3
14072,6
14077,1
14078,1
14081,1
14088,2
14089,1
14096,3
14099,1
14103,1
14106,2
14108,1
14109,1
14111,2
14112,3
14116,1
14118,1
14122,1
14123,3
14124,4
14135,1
14140,2
14141,1
14143,1
14144,2
14145,1
14148,2
14149,2
14152,3
14154,1
14156,1
14160,1
14162,1
14164,1
14165,3
14166,1
14167,1
14170,1
14171,1
14174,1
14177,1
14178,1
14182,1
14187,2
14190,1
14193,1
14197,2
14199,1
14200,1
14210,2
14216,1
14221,2
14223,3
14230,1
14236,1
14240,1
14247,1
14248,1
14253,1
14254,1
14259,1
14261,4
14262,3
14264,2
14267,1
14268,1
14271,6
14275,1
14276,1
14280,2
14281,2
14282,1
14283,1
14285,2
14291,1
14294,2
14295,1
14301,6
14302,1
14304,1
14320,1
14322,2
14324,1
14329,1
14339,1
14346,1
14357,2
14360,1
14364,1
14367,11
14368,1
14369,2
14371,2
14385,1
14387,5
14389,1
14393,2
14400,3
14401,1
14402,1
14405,1
14414,2
14439,1
14441,1
14442,1
14444,1
14445,1
14450,1
14454,3
14464,1
14466,1
14467,1
14468,1
14478,1
14480,2
14481,1
14483,1
14484,1
14485,2
14489,3
14490,1
14493,1
14499,2
14503,1
14505,1
14510,1
14514,1
14519,1
14523,2
14524,3
14528,2
14530,2
14533,1
14536,2
14537,1
14541,1
14545,1
14546,1
14551,1
14554,2
14555,2
14558,1
14561,2
14563,1
14576,1
14583,1
14584,1
14586,1
14595,2
14597,1
14603,1
14605,4
14607,1
14609,1
14615,1
14618,1
14621,2
14622,2
14625,1
14634,1
14635,1
14638,2
14641,5
14652,1
14658,1
14659,1
14668,1
14678,1
14680,1
14684,2
14691,3
14693,2
14697,3
14699,1
14708,1
14709,1
14711,1
14712,7
14713,1
14722,1
14730,1
14731,1
14737,1
14757,3
14759,1
14764,1
14770,4
14773,4
14774,1
14775,1
14782,1
14784,1
14788,1
14790,1
14794,1
14795,1
14796,2
14798,1
14802,1
14813,1
14816,1
14820,4
14821,1
14823,1
14827,1
14833,3
14836,4
14839,2
14843,2
14845,3
14859,3
14860,2
14861,1
14865,1
14871,1
14877,5
14878,4
14882,1
14883,5
14884,5
14888,3
14891,2
14897,2
14898,8
14900,1
14901,2
14904,1
14908,3
14912,1
14917,2
14918,2
14921,1
14922,2
14923,1
14926,1
14928,2
14929,1
14933,11
14940,1
14941,8
14951,3
14952,1
14953,1
14955,8
14958,1
14959,5
14967,1
14969,3
14973,1
14981,1
14984,2
14985,1
14986,11
14990,1
14992,1
14994,2
14995,12
14996,1
15000,1
15003,3
15007,1
15009,2
15013,2
15015,1
15016,2
15017,1
15021,1
15022,1
15023,1
15024,3
15027,1
15035,1
15038,1
15039,2
15042,1
15043,2
15044,1
15046,4
15048,1
15049,2
15054,2
15055,1
15056,2
15058,1
15069,1
15080,1
15081,1
15083,1
15086,1
15089,1
15090,1
15093,2
15098,1
15100,1
15101,4
15102,1
15103,1
15104,2
15105,4
15112,4
15118,4
15121,1
15127,1
15129,1
15137,1
15141,1
15142,1
15143,1
15144,4
15146,1
15147,2
15149,2
15150,2
15151,2
15152,1
15155,2
15156,1
15157,6
15158,1
15159,1
15160,7
15161,5
15162,6
15164,1
15165,2
15166,2
15167,4
15169,2
15170,17
15171,10
15173,7
15175,2
15178,2
15185,3
15186,1
15209,1
15211,1
15212,1
15214,1
15217,3
15220,1
15224,1
15226,4
15227,1
15231,1
15238,1
15239,2
15240,11
15243,1
15248,1
15249,1
15250,1
15251,1
15253,1
15258,1
15261,1
15262,8
15263,1
15265,1
15266,2
15270,2
15272,3
15273,1
15274,1
15278,2
15281,1
15287,1
15289,1
15290,1
15294,1
15298,2
15299,2
15300,4
15301,3
15302,1
15308,1
15312,1
15315,1
15316,1
15325,1
15326,2
15330,1
15332,1
15333,4
15334,1
15335,1
15339,2
15340,6
15341,1
15342,1
15343,3
15346,1
15350,1
15358,1
15361,3
15362,2
15363,1
15364,1
15371,1
15373,1
15380,2
15388,1
15395,1
15399,1
15410,2
15412,3
15415,3
15416,1
15417,1
15419,1
15422,1
15425,1
15429,1
15432,1
15445,1
15452,2
15453,1
15455,1
15458,1
15459,1
15463,2
15466,1
15471,1
15475,1
15476,1
15478,2
15481,1
15486,2
15487,1
15490,1
15494,2
15496,1
15497,3
15500,2
15503,1
15512,1
15514,3
15517,1
15520,7
15527,5
15529,1
15531,2
15532,2
15536,1
15542,3
15543,2
15546,1
15547,2
15548,2
15552,1
15553,1
15566,1
15567,2
15569,1
15570,1
15571,2
15573,1
15575,1
15580,1
15583,1
15587,1
15595,1
15597,3
15605,1
15614,2
15617,1
15618,2
15622,1
15626,12
15633,1
15636,2
15638,1
15642,1
15643,1
15644,2
15646,3
15648,1
15653,1
15659,2
15660,1
15663,1
15664,1
15665,2
15666,1
15670,2
15671,1
15678,2
15681,1
15696,6
15697,3
15698,1
15703,5
15704,1
15706,2
15708,1
15717,1
15719,1
15722,25
15729,3
15731,1
15737,2
15738,12
15739,3
15740,2
15741,2
15742,1
15751,1
15752,2
15755,9
15756,4
15757,5
15761,1
15765,1
15766,1
15778,1
15783,1
15784,1
15786,1
15790,2
15792,1
15797,1
15802,1
15803,1
15804,1
15806,1
15807,1
15809,1
15811,1
15817,2
15818,2
15822,2
15823,1
15825,1
15829,1
15832,2
15835,1
15836,2
15837,3
15838,1
15840,2
15846,2
15853,2
15854,2
15860,1
15865,2
15866,1
15867,1
15871,2
15876,1
15877,2
15879,1
15880,2
15882,3
15883,3
15885,2
15886,3
15887,3
15888,14
15889,1
15896,2
15897,1
15900,1
15901,2
15906,2
15910,2
15911,2
15914,1
15915,2
15917,1
15918,3
15922,6
15923,3
15924,3
15926,1
15928,1
15930,1
15932,3
15933,1
15934,2
15935,1
15938,1
15941,1
15943,1
15947,28
15957,1
15962,1
15967,5
15968,2
15969,1
15972,1
15975,1
15977,1
15978,1
15979,2
15980,1
15981,2
15982,2
15984,6
15985,3
15986,5
15987,1
15988,1
15989,1
15990,1
15995,1
15999,1
16000,4
16002,2
16005,1
16006,1
16007,1
16008,2
16009,1
16012,4
16013,1
16014,7
16016,1
16017,2
16020,1
16021,1
16023,1
16024,1
16028,2
16029,2
16032,4
16033,1
16040,1
16042,2
16043,1
16044,3
16049,1
16050,1
16056,2
16061,2
16068,1
16071,1
16080,1
16081,13
16082,1
16086,2
16087,2
16091,1
16096,1
16100,2
16105,2
16107,1
16109,1
16116,1
16128,9
16129,2
16134,1
16135,2
16139,5
16140,3
16143,1
16147,2
16150,3
16151,71
16153,2
16154,9
16156,1
16157,2
16160,2
16163,1
16165,2
16167,1
16168,1
16171,1
16179,2
16182,3
16186,1
16188,2
16193,1
16195,3
16196,1
16197,2
16202,2
16203,3
16204,1
16208,1
16209,2
16212,1
16215,2
16218,1
16219,1
16222,1
16226,1
16228,1
16229,2
16230,1
16232,2
16236,3
16238,2
16244,1
16248,7
16249,1
16252,2
16256,1
16257,3
16261,1
16263,3
16266,1
16274,1
16276,5
16283,1
16284,1
16286,2
16288,1
16292,4
16293,2
16295,1
16296,1
16302,1
16305,1
16306,1
16308,1
16309,1
16315,1
16316,2
16321,1
16324,1
16326,1
16327,2
16328,5
16330,1
16331,2
16332,2
16334,1
16338,2
16342,6
16343,1
16345,1
16346,1
16353,3
16356,2
16357,1
16358,1
16360,1
16361,1
16366,2
16368,2
16369,1
16378,5
16380,2
16384,1
16386,1
16395,1
16397,2
16399,2
16403,2
16407,1
16408,5
16412,1
16413,9
16416,1
16417,1
16423,2
16427,6
16433,1
16436,1
16437,1
16440,1
16445,1
16446,1
16447,7
16451,1
16458,3
16459,1
16463,2
16469,2
16473,1
16480,1
16481,2
16483,1
16486,1
16492,2
16493,7
16494,1
16495,1
16496,3
16499,1
16503,1
16505,1
16506,1
16507,2
16509,3
16510,2
16512,1
16515,3
16517,7
16519,1
16527,1
16530,2
16532,2
16533,4
16537,3
16538,1
16541,1
16544,3
16545,1
16547,1
16549,9
16555,1
16560,1
16561,2
16563,1
16566,2
16567,3
16574,15
16576,3
16577,2
16578,1
16580,1
16582,4
16585,2
16592,4
16593,1
16595,1
16600,1
16601,2
16602,2
16605,10
16606,2
16610,3
16611,2
16616,1
16618,2
16621,1
16623,1
16628,3
16629,9
16630,1
16631,7
16641,1
16642,3
16645,2
16647,1
16648,2
16651,3
16655,1
16664,1
16668,2
16670,2
16671,5
16674,1
16676,2
16681,2
16687,1
16693,1
16694,1
16696,1
16697,1
16699,2
16701,3
16702,1
16703,1
16704,1
16705,1
16721,1
16726,1
16728,2
16749,1
16753,1
16756,1
16757,1
16758,1
16763,1
16767,1
16768,1
16772,8
16774,1
16779,1
16781,2
16784,14
16785,1
16789,1
16790,1
16794,2
16802,1
16803,1
16804,1
16808,1
16817,3
16829,2
16834,1
16836,1
16841,1
16844,2
16846,1
16849,1
16851,1
16859,1
16861,1
16863,1
16866,4
16870,1
16876,3
16877,2
16880,1
16883,2
16884,3
16885,1
16886,2
16887,5
16888,1
16891,1
16893,1
16897,2
16898,2
16900,4
16902,2
16908,1
16909,3
16914,1
16915,1
16916,1
16919,1
16920,2
16921,2
16924,4
16925,1
16926,2
16929,1
16930,2
16932,2
16933,15
16934,3
16936,2
16937,3
16938,1
16945,2
16946,1
16949,5
16950,4
16951,2
16952,1
16954,5
16955,3
16956,3
16961,12
16962,1
16963,2
16964,4
16965,1
16968,3
16970,7
16971,2
16975,4
16976,1
16977,1
16978,2
16979,1
16983,7
16985,1
16986,2
16989,2
16993,1
16996,1
16999,3
17002,1
17003,3
17004,3
17006,2
17007,1
17008,3
17009,3
17011,1
17012,2
17013,1
17016,3
17018,1
17019,1
17020,2
17022,3
17024,2
17028,1
17029,1
17033,1
17039,4
17040,2
17041,4
17045,2
17048,2
17049,1
17050,1
17052,1
17053,1
17055,3
17057,1
17058,2
17063,1
17065,2
17066,4
17067,2
17068,2
17069,1
17072,1
17075,1
17078,3
17082,1
17083,3
17085,3
17087,1
17098,1
17100,2
17103,1
17106,1
17115,1
17118,1
17121,1
17124,2
17133,2
17134,2
17138,1
17145,3
17148,1
17150,19
17152,3
17157,1
17159,1
17165,1
17171,1
17172,1
17173,1
17175,1
17176,1
17184,1
17185,2
17187,2
17188,1
17189,2
17190,1
17191,1
17197,1
17198,2
17199,1
17200,2
17201,2
17202,2
17204,3
17205,5
17207,3
17208,2
17209,2
17211,1
17212,2
17213,1
17216,4
17219,3
17220,3
17224,1
17228,1
17229,1
17232,4
17233,2
17243,4
17248,3
17249,1
17250,1
17254,1
17255,1
17257,1
17258,4
17266,2
17276,1
17278,1
17280,1
17283,4
17286,3
17293,1
17302,1
17304,2
17305,6
17310,1
17312,1
17320,5
17323,1
17324,2
17330,1
17331,1
17332,1
17335,1
17336,2
17337,6
17343,4
17344,1
17345,1
17346,2
17351,1
17353,1
17354,1
17358,1
17361,1
17363,1
17365,1
17366,5
17369,1
17371,4
17373,1
17374,1
17376,1
17377,1
17381,1
17382,3
17387,2
17392,1
17403,3
17404,1
17408,2
17415,1
17423,1
17427,1
17428,9
17430,2
17431,4
17434,1
17436,1
17440,4
17441,14
17442,2
17443,1
17445,1
17446,4
17447,3
17450,1
17451,7
17462,3
17464,1
17467,1
17470,1
17472,4
17473,3
17475,1
17476,1
17477,2
17481,4
17482,1
17483,2
17485,4
17491,3
17492,1
17494,1
17497,1
17499,1
17500,1
17501,1
17509,3
17511,2
17514,1
17517,1
17518,1
17523,1
17526,1
17527,1
17528,1
17532,2
17533,1
17534,3
17536,1
17540,3
17543,1
17549,1
17551,1
17552,1
17556,4
17557,1
17558,2
17560,6
17570,19
17571,4
17575,1
17577,5
17582,1
17584,1
17592,2
17595,1
17602,1
17609,1
17612,5
17613,1
17614,1
17616,1
17621,4
17623,3
17625,3
17627,1
17630,1
17634,3
17638,1
17641,6
17645,2
17647,2
17649,1
17650,1
17654,4
17660,1
17663,1
17668,1
17670,2
17672,1
17674,2
17677,1
17678,1
17680,2
17682,1
17684,1
17686,4
17690,1
17693,1
17701,1
17702,1
17703,1
17712,1
17714,1
17718,2
17720,3
17731,1
17735,3
17736,5
17745,1
17749,1
17754,2
17758,1
17767,1
17769,1
17770,2
17771,1
17774,2
17782,3
17785,1
17786,5
17792,1
17793,1
17795,19
17796,4
17797,1
17798,3
17800,24
17802,1
17809,1
17812,1
17814,1
17820,3
17821,1
17823,1
17827,1
17828,2
17831,2
17832,1
17833,5
17834,5
17835,5
17836,2
17839,1
17846,18
17848,4
17851,4
17852,2
17853,5
17854,3
17855,4
17856,4
17858,1
17859,6
17860,2
17861,10
17864,1
17865,4
17866,19
17867,13
17868,3
17870,1
17872,17
17873,3
17874,2
17876,3
17877,4
17879,1
17880,2
17886,5
17887,1
17889,1
17891,4
17895,1
17896,1
17897,3
17898,2
17899,3
17900,1
17901,1
17902,1
17903,1
17907,2
17913,2
17914,2
17915,1
17916,2
17919,1
17922,2
17931,1
17932,1
17935,1
17937,2
17939,1
17940,3
17941,2
17942,1
17950,1
17953,1
17956,2
17959,1
17960,1
17962,1
17974,1
17977,1
17981,3
17982,1
17986,1
17996,1
17998,1
17999,1
18005,1
18009,1
18013,1
18015,1
18020,1
18022,1
18035,1
18038,1
18049,2
18053,1
18054,1
18063,3
18066,1
18084,6
18088,5
18097,2
18099,6
18100,1
18103,1
18119,4
18127,1
18128,1
18131,1
18132,1
18135,1
18141,1
18145,1
18146,2
18147,1
18149,3
18150,3
18151,1
18153,1
18154,4
18155,4
18156,1
18158,1
18165,1
18168,1
18170,5
18177,2
18178,1
18190,5
18191,1
18192,8
18193,1
18194,1
18195,2
18198,1
18199,1
18201,1
18203,6
18204,1
18207,1
18212,2
18222,23
18224,1
18229,3
18231,1
18234,1
18235,1
18241,2
18245,1
18251,1
18257,1
18259,3
18266,1
18270,1
18275,1
18280,1
18282,1
18287,1
18291,3
18294,1
18297,2
18299,4
18302,2
18305,4
18306,1
18307,2
18308,1
18309,1
18314,1
18318,1
18328,1
18332,1
18333,2
18336,1
18338,1
18341,2
18342,1
18346,1
18348,1
18352,1
18353,2
18356,2
18359,5
18360,5
18361,21
18362,1
18363,4
18365,3
18368,2
18369,1
18373,1
18374,1
18378,1
18387,2
18393,1
18398,2
18400,2
18405,4
18407,1
18415,1
18419,1
18420,1
18421,1
18423,1
18424,2
18425,1
18433,2
18434,1
18441,2
18454,1
18459,1
18461,2
18464,3
18466,1
18469,3
18483,1
18488,1
18494,2
18495,1
18498,4
18502,1
18512,2
18513,3
18519,1
18520,3
18522,1
18528,1
18530,1
18531,1
18539,4
18542,1
18543,13
18546,1
18555,10
18557,1
18558,2
18559,1
18563,2
18568,1
18577,5
18578,1
18579,1
18580,2
18581,6
18582,1
18584,2
18585,1
18587,6
18590,1
18599,2
18601,3
18604,1
18610,1
18612,2
18624,2
18632,1
18644,2
18646,2
18648,1
18650,1
18651,1
18653,2
18657,1
18662,1
18664,1
18666,1
18667,3
18668,2
18670,2
18675,1
18679,1
18682,2
18688,1
18708,1
18713,2
18717,1
18719,1
18726,1
18728,1
18730,1
18736,4
18741,1
18747,1
18750,2
18751,1
18755,1
18756,2
18757,4
18761,1
18762,1
18764,1
18768,1
18776,2
18777,2
18778,1
18779,2
18782,1
18784,2
18786,1
18787,1
18792,1
18799,2
18800,1
18801,3
18809,1
18813,6
18818,1
18823,7
18827,1
18828,1
18829,1
18833,1
18835,1
18836,2
18840,1
18841,1
18843,1
18855,6
18856,1
18859,1
18860,1
18864,1
18874,1
18876,1
18878,2
18880,1
18882,2
18884,1
18885,1
18893,1
18896,1
18897,1
18899,1
18900,5
18901,1
18902,6
18903,4
18904,2
18905,1
18906,1
18907,2
18908,3
18909,6
18910,1
18911,1
18926,1
18934,1
18937,1
18938,1
18939,1
18941,1
18945,1
18946,1
18947,1
18949,1
18952,1
18957,1
18959,1
18960,1
18962,1
18966,2
18973,1
18975,6
18982,1
18983,4
18984,1
18993,26
18994,6
19000,1
19004,1
19006,2
19007,1
19021,1
19025,1
19027,1
19030,1
19037,4
19039,1
19042,1
19044,1
19050,5
19052,1
19053,1
19057,1
19058,1
19064,1
19068,3
19070,1
19071,1
19077,1
19079,1
19081,1
19083,1
19084,1
19088,1
19091,1
19093,1
19097,1
19098,3
19099,2
19100,7
19104,4
19108,1
19120,2
19124,1
19125,3
19130,1
19132,7
19136,1
19137,6
19139,1
19140,1
19141,4
19145,1
19147,2
19148,3
19150,1
19152,1
19153,2
19158,1
19159,1
19167,3
19173,1
19174,2
19175,11
19176,1
19177,6
19178,1
19179,1
19180,2
19189,1
19191,1
19201,3
19204,2
19214,2
19219,2
19220,1
19226,1
19228,4
19233,1
19237,3
19242,1
19244,1
19246,1
19247,2
19250,2
19252,2
19262,1
19263,1
19264,1
19265,1
19269,4
19278,2
19279,2
19283,2
19284,5
19286,1
19287,2
19290,2
19292,1
19295,1
19304,2
19309,4
19315,1
19318,1
19321,1
19322,28
19328,5
19331,1
19333,2
19335,4
19343,1
19344,1
19351,1
19360,1
19364,1
19365,1
19369,6
19377,1
19381,1
19384,1
19385,1
19394,1
19399,4
19405,3
19409,1
19411,1
19414,5
19419,2
19421,1
19436,2
19440,1
19442,2
19444,1
19445,1
19454,1
19457,1
19458,2
19459,3
19471,2
19485,2
19488,1
19495,1
19498,3
19499,1
19505,6
19507,3
19508,1
19509,3
19511,4
19524,1
19527,3
19528,2
19530,2
19538,5
19553,1
19557,7
19565,1
19572,2
19580,4
19582,3
19583,1
19586,2
19592,1
19593,1
19594,1
19600,1
19609,1
19614,1
19616,2
19619,1
19621,2
19626,3
19628,2
19629,1
19631,1
19634,1
19635,2
19638,4
19642,5
19645,1
19650,3
19651,2
19653,7
19655,1
19656,1
19657,1
19660,1
19662,1
19664,1
19668,1
19672,1
19679,2
19680,1
19683,1
19685,2
19693,3
19695,1
19699,4
19700,1
19702,1
19708,1
19709,2
19710,3
19714,2
19715,1
19719,2
19726,1
19738,3
19739,2
19740,2
19741,4
19743,1
19746,2
19748,1
19750,2
19751,2
19753,1
19754,1
19763,2
19764,9
19765,3
19769,3
19770,9
19776,2
19784,1
19785,1
19790,5
19793,7
19796,1
19806,1
19807,1
19814,1
19818,1
19822,1
19823,1
19824,3
19828,1
19835,1
19837,1
19839,2
19842,1
19843,2
19846,2
19855,1
19859,5
19868,2
19870,1
19872,2
19874,1
19877,1
19880,4
19881,1
19885,1
19886,1
19887,1
19897,1
19900,1
19901,3
19903,1
19905,1
19908,1
19909,1
19914,1
19916,2
19919,2
19927,1
19928,1
19929,2
19930,1
19933,1
19934,1
19935,1
19936,1
19939,2
19942,1
19945,1
19952,1
19962,1
19966,10
19967,27
19977,1
19978,1
19983,1
19985,1
19987,2
19995,1
19996,1
20000,1
20003,1
20005,2
20007,1
20010,1
20016,2
20020,1
20021,3
20029,1
20031,1
20033,1
20040,2
20042,5
20046,1
20048,1
20055,2
20058,1
20061,2
20063,4
20064,2
20067,2
20069,7
20073,2
20081,1
20082,1
20083,5
20086,1
20087,1
20088,3
20094,1
20096,1
20099,2
20100,1
20104,1
20107,3
20110,5
20112,1
20115,2
20117,7
20118,2
20119,1
20121,3
20126,1
20129,3
20131,1
20133,1
20139,2
20140,1
20142,42
20146,2
20148,1
20152,1
20154,1
20155,1
20157,4
20160,1
20165,4
20166,2
20167,3
20168,2
20169,1
20170,2
20171,1
20173,2
20176,1
20177,2
20178,1
20179,1
20180,2
20181,1
20183,1
20188,4
20190,2
20191,1
20197,2
20218,12
20221,14
20222,4
20223,1
20226,1
20227,1
20228,1
20229,5
20230,2
20234,4
20237,3
20238,1
20240,1
20242,1
20245,2
20248,1
20253,5
20254,2
20255,1
20258,3
20261,2
20262,2
20265,3
20266,3
20270,1
20272,2
20273,3
20274,2
20278,5
20282,2
20283,1
20285,1
20288,1
20289,1
20291,1
20293,1
20294,1
20296,1
20299,2
20304,1
20305,5
20306,1
20308,1
20309,1
20312,2
20313,1
20314,1
20316,1
20320,6
20321,2
20322,3
20326,1
20327,5
20328,2
20330,2
20331,1
20332,1
20333,1
20334,1
20335,1
20336,1
20338,3
20339,2
20341,1
20342,1
20345,1
20346,1
20348,1
20350,4
20355,2
20357,2
20358,1
20364,23
20365,2
20370,1
20371,1
20373,5
20374,1
20377,2
20378,2
20379,2
20380,2
20381,2
20382,1
20396,2
20399,1
20403,2
20411,1
20412,1
20413,1
20417,1
20418,2
20419,1
20422,1
20424,1
20431,2
20437,1
20439,1
20442,1
20446,6
20449,1
20455,1
20457,1
20458,2
20459,1
20465,1
20474,1
20477,7
20482,1
20487,1
20495,1
20500,1
20504,2
20511,2
20512,4
20514,2
20517,1
20518,1
20520,2
20521,1
20522,1
20523,1
20531,1
20532,1
20534,3
20543,1
20549,2
20551,1
20552,2
20555,1
20556,2
20558,3
20562,2
20570,1
20571,2
20581,1
20582,1
20586,1
20588,1
20589,2
20590,1
20591,1
20592,2
20596,2
20600,1
20601,1
20604,1
20608,2
20609,1
20610,1
20611,1
20613,3
20614,1
20618,1
20619,2
20620,1
20624,1
20629,1
20632,1
20636,5
20637,1
20639,1
20641,11
20642,6
20643,1
20649,1
20650,7
20654,2
20657,1
20658,2
20659,3
20660,4
20662,1
20668,1
20671,4
20672,1
20674,1
20675,5
20678,1
20681,3
20683,1
20685,3
20690,1
20696,2
20697,1
20701,8
20705,1
20709,4
20712,2
20719,1
20727,3
20729,1
20730,1
20745,2
20747,1
20748,4
20750,1
20751,2
20752,1
20763,2
20765,1
20766,1
20767,2
20768,1
20770,2
20771,1
20772,1
20775,1
20776,6
20782,1
20784,2
20789,1
20793,1
20795,3
20798,1
20802,1
20804,1
20805,2
20808,1
20809,1
20811,3
20813,1
20815,1
20817,8
20819,1
20821,2
20822,2
20824,1
20826,1
20828,1
20834,2
20837,1
20839,1
20840,1
20841,1
20845,2
20849,1
20850,2
20852,1
20862,1
20863,2
20864,1
20869,1
20876,2
20879,1
20887,2
20888,2
20890,7
20891,2
20892,1
20894,1
20896,2
20899,1
20907,1
20909,5
20913,1
20914,1
20916,1
20917,9
20918,8
20919,27
20923,2
20924,3
20934,7
20935,1
20939,1
20943,1
20947,4
20952,1
20959,2
20962,1
20963,4
20966,1
20967,2
20968,1
20970,3
20971,3
20974,2
20975,8
20976,1
20977,1
20978,1
20979,4
20982,1
20983,1
20984,1
20985,1
20986,1
20987,1
20988,1
20989,1
20991,1
20994,1
21001,2
21002,1
21003,4
21005,1
21007,1
21022,2
21029,1
21030,2
21035,1
21036,1
21040,1
21044,2
21045,1
21048,3
21051,2
21055,2
21056,1
21058,1
21059,2
21061,5
21066,2
21067,1
21068,1
21072,2
21077,2
21078,1
21084,1
21087,1
21089,1
21096,1
21098,1
21103,1
21104,5
21107,1
21108,1
21111,2
21115,1
21116,1
21117,1
21119,1
21123,13
21125,1
21126,1
21130,5
21134,1
21135,1
21138,3
21141,2
21142,2
21143,1
21145,1
21147,1
21150,1
21151,1
21152,2
21153,1
21155,1
21164,5
21166,4
21168,1
21172,5
21173,1
21174,2
21177,1
21179,2
21181,1
21187,1
21188,2
21189,3
21190,2
21192,1
21194,1
21198,3
21199,1
21201,1
21202,2
21203,1
21205,3
21207,1
21211,1
21213,1
21214,2
21219,2
21220,2
21221,1
21224,2
21225,1
21226,2
21229,4
21230,1
21233,1
21238,1
21239,2
21242,6
21243,2
21250,1
21255,5
21256,1
21257,2
21260,1
21263,1
21264,1
21267,1
21274,1
21276,1
21280,2
21288,2
21290,2
21299,1
21305,1
21306,1
21309,1
21313,2
21314,1
21316,1
21318,3
21320,1
21327,1
21332,1
21335,2
21337,3
21339,1
21340,1
21345,1
21348,2
21357,7
21360,2
21368,1
21370,1
21372,4
21373,2
21375,1
21380,3
21384,1
21387,2
21391,1
21398,1
21400,2
21406,1
21407,1
21410,1
21411,1
21412,1
21414,1
21415,2
21418,1
21424,1
21425,2
21426,2
21429,1
21430,1
21431,2
21434,1
21436,1
21437,1
21439,1
21443,2
21444,1
21454,1
21460,3
21465,2
21469,19
21470,1
21471,4
21474,4
21477,5
21481,1
21482,1
21484,3
21485,4
21495,1
21496,1
21498,1
21500,2
21503,1
21509,2
21511,1
21513,1
21517,1
21520,1
21521,1
21522,1
21523,3
21524,2
21527,1
21528,3
21529,2
21530,4
21533,4
21534,1
21535,1
21537,1
21538,3
21539,5
21541,1
21543,1
21544,1
21547,1
21556,1
21561,2
21567,3
21568,1
21579,1
21580,1
21588,2
21593,5
21595,1
21596,1
21600,1
21608,1
21609,1
21610,1
21611,10
21612,1
21613,2
21616,3
21617,2
21620,2
21621,3
21623,6
21624,1
21626,1
21628,1
21629,1
21633,3
21635,1
21637,2
21644,2
21645,2
21646,1
21649,1
21650,5
21652,1
21653,2
21657,1
21658,1
21662,6
21663,1
21665,1
21668,1
21669,1
21670,1
21679,3
21681,2
21683,2
21684,1
21686,1
21692,2
21695,1
21698,1
21703,1
21705,1
21706,2
21707,1
21711,3
21713,1
21717,1
21722,2
21729,2
21735,1
21740,1
21752,2
21759,1
21761,1
21765,1
21769,1
21770,1
21772,1
21781,2
21783,3
21784,1
21785,8
21789,2
21790,1
21791,2
21793,1
21797,1
21800,1
21801,1
21807,1
21808,2
21810,1
21814,1
21815,1
21818,5
21821,3
21822,1
21823,1
21824,3
21828,5
21830,3
21832,5
21833,1
21835,3
21836,3
21837,1
21838,1
21839,4
21840,1
21841,3
21842,5
21843,3
21846,1
21847,1
21850,1
21853,1
21859,5
21861,1
21862,1
21865,2
21866,1
21867,5
21869,4
21870,2
21874,1
21875,2
21876,2
21879,1
21880,1
21884,2
21885,6
21886,1
21887,2
21890,1
21891,1
21894,3
21902,3
21903,2
21904,2
21905,1
21906,1
21909,1
21914,2
21915,2
21916,1
21917,1
21919,2
21920,1
21921,3
21922,1
21923,2
21924,1
21925,3
21926,1
21927,1
21928,3
21929,1
21930,4
21931,1
21938,1
21939,1
21940,2
21943,4
21944,1
21945,2
21946,3
21948,1
21949,6
21950,4
21952,1
21953,1
21954,2
21956,1
21957,3
21958,2
21959,1
21962,4
21964,1
21965,2
21968,1
21969,1
21977,1
21979,1
21982,4
21988,2
21989,1
21994,2
22004,1
22009,1
22012,1
22015,1
22016,1
22018,1
22023,1
22029,1
22033,1
22034,1
22040,1
22047,1
22049,2
22051,1
22053,1
22054,4
22055,4
22058,1
22061,1
22068,1
22069,5
22074,1
22077,1
22079,1
22081,2
22083,2
22084,1
22086,1
22096,1
22099,2
22100,1
22102,1
22104,1
22109,1
22113,1
22114,1
22115,1
22119,1
22121,2
22125,1
22133,2
22135,1
22137,17
22139,1
22143,1
22145,1
22152,1
22153,1
22157,1
22158,1
22165,1
22166,1
22181,3
22182,1
22183,1
22184,2
22185,1
22194,1
22195,9
22197,69
22199,5
22201,2
22209,2
22210,1
22211,3
22212,4
22213,2
22214,1
22215,1
22216,10
22221,1
22227,1
22229,2
22230,1
22233,1
22234,1
22237,2
22240,1
22242,1
22243,1
22246,5
22249,4
22256,1
22263,1
22264,1
22265,2
22266,1
22268,2
22273,1
22277,2
22279,3
22281,2
22282,2
22285,2
22292,1
22294,1
22295,1
22304,1
22305,1
22310,2
22311,1
22322,1
22324,4
22327,1
22328,1
22329,1
22331,3
22332,2
22339,2
22340,1
22343,3
22345,1
22347,2
22350,1
22354,2
22358,1
22360,1
22362,1
22366,2
22368,2
22371,10
22376,2
22378,4
22379,2
22387,1
22388,1
22389,7
22390,2
22392,1
22394,1
22398,1
22400,1
22401,2
22405,1
22406,1
22410,4
22414,1
22416,1
22423,1
22431,3
22432,1
22435,1
22438,2
22450,1
22451,3
22452,2
22455,2
22457,57
22463,1
22464,3
22465,1
22466,1
22470,1
22471,1
22474,1
22475,1
22477,2
22478,1
22480,1
22482,3
22485,1
22487,3
22488,1
22490,4
22492,1
22499,1
22502,1
22511,2
22515,2
22523,1
22524,2
22525,4
22526,1
22527,2
22531,2
22537,1
22539,1
22541,1
22544,1
22547,2
22552,1
22556,4
22559,1
22563,1
22564,1
22565,2
22566,2
22567,1
22572,1
22577,1
22578,1
22580,1
22583,1
22586,4
22588,12
22591,2
22595,1
22599,1
22600,1
22611,2
22612,1
22614,1
22616,1
22691,5
22702,2
22703,4
22704,3
22705,1
22706,2
22707,2
22711,14
22712,1
22714,1
22720,2
22724,3
22725,1
22726,2
22729,1
22730,8
22734,1
22735,3
22736,2
22737,1
22753,1
22756,1
22762,1
22789,1
22790,3
22791,2
22792,4
22799,2
22800,4
22801,2
22803,3
22807,1
22811,2
22814,4
22816,1
22818,1
22836,4
22837,2
22843,8
22845,2
22849,1
22852,1
22855,1
22856,1
22858,8
22859,1
22860,3
22863,1
22869,1
22870,1
22876,2
22877,5
22878,2
22880,2
22881,1
22886,3
22887,1
22893,1
22894,1
22903,1
22904,2
22911,4
22912,1
22914,1
22916,1
22917,1
22918,2
22919,1
22921,2
22923,1
22924,1
22926,1
22928,1
22931,1
22937,1
22941,1
22943,2
22951,1
22952,1
22955,1
22956,2
22957,4
22960,4
22963,2
22969,1
22974,1
22975,2
22976,2
22977,2
22978,3
22980,1
22981,1
22987,1
22994,9
22996,3
23002,1
23007,4
23009,1
23018,1
23019,1
23021,2
23022,1
23024,1
23025,3
23026,1
23028,1
23030,2
23032,3
23033,1
23034,5
23037,2
23039,2
23040,3
23041,7
23042,5
23044,1
23045,4
23046,1
23047,8
23048,2
23050,1
23053,1
23055,4
23056,1
23058,35
23062,3
23063,3
23068,2
23071,3
23072,1
23073,8
23074,1
23076,3
23078,2
23087,2
23088,2
23090,1
23091,1
23096,5
23097,1
23098,1
23100,1
23101,4
23103,1
23107,2
23110,1
23117,2
23121,1
23126,2
23127,1
23132,1
23133,1
23143,1
23144,11
23145,1
23146,3
23147,5
23148,1
23153,2
23155,3
23158,2
23159,5
23170,2
23171,2
23172,1
23173,1
23174,1
23175,1
23180,1
23182,1
23183,27
23184,55
23185,39
23186,1
23187,1
23190,1
23193,2
23195,1
23196,2
23200,1
23202,3
23204,2
23209,1
23212,2
23214,3
23219,3
23222,1
23228,2
23234,8
23235,1
23236,1
23237,6
23238,2
23239,11
23241,10
23242,1
23245,2
23246,3
23249,4
23252,1
23253,1
23254,1
23255,7
23262,13
23264,1
23268,2
23269,1
23270,1
23271,1
23273,1
23274,10
23278,1
23282,1
23284,1
23285,2
23289,2
23290,4
23291,3
23293,2
23296,1
23298,3
23300,1
23301,1
23302,1
23307,3
23314,1
23315,2
23317,1
23318,1
23319,4
23320,7
23321,1
23325,1
23327,2
23328,6
23329,2
23330,1
23332,6
23333,5
23334,1
23335,4
23336,1
23339,1
23344,3
23345,3
23346,1
23347,9
23349,2
23350,7
23352,1
23353,4
23356,1
23357,6
23358,16
23359,2
23361,3
23365,1
23370,1
23372,2
23373,9
23374,1
23375,13
23376,5
23377,2
23379,1
23380,5
23381,5
23382,4
23383,2
23384,5
23385,3
23387,19
23389,1
23393,4
23394,1
23397,2
23398,3
23402,1
23404,1
23406,2
23407,1
23410,2
23413,2
23416,2
23417,1
23418,1
23419,1
23420,2
23423,1
23424,1
23428,1
23431,1
23432,1
23439,6
23440,1
23442,1
23443,1
23449,1
23451,1
23452,2
23455,1
23457,1
23458,2
23469,1
23476,1
23483,1
23484,1
23486,2
23488,1
23490,5
23491,2
23502,4
23505,1
23506,2
23507,2
23509,1
23514,1
23515,3
23517,1
23531,3
23539,1
23540,2
23545,2
23548,1
23550,1
23551,4
23553,5
23557,3
23560,2
23561,1
23562,1
23563,4
23565,1
23566,1
23567,2
23571,3
23574,1
23577,1
23578,1
23579,1
23581,4
23582,1
23584,2
23589,5
23593,4
23597,2
23598,1
23599,1
23603,2
23604,4
23606,2
23607,1
23608,3
23609,1
23612,1
23613,1
23614,1
23615,4
23619,3
23620,2
23621,1
23622,1
23625,1
23627,1
23628,2
23633,1
23634,1
23635,6
23636,1
23638,1
23639,3
23640,1
23642,4
23644,2
23646,2
23648,3
23649,2
23650,4
23651,1
23652,3
23656,2
23658,2
23659,1
23660,3
23663,1
23665,2
23667,1
23669,2
23671,1
23674,1
23675,1
23676,1
23678,1
23682,1
23683,1
23694,1
23695,1
23698,2
23700,1
23701,2
23703,1
23704,2
23709,1
23710,1
23714,1
23718,1
23719,1
23722,4
23723,1
23725,3
23726,1
23727,1
23732,1
23733,2
23734,1
23735,6
23736,7
23737,2
23738,2
23740,1
23742,1
23744,2
23745,2
23746,1
23747,1
23749,4
23752,5
23753,6
23754,1
23755,6
23756,1
23757,2
23758,2
23760,1
23761,2
23762,7
23773,5
23774,1
23775,2
23776,4
23777,1
23783,4
23785,3
23803,2
23809,2
23810,12
23811,4
23812,4
23814,1
23819,1
23822,1
23824,3
23826,1
23827,3
23828,5
23829,1
23830,2
23833,1
23835,2
23836,5
23840,5
23842,1
23845,2
23846,5
23847,2
23849,3
23851,1
23852,2
23854,1
23855,2
23859,1
23861,1
23864,3
23869,1
23874,1
23876,4
23877,4
23878,17
23880,9
23885,2
23886,1
23889,2
23890,2
23892,2
23893,1
23896,1
23897,1
23901,1
23902,2
23907,10
23909,6
23910,4
23913,5
23915,4
23916,3
23917,1
23918,10
23920,1
23922,4
23924,3
23927,1
23929,8
23932,1
23935,2
23937,2
23938,3
23941,1
23943,1
23947,1
23948,2
23949,1
23956,3
23959,4
23960,5
23961,1
23964,1
23965,5
23966,1
23967,1
23968,2
23969,2
23970,1
23971,5
23972,4
23974,6
23975,1
23976,1
23981,1
23982,2
23983,1
23988,2
23989,3
23990,3
23997,1
23998,3
23999,1
24002,6
24003,3
24005,4
24010,2
24011,2
24013,4
24014,2
24015,5
24016,1
24017,1
24019,1
24020,1
24022,2
24023,1
24032,1
24033,2
24036,1
24039,2
24040,3
24042,3
24044,1
24045,3
24050,2
24051,3
24053,2
24055,6
24056,1
24058,3
24060,3
24062,6
24063,2
24065,1
24067,1
24068,5
24069,4
24070,12
24072,4
24073,5
24076,1
24078,2
24080,2
24081,2
24082,1
24085,5
24088,7
24089,1
24090,5
24091,2
24094,1
24095,1
24097,4
24098,16
24099,7
24100,1
24102,2
24105,6
24106,1
24108,2
24109,4
24110,1
24111,2
24112,1
24117,1
24121,6
24122,5
24123,2
24124,4
24126,2
24130,3
24133,3
24134,4
24135,4
24138,1
24146,9
24147,5
24148,1
24149,1
24151,1
24153,3
24156,1
24157,1
24158,5
24159,2
24160,4
24161,2
24162,3
24163,1
24166,2
24167,15
24168,6
24169,4
24170,1
24171,11
24173,2
24175,4
24176,6
24177,3
24178,1
24180,1
24181,1
24182,6
24183,2
24184,1
24185,6
24187,4
24188,4
24190,6
24191,1
24193,10
24195,2
24197,8
24198,1
24199,4
24201,2
24202,1
24203,10
24205,4
24207,4
24209,12
24210,4
24211,1
24212,21
24213,7
24214,5
24215,10
24216,10
