name,counts
1,5
2,7
3,4
4,7
5,11
6,6
7,11
8,29
9,21
10,5
11,3
12,6
13,4
14,4
15,8
17,14
18,14
19,18
20,9
21,25
22,11
23,18
24,37
25,20
26,7
27,14
28,5
29,29
30,11
31,13
32,24
33,18
34,9
35,13
36,11
37,13
38,5
39,8
40,15
41,23
42,8
43,3
44,4
45,7
46,3
47,1
48,3
49,2
50,3
51,3
52,3
53,5
54,3
55,24
56,4
57,5
58,8
59,6
60,3
61,5
62,4
63,6
64,14
65,24
66,13
67,14
68,13
69,26
70,15
71,5
72,20
73,10
74,26
75,4
76,14
77,1
78,4
79,4
80,4
81,4
82,12
83,4
84,4
85,1
86,6
87,3
89,3
90,2
91,7
92,1
93,6
94,3
95,4
96,3
97,4
98,4
99,1
100,4
101,3
104,6
105,5
106,3
107,6
108,2
109,4
110,5
111,2
112,5
113,24
114,9
115,2
116,3
117,1
118,1
119,2
120,3
121,5
122,2
123,8
124,3
126,1
127,5
128,3
129,4
130,16
133,3
134,2
135,2
136,1
137,2
138,2
139,2
141,9
142,2
143,6
144,3
146,1
147,1
148,1
149,1
150,12
152,3
153,3
156,1
158,10
159,2
160,4
161,2
162,3
164,5
165,1
167,2
168,3
169,1
172,2
173,3
174,3
175,7
176,1
177,1
181,2
184,5
186,7
187,7
188,6
189,4
190,2
191,1
192,2
194,1
195,4
196,4
197,2
198,10
199,9
200,3
201,7
202,6
203,1
204,7
205,4
206,1
207,2
208,3
209,5
210,5
211,7
212,6
213,7
214,2
215,6
216,36
217,13
218,8
219,12
220,3
221,3
222,3
223,5
224,7
225,5
226,10
227,5
228,5
229,1
231,1
232,1
233,8
234,3
235,1
236,5
237,4
238,3
239,1
240,3
241,5
242,3
243,4
244,3
247,4
249,2
251,4
252,5
253,3
254,1
255,2
256,8
257,2
258,6
259,6
260,3
261,3
262,6
263,1
264,2
265,3
266,1
267,5
268,3
269,4
270,4
271,2
273,2
274,1
275,6
276,2
277,1
278,4
279,4
280,1
281,3
282,6
283,5
284,2
285,2
286,3
287,3
288,2
289,6
290,13
291,3
292,4
293,2
294,3
295,4
296,3
297,7
298,12
301,1
302,4
304,2
305,3
306,1
307,3
308,16
309,7
310,2
311,9
312,6
313,12
314,7
315,7
316,2
317,2
319,1
320,2
321,8
322,1
323,2
324,2
325,17
327,1
328,1
330,3
332,8
334,1
336,2
339,1
340,1
341,3
342,1
343,1
346,7
347,5
348,1
349,4
351,1
353,5
355,4
356,5
358,4
359,7
360,7
361,3
362,2
363,3
365,1
366,1
370,4
371,4
372,1
373,2
374,3
375,3
376,2
377,1
379,2
380,2
381,2
382,5
384,13
387,10
388,3
389,1
390,1
391,1
392,4
393,2
394,1
395,4
396,1
397,5
398,4
399,7
400,1
401,3
402,2
403,3
404,1
405,35
406,1
407,1
408,13
409,1
410,4
411,6
412,2
413,6
414,3
416,2
417,4
420,3
421,4
422,10
423,3
424,5
426,1
427,2
428,4
429,4
430,1
431,1
433,1
434,2
435,2
437,1
438,7
439,11
440,3
441,5
442,4
443,7
444,12
445,2
446,4
447,1
448,3
449,2
450,1
451,1
452,1
453,3
454,2
455,2
457,2
459,4
460,3
461,1
462,2
463,2
464,5
465,9
466,1
467,1
468,2
470,5
471,1
472,2
473,3
474,3
475,7
476,4
477,2
478,6
479,2
480,8
481,9
482,10
483,1
484,10
485,2
486,2
487,4
488,1
489,4
490,2
491,3
492,1
493,1
494,1
495,2
496,1
497,3
498,1
499,2
500,3
501,2
502,9
503,4
504,5
505,5
506,5
507,1
508,3
509,3
511,9
513,3
514,11
515,4
516,1
517,2
518,3
519,14
520,2
521,8
523,7
524,3
525,6
526,16
527,8
528,11
529,14
530,3
531,7
532,6
533,2
534,2
535,6
536,11
537,5
538,3
539,6
541,4
542,9
543,6
545,5
546,6
547,1
548,13
549,16
550,11
551,20
552,2
553,4
554,4
555,7
556,1
557,1
558,2
560,2
562,1
564,1
565,1
566,3
567,3
568,1
571,5
572,17
573,4
574,1
575,7
576,1
577,7
578,3
579,12
580,5
581,4
582,3
583,3
584,3
585,1
586,3
588,1
589,2
590,2
591,5
592,3
593,1
594,10
595,3
596,1
597,5
598,2
599,4
601,2
602,1
603,3
604,3
605,3
606,1
607,3
608,3
610,7
611,5
612,1
613,2
614,5
615,3
616,3
617,3
618,1
619,7
620,2
621,1
622,1
623,2
624,18
625,4
626,2
627,2
628,8
629,1
630,2
631,4
632,2
635,5
636,3
637,3
638,3
639,1
640,7
641,4
642,6
643,3
644,1
645,18
646,7
647,6
648,2
649,8
650,5
651,4
652,2
653,2
654,2
655,1
656,2
657,1
659,7
660,1
661,2
663,4
664,8
665,1
666,7
667,4
668,8
669,4
670,2
671,8
672,10
673,3
674,1
675,2
676,3
677,6
678,3
679,4
680,2
681,3
684,2
685,11
686,1
687,5
688,2
689,3
690,1
691,6
692,3
693,2
694,2
695,3
696,1
697,7
698,3
699,3
700,2
701,2
702,5
703,1
704,1
705,1
707,2
708,2
709,1
710,1
711,2
712,1
713,12
714,7
715,3
719,1
720,2
721,5
722,8
723,4
724,7
725,2
726,1
727,1
728,4
729,2
730,6
731,1
732,16
733,2
735,1
736,3
737,7
738,5
739,8
740,4
741,4
742,7
743,12
744,4
745,5
746,6
747,1
748,3
749,2
750,7
751,6
755,3
757,31
758,6
759,3
760,4
761,3
763,5
764,3
765,7
766,8
767,2
768,4
769,3
770,25
771,3
772,5
773,1
774,16
775,5
776,4
777,4
778,2
779,3
780,1
781,9
782,2
783,3
784,7
785,1
786,3
787,6
788,1
789,1
790,4
792,1
793,6
795,2
796,3
797,5
801,7
802,3
803,3
804,4
807,1
808,1
809,2
810,4
811,3
812,1
814,1
816,1
817,2
818,2
819,1
820,4
821,2
824,4
825,2
826,10
828,2
829,4
830,3
831,3
832,2
834,5
835,2
837,13
838,7
839,5
840,7
841,10
842,6
843,4
844,3
846,3
847,2
848,2
849,4
850,2
851,4
852,6
853,4
854,5
855,1
857,1
858,1
860,9
861,1
862,1
864,2
866,4
867,3
868,2
869,1
871,4
872,6
873,4
874,16
875,2
876,11
877,4
878,11
879,1
880,6
881,2
882,15
883,2
884,8
885,2
886,5
887,10
888,6
889,1
890,1
891,2
892,2
893,1
894,2
895,5
896,1
897,2
900,11
902,28
903,7
904,2
905,2
906,5
907,11
908,5
909,4
910,1
911,1
912,5
913,2
914,2
915,2
916,1
917,3
918,1
919,5
920,2
921,1
923,1
924,2
925,2
926,1
928,2
929,2
930,4
933,2
937,4
938,4
939,6
941,7
942,8
943,4
945,3
946,6
947,2
948,2
949,8
950,7
951,4
952,3
953,3
954,4
955,4
956,3
957,6
959,2
960,2
961,2
962,1
963,1
965,1
967,1
968,1
969,1
970,1
971,3
972,10
973,1
975,7
976,6
977,1
978,2
979,1
982,3
983,3
984,2
985,1
986,2
987,1
988,1
989,2
990,3
992,7
995,1
996,3
998,5
1000,3
1001,8
1002,1
1003,1
1005,2
1006,1
1007,2
1008,5
1009,2
1010,3
1011,6
1012,4
1013,3
1015,1
1016,5
1017,4
1018,3
1019,2
1020,3
1021,1
1022,2
1024,4
1026,2
1027,1
1028,1
1029,2
1030,3
1031,7
1032,4
1034,2
1035,3
1037,2
1038,3
1039,2
1040,3
1041,3
1042,2
1043,3
1044,2
1045,6
1046,4
1047,2
1048,5
1049,1
1051,2
1052,27
1054,1
1055,7
1057,3
1058,1
1059,2
1060,1
1061,1
1062,2
1063,2
1065,1
1066,1
1067,1
1068,4
1069,1
1070,4
1071,1
1072,7
1073,5
1074,1
1075,5
1076,5
1077,5
1078,12
1079,21
1080,5
1081,1
1082,18
1083,1
1084,2
1085,3
1086,1
1090,2
1091,5
1092,1
1093,2
1094,2
1097,7
1098,4
1099,2
1100,8
1101,2
1102,3
1103,2
1104,1
1105,5
1106,6
1107,2
1108,5
1109,11
1111,5
1112,3
1113,2
1114,6
1115,6
1116,7
1117,3
1118,7
1119,8
1122,3
1123,1
1124,6
1125,1
1126,1
1127,1
1128,9
1129,2
1131,2
1132,1
1133,1
1134,2
1135,1
1136,8
1137,1
1138,2
1139,1
1140,1
1141,3
1143,2
1144,3
1145,1
1146,1
1147,1
1148,6
1149,5
1150,3
1152,23
1153,1
1155,5
1156,5
1157,1
1161,1
1162,2
1163,3
1164,4
1165,4
1166,22
1167,1
1168,5
1169,1
1170,73
1173,4
1176,1
1180,1
1181,3
1182,2
1183,2
1184,3
1186,6
1187,1
1190,1
1192,10
1193,10
1195,1
1197,5
1198,4
1200,1
1202,10
1203,9
1204,2
1206,1
1207,1
1208,2
1209,7
1210,2
1211,2
1213,1
1214,2
1215,34
1216,1
1217,1
1218,2
1219,11
1220,5
1221,1
1222,11
1223,5
1224,5
1225,12
1226,4
1227,10
1228,1
1229,13
1231,1
1232,6
1233,3
1234,4
1236,4
1237,5
1238,4
1239,1
1240,2
1241,6
1242,2
1243,5
1244,1
1245,1
1246,2
1249,2
1250,2
1251,3
1252,1
1253,7
1254,7
1255,2
1257,3
1258,1
1259,1
1260,2
1261,4
1262,3
1264,2
1265,6
1266,1
1267,1
1268,2
1269,2
1271,2
1273,18
1274,5
1275,5
1276,1
1277,4
1278,4
1279,8
1280,5
1284,4
1285,2
1286,6
1287,3
1288,1
1289,2
1290,1
1291,6
1292,7
1294,3
1296,2
1297,2
1298,2
1299,3
1300,1
1301,7
1302,3
1303,3
1305,5
1306,2
1307,1
1308,1
1309,4
1311,1
1312,1
1313,4
1314,2
1316,4
1319,4
1320,1
1322,3
1323,1
1324,3
1325,5
1326,2
1327,2
1328,12
1329,5
1332,2
1333,1
1335,3
1336,3
1337,3
1338,2
1339,4
1342,3
1343,2
1344,1
1345,1
1346,1
1347,1
1348,3
1349,1
1350,1
1351,13
1352,2
1353,2
1354,7
1355,4
1357,2
1358,3
1359,7
1361,2
1363,7
1364,2
1365,1
1366,14
1367,2
1368,12
1369,1
1370,2
1371,10
1373,4
1374,4
1376,7
1377,2
1379,7
1380,13
1381,2
1382,3
1383,3
1384,6
1385,4
1386,1
1387,1
1388,6
1389,4
1390,4
1391,8
1392,3
1393,1
1394,1
1395,1
1397,2
1398,8
1399,4
1400,1
1401,1
1402,7
1403,6
1404,9
1405,2
1406,13
1407,5
1409,11
1410,2
1411,2
1412,2
1413,3
1414,9
1415,4
1416,1
1417,9
1418,2
1419,3
1420,13
1421,20
1422,11
1423,5
1424,8
1426,4
1427,1
1428,4
1429,7
1430,5
1431,8
1432,8
1433,3
1434,6
1435,1
1436,8
1437,1
1438,3
1440,6
1441,5
1442,8
1443,2
1444,5
1445,1
1446,7
1447,4
1449,8
1450,4
1452,4
1453,2
1454,1
1455,14
1456,6
1459,1
1460,1
1461,1
1462,6
1463,2
1464,6
1465,7
1466,4
1467,2
1468,1
1473,1
1474,5
1475,19
1476,5
1477,1
1478,1
1479,11
1481,6
1482,7
1483,9
1484,5
1485,10
1486,6
1487,7
1489,11
1490,6
1491,8
1494,2
1495,2
1496,3
1497,3
1498,6
1499,2
1500,2
1501,2
1503,1
1504,2
1505,9
1506,1
1507,3
1508,4
1509,2
1510,4
1511,5
1512,1
1513,3
1514,9
1515,4
1516,1
1518,1
1519,3
1520,1
1521,3
1522,1
1523,3
1524,3
1525,1
1526,1
1527,4
1528,4
1529,2
1530,1
1531,2
1532,7
1533,1
1534,3
1535,5
1536,17
1537,2
1538,2
1539,3
1541,2
1542,8
1543,7
1544,1
1545,8
1546,6
1547,7
1548,3
1549,5
1550,3
1551,1
1552,4
1553,10
1554,9
1555,5
1556,10
1557,6
1558,1
1559,2
1560,10
1561,6
1562,6
1563,1
1564,2
1566,1
1567,1
1568,1
1569,6
1570,2
1571,2
1572,1
1575,2
1576,2
1577,2
1578,2
1579,2
1580,4
1581,9
1582,7
1583,11
1584,4
1585,2
1586,17
1587,5
1588,1
1589,4
1590,1
1591,11
1592,3
1594,5
1595,2
1596,2
1597,2
1598,3
1599,3
1600,1
1603,2
1606,6
1607,1
1608,2
1609,1
1610,2
1611,5
1612,1
1614,4
1615,1
1616,4
1617,4
1618,5
1619,4
1620,2
1621,1
1622,1
1623,3
1624,7
1625,5
1626,3
1627,2
1628,3
1629,1
1630,1
1631,2
1632,4
1633,4
1634,2
1635,1
1636,2
1637,2
1638,4
1640,1
1642,5
1643,1
1644,6
1645,2
1647,3
1648,3
1650,2
1651,2
1652,9
1655,5
1656,3
1657,2
1658,6
1660,1
1661,4
1662,4
1663,5
1664,3
1665,11
1666,1
1667,3
1668,5
1670,1
1671,4
1672,3
1673,3
1675,1
1676,8
1678,3
1681,2
1682,3
1685,3
1686,17
1687,5
1688,3
1689,4
1690,2
1693,1
1694,3
1695,5
1696,22
1697,5
1698,6
1699,5
1700,3
1701,1
1702,2
1703,12
1704,1
1705,2
1706,7
1707,20
1708,9
1710,5
1711,3
1712,18
1713,6
1714,4
1715,2
1716,1
1717,2
1718,1
1719,1
1720,3
1721,6
1722,7
1723,13
1724,10
1725,1
1726,2
1727,3
1728,4
1730,4
1731,4
1732,2
1733,4
1734,6
1735,9
1736,2
1737,12
1738,73
1739,26
1740,41
1741,37
1742,14
1743,34
1744,27
1745,25
1746,34
1747,66
1748,194
1749,52
1750,16
1751,25
1752,43
1753,13
1754,20
1755,33
1756,28
1757,25
1758,46
1759,25
1760,30
1761,2
1762,2
1763,5
1764,6
1765,2
1767,2
1768,2
1769,6
1770,4
1771,5
1772,2
1773,2
1774,3
1775,1
1776,58
1777,60
1778,19
1779,18
1780,15
1781,44
1782,10
1783,16
1784,12
1785,27
1786,16
1787,9
1793,1
1796,2
1797,47
1798,20
1799,24
1800,19
1801,23
1802,14
1803,16
1804,12
1805,38
1806,16
1807,1
1829,48
1830,68
1831,64
1832,63
1833,49
1834,122
1835,232
1836,80
1837,82
1838,187
1839,160
1840,81
1841,83
1842,187
1843,611
1894,10
1895,46
1896,7
1897,95
1898,33
1899,5
1900,3
1901,7
1902,3
1903,7
1904,2
1905,3
1906,4
1908,2
1909,5
1910,12
1911,4
1912,28
1913,1
1914,2
1916,14
1917,20
1918,75
1919,113
1920,105
1921,7
1922,14
1923,2
1924,6
1925,4
1926,18
1927,1
1928,1
1929,12
1930,11
1931,3
1932,1
1933,8
1934,7
1935,5
1936,5
1937,8
1938,3
1939,9
1940,1
1941,37
1942,40
1943,76
1944,140
1945,66
1946,11
1947,10
1948,9
1949,1
1950,4
1951,71
1952,70
1953,16
1954,11
1955,4
1956,3
1957,13
1959,2
1961,20
1962,2
1963,2
1965,7
1966,7
1967,2
1968,3
1970,3
1971,2
1972,1
1974,3
1975,1
1976,2
1977,4
1978,6
1979,3
1980,4
1981,3
1982,2
1983,16
1984,4
1985,4
1986,3
1987,6
1988,7
1989,4
1990,6
1991,2
1992,2
1993,3
1994,2
1995,4
1997,5
1999,2
2000,2
2001,1
2002,4
2003,2
2004,4
2006,1
2007,3
2008,11
2009,26
2010,1
2011,5
2012,3
2013,5
2015,5
2016,1
2017,2
2018,3
2019,1
2020,12
2021,9
2022,10
2024,2
2026,5
2027,3
2028,5
2029,6
2030,4
2031,5
2032,5
2033,5
2034,4
2035,12
2036,4
2037,4
2038,8
2040,1
2041,14
2042,3
2043,1
2044,9
2045,1
2046,1
2047,2
2048,8
2049,8
2050,2
2051,24
2052,3
2054,2
2055,1
2056,4
2057,3
2058,5
2060,3
2061,2
2062,2
2065,4
2066,6
2067,4
2069,1
2070,11
2071,1
2072,6
2073,3
2075,2
2076,1
2077,2
2078,3
2079,2
2081,2
2082,2
2083,9
2084,1
2085,2
2086,2
2087,1
2088,1
2089,1
2091,4
2092,3
2093,2
2094,2
2095,2
2096,4
2098,5
2099,3
2100,3
2101,1
2102,3
2103,1
2104,2
2105,6
2106,14
2107,4
2108,7
2110,4
2111,2
2112,2
2113,4
2116,1
2117,1
2118,3
2119,5
2121,1
2123,4
2126,17
2127,18
2128,31
2129,49
2130,55
2131,9
2132,1
2134,4
2136,4
2137,4
2139,3
2141,3
2142,1
2143,2
2144,5
2146,7
2147,2
2148,3
2150,1
2151,4
2152,3
2154,2
2156,1
2157,21
2158,73
2159,22
2160,3
2161,4
2164,1
2166,2
2167,4
2168,1
2169,2
2170,7
2171,6
2172,8
2173,1
2174,35
2175,9
2176,9
2177,5
2178,1
2179,2
2180,3
2182,5
2183,3
2184,5
2185,7
2186,4
2187,4
2188,2
2189,7
2190,3
2191,2
2192,2
2193,2
2194,7
2195,5
2196,12
2197,22
2198,9
2199,19
2200,5
2201,7
2202,10
2203,6
2204,14
2205,4
2206,10
2207,14
2208,34
2209,3
2210,8
2211,13
2212,14
2213,22
2214,3
2215,4
2216,3
2218,3
2220,12
2221,7
2223,4
2224,4
2225,17
2226,23
2227,35
2228,39
2229,29
2230,24
2231,9
2232,18
2233,6
2234,3
2235,15
2236,65
2237,31
2238,18
2239,35
2240,15
2241,18
2242,4
2243,14
2244,6
2245,1
2246,1
2247,9
2248,48
2249,50
2250,3
2251,13
2252,6
2253,8
2254,2
2255,6
2256,4
2257,5
2259,11
2261,5
2262,4
2263,4
2264,8
2265,5
2266,3
2267,1
2268,11
2269,55
2270,62
2271,74
2272,383
2273,99
2274,32
2275,3
2276,5
2277,3
2279,4
2280,10
2282,6
2283,3
2284,3
2285,3
2286,6
2287,1
2288,3
2289,2
2290,1
2291,1
2293,1
2294,4
2296,1
2297,7
2298,3
2299,2
2300,1
2301,3
2302,2
2303,4
2304,3
2305,4
2306,8
2307,5
2308,7
2309,8
2310,3
2311,2
2312,5
2313,2
2314,13
2316,3
2317,1
2318,3
2319,9
2320,2
2321,2
2322,13
2323,1
2324,1
2325,5
2326,2
2327,4
2328,1
2329,3
2330,1
2331,5
2332,2
2333,4
2334,5
2335,1
2336,6
2337,6
2339,16
2340,6
2341,2
2342,9
2343,5
2344,6
2345,4
2346,2
2347,2
2348,3
2349,7
2350,14
2351,7
2352,4
2353,10
2355,2
2356,14
2357,5
2358,2
2359,11
2360,1
2361,1
2362,11
2363,12
2364,1
2365,5
2366,10
2367,2
2368,5
2369,4
2370,5
2371,2
2372,2
2373,2
2374,1
2375,1
2376,6
2377,2
2378,4
2379,5
2380,12
2381,2
2382,1
2383,3
2384,3
2385,2
2387,3
2388,4
2389,1
2390,6
2391,3
2392,1
2393,5
2394,3
2395,2
2397,2
2399,1
2400,2
2401,5
2402,6
2403,6
2404,3
2405,1
2406,6
2407,2
2408,6
2409,2
2410,7
2411,5
2412,2
2413,1
2414,2
2415,3
2416,4
2418,4
2419,2
2420,6
2421,1
2422,1
2423,6
2425,10
2426,5
2427,1
2428,2
2429,3
2430,7
2431,2
2432,3
2433,13
2434,5
2435,5
2436,4
2437,1
2438,2
2439,1
2441,6
2442,10
2443,1
2444,4
2445,1
2446,4
2447,5
2448,2
2450,1
2452,2
2453,4
2454,2
2455,7
2456,6
2457,2
2458,2
2461,1
2462,3
2465,2
2466,5
2467,3
2468,7
2469,3
2470,1
2471,2
2472,1
2474,10
2475,2
2476,3
2479,2
2480,4
2481,1
2482,1
2483,10
2484,1
2485,3
2486,1
2488,7
2489,13
2490,4
2491,3
2492,4
2493,2
2494,5
2495,7
2496,13
2497,1
2498,9
2499,7
2500,4
2501,3
2502,4
2504,2
2506,1
2507,1
2508,3
2509,2
2510,1
2511,4
2512,4
2513,4
2514,5
2515,3
2516,2
2517,2
2518,2
2519,5
2520,2
2521,1
2522,2
2523,5
2524,14
2526,1
2527,1
2528,3
2531,1
2532,9
2533,1
2534,5
2535,6
2536,1
2537,2
2538,4
2539,2
2540,1
2541,2
2542,7
2544,6
2545,12
2546,3
2547,4
2548,2
2550,3
2551,7
2552,4
2553,13
2554,6
2555,2
2556,17
2557,7
2558,6
2559,10
2560,2
2561,4
2563,4
2564,5
2565,20
2566,4
2567,3
2568,1
2569,8
2570,5
2571,10
2572,4
2573,3
2574,9
2576,2
2577,4
2578,10
2579,4
2580,5
2581,2
2582,2
2585,3
2586,3
2588,5
2589,5
2590,4
2591,2
2592,2
2593,2
2594,5
2595,4
2597,1
2598,3
2599,8
2600,69
2601,15
2602,54
2603,31
2604,30
2605,112
2606,12
2607,3
2608,7
2609,32
2610,47
2611,3
2612,6
2613,91
2614,39
2615,4
2616,1
2618,1
2619,5
2620,2
2621,12
2622,4
2623,4
2624,96
2625,71
2626,39
2627,17
2628,49
2629,64
2630,14
2631,24
2632,8
2633,30
2634,9
2635,21
2636,53
2637,22
2638,23
2639,16
2640,31
2641,127
2642,75
2643,130
2644,88
2645,124
2646,169
2647,16
2648,23
2649,4
2650,5
2651,4
2652,5
2653,1
2655,2
2656,11
2657,8
2658,5
2659,4
2660,4
2661,2
2662,4
2663,10
2664,3
2665,3
2666,4
2667,5
2668,7
2669,4
2670,11
2671,5
2672,7
2673,9
2674,1
2675,4
2676,1
2677,1
2678,2
2679,5
2680,1
2681,3
2682,4
2683,7
2684,11
2685,2
2686,6
2687,9
2688,1
2689,12
2690,2
2693,13
2694,1
2695,5
2696,3
2697,14
2699,2
2700,10
2701,1
2702,1
2703,4
2704,3
2705,1
2706,5
2707,3
2708,1
2709,4
2710,2
2711,38
2712,2
2713,1
2714,2
2715,2
2716,14
2717,15
2718,10
2719,5
2720,5
2723,1
2724,28
2725,3
2726,3
2727,2
2728,1
2729,3
2730,1
2731,1
2732,4
2733,4
2734,1
2735,3
2737,4
2738,10
2739,1
2742,6
2744,3
2745,3
2746,2
2747,7
2748,9
2749,1
2750,1
2751,5
2752,1
2753,4
2754,3
2755,1
2756,1
2757,5
2758,2
2759,7
2760,4
2761,1
2762,6
2764,1
2766,6
2767,14
2769,2
2771,2
2772,1
2773,1
2775,1
2777,6
2778,1
2779,3
2780,3
2781,2
2782,3
2783,4
2785,5
2786,5
2787,5
2788,5
2789,1
2790,5
2791,4
2792,4
2793,1
2794,3
2797,2
2798,1
2799,4
2800,7
2801,1
2802,1
2803,2
2804,2
2805,2
2806,3
2807,3
2808,1
2809,3
2810,1
2811,7
2812,5
2813,6
2814,3
2815,9
2816,2
2817,1
2818,3
2820,4
2821,1
2822,4
2823,5
2824,2
2825,8
2827,1
2828,2
2829,5
2830,4
2831,4
2832,2
2833,5
2834,3
2835,2
2836,2
2837,1
2838,3
2839,1
2840,4
2842,2
2844,1
2845,5
2846,1
2848,2
2850,2
2851,2
2852,1
2853,9
2854,2
2855,7
2856,3
2857,6
2859,4
2861,8
2864,1
2865,3
2866,1
2868,1
2870,1
2872,3
2873,1
2874,14
2875,2
2877,1
2878,6
2879,2
2880,3
2881,3
2883,2
2888,1
2889,4
2890,1
2891,3
2893,1
2894,3
2896,3
2897,5
2898,4
2899,1
2900,2
2901,2
2902,1
2903,1
2904,1
2905,5
2906,4
2907,1
2908,3
2909,2
2910,1
2911,5
2912,1
2913,3
2916,1
2917,2
2918,1
2919,2
2920,1
2921,5
2922,2
2923,1
2924,1
2925,5
2927,2
2928,2
2929,5
2931,1
2932,2
2934,1
2936,2
2937,2
2939,5
2940,4
2942,2
2943,9
2945,1
2946,1
2947,1
2948,1
2952,4
2953,1
2954,4
2955,6
2957,2
2958,2
2959,2
2960,3
2961,1
2963,1
2964,5
2965,2
2966,1
2967,3
2968,6
2969,5
2972,5
2973,2
2975,1
2976,9
2977,11
2978,3
2979,2
2980,11
2981,3
2982,3
2983,1
2984,4
2985,4
2986,4
2987,11
2988,1
2989,8
2991,13
2992,6
2994,4
2995,1
2997,4
2998,12
2999,15
3000,2
3001,3
3002,3
3003,3
3004,3
3005,6
3006,1
3007,1
3008,3
3009,4
3010,7
3011,3
3012,3
3014,1
3016,1
3017,2
3018,3
3019,2
3020,2
3021,12
3023,4
3024,4
3025,1
3026,2
3028,1
3029,7
3030,7
3031,5
3032,16
3033,14
3034,25
3035,19
3036,2
3037,3
3038,1
3042,1
3043,3
3044,4
3045,1
3046,5
3047,1
3048,14
3049,1
3050,3
3051,2
3052,1
3053,11
3054,4
3055,5
3056,2
3057,1
3058,3
3059,1
3060,8
3061,4
3062,1
3063,2
3064,1
3065,1
3066,3
3067,7
3068,8
3069,5
3070,2
3072,1
3073,7
3075,2
3076,2
3078,1
3079,1
3080,1
3082,2
3083,6
3084,3
3085,2
3086,1
3087,1
3089,1
3091,4
3092,2
3093,2
3094,1
3095,2
3096,3
3097,1
3098,4
3099,2
3100,6
3101,1
3103,4
3104,8
3106,6
3107,4
3108,1
3109,5
3110,5
3111,2
3114,5
3115,4
3116,1
3117,1
3118,1
3119,1
3120,3
3121,1
3123,2
3124,3
3125,1
3126,12
3127,1
3128,3
3129,4
3130,4
3131,1
3132,3
3133,4
3134,3
3135,1
3136,2
3137,1
3140,10
3141,6
3142,3
3144,2
3145,25
3146,3
3147,1
3148,19
3149,3
3151,12
3152,9
3153,2
3154,1
3156,1
3157,2
3158,3
3159,1
3160,1
3161,3
3162,3
3163,1
3164,4
3165,4
3166,1
3167,3
3168,8
3170,2
3171,4
3172,1
3173,2
3174,2
3175,2
3176,6
3177,8
3178,21
3180,4
3181,2
3182,4
3183,5
3184,4
3185,12
3186,3
3187,7
3188,1
3189,2
3190,28
3192,1
3193,1
3194,8
3195,2
3196,5
3197,13
3198,9
3199,1
3200,5
3201,3
3202,5
3203,12
3204,4
3205,3
3206,4
3207,5
3208,1
3209,6
3210,2
3212,2
3213,2
3214,1
3215,1
3216,1
3217,14
3218,4
3219,1
3220,3
3221,2
3222,2
3224,1
3226,11
3227,3
3228,8
3229,1
3230,5
3231,82
3232,5
3233,3
3234,2
3235,1
3236,2
3237,3
3238,3
3239,4
3240,3
3241,6
3242,3
3243,3
3244,2
3245,1
3246,5
3247,2
3248,5
3249,1
3250,8
3251,2
3252,4
3253,4
3254,1
3255,1
3256,5
3257,2
3258,3
3259,7
3260,1
3261,2
3262,3
3263,1
3264,2
3265,2
3266,9
3267,5
3268,2
3269,8
3270,1
3271,3
3272,5
3273,1
3274,5
3276,7
3277,1
3278,1
3279,1
3280,4
3281,2
3282,6
3283,10
3284,2
3285,2
3286,6
3287,1
3288,3
3289,1
3290,8
3291,1
3292,4
3293,2
3294,2
3295,1
3296,1
3297,3
3298,1
3299,11
3300,4
3301,2
3302,8
3303,4
3304,8
3306,3
3307,6
3308,4
3309,5
3310,10
3311,1
3312,1
3313,3
3314,5
3315,15
3316,7
3317,6
3319,6
3320,1
3321,14
3322,5
3323,2
3324,3
3325,2
3326,13
3327,7
3329,6
3330,3
3331,4
3333,1
3334,4
3335,6
3336,2
3337,2
3338,1
3339,2
3340,4
3341,7
3345,1
3346,3
3350,1
3351,1
3352,3
3353,1
3354,2
3355,9
3356,1
3357,17
3358,2
3359,2
3361,3
3362,1
3364,3
3366,2
3367,1
3368,1
3369,3
3370,2
3371,1
3372,1
3373,2
3374,5
3376,6
3377,6
3378,8
3379,2
3380,8
3381,2
3382,4
3383,2
3384,4
3385,7
3386,5
3387,20
3388,6
3389,2
3390,10
3391,11
3392,3
3393,20
3394,10
3395,6
3396,5
3397,8
3398,4
3399,1
3400,4
3401,7
3402,9
3403,4
3404,7
3405,5
3406,2
3407,1
3408,6
3409,6
3410,4
3411,5
3412,3
3413,3
3414,9
3415,2
3416,3
3417,7
3418,1
3420,3
3421,1
3422,1
3423,1
3424,1
3425,3
3427,4
3428,1
3429,3
3430,20
3431,3
3432,2
3433,1
3435,4
3436,1
3437,3
3438,6
3439,1
3440,6
3441,12
3442,7
3443,4
3444,10
3445,1
3446,2
3447,6
3449,4
3450,5
3451,2
3452,5
3454,2
3456,3
3457,4
3458,3
3459,1
3461,9
3462,1
3463,1
3464,5
3465,3
3466,1
3467,3
3468,8
3469,6
3470,2
3471,3
3472,1
3473,3
3474,6
3475,6
3476,2
3477,4
3478,2
3479,1
3481,4
3482,2
3483,1
3485,1
3486,12
3487,5
3488,5
3489,18
3490,8
3491,7
3493,4
3494,2
3495,8
3496,3
3497,11
3499,5
3500,3
3501,1
3502,3
3503,3
3504,2
3505,1
3506,3
3507,6
3508,4
3509,1
3510,1
3511,2
3512,13
3514,19
3515,5
3516,5
3517,2
3519,3
3521,1
3522,1
3523,7
3524,1
3525,10
3526,2
3527,3
3528,1
3529,8
3530,4
3531,4
3532,1
3533,1
3534,3
3535,3
3536,4
3537,2
3538,5
3539,1
3541,3
3543,2
3544,5
3547,4
3548,5
3549,1
3550,1
3551,2
3552,1
3554,4
3555,3
3557,4
3558,5
3559,21
3560,32
3561,1
3562,1
3563,2
3564,3
3565,2
3566,3
3567,18
3568,3
3570,22
3571,18
3572,13
3573,15
3574,36
3575,22
3576,10
3578,7
3579,5
3580,10
3581,3
3582,2
3583,5
3584,3
3585,2
3587,3
3588,6
3589,3
3590,1
3591,1
3592,4
3593,1
3595,1
3596,1
3597,4
3598,1
3600,3
3601,1
3602,1
3603,2
3604,1
3605,1
3607,1
3608,1
3610,2
3611,2
3613,3
3614,1
3617,6
3618,5
3620,9
3621,1
3624,4
3626,2
3627,3
3629,2
3630,9
3631,10
3632,2
3633,1
3634,6
3636,3
3638,5
3639,13
3640,2
3641,8
3642,1
3643,2
3645,24
3646,3
3647,3
3649,3
3651,1
3652,4
3654,2
3655,1
3656,1
3657,1
3658,1
3659,4
3660,6
3661,6
3662,5
3663,1
3664,1
3666,1
3667,3
3668,2
3669,3
3670,2
3671,3
3672,12
3673,29
3674,3
3675,2
3676,1
3678,2
3679,1
3680,4
3681,4
3682,1
3683,1
3684,2
3685,5
3687,3
3689,2
3691,1
3692,1
3693,5
3694,4
3697,1
3698,1
3699,3
3700,4
3701,1
3703,5
3704,4
3705,1
3706,2
3707,1
3708,4
3709,14
3710,1
3711,10
3712,4
3713,2
3714,1
3716,9
3717,10
3718,7
3720,2
3721,4
3722,1
3723,2
3725,2
3727,1
3729,2
3730,4
3731,3
3732,1
3733,2
3734,8
3735,1
3736,1
3737,2
3738,1
3742,1
3743,2
3744,2
3746,3
3748,4
3749,1
3750,3
3751,2
3752,6
3753,3
3754,1
3756,7
3757,3
3758,2
3759,1
3760,3
3761,3
3762,1
3763,6
3764,1
3765,7
3766,3
3767,2
3768,3
3769,2
3771,6
3772,3
3773,1
3775,1
3776,4
3777,4
3779,1
3780,8
3781,14
3782,13
3783,1
3786,1
3787,1
3788,3
3789,2
3790,3
3791,1
3792,3
3793,1
3794,2
3795,7
3797,6
3799,32
3800,1
3801,1
3802,3
3805,2
3806,2
3808,5
3809,2
3810,5
3811,2
3812,2
3813,1
3814,4
3815,1
3816,2
3817,3
3818,1
3819,2
3820,13
3821,4
3822,1
3824,2
3825,4
3826,1
3827,7
3828,9
3829,5
3830,6
3831,3
3832,2
3834,3
3835,14
3836,11
3838,1
3839,1
3841,5
3843,2
3844,3
3846,5
3847,1
3848,3
3849,2
3850,5
3851,2
3853,4
3854,4
3856,4
3857,7
3858,5
3859,2
3861,2
3862,4
3863,1
3864,1
3865,29
3866,5
3867,7
3869,2
3871,1
3872,1
3873,2
3874,6
3876,1
3877,3
3879,1
3880,4
3881,3
3882,1
3883,6
3884,2
3885,1
3888,3
3889,4
3891,1
3892,6
3895,2
3897,2
3898,1
3899,1
3900,4
3901,6
3902,7
3903,4
3905,1
3906,7
3908,5
3911,1
3912,7
3913,1
3915,2
3916,4
3917,4
3918,2
3919,3
3920,1
3922,1
3923,1
3924,3
3925,2
3926,6
3927,4
3928,4
3929,6
3930,3
3931,10
3932,3
3933,2
3934,1
3935,1
3936,3
3937,3
3939,4
3940,5
3941,1
3942,6
3943,3
3944,2
3946,1
3948,7
3949,5
3950,5
3951,4
3953,14
3954,12
3956,2
3957,2
3958,5
3959,7
3960,1
3962,2
3963,1
3964,1
3965,5
3966,1
3967,1
3968,3
3969,3
3970,2
3971,1
3972,5
3974,3
3975,3
3976,5
3977,2
3978,2
3980,2
3981,5
3982,2
3983,1
3984,4
3986,5
3987,3
3988,3
3989,2
3991,1
3993,1
3994,37
3996,2
3997,2
3998,2
3999,1
4000,2
4001,3
4002,2
4004,3
4005,3
4006,1
4007,2
4008,2
4009,5
4010,2
4011,2
4012,1
4013,8
4014,9
4015,2
4017,7
4018,5
4019,1
4020,4
4021,1
4022,8
4023,3
4024,10
4025,3
4026,4
4027,2
4028,3
4029,42
4030,3
4031,3
4032,5
4033,4
4034,10
4035,3
4036,7
4037,2
4038,6
4039,1
4040,2
4044,12
4045,19
4046,10
4047,4
4048,5
4049,3
4050,1
4051,8
4052,3
4053,7
4054,4
4055,7
4056,5
4057,4
4058,2
4059,3
4060,3
4061,6
4062,3
4063,4
4064,7
4065,5
4066,10
4067,5
4068,6
4069,3
4070,6
4071,2
4072,3
4073,25
4074,1
4075,7
4076,8
4077,3
4080,3
4081,2
4083,3
4084,4
4085,2
4087,2
4088,2
4089,1
4090,7
4091,1
4092,4
4093,1
4095,1
4096,7
4097,1
4098,1
4099,1
4100,1
4101,2
4103,8
4104,4
4105,3
4107,5
4109,1
4110,2
4111,4
4112,5
4113,2
4114,1
4115,2
4117,2
4118,5
4119,3
4120,3
4121,2
4122,4
4123,5
4124,4
4125,1
4126,1
4127,1
4128,7
4129,18
4130,8
4131,2
4132,10
4133,1
4134,1
4135,11
4136,1
4137,7
4138,1
4140,3
4141,9
4142,4
4143,2
4144,1
4146,5
4149,2
4150,6
4151,3
4153,3
4154,6
4155,3
4156,6
4157,3
4158,1
4159,4
4160,1
4161,4
4162,2
4163,5
4164,9
4165,5
4166,2
4167,2
4168,3
4169,3
4170,3
4171,1
4173,4
4174,1
4176,3
4178,11
4179,4
4180,3
4182,6
4183,2
4184,45
4185,5
4187,8
4188,1
4189,1
4190,4
4191,1
4192,2
4193,5
4194,7
4195,13
4196,7
4197,4
4198,4
4199,2
4201,8
4202,1
4205,2
4206,3
4207,1
4208,2
4209,3
4210,3
4211,4
4212,4
4213,5
4214,4
4215,2
4216,3
4217,1
4218,2
4220,2
4221,6
4222,2
4223,3
4224,3
4225,14
4226,6
4227,2
4228,3
4229,6
4230,2
4231,5
4233,5
4234,5
4235,8
4236,3
4237,1
4238,8
4239,2
4240,4
4241,7
4242,1
4243,4
4244,4
4245,4
4246,7
4247,1
4248,3
4249,8
4250,1
4251,5
4252,4
4253,2
4254,1
4255,1
4256,3
4258,4
4260,1
4261,1
4262,2
4263,3
4264,5
4266,1
4267,3
4268,5
4269,1
4270,2
4272,9
4274,2
4275,7
4276,3
4277,1
4278,2
4279,1
4280,3
4282,3
4283,5
4284,1
4285,3
4286,4
4287,3
4288,3
4289,3
4291,1
4292,3
4293,2
4294,20
4295,8
4296,5
4297,9
4299,1
4300,4
4301,1
4302,2
4303,2
4304,2
4305,7
4306,10
4307,6
4308,9
4309,3
4310,1
4312,1
4313,2
4314,4
4316,2
4318,2
4319,6
4320,2
4322,3
4323,13
4324,7
4325,10
4326,3
4327,4
4328,2
4329,4
4330,7
4331,3
4332,2
4333,8
4334,3
4336,3
4337,5
4338,1
4339,3
4340,1
4341,2
4342,3
4343,4
4344,1
4345,2
4346,2
4347,1
4348,1
4351,2
4352,1
4353,2
4354,2
4355,1
4357,14
4358,3
4359,3
4360,2
4361,1
4362,4
4363,2
4364,5
4365,8
4366,8
4367,9
4368,10
4369,11
4370,3
4371,1
4372,5
4373,4
4374,12
4375,3
4376,4
4377,8
4378,4
4379,4
4381,8
4382,2
4383,4
4384,5
4385,10
4386,10
4387,1
4388,4
4389,7
4390,14
4391,4
4392,7
4393,7
4394,2
4396,2
4397,4
4398,3
4399,2
4401,1
4402,1
4403,2
4404,2
4405,1
4406,1
4407,2
4408,1
4410,3
4411,10
4412,1
4413,1
4414,6
4415,1
4416,2
4417,5
4418,1
4420,4
4421,2
4422,1
4423,3
4424,1
4425,3
4427,3
4428,18
4429,2
4431,2
4432,2
4433,1
4434,1
4437,8
4439,10
4440,74
4441,2
4442,3
4443,11
4444,10
4445,1
4446,4
4447,2
4448,3
4449,2
4450,9
4452,1
4453,4
4454,3
4455,1
4456,5
4457,6
4459,3
4461,2
4462,2
4463,1
4465,5
4466,3
4467,5
4468,3
4469,4
4470,3
4471,2
4472,2
4473,1
4474,4
4475,10
4476,8
4478,11
4479,2
4480,2
4481,3
4482,5
4483,1
4484,1
4485,1
4487,5
4488,2
4490,1
4491,7
4492,57
4493,5
4494,2
4495,3
4496,4
4497,4
4498,8
4499,1
4500,1
4501,1
4503,4
4505,7
4506,3
4507,2
4508,2
4509,2
4510,2
4511,1
4512,5
4513,4
4514,3
4515,1
4516,3
4517,1
4518,16
4519,3
4520,2
4523,4
4524,1
4539,5
4541,10
4542,4
4543,16
4544,2
4545,4
4546,11
4547,4
4548,3
4551,1
4552,1
4553,1
4558,4
4559,6
4560,6
4561,5
4562,1
4563,6
4564,2
4568,6
4569,10
4570,1
4571,2
4572,13
4573,1
4574,2
4576,11
4577,1
4578,4
4579,2
4581,3
4583,6
4584,5
4585,4
4586,2
4587,1
4588,1
4589,3
4591,3
4592,10
4593,2
4594,1
4595,3
4596,8
4597,1
4598,1
4599,9
4600,3
4601,1
4602,5
4604,2
4605,7
4606,4
4607,9
4608,7
4609,17
4610,12
4611,5
4612,36
4613,6
4614,2
4615,13
4616,5
4618,5
4619,1
4620,8
4621,5
4622,3
4624,2
4625,1
4626,3
4627,2
4629,13
4630,9
4631,5
4632,7
4634,2
4635,6
4636,1
4637,122
4638,3
4639,3
4640,3
4641,5
4642,1
4643,5
4644,3
4645,1
4646,2
4647,9
4648,20
4649,13
4650,7
4651,10
4653,14
4654,4
4655,12
4656,1
4657,4
4658,6
4659,5
4660,5
4661,2
4662,3
4663,3
4664,13
4665,2
4666,11
4667,16
4668,2
4669,6
4670,19
4671,5
4672,25
4673,4
4674,1
4675,25
4676,13
4677,19
4678,20
4679,5
4680,5
4681,2
4682,5
4683,2
4684,7
4685,2
4686,1
4687,2
4688,7
4689,2
4690,1
4691,4
4692,3
4694,1
4696,1
4697,2
4698,8
4699,2
4701,5
4702,5
4703,4
4704,1
4707,3
4708,3
4709,2
4710,2
4711,9
4712,5
4713,7
4714,3
4715,4
4716,3
4717,7
4718,5
4719,4
4720,4
4721,6
4722,7
4723,7
4724,5
4725,3
4726,3
4727,8
4728,6
4729,6
4730,11
4731,4
4732,8
4733,3
4734,3
4735,3
4736,2
4737,2
4739,2
4740,3
4741,5
4742,2
4743,1
4744,2
4745,8
4746,2
4747,10
4748,12
4749,5
4750,6
4751,18
4752,6
4753,9
4755,8
4756,5
4757,7
4761,2
4762,14
4763,9
4764,1
4765,4
4766,12
4767,3
4768,10
4769,3
4770,10
4771,6
4772,1
4773,4
4774,1
4775,1
4776,34
4777,2
4778,5
4779,3
4780,2
4781,3
4782,20
4783,9
4784,15
4785,7
4786,9
4787,3
4788,5
4789,2
4790,4
4792,12
4793,7
4794,7
4795,16
4796,1
4797,4
4798,8
4800,5
4801,13
4802,2
4803,13
4804,4
4805,3
4807,3
4808,6
4809,7
4810,2
4811,11
4812,7
4813,9
4814,22
4815,9
4816,5
4817,8
4818,13
4819,4
4820,28
4821,8
4822,8
4823,3
4824,1
4825,17
4826,5
4827,11
4828,1
4830,16
4831,4
4832,13
4833,6
4834,28
4835,17
4836,11
4837,16
4838,14
4839,13
4840,13
4841,17
4842,20
4843,44
4844,10
