name,counts
3,60
4,67
5,16
6,16
7,30
8,9
9,13
10,9
11,14
12,14
13,3
14,3
15,9
16,6
17,1
18,4
19,3
21,9
22,22
23,14
24,16
25,4
26,2
27,2
28,5
29,19
30,7
31,1
32,5
33,3
34,3
35,10
37,3
38,1
39,4
40,8
41,6
56,2
63,2
72,1
80,1
83,1
84,7
85,1
93,1
101,1
108,1
133,2
134,1
135,1
136,1
139,1
142,2
146,1
147,2
150,2
155,1
157,1
166,1
168,1
173,1
175,1
182,2
198,1
199,1
200,2
203,1
210,3
212,1
215,1
220,1
230,2
233,3
234,2
244,1
246,1
249,2
251,2
256,2
257,1
258,1
266,2
268,2
278,1
282,2
288,1
294,1
298,2
302,1
305,1
332,1
341,2
345,1
351,1
353,1
354,2
356,1
357,1
360,1
362,1
364,1
369,3
376,2
378,1
384,1
386,1
394,2
402,1
404,2
408,3
415,1
416,1
420,3
421,1
435,2
437,6
439,3
442,1
445,1
453,1
456,3
462,1
473,2
481,1
488,1
492,1
497,3
499,2
507,1
509,2
520,1
531,2
535,1
537,1
544,3
546,2
563,1
576,6
580,2
581,1
582,2
583,2
585,1
586,1
590,2
600,1
603,1
611,1
614,1
622,1
624,3
629,3
634,1
635,1
645,1
656,1
661,1
670,1
680,1
682,1
708,2
717,1
721,1
728,1
739,2
748,1
753,1
758,2
765,1
767,2
770,1
774,1
787,2
796,1
814,1
816,1
824,2
828,1
851,1
856,1
869,3
876,1
878,2
880,1
881,4
885,1
893,2
894,1
896,1
900,1
903,1
907,1
908,1
912,1
913,5
914,1
916,2
917,2
921,2
922,4
929,1
932,2
941,2
944,1
945,1
951,2
954,3
957,2
966,1
969,2
970,1
971,2
973,1
989,5
1001,1
1007,1
1013,1
1016,2
1018,6
1019,3
1023,1
1026,1
1044,1
1047,1
1049,4
1061,2
1062,4
1068,2
1087,5
1089,1
1093,2
1099,1
1103,1
1105,1
1114,2
1116,2
1126,1
1130,2
1131,1
1138,2
1145,1
1148,1
1150,1
1151,1
1152,1
1154,1
1160,1
1162,2
1164,1
1167,2
1170,1
1173,1
1185,1
1186,2
1193,2
1198,2
1204,1
1213,1
1228,4
1234,1
1236,11
1237,3
1248,2
1251,1
1256,17
1257,1
1259,1
1266,1
1278,5
1279,1
1280,2
1289,1
1296,1
1297,1
1298,2
1311,2
1317,2
1318,1
1319,2
1322,5
1325,2
1332,1
1334,32
1336,1
1338,1
1343,1
1345,1
1346,2
1348,1
1349,1
1355,1
1356,1
1368,1
1369,1
1370,1
1384,1
1390,1
1392,1
1397,1
1405,1
1408,1
1422,1
1425,2
1435,3
1437,1
1440,1
1459,2
1461,1
1463,1
1472,1
1474,2
1485,1
1495,4
1496,8
1500,1
1502,1
1509,1
1517,1
1518,3
1520,2
1521,1
1527,1
1560,1
1564,2
1600,1
1604,2
1618,1
1638,1
1641,1
1647,1
1649,1
1659,1
1664,1
1666,3
1668,3
1669,1
1671,1
1687,1
1691,3
1695,4
1700,1
1701,3
1705,1
1722,1
1723,1
1725,3
1727,2
1728,2
1736,1
1739,1
1750,1
1752,1
1753,1
1758,1
1759,2
1760,1
1770,1
1771,1
1774,1
1776,1
1783,1
1784,1
1787,1
1790,3
1792,1
1796,3
1804,1
1805,1
1807,2
1816,1
1821,4
1822,2
1831,1
1832,1
1838,1
1840,1
1853,1
1858,2
1859,2
1868,2
1871,2
1873,2
1875,1
1877,1
1881,1
1883,1
1885,1
1886,2
1893,1
1906,1
1915,2
1919,1
1921,2
1924,2
1929,1
1934,1
1945,1
1963,1
1968,2
1969,1
1988,1
2005,1
2008,1
2013,4
2020,1
2025,1
2029,1
2031,2
2032,1
2036,1
2037,1
2039,1
2045,1
2047,2
2058,1
2064,1
2073,2
2096,1
2097,1
2099,2
2105,1
2121,1
2126,2
2134,2
2136,1
2144,1
2145,1
2149,1
2150,1
2154,1
2156,1
2157,1
2161,1
2183,1
2185,1
2191,1
2198,1
2201,1
2203,2
2207,2
2215,1
2217,2
2223,4
2225,1
2237,4
2247,2
2250,1
2258,6
2261,1
2278,1
2285,1
2289,1
2304,3
2305,1
2309,1
2313,1
2318,1
2319,1
2326,1
2331,2
2334,1
2341,1
2342,1
2348,1
2353,1
2354,1
2356,1
2358,2
2363,2
2367,2
2368,1
2376,1
2384,1
2388,2
2396,1
2398,1
2400,1
2407,1
2412,1
2415,1
2417,2
2421,1
2422,2
2425,1
2434,1
2443,1
2447,1
2455,2
2458,5
2461,2
2468,4
2471,4
2477,2
2479,2
2481,1
2488,1
2492,1
2495,2
2496,5
2503,2
2504,1
2511,2
2517,1
2528,1
2536,1
2541,1
2547,2
2551,1
2555,1
2562,1
2564,2
2565,2
2566,1
2570,1
2572,1
2581,1
2582,1
2591,3
2595,16
2600,3
2605,1
2609,4
2615,1
2617,2
2625,1
2626,3
2627,1
2634,1
2637,1
2643,1
2645,3
2659,1
2661,2
2666,1
2670,2
2675,2
2681,1
2682,2
2685,2
2692,1
2697,1
2703,1
2705,2
2731,2
2738,2
2748,1
2785,1
2798,6
2799,1
2803,2
2807,1
2812,1
2818,1
2819,2
2826,1
2827,1
2830,1
2832,1
2835,2
2837,1
2841,1
2842,1
2845,5
2853,1
2857,1
2858,1
2867,1
2897,1
2900,1
2924,1
2933,3
2934,4
2937,1
2940,2
2944,2
2948,1
2949,1
2950,5
2953,1
2955,2
2956,6
2957,1
2959,1
2962,1
2966,1
2973,2
2985,22
2988,1
3000,1
3001,2
3004,2
3005,1
3007,2
3008,1
3010,1
3012,29
3018,1
3026,2
3027,1
3047,1
3055,1
3063,1
3069,1
3073,6
3078,1
3085,1
3089,1
3106,4
3111,1
3112,3
3113,1
3125,4
3127,1
3133,1
3138,1
3145,1
3154,1
3157,1
3159,2
3165,1
3168,1
3170,1
3181,4
3188,1
3190,4
3204,1
3208,1
3214,1
3216,1
3241,1
3252,1
3258,1
3262,1
3265,3
3274,1
3284,1
3285,2
3294,1
3297,1
3299,1
3305,1
3306,1
3308,1
3318,1
3326,3
3328,1
3333,1
3334,1
3340,1
3349,1
3351,1
3357,1
3363,2
3375,2
3381,2
3382,2
3383,1
3389,1
3409,1
3414,1
3415,3
3418,1
3429,1
3448,1
3449,1
3452,4
3453,6
3454,1
3455,4
3458,28
3461,1
3462,1
3469,3
3478,1
3479,1
3480,1
3482,1
3490,1
3494,1
3504,1
3509,4
3511,2
3527,2
3530,1
3532,1
3535,1
3541,2
3553,1
3554,1
3557,3
3558,1
3575,1
3578,2
3583,3
3585,3
3586,3
3589,1
3590,2
3595,2
3599,1
3600,1
3602,4
3606,1
3615,2
3618,1
3619,3
3621,1
3623,1
3624,1
3627,1
3634,3
3636,1
3641,1
3653,1
3655,2
3684,2
3685,2
3689,1
3692,1
3697,1
3706,1
3707,1
3709,1
3715,2
3721,2
3727,1
3728,1
3729,1
3733,1
3737,1
3743,5
3744,6
3745,1
3751,3
3760,1
3764,1
3766,2
3778,1
3786,1
3788,1
3789,1
3801,2
3805,1
3806,9
3807,1
3813,1
3816,1
3818,2
3827,1
3828,2
3837,1
3841,21
3844,2
3846,1
3853,1
3857,1
3862,1
3865,1
3866,2
3868,2
3870,1
3872,2
3874,1
3875,1
3879,2
3885,1
3888,3
3893,1
3898,1
3904,2
3905,1
3908,1
3909,4
3913,3
3915,11
3916,3
3919,4
3929,1
3942,2
3948,1
3959,1
3980,1
3989,1
3990,1
3995,1
3996,1
4011,1
4013,2
4022,3
4040,1
4057,1
4060,1
4067,5
4068,1
4071,3
4076,1
4080,1
4083,1
4090,2
4095,1
4098,1
4107,1
4114,2
4132,2
4143,3
4151,2
4154,1
4156,3
4157,1
4158,2
4164,1
4173,1
4178,2
4187,1
4188,4
4195,20
4196,6
4197,2
4202,2
4215,2
4231,1
4234,4
4236,2
4238,7
4239,4
4240,2
4241,1
4242,15
4243,6
4244,5
4245,2
4246,2
4248,1
4256,3
4264,1
4268,1
4271,2
4272,2
4273,6
4274,3
4278,1
4282,2
4285,1
4289,3
4292,2
4296,2
4299,1
4303,1
4308,8
4314,1
4327,2
4330,2
4333,1
4336,1
4338,2
4340,10
4342,1
4350,2
4358,1
4359,1
4364,3
4372,1
4373,2
4386,1
4387,2
4391,1
4392,1
4395,2
4406,6
4408,1
4409,2
4419,1
4423,1
4426,2
4429,2
4443,1
4465,1
4468,1
4471,2
4479,1
4480,1
4483,1
4487,1
4491,3
4505,1
4506,1
4514,1
4517,1
4519,1
4520,1
4522,2
4527,1
4531,4
4535,1
4548,1
4549,1
4550,10
4551,1
4559,1
4563,1
4567,1
4571,1
4573,1
4580,1
4584,1
4602,1
4615,3
4622,1
4623,1
4633,1
4642,1
4658,1
4659,1
4675,2
4687,1
4690,2
4696,1
4703,1
4704,3
4707,2
4720,1
4723,3
4726,1
4733,2
4737,1
4741,1
4742,1
4745,1
4748,1
4750,1
4751,2
4757,1
4761,1
4768,1
4776,1
4782,1
4783,1
4790,1
4792,4
4795,1
4797,2
4799,1
4800,1
4801,3
4805,1
4810,1
4811,1
4818,1
4822,1
4823,1
4829,2
4830,1
4832,1
4835,1
4848,1
4851,1
4852,1
4853,1
4855,1
4858,3
4871,1
4876,1
4879,4
4881,1
4890,1
4896,1
4909,6
4911,4
4915,1
4916,2
4920,1
4922,1
4925,1
4927,1
4928,1
4931,1
4943,2
4950,2
4952,1
4954,1
4955,1
4960,3
4980,1
4982,1
4989,2
5004,1
5005,1
5015,13
5016,2
5019,4
5020,2
5022,1
5023,1
5025,4
5030,1
5031,3
5033,2
5038,2
5042,1
5045,1
5046,2
5047,1
5053,1
5057,1
5058,1
5062,1
5065,1
5067,1
5074,1
5080,2
5084,2
5089,2
5096,1
5101,1
5103,1
5107,4
5109,1
5117,1
5123,1
5131,2
5134,1
5139,1
5145,2
5148,2
5149,2
5160,1
5161,2
5172,1
5176,1
5179,1
5182,2
5183,1
5185,4
5188,2
5189,1
5192,1
5193,1
5197,1
5205,1
5208,2
5210,1
5214,2
5217,1
5222,1
5223,1
5224,2
5238,2
5240,1
5245,1
5246,2
5249,2
5251,1
5262,2
5263,1
5265,4
5272,1
5277,4
5281,2
5285,1
5286,2
5287,1
5289,2
5290,1
5299,2
5300,1
5311,3
5316,1
5341,2
5346,1
5347,1
5351,1
5354,1
5364,1
5368,3
5379,1
5384,2
5385,1
5391,1
5392,1
5393,2
5400,2
5402,1
5406,1
5410,1
5419,1
5422,2
5425,1
5435,2
5437,2
5439,1
5443,1
5444,1
5446,5
5449,1
5453,1
5457,1
5458,1
5459,1
5476,1
5490,1
5497,1
5500,3
5502,2
5517,1
5518,1
5520,1
5522,16
5523,8
5528,1
5539,6
5541,1
5548,1
5568,1
5571,1
5573,1
5585,1
5589,1
5598,2
5599,1
5601,1
5602,1
5609,4
5613,1
5619,1
5620,1
5624,1
5630,8
5631,5
5634,1
5635,5
5638,3
5650,1
5652,1
5656,1
5658,1
5659,2
5662,2
5663,1
5670,1
5671,5
5672,2
5674,1
5680,2
5684,2
5686,1
5687,1
5711,2
5712,2
5713,3
5719,2
5726,1
5743,1
5747,1
5751,1
5752,2
5773,1
5776,1
5777,1
5785,1
5787,2
5790,3
5792,1
5809,1
5820,1
5821,2
5823,1
5838,2
5851,1
5860,1
5863,1
5867,2
5869,1
5881,1
5882,1
5900,1
5903,1
5904,1
5926,1
5928,1
5930,1
5956,1
5957,1
5965,7
5966,33
5976,1
5986,2
5991,1
5992,1
5996,1
6002,2
6004,1
6006,1
6008,1
6011,1
6022,1
6026,2
6033,1
6037,2
6042,3
6067,1
6068,5
6072,1
6079,3
6080,1
6086,2
6089,4
6093,1
6099,2
6105,1
6112,11
6114,1
6121,1
6124,1
6126,1
6138,37
6139,5
6141,1
6142,2
6155,1
6157,1
6161,2
6164,2
6167,4
6169,1
6177,1
6188,4
6191,1
6192,4
6194,2
6206,1
6217,1
6220,1
6222,1
6224,1
6240,1
6244,2
6247,1
6249,2
6251,6
6258,1
6259,1
6260,8
6261,1
6272,1
6283,1
6299,1
6301,1
6309,1
6311,1
6315,1
6317,2
6319,1
6325,3
6327,2
6328,1
6329,1
6335,1
6338,1
6344,2
6348,1
6355,2
6367,2
6371,1
6373,1
6374,1
6395,1
6421,2
6436,1
6443,3
6444,4
6446,1
6447,1
6456,4
6467,2
6481,1
6482,3
6486,3
6488,1
6489,1
6494,1
6498,1
6499,2
6500,1
6509,1
6526,2
6527,4
6535,2
6536,1
6539,1
6547,12
6551,1
6553,1
6554,1
6557,1
6573,1
6583,2
6598,3
6599,1
6606,5
6611,2
6612,2
6613,7
6618,5
6624,1
6628,1
6631,1
6635,2
6637,1
6638,2
6645,2
6649,2
6651,1
6652,1
6655,2
6659,1
6663,1
6669,2
6671,2
6673,1
6676,1
6678,36
6679,12
6680,26
6681,8
6683,1
6685,2
6689,2
6693,1
6694,6
6701,2
6705,3
6707,1
6709,7
6713,2
6714,6
6715,7
6717,5
6720,7
6722,1
6723,1
6726,1
6731,1
6734,2
6736,47
6746,1
6750,3
6760,49
6764,1
6767,1
6778,1
6779,1
6780,2
6781,1
6786,2
6787,1
6793,2
6794,1
6795,1
6797,1
6798,3
6801,2
6803,1
6804,1
6815,2
6816,6
6818,3
6820,1
6822,2
6827,5
6828,2
6830,2
6831,3
6833,1
6837,1
6840,1
6846,1
6847,1
6849,1
6855,1
6859,3
6860,4
6863,1
6865,1
6875,2
6877,1
6882,1
6884,1
6897,5
6899,2
6906,4
6911,1
6914,2
6915,1
6922,2
6923,2
6924,2
6929,2
6930,1
6939,1
6945,1
6947,1
6953,3
6956,1
6957,1
6967,2
6968,2
6970,1
6975,2
6984,12
6985,1
6988,7
6990,1
6996,1
7008,1
7013,7
7014,1
7016,2
7019,3
7021,4
7022,1
7029,1
7030,20
7034,1
7036,1
7044,4
7048,1
7051,1
7052,3
7060,1
7070,1
7075,2
7076,3
7077,1
7079,1
7080,1
7081,2
7087,1
7090,10
7091,13
7106,1
7108,1
7111,1
7112,4
7119,1
7122,1
7123,1
7124,2
7127,1
7131,3
7133,2
7136,10
7138,4
7140,1
7142,1
7143,4
7145,1
7148,1
7150,1
7151,2
7158,1
7161,8
7162,5
7163,4
7165,2
7166,3
7167,1
7169,2
7171,1
7174,1
7176,1
7177,3
7183,2
7186,2
7187,1
7189,2
7195,16
7196,1
7199,2
7202,3
7203,2
7204,1
7206,1
7208,1
7212,1
7213,2
7219,2
7223,1
7225,2
7234,1
7240,4
7244,3
7249,3
7256,1
7259,1
7261,6
7262,1
7263,1
7264,1
7267,1
7271,2
7284,4
7286,1
7288,1
7291,1
7295,1
7296,1
7297,1
7308,1
7313,1
7314,1
7317,1
7318,3
7324,3
7327,2
7328,1
7329,1
7331,1
7332,1
7336,1
7341,1
7342,1
7352,2
7355,1
7356,1
7363,1
7377,1
7380,2
7384,1
7385,1
7389,2
7400,1
7401,1
7405,1
7427,1
7430,2
7433,1
7440,1
7443,1
7458,1
7461,1
7464,3
7465,1
7495,1
7499,3
7500,1
7503,2
7504,3
7507,1
7525,2
7528,22
7530,1
7537,1
7542,1
7544,1
7547,1
7548,1
7549,1
7554,2
7568,12
7571,1
7576,1
7578,21
7579,1
7585,1
7589,2
7605,3
7607,1
7609,3
7620,2
7624,1
7643,1
7649,5
7652,3
7666,1
7667,1
7668,1
7670,1
7676,1
7679,1
7680,1
7690,1
7696,1
7698,1
7701,1
7706,2
7708,1
7710,2
7712,12
7713,10
7714,1
7715,2
7716,3
7717,1
7718,11
7721,3
7722,1
7724,1
7728,1
7730,3
7739,1
7742,1
7747,1
7748,2
7750,3
7752,1
7753,4
7755,3
7756,1
7758,1
7759,2
7760,4
7761,1
7762,1
7763,1
7764,2
7766,1
7767,5
7768,3
7769,1
7771,4
7772,1
7773,1
7778,2
7781,3
7783,1
7784,1
7785,4
7786,7
7787,1
7790,1
7791,1
7792,1
7793,1
7794,2
7795,4
7796,18
7797,4
7798,4
7799,13
7800,7
7801,20
7802,5
7803,5
7804,10
7805,2
7806,8
7807,10
7808,13
7809,7
7810,2
7811,13
7812,12
7813,13
7814,3
7815,1
7816,5
7818,4
7822,7
7823,2
7824,2
7826,3
7827,1
7828,2
7829,7
7830,4
7832,1
7834,2
7835,7
7836,1
7839,1
7858,1
7861,1
7872,4
7874,1
7875,7
7876,11
7877,1
7878,1
7879,2
7881,1
7882,1
7888,1
7889,2
7890,5
7893,1
7895,1
7896,1
7899,1
7908,1
7912,1
7913,8
7914,4
7915,7
7916,3
7918,2
7919,2
7920,1
7926,1
7927,2
7931,3
7932,1
7933,1
7934,3
7935,5
7936,1
7937,2
7941,3
7942,1
7943,2
7944,2
7945,2
7946,1
7948,2
7949,12
7950,3
7951,2
7952,7
7953,8
7954,2
7955,7
7956,1
7957,2
7959,5
7960,8
7961,2
7962,23
7963,4
7964,12
7965,4
7970,2
7971,2
7972,3
7975,8
7976,1
7977,2
7979,4
7981,1
7988,1
7989,2
7990,2
7993,1
7995,3
7997,1
7999,3
8001,4
8002,5
8003,3
8004,3
8005,4
8006,2
8007,6
8008,7
8009,3
8010,1
8011,3
8012,3
8013,5
8014,1
8015,3
8016,1
8017,4
8018,2
8019,4
8020,4
8021,8
8022,14
8023,5
8024,6
8025,7
8026,6
8027,5
8028,11
8029,12
8033,1
8034,3
8036,2
8037,1
8039,11
8040,7
8041,1
8042,1
8043,1
8044,6
8045,1
8046,7
8047,9
8049,6
8050,8
8051,4
8052,4
8053,9
8054,11
8055,5
8057,22
8058,23
8059,16
8060,8
8061,24
8062,21
8063,5
8064,5
8065,14
8066,15
8067,8
8068,5
8069,6
8070,9
8071,2
8072,10
8073,2
8074,12
8075,4
8076,12
8077,1
8078,6
8079,3
8080,4
8081,4
8082,6
8083,7
8085,1
8086,1
8087,1
8088,2
8090,2
8091,3
8092,7
8094,4
8096,3
8097,1
8098,3
8100,11
8101,3
8102,1
8103,2
8104,2
8108,1
8110,1
8111,3
8114,1
8117,2
8119,1
8120,3
8122,3
8123,2
8127,3
8131,1
8135,1
8136,2
8138,1
8140,1
8142,1
8143,1
8144,1
8145,3
8148,2
8151,2
8165,1
8167,1
8174,1
8177,1
8178,1
8182,1
8184,1
8201,1
8217,1
8219,1
8223,2
8225,1
8244,1
8247,1
8248,1
8251,1
8258,1
8260,1
8262,1
8265,4
8266,1
8268,1
8272,1
8302,4
8304,2
8380,2
8382,1
8599,1
8603,5
8604,1
8605,1
8606,1
8607,4
8610,4
8611,6
8612,4
8613,1
8614,2
8615,5
8617,4
8618,6
8620,2
8621,1
8628,6
8630,3
8631,2
8633,6
8634,1
8638,1
8663,1
8669,1
8681,1
8682,1
8685,1
8687,2
8691,2
8694,1
9071,4
9072,3
9073,11
9074,3
9075,2
9076,12
9079,1
9080,1
9081,1
9082,2
9085,3
9086,1
9088,2
9090,1
9091,1
9092,1
9096,2
9103,1
12307,11
12308,8
12309,18
12310,6
12311,19
12312,11
12313,13
12314,8
12315,4
12316,1
12317,7
12318,1
12319,12
12320,5
12321,19
12322,7
12323,10
12324,9
12325,12
12326,20
12327,16
12328,7
12329,17
12330,5
12332,11
12333,2
12334,6
12335,12
12337,3
12338,4
12339,3
12340,3
12365,1
12366,2
12367,2
12368,1
12369,2
12370,3
12371,20
12372,86
12373,15
12374,4
12375,3
12377,1
12379,19
12380,1
12381,10
12383,14
12384,21
12385,2
12386,6
12387,1
12388,2
12389,10
12390,12
12391,4
12392,8
12393,9
12394,9
12395,7
12396,2
12397,28
12398,9
12399,11
12400,1
12406,1
12451,1
12454,4
12457,3
12462,2
12464,5
12465,1
12466,3
12470,4
12471,1
12472,9
12473,2
12474,1
12475,2
12476,8
12477,1
12478,1
12479,2
12480,6
12481,1
12485,1
12488,1
12490,1
12491,6
12492,1
12493,1
12494,7
12496,1
12498,7
12501,3
12504,1
12505,5
12506,1
12507,8
12509,1
12510,6
12511,3
12512,9
12513,5
12514,8
12515,7
12516,8
12517,5
12518,5
12519,10
12520,6
12521,11
12522,5
12523,4
12524,4
12526,2
12527,1
12528,2
12529,2
12536,1
12537,2
12538,4
12539,1
12540,2
12543,5
12548,1
12549,1
12560,5
12561,11
12562,9
12563,16
12564,6
12565,1
12566,2
12567,28
12568,14
12569,67
12570,17
12571,12
12572,44
12573,11
12574,2
12575,1
12576,11
12577,3
12578,5
12579,1
12580,23
12581,10
12582,4
12583,7
12584,9
12585,7
12586,12
12587,1
12589,1
12590,7
12591,4
12603,2
12606,24
12607,2
12608,3
12609,11
12610,1
12611,3
12612,61
12613,4
12614,1
12615,6
12616,2
12618,1
12620,9
12621,9
12622,4
12624,3
12625,16
12626,14
12627,8
12628,15
12629,67
12630,5
12631,1
12632,3
12633,9
12635,2
12636,5
12637,1
12638,7
12640,2
12651,1
12653,13
12654,6
12655,6
12656,6
12657,18
12658,1
12659,14
12660,7
12661,11
12662,12
12663,12
12664,75
12665,5
12666,41
12667,15
12668,45
12669,7
12670,16
12671,9
12672,13
12673,2
12674,15
12675,43
12676,72
12677,15
12678,19
12679,8
12680,12
12681,4
12682,16
12683,7
12709,7
12710,1
12711,1
12712,1
12713,8
12714,3
12715,9
12716,5
12717,8
12718,2
12719,7
12720,1
12721,2
12723,6
12725,4
12726,1
12727,3
12728,5
12729,1
12730,7
12731,2
12734,1
12735,6
12736,2
12738,4
12739,6
12740,13
12742,3
12743,3
12744,6
12745,2
12746,7
12747,2
12748,24
12749,10
12750,17
12751,9
12752,5
12753,73
12754,6
12755,15
12756,24
12757,18
12758,29
12759,7
12760,28
12761,33
12762,18
12763,17
12764,34
12765,3
12766,15
12767,71
12768,49
12769,58
12770,3
12771,7
12772,53
12773,12
12774,18
12775,10
12776,13
12777,8
12778,15
12779,27
12780,19
12781,5
12782,1
12783,3
12784,3
12864,12
12865,5
12866,11
12867,4
12868,14
12869,2
12870,1
12871,1
12872,2
12873,7
12874,10
12875,4
12876,37
12877,1
12878,9
12879,17
12880,16
12881,6
12882,10
12883,16
12884,10
12885,2
12886,5
12887,19
12888,10
12889,20
12890,13
12891,2
12892,8
12893,9
12894,10
12895,13
12896,7
12897,5
12898,8
12899,7
12900,10
12901,6
12902,14
12903,3
12904,9
12905,4
12906,4
12907,3
12908,3
12909,1
12910,4
12911,6
12912,3
12914,4
12915,2
12916,1
12917,2
12918,1
12919,5
12920,2
12921,3
12922,1
12925,77
12926,8
12927,11
12928,21
12929,32
12930,18
12931,11
12932,7
12933,4
12934,2
12935,1
12936,7
12937,4
12938,4
12940,6
12941,4
12942,53
12943,3
12945,7
12946,2
12947,1
12948,20
12949,4
12950,4
12951,1
12952,23
12953,12
12954,59
12955,17
12956,40
12957,22
12958,12
12959,19
12960,5
12961,4
12962,2
12963,1
12964,38
12965,2
12966,2
12967,46
12968,11
12969,2
12970,8
12971,1
12972,1
12973,2
12974,15
12975,8
12976,10
12977,6
12978,9
12980,4
12981,5
12982,5
12983,1
12984,3
12985,6
12986,3
12987,6
12988,8
12989,3
12990,6
12991,6
12992,15
12993,7
12994,7
12995,3
12996,3
12997,1
12998,6
12999,1
13035,2
13038,4
13039,40
13041,15
13042,6
13045,21
13046,12
13047,7
13049,12
13050,1
13051,40
13052,21
13053,22
13054,6
13055,12
13056,24
13057,17
13058,18
13059,5
13060,6
13063,7
13064,7
13065,7
13098,1
13101,4
13104,1
13108,2
13110,1
13111,1
13114,1
13118,1
13119,2
13130,3
13143,1
13147,1
13150,2
13152,1
13160,1
13175,1
13195,5
13196,1
13197,3
13198,4
13201,1
13202,3
13203,1
13207,2
13210,1
13230,1
13233,1
13243,1
13250,5
13251,3
13252,5
13253,2
13254,4
13256,3
13257,2
13259,1
13260,2
13262,1
13263,3
13265,1
13266,2
13268,2
13277,1
13333,3
13334,8
13336,3
13337,1
13338,1
13339,4
13340,5
13342,3
13343,3
13345,1
13346,1
13347,5
13349,5
13352,2
13353,2
13354,3
13355,5
13356,6
13357,3
13358,1
13359,3
13362,1
13363,1
13364,2
13365,1
13367,24
13370,3
13506,1
13507,1
13522,1
13532,1
13534,1
13535,5
13537,1
13539,1
13540,2
13542,2
13543,2
13547,2
13550,4
13551,4
13553,1
13557,3
13558,4
13559,6
13563,3
13565,3
13566,1
13567,4
13568,1
13569,2
13570,3
13571,2
13572,1
13573,6
13574,5
13575,2
13576,6
13579,3
13582,2
13583,7
13584,6
13645,4
13646,15
13647,9
13648,4
13649,7
13650,7
13651,6
13652,15
13653,7
13654,4
13655,16
13656,6
13657,5
13658,12
13659,8
13660,13
13661,10
13662,6
13663,4
13664,10
13665,5
13666,11
13667,4
13668,5
13669,9
13670,2
13671,12
13672,5
13673,1
13674,8
13676,4
13677,3
13678,2
13679,4
13683,2
13696,2
13700,2
13718,1
13719,3
13722,4
13723,9
13734,1
13735,4
13736,2
13737,2
13738,1
13739,7
13740,5
13741,10
13742,1
13743,4
13744,1
13745,5
13746,17
13747,6
13748,2
13749,7
13750,4
13751,1
13752,1
13755,1
13757,1
13758,1
13760,6
13763,1
13764,4
13765,1
13771,1
13773,2
13779,1
13795,1
13798,1
13800,2
13802,2
13803,1
13805,3
13806,3
13807,3
13808,2
13809,1
13810,4
13811,6
13812,6
13813,2
13814,17
13815,6
13816,5
13817,12
13818,2
13820,2
13821,2
13822,1
13823,1
13824,2
13825,2
13827,2
13828,1
13831,2
13832,1
13834,2
13835,2
13836,1
13837,2
13838,1
13839,2
13840,3
13841,3
13843,1
13845,2
13848,1
13851,2
13854,3
13855,3
13856,3
13857,1
13866,2
13869,1
13875,1
13876,1
13877,5
13882,1
13884,1
13887,2
13888,1
13890,1
13891,2
13893,1
13896,2
13897,1
13902,3
13903,1
13908,1
13912,2
13917,2
13921,2
13945,1
13948,1
13953,4
13954,1
13968,2
13969,2
13971,1
13972,2
13978,2
13980,1
13985,1
13990,1
13997,1
14004,1
14007,1
14011,2
14017,2
14022,1
14023,3
14029,4
14035,5
14036,1
14041,9
14042,1
14044,6
14048,3
14067,1
14070,2
14072,1
14075,1
14076,1
14083,1
14087,2
14089,1
14095,1
14110,1
14111,3
14118,2
14120,4
14128,1
14129,1
14130,1
14131,1
14137,1
14138,3
14140,2
14153,3
14156,2
14159,2
14160,1
14161,1
14162,1
14163,3
14166,1
14169,3
14172,1
14180,1
14181,1
14184,17
14197,1
14215,1
14221,1
14239,2
14240,5
14246,1
14248,2
14255,1
14267,1
14275,1
14276,2
14279,2
14287,1
14300,1
14303,1
14318,4
14321,1
14325,1
14326,3
14339,1
14341,1
14343,2
14349,2
14350,1
14366,1
14380,1
14386,1
14390,1
14394,2
14402,1
14405,2
14410,1
14412,3
14414,1
14418,1
14420,2
14422,6
14431,5
14439,1
14440,1
14443,5
14444,1
14445,1
14468,1
14470,1
14472,1
14473,2
14481,1
14484,1
14491,5
14499,1
14512,1
14522,2
14541,3
14547,1
14548,1
14550,1
14559,2
14562,4
14564,1
14568,1
14569,3
14571,3
14572,1
14574,1
14583,1
14586,1
14587,1
14589,1
14593,1
14595,3
14596,1
14611,2
14618,1
14625,3
14626,1
14639,4
14642,1
14646,1
14656,2
14666,1
14668,1
14678,2
14689,1
14695,1
14696,1
14697,1
14705,1
14710,2
14718,1
14719,1
14722,1
14724,1
14728,1
14730,6
14735,1
14738,1
14755,1
14762,1
14768,6
14771,5
14773,1
14774,1
14778,1
14800,1
14811,2
14819,3
14824,2
14829,1
14832,1
14836,1
14837,2
14839,1
14845,2
14852,3
14865,1
14873,1
14886,13
14892,1
14918,1
14926,1
14932,1
14933,2
14934,2
14953,1
14958,1
14963,3
14966,1
14969,2
14971,2
14972,1
14978,4
14985,1
14988,1
14997,2
15010,1
15014,5
15027,2
15038,2
15041,1
15042,1
15046,1
15051,1
15052,1
15064,1
15081,1
15083,1
15084,3
15104,6
15109,1
15110,2
15112,1
15117,1
15119,1
15126,1
15127,1
15130,1
15132,1
15136,1
15144,1
15160,1
15162,1
15170,1
15174,2
15182,1
15185,1
15205,1
15209,2
15210,1
15213,1
15214,1
15220,3
15236,1
15238,2
15241,1
15242,1
15247,2
15253,1
15259,1
15260,3
15263,1
15265,7
15273,2
15278,1
15279,1
15280,1
15283,1
15285,1
15299,1
15303,1
15304,2
15305,1
15311,1
15314,3
15321,1
15322,2
15329,1
15334,1
15335,3
15337,1
15345,1
15351,5
15356,2
15360,1
15366,2
15367,1
15371,1
15372,1
15374,1
15392,2
15393,2
15394,1
15409,1
15413,1
15414,1
15418,1
15420,1
15436,1
15441,4
15443,3
15445,1
15449,2
15451,2
15456,2
15457,2
15461,3
15462,2
15463,1
15465,1
15466,1
15468,4
15469,1
15470,3
15478,1
15482,3
15483,1
15484,1
15486,3
15493,1
15496,1
15500,1
15507,1
15510,3
15522,1
15525,3
15534,1
15537,3
15541,1
15544,2
15553,7
15559,1
15560,1
15565,2
15573,1
15580,1
15583,1
15584,1
15601,1
15612,1
15631,2
15636,1
15644,3
15649,1
15650,1
15651,1
15652,1
15657,1
15662,2
15663,2
15664,1
15665,3
15671,1
15673,1
15686,1
15697,1
15706,1
15709,1
15739,1
15741,1
15747,1
15758,2
15759,2
15764,1
15769,2
15773,1
15794,1
15801,1
15808,1
15811,1
15816,4
15820,2
15821,1
15822,1
15831,1
15837,1
15845,2
15879,2
15880,2
15889,1
15900,17
15901,1
15910,2
15913,1
15916,2
15917,1
15926,1
15939,1
15942,2
15945,1
15953,1
15960,1
15974,1
15985,1
16003,1
16008,1
16016,1
16020,1
16022,1
16025,7
16027,1
16029,8
16038,1
16040,1
16047,1
16065,1
16071,1
16072,2
16076,2
16081,1
16090,2
16091,3
16093,1
16095,1
16100,1
16101,4
16110,2
16111,1
16113,3
16123,1
16127,1
16131,1
16132,1
16133,2
16146,1
16149,3
16152,3
16153,1
16155,1
16156,1
16159,1
16162,1
16167,2
16172,2
16179,1
16180,2
16198,1
16219,1
16230,1
16254,1
16260,1
16261,1
16274,1
16287,9
16292,1
16295,1
16297,3
16305,1
16308,1
16310,2
16319,6
16321,1
16325,2
16331,1
16333,5
16338,1
16342,5
16343,7
16345,1
16348,2
16349,3
16351,1
16352,1
16353,1
16354,1
16359,1
16362,2
16367,1
16376,2
16378,3
16383,1
16384,8
16386,1
16387,22
16390,14
16392,2
16393,1
16398,1
16400,1
16406,1
16407,1
16410,1
16411,1
16412,3
16413,4
16418,60
16430,1
16439,2
16448,1
16453,2
16456,1
16471,1
16472,1
16475,1
16478,1
16481,1
16485,2
16487,1
16488,1
16496,1
16500,1
16512,2
16516,1
16519,1
16541,3
16550,2
16551,5
16552,2
16555,2
16570,1
16571,2
16578,3
16591,1
16592,1
16597,1
16600,1
16602,1
16604,1
16609,1
16610,2
16611,3
16612,1
16618,1
16619,2
16620,1
16625,1
16631,1
16633,1
16637,2
16641,2
16645,3
16646,1
16650,3
16655,1
16659,3
16663,3
16667,1
16670,2
16672,1
16675,3
16679,3
16684,1
16691,1
16693,1
16696,1
16705,2
16708,1
16714,2
16726,1
16737,1
16746,1
16757,2
16760,1
16761,2
16766,1
16771,1
16775,2
16785,1
16786,1
16789,1
16792,1
16793,1
16795,1
16796,3
16804,2
16806,2
16811,2
16816,1
16817,1
16822,1
16823,1
16827,1
16831,1
16834,2
16836,2
16850,1
16859,3
16861,4
16882,1
16894,1
16895,2
16902,1
16906,1
16912,1
16913,1
16928,1
16931,3
16950,1
16957,1
16960,1
16966,1
16974,2
16975,3
16981,1
16985,2
16986,3
16987,2
16990,1
16994,1
16996,2
16997,2
17019,3
17020,2
17026,1
17034,1
17035,1
17037,1
17039,1
17040,2
17057,3
17063,1
17072,1
17081,1
17084,1
17093,10
17102,2
17104,2
17111,1
17115,2
17120,1
17128,1
17132,1
17134,1
17137,1
17139,2
17147,4
17153,4
17154,1
17161,5
17169,4
17170,2
17179,1
17180,3
17184,1
17188,3
17192,1
17208,2
17210,1
17211,1
17218,1
17233,6
17235,1
17237,1
17242,1
17248,1
17250,1
17255,1
17263,1
17264,4
17268,1
17269,1
17275,2
17276,10
17289,2
17290,1
17306,1
17308,1
17310,1
17312,1
17318,4
17320,1
17322,1
17323,3
17330,2
17334,2
17341,1
17343,3
17371,1
17388,3
17394,1
17396,1
17400,1
17403,41
17404,1
17407,1
17409,2
17410,1
17417,6
17418,2
17419,3
17424,2
17425,2
17428,1
17434,2
17435,1
17442,1
17443,1
17461,1
17463,1
17466,1
17483,6
17484,6
17489,2
17490,2
17499,1
17515,2
17522,1
17529,2
17530,1
17531,11
17537,1
17541,2
17550,1
17552,5
17555,2
17564,7
17570,2
17572,6
17574,1
17577,1
17578,2
17580,1
17583,11
17584,12
17585,32
17586,8
17587,6
17588,14
17589,3
17594,1
17595,1
17600,1
17601,1
17604,2
17610,1
17611,1
17612,1
17618,1
17623,2
17624,15
17625,3
17626,8
17627,46
17628,11
17629,1
17630,2
17637,5
17649,7
17650,1
17652,1
17660,3
17673,2
17674,1
17676,1
17679,1
17682,1
17683,1
17685,1
17687,1
17690,1
17691,1
17694,1
17697,1
17698,1
17704,1
17706,2
17709,1
17714,1
17721,2
17726,1
17730,9
17732,1
17735,3
17736,5
17742,1
17747,3
17749,1
17752,1
17760,1
17771,1
17790,3
17791,1
17792,1
17795,1
17800,1
17804,1
17808,1
17810,1
17821,4
17824,2
17832,1
17833,7
17857,1
17860,1
17865,1
17871,1
17881,2
17888,1
17890,1
17891,5
17898,1
17907,2
17910,1
17913,1
17914,2
17916,2
17922,1
17923,1
17935,1
17950,1
17959,1
17989,1
17996,1
17998,1
17999,1
18011,1
18018,1
18020,1
18029,1
18030,2
18031,3
18032,2
18039,4
18042,1
18044,5
18045,3
18046,1
18047,23
18062,1
18065,1
18083,1
18084,9
18088,1
18103,2
18104,2
18107,1
18116,2
18124,1
18130,3
18138,1
18139,4
18140,1
18147,2
18149,2
18151,3
18153,1
18158,1
18159,1
18174,3
18175,1
18176,4
18180,1
18181,4
18223,3
18228,1
18230,2
18240,2
18243,2
18246,5
18259,1
18260,1
18261,1
18275,2
18276,1
18277,1
18294,1
18302,1
18306,2
18313,1
18320,1
18327,2
18328,1
18339,2
18345,2
18346,5
18348,2
18352,2
18360,3
18366,1
18371,1
18372,2
18375,1
18382,1
18397,2
18408,1
18416,3
18417,1
18418,2
18421,3
18422,11
18426,1
18428,1
18429,1
18436,4
18438,5
18442,1
18443,2
18444,2
18445,2
18446,1
18449,2
18450,1
18451,1
18452,1
18453,1
18454,1
18455,1
18456,1
18457,1
18458,3
18460,1
18461,2
18464,1
18467,1
18470,1
18471,1
18475,1
18478,2
18479,1
18489,1
18490,1
18492,1
18493,1
18495,4
18499,3
18509,1
18510,1
18511,1
18513,1
18515,3
18516,3
18517,8
18521,2
18523,1
18524,2
18528,2
18529,1
18530,1
18531,4
18533,1
18536,2
18538,1
18544,3
18552,3
18564,2
18567,7
18568,10
18572,2
18575,1
18577,16
18578,21
18579,1
18580,2
18581,5
18583,1
18584,2
18585,1
18588,1
18589,1
18603,2
18604,2
18609,1
18612,1
18613,1
18614,1
18616,2
18621,1
18622,1
18628,2
18629,2
18641,1
18643,1
18644,2
18647,3
18654,1
18655,2
18659,3
18661,1
18663,2
18668,3
18669,3
18670,1
18671,6
18674,1
18675,1
18680,1
18704,4
18716,2
18722,1
18724,2
18725,3
18727,2
18728,2
18730,1
18731,1
18732,1
18733,3
18734,2
18735,12
18737,4
18742,4
18744,1
18751,1
18753,1
18754,1
18755,1
18772,2
18785,2
18790,1
18811,2
18812,2
18818,9
18819,1
18823,3
18824,6
18832,1
18859,1
18863,4
18864,6
18865,1
18866,6
18867,6
18868,5
18869,1
18870,3
18871,2
18872,1
18874,1
18875,2
18876,1
18877,3
18880,1
18881,1
18882,1
18886,1
18892,1
18904,1
18909,2
18911,1
18914,1
18918,2
18919,2
18922,2
18924,5
18925,5
18926,1
18930,1
18933,2
18935,1
18936,1
18937,1
18939,3
18942,1
18949,1
18950,1
18954,1
18955,2
18961,2
18967,2
18976,1
18980,1
18985,1
18989,1
18994,5
19002,3
19004,1
19009,1
19013,1
19017,1
19021,1
19032,1
19035,1
19041,1
19044,1
19048,3
19059,19
19063,1
19064,1
19070,1
19071,1
19087,1
19090,2
19093,1
19094,3
19095,2
19096,1
19102,1
19106,4
19112,1
19116,1
19123,1
19133,1
19140,2
19141,2
19142,1
19143,2
19151,1
19155,1
19165,1
19166,1
19169,2
19176,3
19184,1
19186,1
19195,2
19197,1
19201,4
19216,1
19227,1
19230,27
19233,2
19235,1
19243,1
19246,1
19249,1
19255,1
19260,6
19261,2
19270,1
19274,1
19275,1
19277,1
19282,12
19284,1
19285,3
19286,1
19287,3
19290,2
19291,1
19292,1
19325,1
19328,2
19329,2
19335,3
19340,1
19341,2
19342,2
19346,14
19349,3
19356,1
19361,1
19365,4
19366,1
19376,1
19378,1
19381,1
19382,6
19383,3
19384,1
19385,1
19386,5
19387,1
19388,6
19389,3
19390,2
19393,1
19394,3
19395,1
19398,1
19400,4
19401,1
19402,5
19403,1
19404,2
19405,1
19406,2
19409,1
19412,1
19416,2
19425,3
19427,2
19433,2
19436,1
19437,3
19438,20
19440,1
19442,9
19443,6
19444,4
19445,9
19448,1
19453,1
19456,1
19458,1
19459,2
19462,1
19463,1
19465,2
19466,3
19467,3
19471,1
19473,2
19474,1
19483,1
19486,1
19491,1
19501,1
19502,1
19503,2
19508,1
19511,1
19513,4
19514,1
19516,1
19517,5
19524,1
19528,1
19529,1
19530,1
19533,1
19534,1
19540,2
19541,1
19550,1
19560,1
19592,1
19602,1
19603,1
19607,1
19608,1
19612,1
19613,3
19618,1
19632,1
19633,1
19641,1
19645,1
19648,3
19649,2
19650,2
19655,1
19657,1
19659,3
19662,2
19679,6
19680,4
19682,1
19685,3
19689,1
19700,1
19703,3
19709,5
19716,5
19720,1
19721,2
19722,15
19730,1
19737,1
19754,2
19763,1
19764,1
19768,1
19770,1
19771,1
19784,2
19798,1
19799,3
19800,1
19801,1
19805,1
19816,1
19826,2
19828,1
19830,1
19831,1
19838,1
19840,1
19850,6
19874,1
19876,1
19879,1
19881,2
19885,4
19886,2
19889,1
19890,2
19895,1
19900,3
19901,4
19922,1
19929,1
19934,1
19935,1
19966,1
19967,1
19973,1
19986,1
19989,1
19999,1
20005,1
20009,2
20014,1
20018,3
20019,1
20022,1
20029,1
20032,1
20041,1
20046,1
20047,1
20053,3
20066,2
20073,1
20074,3
20079,1
20087,1
20090,1
20102,1
20106,7
20107,6
20112,1
20118,1
20127,1
20139,4
20140,3
20141,1
20147,3
20151,1
20161,1
20165,1
20175,1
20179,1
20183,2
20197,5
20198,1
20211,1
20221,1
20222,7
20237,2
20240,1
20244,1
20247,1
20259,1
20260,4
20265,1
20267,2
20272,1
20275,1
20279,1
20281,1
20286,1
20289,1
20290,1
20296,1
20302,3
20309,3
20313,1
20316,1
20319,1
20320,2
20325,6
20333,1
20335,1
20337,1
20353,1
20359,2
20362,1
20367,1
20373,1
20376,1
20386,1
20388,2
20389,1
20400,1
20401,1
20403,1
20406,1
20409,2
20415,1
20425,1
20430,3
20431,9
20438,1
20439,1
20444,5
20445,7
20454,2
20456,1
20458,1
20462,1
20463,1
20464,3
20465,1
20471,2
20474,1
20476,3
20485,1
20492,1
20496,1
20498,3
20505,1
20508,1
20521,1
20530,1
20533,1
20536,1
20557,1
20561,1
20562,2
20563,1
20565,3
20571,1
20574,1
20575,4
20576,1
20581,1
20584,1
20585,1
20586,2
20587,2
20589,2
20594,1
20599,1
20601,4
20610,2
20611,1
20614,1
20618,1
20619,1
20622,1
20628,1
20638,1
20641,1
20646,1
20648,3
20654,2
20664,1
20669,1
20670,1
20672,4
20678,1
20685,4
20690,1
20712,1
20723,1
20728,1
20731,1
20744,1
20745,4
20770,1
20785,1
20789,1
20790,2
20793,1
20795,1
20797,1
20807,1
20809,1
20810,1
20814,3
20826,1
20830,1
20841,1
20844,2
20847,1
20848,3
20862,1
20884,1
20893,1
20898,3
20899,3
20901,1
20904,1
20908,1
20919,1
20920,6
20921,3
20922,1
20924,1
20927,1
20935,1
20945,5
20950,2
20951,2
20952,3
20954,1
20957,1
20958,2
20959,1
20961,2
20965,1
20967,1
20970,1
20978,1
20990,1
21000,1
21004,1
21005,1
21014,2
21021,1
21030,1
21071,1
21080,1
21081,1
21091,1
21094,2
21099,3
21105,32
21106,8
21107,4
21116,2
21121,1
21127,1
21142,6
21145,2
21147,1
21152,4
21153,4
21157,3
21158,3
21173,1
21176,2
21181,1
21187,1
21197,1
21204,1
21211,1
21212,1
21214,1
21216,1
21234,1
21237,2
21247,1
21250,3
21255,1
21303,1
21309,1
21328,1
21333,1
21340,1
21344,1
21345,7
21349,3
21350,1
21359,1
21361,1
21369,2
21378,1
21383,1
21388,3
21398,1
21405,2
21406,2
21407,1
21420,1
21422,1
21424,27
21427,2
21434,3
21435,6
21437,2
21443,1
21452,16
21454,1
21455,2
21456,1
21461,1
21462,2
21475,1
21481,1
21491,1
21492,1
21493,1
21498,2
21499,1
21502,1
21503,1
21504,2
21507,1
21510,4
21513,1
21520,1
21521,1
21523,1
21525,1
21526,1
21532,2
21537,1
21538,1
21551,1
21552,1
21560,1
21562,1
21565,1
21566,1
21570,1
21599,1
21606,1
21612,1
21623,1
21624,1
21645,1
21650,1
21655,1
21669,1
21679,2
21693,1
21701,4
21702,3
21713,1
21718,1
21725,1
21726,1
21753,1
21768,2
21777,1
21778,1
21780,1
21781,1
21782,1
21784,1
21788,1
21791,1
21797,2
21798,4
21800,1
21802,1
21805,1
21815,2
21817,2
21826,1
21828,2
21835,3
21838,2
21839,2
21841,1
21856,1
21861,1
21866,1
21867,1
21869,2
21881,1
21882,1
21883,2
21886,1
21887,2
21888,2
21893,1
21895,1
21898,2
21921,2
21922,3
21965,1
21968,4
21973,1
21974,2
21977,2
21984,1
21986,3
21987,3
21998,1
21999,1
22002,1
22006,1
22008,3
22013,3
22014,1
22015,1
22027,1
22032,1
22034,1
22040,1
22042,1
22044,1
22050,1
22056,2
22059,1
22067,1
22068,1
22069,1
22072,1
22074,1
22076,1
22078,1
22080,3
22082,1
22083,1
22084,5
22087,3
22090,1
22092,1
22094,1
22097,1
22100,1
22115,1
22116,1
22126,2
22130,1
22138,2
22140,2
22148,2
22159,3
22160,2
22169,1
22170,1
22178,1
22187,7
22189,1
22194,2
22206,1
22228,1
22241,2
22246,1
22248,3
22251,1
22255,1
22256,2
22258,2
22265,1
22268,1
22272,1
22274,1
22275,2
22277,1
22278,10
22279,2
22283,4
22287,1
22288,1
22297,1
22299,2
22302,2
22305,1
22307,3
22309,3
22313,1
22315,2
22317,1
22318,2
22321,1
22322,3
22329,12
22330,4
22332,1
22336,1
22342,3
22348,1
22356,1
22376,1
22382,1
22392,1
22394,3
22395,1
22396,1
22401,1
22405,1
22413,1
22416,1
22422,1
22430,1
22431,1
22434,3
22435,2
22436,1
22445,6
22447,9
22453,2
22457,1
22461,1
22462,2
22478,1
22479,5
22482,2
22491,1
22497,1
22499,1
22500,2
22503,2
22504,3
22508,1
22513,1
22515,1
22527,1
22532,1
22534,1
22535,1
22536,1
22545,1
22550,1
22554,3
22559,1
22560,3
22561,4
22567,2
22574,2
22589,1
22596,1
22600,5
22606,1
22607,1
22608,1
22611,1
22613,15
22614,1
22615,1
22616,2
22617,4
22618,7
22627,1
22632,3
22634,4
22637,2
22639,1
22641,1
22642,1
22643,1
22651,1
22655,2
22657,1
22658,1
22665,1
22666,1
22673,3
22674,2
22679,1
22682,2
22687,1
22693,1
22696,1
22700,1
22702,1
22714,2
22719,1
22748,4
22749,8
22758,1
22767,1
22768,2
22771,1
22796,1
22800,1
22801,2
22802,1
22803,1
22805,1
22809,2
22812,1
22813,1
22815,1
22820,2
22822,2
22828,1
22839,2
22840,2
22842,2
22843,1
22844,2
22847,2
22850,3
22851,1
22854,1
22859,3
22861,3
22862,1
22864,1
22865,2
22867,2
22868,3
22882,1
22885,2
22899,1
22904,1
22909,2
22922,2
22926,3
22929,1
22939,2
22941,1
22946,1
22951,2
22952,1
22957,1
22963,1
22965,1
22970,28
22973,1
22980,1
22981,1
22986,1
22987,3
22989,1
23006,1
23011,1
23017,1
23018,1
23020,1
23022,2
23027,2
23029,1
23035,1
23036,1
23047,3
23058,1
23067,1
23072,2
23075,2
23081,1
23089,1
23091,1
23094,1
23096,1
23106,1
23114,1
23118,2
23119,2
23123,1
23124,2
23132,1
23138,1
23142,1
23149,1
23152,1
23156,1
23162,1
23168,2
23169,41
23179,1
23184,3
23185,1
23187,1
23198,1
23199,1
23205,1
23213,2
23214,1
23217,1
23221,1
23222,1
23225,1
23228,2
23231,1
23232,1
23240,1
23243,1
23246,4
23249,2
23255,2
23258,1
23263,1
23279,2
23282,1
23283,1
23290,1
23303,1
23308,2
23311,1
23316,1
23320,1
23322,1
23326,1
23337,7
23347,2
23349,1
23355,1
23357,1
23358,1
23365,1
23368,1
23369,1
23371,1
23378,1
23380,1
23385,2
23397,1
23401,1
23402,1
23405,3
23406,1
23410,2
23414,4
23415,2
23417,1
23419,3
23420,1
23423,1
23427,1
23437,1
23438,1
23460,1
23462,1
23465,1
23476,4
23477,1
23482,2
23483,1
23487,2
23489,1
23490,1
23494,1
23496,1
23510,1
23512,1
23561,1
23572,1
23579,1
23580,1
23587,1
23590,1
23600,1
23606,1
23611,1
23613,1
23617,22
23623,1
23625,1
23631,1
23632,1
23635,1
23636,1
23637,1
23647,2
23650,5
23651,1
23657,1
23660,1
23669,1
23693,2
23698,6
23701,2
23706,3
23712,1
23715,1
23720,2
23721,1
23732,2
23733,1
23736,1
23739,1
23751,1
23753,1
23754,3
23775,1
23782,2
23786,2
23794,2
23807,1
23808,2
23810,1
23813,1
23815,1
23816,2
23819,2
23827,3
23831,1
23835,7
23845,1
23848,1
23854,1
23858,1
23863,1
23866,1
23868,1
23878,1
23884,1
23889,3
23892,1
23895,1
23916,1
23918,2
23923,1
23925,4
23926,3
23941,2
23948,2
23951,1
23962,1
23972,3
23979,1
23982,2
23991,2
23999,2
24006,1
24012,1
24016,1
24017,2
24022,1
24028,1
24030,1
24039,2
24044,1
24045,1
24047,5
24051,4
24053,6
24054,1
24059,1
24064,2
24078,1
24082,1
24084,1
24087,2
24089,1
24090,1
24093,2
24095,2
24098,1
24100,18
24103,1
24104,1
24111,2
24112,2
24118,2
24122,1
24123,5
24134,1
24142,1
24145,2
24152,4
24153,1
24157,1
24162,1
24164,1
24173,2
24175,1
24178,1
24182,1
24199,1
24209,1
24219,2
24220,1
24229,1
24230,1
24231,2
24235,1
24251,1
24258,1
24262,1
24264,1
24266,1
24283,1
24284,9
24286,3
24290,1
24293,1
24301,1
24318,1
24329,2
24352,3
24354,2
24359,3
24360,1
24362,1
24378,1
24380,3
24385,1
24395,3
24412,3
24419,1
24420,2
24422,1
24425,1
24427,1
24430,2
24431,1
24432,1
24435,2
24439,2
24446,1
24449,1
24457,1
24466,1
24469,1
24472,1
24501,2
24511,4
24514,2
24519,5
24520,1
24535,1
24536,1
24538,22
24543,1
24546,1
24553,1
24554,1
24560,1
24565,1
24568,2
24571,2
24574,1
24577,1
24583,4
24586,1
24592,1
24595,1
24597,1
24600,2
24603,2
24606,1
24609,1
24619,1
24623,1
24632,1
24638,1
24652,2
24659,1
24661,1
24663,2
24677,1
24680,2
24681,1
24682,1
24688,4
24691,1
24692,3
24704,1
24710,1
24717,1
24719,1
24722,3
24728,2
24729,1
24735,1
24739,1
24752,1
24754,1
24763,2
24767,1
24782,8
24784,1
24787,1
24790,1
24792,4
24800,1
24801,1
24802,1
24807,1
24808,1
24811,2
24818,1
24819,1
24834,1
24838,1
24841,1
24846,1
24848,1
24850,3
24865,1
24866,1
24885,3
24886,1
24891,1
24892,1
24893,1
24894,1
24895,5
24901,1
24904,1
24906,1
24926,1
24931,1
24938,1
24940,1
24953,1
24960,1
24962,1
24966,1
24967,1
24969,2
24972,1
24977,1
24979,1
24981,2
24982,5
24985,2
24987,2
24988,1
24993,1
24994,9
24995,2
24998,1
25000,1
25001,1
25003,2
25007,2
25008,1
25014,1
25016,2
25020,1
25023,1
25024,1
25026,1
25028,1
25031,5
25034,1
25035,1
25038,2
25039,2
25040,3
25041,3
25042,3
25043,1
25044,1
25046,1
25047,2
25053,2
25055,1
25060,2
25062,7
25064,1
25065,2
25067,3
25071,1
25072,1
25073,1
25081,2
25086,1
25092,8
25103,1
25109,1
25116,1
25117,1
25126,1
25131,1
25139,2
25141,1
25148,3
25153,1
25156,3
25157,5
25159,1
25162,1
25169,2
25171,1
25174,1
25175,1
25180,1
25188,2
25190,1
25193,2
25203,6
25212,1
25230,1
25234,1
25240,2
25269,1
25280,4
25285,4
25286,1
25297,1
25299,2
25301,2
25307,2
25321,1
25326,1
25330,1
25339,1
25347,2
25351,2
25358,1
25361,2
25366,1
25370,2
25372,1
25375,1
25380,1
25390,1
25391,5
25393,2
25396,2
25397,1
25400,2
25405,2
25422,1
25433,1
25434,2
25438,1
25440,1
25444,1
25452,1
25454,1
25455,1
25467,3
25468,1
25471,1
25472,1
25476,1
25477,1
25478,1
25482,5
25486,1
25488,2
25489,2
25490,3
25491,2
25492,2
25500,1
25502,1
25505,1
25508,1
25516,4
25517,2
25518,1
25534,1
25535,1
25537,1
25541,5
25547,1
25553,2
25557,1
25562,2
25564,1
25566,1
25574,1
25575,3
25580,1
25581,1
25584,1
25585,2
25586,1
25587,1
25588,1
25589,1
25590,1
25591,2
25595,2
25607,2
25608,1
25612,1
25615,1
25617,1
25626,2
25630,4
25631,1
25634,1
25638,2
25643,1
25644,3
25645,2
25646,2
25648,1
25650,1
25651,2
25652,3
25653,1
25654,1
25655,1
25656,2
25657,1
25658,1
25662,1
25665,1
25667,1
25668,1
25669,2
25671,5
25675,1
25676,2
25680,2
25685,5
25687,3
25688,2
25689,2
25690,1
25691,1
25693,1
25694,1
25696,1
25699,2
25700,2
25703,1
25707,4
25709,2
25712,1
25713,2
25716,1
25718,1
25721,1
25724,2
25726,1
25728,2
25731,1
25732,2
25735,2
25742,3
25743,1
25745,1
25748,5
25750,1
25752,1
25756,2
25757,2
25758,1
25761,1
25763,1
25765,3
25768,2
25772,1
25775,2
25777,1
25779,1
25793,6
25796,2
25797,2
25798,1
25800,2
25802,3
25803,2
25804,4
25805,4
25807,1
25813,1
25814,2
25815,3
25819,1
25820,2
25821,2
25823,1
25825,2
25827,1
25830,2
25831,1
25832,1
25834,1
25842,2
25846,3
25847,3
25858,1
25862,1
25863,1
25865,1
25869,1
25880,1
25882,1
25883,1
25884,1
25886,1
25889,1
25892,3
25894,8
25896,1
25899,1
25900,1
25909,1
25919,1
25924,4
25927,1
25938,1
25940,1
25944,2
25946,2
25947,6
25949,1
25951,1
25952,4
25953,1
25955,2
25957,2
25959,1
25961,5
25962,4
25964,1
25966,2
25967,2
25969,1
25971,2
25979,2
25980,1
25983,4
25984,1
25987,1
25995,1
25996,1
26005,2
26010,2
26012,1
26017,1
26019,1
26020,1
26029,1
26030,1
26033,1
26044,2
26045,1
26047,1
26059,1
26060,6
26061,1
26072,2
26073,1
26078,4
26083,1
26085,1
26087,1
26096,2
26102,2
26107,1
26108,1
26109,1
26114,1
26120,1
26125,1
26129,2
26130,1
26131,2
26133,1
26134,1
26140,1
26141,3
26142,1
26147,1
26151,2
26156,6
26157,1
26162,2
26163,1
26168,1
26181,1
26183,1
26189,2
26195,6
26199,1
26200,2
26203,1
26212,1
26214,4
26217,3
26218,2
26221,1
26223,2
26226,8
26227,3
26229,5
26230,1
26231,1
26236,2
26242,1
26245,1
26246,3
26249,1
26258,7
26261,2
26262,1
26266,3
26270,1
26274,1
26276,1
26277,1
26278,3
26279,1
26285,1
26289,1
26291,1
26294,1
26295,2
26302,5
26304,2
26305,2
26306,2
26307,1
26313,2
26315,1
26316,1
26318,6
26319,1
26321,1
26324,1
26326,1
26350,1
26353,1
26361,1
26362,2
26363,2
26367,3
26373,1
26377,4
26382,2
26385,1
26388,1
26389,1
26392,1
26403,3
26427,6
26434,1
26435,2
26437,1
26438,1
26440,2
26444,4
26446,1
26449,1
26453,1
26454,2
26456,2
26458,2
26460,2
26467,2
26468,1
26469,4
26476,11
26478,2
26480,3
26492,1
26497,1
26504,1
26506,1
26511,1
26519,2
26538,3
26551,1
26556,1
26559,2
26563,3
26569,1
26571,3
26572,1
26578,1
26581,3
26582,3
26583,1
26591,2
26598,1
26601,1
26602,5
26604,12
26605,3
26606,1
26609,1
26613,7
26614,4
26615,3
26616,1
26617,3
26618,6
26621,1
26625,2
26628,2
26632,1
26633,2
26639,3
26641,2
26642,23
26646,11
26647,2
26652,4
26654,1
26664,2
26668,4
26671,4
26673,1
26674,2
26677,5
26678,1
26679,9
26680,1
26681,1
26682,3
26683,5
26685,1
26686,4
26690,1
26692,1
26696,1
26699,1
26700,1
26703,2
26704,1
26710,1
26713,2
26715,1
26719,1
26726,4
26729,2
26731,3
26732,1
26736,1
26743,2
26744,2
26746,1
26747,1
26750,8
26755,2
26756,2
26757,2
26758,3
26762,1
26763,3
26775,1
26779,1
26787,1
26795,2
26797,1
26803,3
26807,1
26811,2
26816,19
26818,1
26819,6
26823,1
26825,2
26829,1
26830,2
26831,1
26842,1
26849,1
26851,1
26853,3
26865,1
26885,1
26886,2
26888,2
26890,1
26892,1
26894,8
26895,1
26896,3
26897,4
26899,3
26902,2
26905,10
26911,1
26913,1
26915,21
26918,3
26925,1
26927,1
26929,4
26930,1
26931,2
26934,2
26942,1
26943,2
26946,4
26947,1
26948,3
26949,1
26950,3
26951,1
26952,2
26953,9
26960,1
26963,1
26964,2
26965,2
26966,1
26969,4
26970,11
26971,9
26974,1
26977,9
26978,2
26982,1
26983,4
26991,1
26992,2
26996,2
27007,1
27009,1
27011,1
27012,1
27014,9
27017,1
27020,1
27024,3
27032,2
27033,2
27035,1
27036,3
27038,1
27040,1
27041,2
27052,1
27053,2
27058,2
27064,1
27067,5
27069,1
27070,1
27073,1
27074,2
27076,1
27077,10
27078,2
27080,7
27084,1
27086,1
27090,2
27091,1
27095,3
27100,1
27104,3
27105,5
27106,2
27108,2
27110,9
27111,1
27112,1
27113,7
27114,4
27116,2
27117,1
27118,1
27119,2
27123,4
27125,3
27128,1
27133,2
27134,2
27138,1
27139,1
27141,1
27146,2
27147,1
27152,6
27156,2
27158,2
27159,1
27164,2
27168,6
27172,1
27180,1
27186,2
27188,1
27190,1
27194,1
27195,2
27196,1
27197,2
27202,1
27203,1
27205,2
27208,1
27209,1
27210,2
27219,1
27220,1
27221,1
27226,2
27227,1
27231,1
27235,5
27236,1
27240,2
27242,1
27245,5
27246,2
27248,4
27251,1
27268,1
27269,1
27272,1
27273,3
27274,1
27276,1
27279,3
27280,4
27281,1
27282,4
27283,3
27284,1
27285,2
27287,6
27290,2
27291,1
27292,2
27293,1
27296,3
27299,3
27301,2
27304,2
27307,1
27312,2
27317,3
27318,1
27320,1
27321,3
27323,1
27325,1
27327,10
27328,2
27331,2
27340,1
27344,1
27345,1
27346,2
27348,3
27350,5
27352,5
27353,1
27354,1
27356,3
27359,2
27360,6
27361,15
27363,8
27364,1
27366,1
27367,5
27369,1
27372,4
27375,1
27379,2
27380,4
27385,2
27386,1
27390,2
27391,1
27392,3
27393,1
27399,2
27401,1
27403,1
27404,1
27405,1
27407,3
27408,1
27411,7
27414,2
27416,1
27419,1
27421,56
27422,1
27430,4
27431,5
27433,1
27442,3
27446,1
27447,1
27448,1
27449,3
27451,1
27452,4
27454,2
27455,2
27460,3
27462,1
27465,4
27466,1
27467,3
27468,2
27469,4
27470,1
27471,5
27474,1
27475,1
27476,9
27477,3
27479,1
27480,2
27486,1
27487,1
27488,4
27489,1
27490,2
27491,4
27494,1
27495,2
27498,1
27499,2
27501,1
27503,7
27504,12
27505,2
27507,7
27508,1
27510,3
27511,1
27512,2
27514,6
27517,1
27518,2
27526,2
27531,1
27536,1
27539,4
27541,1
27544,3
27545,6
27549,2
27552,1
27554,1
27555,1
27557,5
27560,2
27562,2
27563,1
27564,2
27565,3
27567,1
27569,1
27571,1
27573,4
27574,1
27575,7
27577,1
27579,2
27581,1
27584,1
27585,8
27589,1
27590,1
27591,1
27592,1
27594,2
27595,2
27596,10
27599,6
27602,1
27603,1
27609,2
27610,1
27611,5
27612,2
27616,1
27617,1
27618,1
27623,5
27624,1
27625,1
27627,6
27628,11
27629,4
27630,3
27631,1
27633,2
27634,2
27635,5
27636,13
27637,2
27638,5
27639,9
27641,14
27642,6
27643,2
27644,5
27645,11
27646,3
27647,25
27648,3
27649,5
27651,1
27652,6
