name,counts
4,1
5,3
7,1
8,11
9,8
10,1
11,18
12,3
14,1
16,4
17,6
18,1
19,1
20,6
21,2
22,16
23,9
24,3
25,3
26,16
27,22
28,3
29,7
30,17
31,17
32,2
35,5
36,8
37,2
40,6
41,3
42,3
43,4
44,1
45,4
46,2
47,3
48,2
49,4
50,1
51,5
54,2
55,3
56,15
57,2
58,1
59,3
60,1
61,2
62,6
63,7
64,14
65,12
66,6
67,4
68,2
69,11
70,2
71,5
72,28
73,14
74,16
75,8
76,19
77,3
78,13
79,8
80,46
81,10
82,11
83,15
84,26
85,42
86,13
89,3
90,4
91,6
92,5
95,5
98,7
99,1
101,1
103,6
104,4
105,4
106,3
108,3
109,7
110,2
111,5
112,1
114,2
115,3
116,1
120,4
122,8
123,4
124,7
125,9
126,5
127,4
128,12
129,13
130,5
132,1
133,21
134,11
136,2
140,5
141,4
142,3
143,4
144,3
146,3
147,7
148,3
149,1
150,2
151,3
152,6
154,1
155,4
157,3
158,26
159,13
160,3
161,5
162,18
163,16
164,2
165,2
167,2
169,1
172,2
173,2
177,1
179,4
185,2
186,8
187,2
188,3
196,3
198,3
200,1
201,10
202,4
208,3
209,4
210,2
212,1
214,2
215,2
216,6
217,4
219,1
220,1
221,4
222,8
224,1
227,2
228,1
229,5
232,2
233,4
234,3
243,1
245,2
246,3
247,2
250,5
252,2
253,1
254,1
255,2
256,3
257,1
258,2
259,2
260,4
262,1
264,1
268,2
272,4
273,1
276,2
279,31
282,1
284,2
286,1
287,1
288,1
290,2
291,7
293,2
297,2
298,1
300,2
302,1
304,5
305,1
307,1
310,4
313,1
315,2
319,1
321,2
325,1
327,1
329,4
331,1
333,3
335,2
337,1
339,6
345,6
346,1
349,1
352,1
353,1
356,1
359,1
364,1
366,3
369,1
377,10
379,1
382,1
386,3
389,1
390,1
393,3
394,1
395,1
400,2
401,10
402,2
410,4
411,1
412,1
415,1
420,1
424,1
425,1
427,1
429,1
436,1
442,1
447,2
449,1
450,2
451,4
453,1
454,3
455,1
458,2
459,3
460,1
461,3
462,1
465,2
466,1
467,2
468,2
473,3
479,1
481,3
482,1
484,3
485,1
486,1
487,1
492,2
493,1
499,2
500,1
501,1
502,4
505,1
506,4
511,1
514,2
515,3
521,4
522,1
524,2
527,2
528,1
530,1
531,2
532,1
537,1
538,1
539,2
540,2
544,3
546,1
549,2
552,3
553,3
557,1
559,1
560,1
561,1
562,1
569,2
573,1
574,1
575,8
578,1
580,1
582,2
587,1
588,1
589,2
596,2
599,2
601,3
612,1
614,1
617,1
619,2
623,1
624,3
625,1
626,1
628,1
630,1
631,2
632,2
633,1
634,4
636,1
637,1
638,3
639,1
640,1
644,1
645,1
650,1
653,3
658,2
660,1
661,4
662,1
663,2
664,2
674,1
675,1
676,1
682,4
685,2
687,2
688,1
690,1
695,1
697,5
698,3
699,3
701,3
702,1
703,1
705,3
706,4
709,1
712,1
713,2
714,2
716,7
720,6
724,9
727,4
730,7
731,28
738,3
745,1
749,4
752,1
755,2
757,1
758,2
761,1
762,1
766,1
768,1
769,1
770,2
772,1
776,4
780,3
781,1
782,2
783,3
784,1
786,2
787,2
789,1
793,1
796,1
797,3
799,2
803,3
805,1
807,1
808,18
809,14
811,2
812,2
817,2
824,2
825,2
827,1
828,3
830,1
832,3
835,2
837,2
838,1
839,3
848,1
850,1
855,1
857,2
859,1
862,2
864,3
865,1
867,1
869,2
872,1
875,1
878,1
881,1
882,1
884,1
885,3
886,1
888,1
891,4
892,2
893,1
894,1
896,1
898,1
900,2
910,1
911,2
912,1
913,1
915,2
920,3
921,1
923,1
926,1
927,3
928,2
932,2
939,1
941,1
942,1
943,1
949,1
951,2
955,1
957,2
959,5
961,2
963,2
966,1
968,1
970,2
972,1
975,1
980,1
983,1
985,1
987,2
988,2
992,2
996,1
1008,2
1011,2
1015,1
1020,1
1024,1
1025,1
1027,1
1028,1
1029,1
1033,1
1035,1
1037,1
1041,1
1042,2
1046,1
1047,3
1051,1
1055,1
1060,1
1061,1
1062,1
1064,1
1066,2
1067,14
1069,5
1074,4
1075,1
1076,1
1091,1
1092,1
1096,3
1099,2
1100,1
1102,1
1105,1
1109,1
1113,2
1114,1
1116,1
1117,2
1119,1
1120,1
1126,1
1127,1
1132,2
1133,1
1138,1
1139,1
1155,2
1158,1
1175,1
1178,1
1182,2
1187,1
1189,3
1193,2
1205,1
1206,17
1208,2
1210,3
1215,4
1217,2
1221,3
1239,1
1240,1
1247,1
1250,7
1267,12
1269,1
1270,3
1271,1
1272,1
1279,1
1286,1
1296,1
1299,1
1314,1
1323,1
1324,1
1326,1
1330,1
1331,1
1334,1
1336,2
1337,1
1340,1
1341,1
1342,1
1343,4
1344,1
1351,1
1356,4
1362,1
1364,1
1366,1
1371,2
1372,2
1374,1
1377,2
1378,1
1381,1
1383,1
1385,2
1386,2
1387,2
1388,3
1389,1
1392,2
1393,1
1395,1
1399,4
1402,1
1403,1
1405,2
1407,1
1411,1
1416,2
1426,1
1428,1
1430,1
1431,3
1435,4
1437,2
1438,2
1439,5
1440,1
1441,1
1446,1
1447,1
1449,1
1459,1
1461,2
1464,13
1465,18
1467,1
1468,1
1472,1
1475,1
1476,4
1480,37
1481,2
1502,1
1509,1
1522,2
1524,3
1527,1
1528,4
1530,5
1531,1
1533,2
1534,1
1536,1
1537,2
1538,1
1540,5
1547,2
1548,1
1551,1
1553,3
1554,1
1556,5
1557,1
1558,1
1559,1
1561,2
1562,3
1564,1
1568,1
1571,3
1576,1
1578,3
1581,1
1589,1
1592,1
1593,3
1594,7
1595,1
1596,1
1602,2
1603,7
1607,2
1612,1
1614,2
1619,1
1622,1
1624,1
1627,2
1632,1
1633,1
1634,1
1640,1
1644,1
1648,1
1650,1
1654,5
1655,1
1656,1
1664,8
1665,1
1666,5
1667,1
1668,1
1669,1
1670,5
1672,1
1675,2
1676,2
1677,4
1683,1
1688,3
1691,10
1696,1
1697,1
1701,1
1704,2
1705,1
1706,1
1711,1
1712,2
1713,1
1715,1
1717,1
1720,1
1721,1
1736,14
1737,1
1738,1
1739,1
1741,1
1743,1
1745,1
1750,1
1751,5
1752,16
1753,82
1754,8
1759,22
1760,52
1763,2
1764,3
1765,1
1766,3
1769,1
1772,1
1773,1
1776,12
1777,1
1778,2
1779,2
1780,1
1785,1
1788,1
1789,1
1791,2
1792,1
1799,1
1803,1
1804,3
1812,1
1818,1
1819,1
1821,3
1823,1
1826,1
1834,1
1845,1
1846,1
1848,4
1851,1
1854,2
1858,4
1861,1
1867,2
1868,1
1888,1
1895,1
1897,1
1898,4
1902,2
1904,2
1906,4
1913,6
1917,10
1921,1
1923,1
1927,1
1929,1
1932,2
1933,1
1935,2
1937,1
1938,2
1941,1
1944,1
1945,1
1946,1
1947,4
1948,4
1951,1
1955,2
1961,2
1963,3
1964,2
1970,1
1973,2
1975,1
1979,1
1982,3
1992,2
1994,1
1995,1
1997,2
2007,1
2010,3
2021,1
2024,2
2026,1
2028,1
2031,6
2035,1
2044,2
2054,1
2058,2
2059,1
2065,5
2068,2
2072,4
2073,5
2074,3
2075,8
2076,1
2078,5
2079,2
2080,2
2081,7
2082,10
2083,6
2084,6
2085,10
2086,8
2087,8
2088,3
2089,7
2091,5
2092,3
2093,12
2094,19
2095,8
2097,2
2099,2
2103,2
2107,1
2108,2
2112,5
2117,1
2118,1
2120,1
2122,1
2123,2
2128,1
2129,1
2130,4
2131,13
2134,10
2135,6
2137,8
2138,2
2139,1
2146,9
2147,1
2148,13
2149,15
2150,25
2151,22
2152,25
2153,13
2155,4
2159,8
2170,1
2172,1
2176,5
2177,1
2178,1
2179,1
2181,1
2183,1
2185,1
2186,3
2188,1
2189,36
2197,3
2198,1
2199,1
2201,5
2203,1
2206,1
2207,1
2212,1
2214,1
2217,2
2218,2
2219,2
2220,1
2222,1
2223,1
2224,1
2226,2
2228,2
2231,2
2232,1
2233,2
2240,2
2244,1
2245,1
2246,1
2247,2
2250,3
2251,1
2255,1
2256,2
2257,1
2258,2
2259,1
2269,1
2270,3
2271,1
2272,1
2273,1
2280,1
2289,2
2292,3
2295,3
2298,1
2299,2
2300,2
2302,2
2303,1
2304,3
2306,2
2307,5
2308,1
2312,3
2317,2
2322,1
2323,3
2324,1
2331,22
2333,1
2334,1
2335,2
2340,2
2341,2
2345,1
2346,1
2348,1
2349,1
2350,1
2353,1
2356,1
2357,2
2362,2
2363,2
2365,4
2369,2
2370,2
2371,4
2382,2
2388,1
2392,1
2394,1
2395,1
2396,1
2397,2
2399,1
2403,2
2406,1
2407,1
2408,2
2412,1
2413,1
2414,1
2417,1
2418,17
2419,1
2420,1
2423,2
2424,1
2429,2
2431,1
2433,2
2436,1
2437,1
2438,4
2442,1
2443,1
2444,4
2445,1
2446,3
2448,1
2449,1
2451,3
2452,1
2455,3
2457,3
2459,1
2460,2
2464,1
2468,1
2471,1
2475,10
2477,1
2485,1
2488,3
2492,2
2493,1
2494,1
2495,1
2503,2
2504,1
2507,1
2508,2
2509,1
2510,1
2512,2
2520,7
2523,3
2525,2
2528,1
2538,1
2539,18
2540,1
2542,1
2544,2
2549,2
2555,1
2558,1
2559,1
2560,2
2563,1
2568,1
2579,2
2580,1
2588,2
2591,18
2592,47
2593,1
2594,1
2598,1
2599,1
2605,1
2607,1
2609,1
2610,1
2611,1
2612,1
2614,2
2616,2
2621,2
2623,2
2624,2
2634,1
2635,1
2636,1
2638,2
2640,1
2648,4
2649,1
2655,1
2656,1
2657,2
2659,1
2664,2
2665,1
2667,1
2669,1
2670,2
2671,1
2673,1
2679,1
2680,1
2683,1
2685,1
2686,1
2689,1
2690,1
2692,1
2695,2
2697,2
2699,1
2702,1
2705,1
2717,1
2720,1
2736,1
2744,2
2749,2
2751,1
2753,1
2756,1
2763,2
2767,1
2776,1
2777,1
2778,1
2786,1
2792,1
2799,7
2801,2
2802,1
2807,1
2810,2
2814,1
2818,2
2820,1
2824,2
2828,2
2838,1
2846,3
2850,3
2851,2
2854,2
2858,1
2859,1
2860,1
2861,1
2865,1
2873,1
2876,1
2880,2
2881,2
2885,5
2888,3
2890,1
2891,1
2893,4
2895,1
2897,2
2898,3
2901,3
2905,3
2906,2
2907,1
2908,1
2909,2
2912,1
2916,1
2924,1
2929,2
2930,1
2931,1
2933,3
2935,2
2936,1
2943,3
2944,3
2945,13
2946,8
2947,1
2948,3
2949,3
2950,1
2952,1
2963,2
2979,1
2980,2
2983,2
2986,4
2988,1
2990,1
2997,1
3002,4
3009,4
3014,2
3016,1
3017,1
3018,1
3019,1
3021,2
3022,4
3029,1
3032,1
3036,1
3037,3
3043,10
3048,1
3049,6
3050,25
3054,1
3057,2
3059,1
3068,1
3071,3
3077,2
3082,1
3083,6
3086,1
3088,3
3094,1
3098,1
3109,1
3116,1
3120,1
3123,1
3131,2
3133,1
3134,2
3141,4
3145,1
3146,1
3147,1
3148,4
3149,7
3151,4
3152,3
3154,2
3155,1
3158,8
3160,1
3163,1
3170,1
3172,1
3173,3
3175,1
3179,1
3183,1
3184,2
3185,2
3187,1
3188,2
3189,1
3190,1
3191,1
3192,1
3193,4
3196,2
3198,2
3201,1
3202,1
3205,3
3206,4
3208,5
3210,2
3211,2
3215,2
3218,1
3220,1
3221,10
3222,1
3223,1
3225,2
3227,1
3232,1
3235,1
3239,2
3240,3
3242,2
3243,1
3245,1
3249,1
3250,1
3253,12
3254,1
3257,1
3260,2
3262,1
3269,1
3272,1
3274,1
3275,1
3279,1
3289,3
3292,2
3293,1
3294,1
3295,1
3300,2
3302,1
3303,1
3306,1
3309,1
3312,1
3313,5
3314,2
3315,1
3317,18
3339,1
3340,5
3344,1
3346,4
3347,3
3348,2
3349,2
3350,1
3351,3
3352,2
3355,1
3357,1
3358,3
3362,2
3365,2
3366,1
3367,1
3369,1
3371,1
3372,1
3377,2
3379,2
3381,1
3385,3
3387,2
3389,2
3392,2
3394,2
3396,3
3397,3
3398,2
3399,3
3401,1
3408,2
3409,5
3410,4
3411,4
3412,1
3414,8
3416,3
3418,6
3419,7
3420,31
3421,11
3422,3
3423,9
3424,8
3425,2
3427,2
3429,3
3431,1
3433,5
3434,14
3435,12
3436,5
3437,5
3438,1
3439,4
3440,15
3441,3
3444,1
3449,5
3456,1
3459,1
3467,1
3469,1
3470,1
3476,2
3480,1
3483,4
3485,2
3486,1
3487,1
3488,1
3489,3
3492,1
3493,3
3494,1
3495,1
3496,1
3498,1
3499,1
3500,1
3502,1
3503,6
3504,5
3507,3
3508,1
3511,1
3512,1
3518,5
3519,1
3521,1
3523,3
3524,4
3527,2
3528,1
3529,1
3531,1
3535,1
3540,1
3547,2
3550,1
3557,2
3562,1
3565,4
3566,1
3567,1
3571,4
3572,2
3573,2
3574,1
3576,2
3580,1
3581,3
3586,5
3587,5
3588,2
3592,3
3595,1
3596,1
3597,1
3598,1
3599,1
3600,1
3601,2
3606,1
3607,4
3610,1
3617,2
3618,1
3619,1
3621,3
3627,2
3628,4
3631,7
3633,5
3638,1
3651,1
3652,2
3655,1
3659,1
3661,2
3666,1
3669,5
3675,1
3686,1
3691,1
3698,1
3701,2
3702,12
3705,1
3707,2
3709,19
3712,1
3714,2
3715,1
3716,2
3723,1
3724,1
3728,1
3730,1
3732,1
3733,3
3735,1
3736,2
3739,1
3741,2
3742,4
3745,1
3746,2
3749,2
3752,1
3754,1
3756,2
3757,2
3763,1
3768,8
3773,1
3779,1
3783,1
3784,2
3785,1
3791,1
3795,1
3797,3
3804,1
3814,3
3815,2
3818,9
3833,1
3835,3
3836,5
3838,1
3840,1
3843,3
3845,1
3848,2
3849,2
3850,2
3851,1
3853,2
3856,1
3862,1
3863,3
3864,1
3866,1
3870,1
3872,1
3874,1
3876,1
3880,1
3882,1
3883,8
3886,1
3887,2
3888,1
3889,1
3890,1
3892,2
3893,1
3894,2
3900,3
3904,1
3908,3
3910,1
3912,3
3915,3
3916,3
3919,1
3921,1
3934,4
3936,1
3937,1
3938,3
3940,1
3950,2
3951,1
3955,1
3956,1
3958,1
3963,2
3967,1
3968,1
3972,32
3973,52
3979,6
3980,1
3985,1
3986,4
3989,2
3990,4
3992,6
3993,1
4001,3
4004,2
4005,2
4010,1
4012,3
4013,1
4016,1
4021,1
4025,1
4030,2
4043,3
4044,2
4045,1
4053,1
4055,9
4062,1
4065,1
4067,3
4070,1
4071,1
4075,1
4081,1
4083,1
4084,4
4093,1
4094,2
4096,2
4097,3
4098,1
4099,1
4100,5
4101,13
4102,7
4103,2
4104,1
4105,1
4106,3
4107,7
4108,2
4112,1
4113,1
4116,2
4118,2
4119,2
4121,5
4122,1
4124,1
4126,1
4131,2
4134,1
4135,5
4136,2
4139,2
4141,1
4144,2
4145,1
4147,1
4148,1
4149,1
4150,5
4154,1
4159,1
4160,1
4165,2
4172,2
4176,1
4188,1
4193,1
4196,2
4197,1
4200,2
4202,1
4207,1
4211,4
4217,2
4221,1
4225,2
4228,1
4232,1
4247,3
4248,1
4250,1
4251,3
4254,1
4257,2
4258,1
4265,1
4270,1
4272,1
4273,1
4274,16
4281,3
4282,2
4287,1
4294,1
4296,1
4299,2
4300,3
4307,4
4308,2
4309,6
4313,1
4314,3
4316,1
4317,2
4318,1
4319,2
4320,1
4321,1
4323,2
4324,3
4326,2
4330,3
4337,1
4339,2
4346,1
4350,10
4351,1
4352,2
4354,3
4356,2
4358,3
4359,1
4361,1
4365,2
4366,1
4371,3
4372,2
4375,1
4377,1
4378,1
4382,1
4385,2
4392,2
4398,1
4401,1
4405,3
4407,2
4413,1
4414,2
4416,2
4417,3
4418,1
4419,1
4426,1
4427,2
4430,1
4431,1
4433,1
4441,1
4443,2
4452,1
4456,1
4458,1
4459,4
4469,3
4472,4
4476,2
4480,2
4481,3
4484,1
4487,1
4489,1
4491,1
4492,1
4494,2
4497,2
4500,1
4501,1
4502,2
4515,1
4516,1
4522,1
4523,1
4526,2
4527,1
4529,2
4532,2
4534,1
4537,4
4538,1
4539,1
4550,4
4552,2
4553,3
4554,2
4556,2
4557,1
4560,1
4561,1
4564,2
4566,2
4567,7
4571,1
4572,2
4576,1
4577,2
4579,1
4580,1
4585,2
4588,1
4590,1
4591,2
4598,2
4605,2
4607,1
4609,1
4610,16
4612,1
4613,2
4615,3
4619,2
4620,1
4626,1
4627,3
4628,4
4631,1
4633,55
4634,2
4635,1
4636,1
4637,5
4638,3
4639,2
4640,4
4641,1
5012,45
5013,54
5014,75
5015,44
5016,1
5017,21
5018,5
5020,3
5021,3
5022,1
5023,4
5024,15
5025,35
5026,5
5029,1
5030,1
5031,1
5035,2
5036,1
5040,2
5041,4
5044,1
5046,1
5048,1
5052,1
5055,1
5056,1
5060,1
5063,1
5064,1
5065,1
5067,1
5074,1
5076,1
5078,3
5081,1
5082,1
5083,1
5084,2
5085,1
5086,5
5088,2
5094,1
5096,2
5099,2
5107,1
5109,1
5111,1
5112,4
5114,2
5115,4
5119,2
5120,1
5121,2
5123,3
5126,10
5127,1
5128,2
5132,1
5133,1
5134,4
5139,1
5141,3
5142,1
5144,3
5146,1
5147,1
5149,3
5150,1
5154,6
5157,1
5162,1
5164,1
5165,2
5168,2
5173,2
5174,2
5178,1
5179,1
5183,2
5188,1
5190,1
5198,3
5199,1
5202,5
5203,1
5204,1
5209,2
5213,1
5218,4
5220,2
5223,2
5225,2
5228,1
5231,2
5232,3
5233,1
5234,1
5237,1
5239,1
5242,1
5246,1
5247,1
5255,1
5261,2
5266,1
5273,2
5280,1
5281,2
5284,1
5288,1
5291,1
5292,4
5293,3
5295,2
5303,1
5305,9
5307,2
5308,3
5309,1
5311,4
5315,1
5319,2
5321,4
5322,1
5328,1
5329,4
5332,1
5335,3
5337,2
5338,1
5339,1
5340,1
5342,1
5349,2
5351,1
5354,2
5355,1
5359,4
5361,1
5368,1
5369,6
5386,2
5389,1
5400,1
5402,2
5406,1
5407,1
5408,1
5409,1
5414,1
5416,1
5423,1
5426,1
5431,1
5440,1
5442,1
5443,2
5448,2
5451,1
5476,3
5479,2
5484,1
5486,17
5493,1
5495,1
5496,1
5499,1
5504,1
5508,2
5509,1
5511,3
5513,4
5517,1
5518,2
5521,1
5523,2
5526,1
5527,4
5528,1
5529,1
5531,2
5537,1
5542,2
5543,1
5546,1
5548,1
5551,2
5553,1
5554,18
5556,3
5557,1
5558,1
5559,1
5562,1
5566,2
5567,2
5568,1
5570,6
5571,1
5575,1
5577,2
5579,3
5584,24
5586,4
5587,3
5589,1
5591,1
5592,1
5593,1
5597,1
5598,1
5600,1
5602,9
5604,3
5613,1
5616,1
5620,13
5624,2
5626,1
5628,1
5630,1
5632,2
5640,1
5645,2
5647,2
5649,1
5651,17
5654,1
5655,1
5659,1
5663,1
5667,2
5672,3
5676,1
5680,2
5684,1
5685,1
5686,2
5689,2
5692,2
5693,2
5694,6
5700,1
5702,1
5704,3
5708,1
5710,1
5711,3
5712,3
5713,2
5714,2
5717,2
5718,1
5720,1
5721,1
5722,1
5723,1
5729,2
5732,3
5736,2
5738,7
5743,1
5748,1
5752,1
5755,1
5761,1
5763,1
5770,1
5781,1
5787,1
5788,6
5794,1
5795,3
5806,1
5810,3
5818,2
5820,3
5824,1
5828,3
5830,2
5840,1
5843,1
5849,2
5855,1
5856,10
5857,1
5859,1
5860,2
5867,1
5869,1
5872,2
5875,2
5876,3
5877,1
5881,3
5888,1
5889,3
5892,1
5894,3
5895,4
5898,3
5901,5
5903,2
5905,2
5906,1
5908,1
5913,1
5918,2
5919,1
5920,3
5922,6
5929,2
5932,1
5934,1
5935,2
5940,4
5941,1
5943,1
5947,3
5949,1
5952,1
5954,1
5956,1
5961,2
5962,1
5964,2
5971,1
5978,1
5979,1
5982,2
5986,2
5988,1
5991,1
5995,1
5997,1
5998,1
6005,2
6007,2
6011,2
6012,1
6015,1
6020,4
6021,1
6027,1
6033,2
6034,1
6050,3
6058,1
6060,1
6061,1
6062,3
6067,1
6069,1
6070,1
6073,1
6075,4
6077,1
6079,1
6084,2
6086,1
6089,1
6090,10
6093,1
6098,1
6106,1
6107,1
6108,1
6125,1
6126,1
6127,1
6132,1
6138,2
6141,2
6144,1
6157,1
6158,3
6162,2
6165,1
6167,2
6168,1
6169,2
6174,1
6182,1
6190,1
6194,1
6195,1
6198,1
6199,1
6202,2
6209,1
6213,2
6216,1
6222,3
6224,19
6225,15
6226,14
6228,2
6232,2
6234,3
6235,3
6236,6
6237,1
6238,9
6240,4
6241,3
6242,1
6244,2
6245,1
6246,2
6248,1
6251,1
6252,6
6258,1
6260,3
6266,1
6268,1
6274,3
6278,1
6281,9
6282,8
6283,1
6287,1
6291,1
6294,1
6301,1
6305,3
6307,3
6308,1
6309,2
6310,2
6312,1
6322,1
6323,1
6327,1
6331,5
6332,1
6333,1
6335,1
6338,1
6341,1
6342,2
6343,2
6345,1
6346,1
6347,2
6350,3
6352,2
6356,1
6362,1
6363,4
6364,3
6365,1
6367,1
6369,1
6371,1
6377,1
6378,1
6395,5
6401,1
6411,3
6413,5
6414,3
6416,1
6421,1
6423,4
6429,1
6435,2
6436,3
6438,1
6447,1
6454,1
6458,2
6463,1
6468,4
6472,18
6475,1
6481,2
6483,3
6486,2
6494,1
6498,1
6512,1
6513,1
6517,9
6518,1
6520,1
6522,1
6526,1
6528,2
6533,2
6534,2
6542,1
6543,2
6552,1
6555,1
6556,1
6557,1
6558,1
6560,1
6563,2
6564,1
6566,3
6567,4
6568,1
6571,1
6573,1
6574,11
6576,1
6579,1
6581,1
6584,1
6585,1
6586,1
6589,2
6594,4
6595,4
6598,3
6600,1
6603,1
6606,4
6609,3
6610,1
6611,1
6615,1
6617,2
6619,1
6620,2
6622,1
6625,1
6627,1
6633,1
6639,1
6643,1
6647,1
6648,2
6649,1
6655,2
6657,1
6658,3
6659,1
6661,1
6662,1
6665,2
6669,1
6672,1
6675,1
6676,3
6679,2
6688,1
6689,1
6690,2
6693,1
6697,1
6711,1
6712,4
6713,1
6715,2
6716,1
6717,1
6718,1
6723,5
6726,3
6727,1
6733,4
6735,1
6738,1
6741,1
6746,1
6747,1
6756,1
6758,1
6760,2
6761,1
6766,3
6767,3
6768,1
6773,2
6774,2
6775,15
6779,1
6783,5
6786,1
6789,3
6790,2
6800,1
6801,5
6803,1
6804,2
6807,6
6810,1
6811,2
6812,1
6815,1
6816,1
6819,1
6820,2
6828,5
6829,1
6830,2
6837,3
6839,1
6840,1
6852,1
6857,1
6859,1
6860,1
6868,2
6871,2
6879,2
6882,1
6883,1
6888,2
6892,3
6893,1
6899,4
6900,1
6902,2
6912,1
6913,2
6914,2
6918,1
6922,1
6924,1
6925,1
6926,4
6928,1
6929,1
6930,1
6932,2
6933,1
6934,9
6936,1
6937,2
6940,1
6943,2
6944,2
6946,3
6948,1
6951,1
6952,4
6953,1
6954,1
6955,3
6956,2
6957,1
6959,4
6960,1
6961,1
6962,2
6963,3
6964,52
6965,14
6966,6
6968,3
6989,1
6990,5
6991,42
6992,24
6993,1
6995,6
6996,3
6998,1
6999,4
7001,2
7003,4
7004,4
7005,2
7008,1
7009,1
7011,17
7012,2
7013,5
7014,1
7015,4
7019,1
7020,1
7021,17
7022,14
7023,11
7024,6
7026,2
7027,2
7028,1
7032,1
7033,1
7034,1
7038,3
7040,1
7043,8
7044,3
7045,2
7046,1
7048,3
7049,20
7050,14
7051,26
7052,18
7053,5
7054,4
7056,2
7058,1
7064,1
7068,4
7070,1
7072,2
7073,1
7075,1
7078,54
7079,24
7080,7
7082,8
7085,1
7086,4
7087,2
7088,2
7091,1
7092,2
7096,1
7098,3
7099,4
7100,1
7101,4
7105,2
7106,2
7107,4
7108,1
7110,3
7111,5
7112,3
7113,10
7114,6
7115,3
7116,8
7117,1
7118,3
7119,8
7120,5
7121,12
7122,7
7123,22
7124,7
7126,2
7128,1
7133,15
7134,3
7135,1
7136,2
7138,2
7139,4
7143,2
7145,10
7147,2
7149,1
7152,1
7153,5
7154,3
7155,1
7156,6
7160,6
7161,2
7162,1
7164,1
7165,1
7166,3
7167,1
7168,1
7169,2
7175,2
7176,2
7180,1
7183,1
7186,9
7193,1
7194,1
7202,1
7204,1
7209,1
7212,1
7216,1
7217,1
7219,2
7221,2
7227,1
7232,1
7239,1
7240,1
7246,1
7253,1
7254,3
7256,4
7257,1
7259,1
7261,1
7269,2
7273,6
7274,2
7275,1
7276,1
7286,1
7287,1
7288,3
7299,1
7302,2
7303,2
7304,1
7307,3
7308,7
7309,1
7314,1
7315,1
7318,3
7322,2
7329,1
7331,3
7332,1
7334,1
7337,2
7341,1
7342,3
7344,1
7351,3
7355,1
7357,1
7358,1
7368,3
7374,1
7375,2
7378,1
7379,2
7385,2
7386,4
7387,1
7388,5
7390,3
7391,4
7392,1
7396,1
7397,1
7405,1
7409,1
7411,1
7419,3
7420,3
7444,1
7447,2
7450,1
7454,1
7458,1
7459,1
7460,1
7464,2
7469,2
7470,1
7471,2
7472,5
7473,1
7474,1
7476,1
7477,1
7479,2
7480,7
7481,3
7485,2
7488,3
7491,3
7493,6
7494,8
7496,1
7500,2
7501,2
7502,1
7504,5
7506,1
7512,1
7515,1
7520,1
7523,1
7526,2
7527,1
7528,4
7529,2
7532,2
7534,1
7537,2
7538,2
7540,1
7541,1
7546,1
7549,1
7551,1
7552,1
7553,1
7560,2
7561,1
7564,1
7565,13
7566,4
7567,3
7570,5
7571,9
7575,2
7576,1
7578,1
7583,1
7584,2
7585,4
7586,1
7587,1
7589,3
7590,1
7592,5
7593,6
7596,2
7599,2
7603,1
7604,1
7605,4
7615,1
7618,9
7624,4
7625,12
7626,1
7629,12
7634,1
7636,4
7637,28
7638,7
7639,1
7644,1
7646,1
7653,1
7660,4
7661,1
7662,1
7664,1
7666,2
7667,1
7668,2
7669,1
7671,7
7677,1
7679,2
7680,4
7682,1
7683,1
7687,2
7688,1
7689,3
7696,1
7697,1
7699,1
7700,1
7705,8
7707,1
7708,1
7725,1
7728,1
7730,22
7735,2
7743,3
7744,6
7746,3
7747,2
7748,2
7750,2
7755,2
7756,2
7757,1
7759,5
7761,4
7762,8
7771,1
7778,1
7779,24
7780,3
7783,1
7790,2
7793,1
7794,2
7805,1
7810,3
7813,5
7814,1
7818,1
7819,1
7822,2
7823,1
7824,1
7825,1
7831,1
7833,1
7837,1
7839,1
7840,3
7845,1
7846,12
7859,1
7862,3
7865,3
7869,3
7871,3
7873,2
7874,1
7879,1
7884,2
7885,1
7886,2
7887,1
7888,4
7892,2
7894,1
7897,6
7901,2
7903,4
7906,2
7907,1
7908,2
7909,1
7913,1
7914,1
7916,1
7917,1
7919,1
7920,2
7922,1
7925,1
7928,3
7929,3
7932,1
7933,2
7934,2
7938,1
7940,1
7941,1
7943,6
7944,2
7945,1
7946,1
7948,1
7951,5
7952,3
7954,1
7955,2
7956,2
7962,1
7965,3
7966,1
7971,2
7972,1
7975,4
7979,5
7980,1
7984,2
7991,2
7994,3
7998,3
7999,2
8002,2
8006,4
8008,2
8014,4
8016,3
8019,1
8021,1
8024,1
8025,1
8026,1
8029,1
8030,2
8031,3
8032,1
8033,2
8036,11
8039,1
8040,1
8042,2
8052,2
8054,2
8055,1
8059,2
8060,2
8069,1
8070,2
8072,2
8075,1
8077,4
8080,2
8086,1
8089,1
8093,1
8097,1
8103,3
8104,1
8106,3
8107,1
8108,1
8109,2
8110,2
8113,4
8118,1
8119,1
8121,2
8122,1
8126,2
8127,3
8128,5
8129,1
8130,1
8132,3
8133,2
8134,1
8137,1
8153,1
8159,1
8162,2
8163,3
8169,1
8172,1
8177,1
8179,1
8190,5
8194,1
8196,1
8199,1
8201,5
8203,1
8211,2
8213,1
8214,2
8215,3
8220,1
8228,1
8229,1
8234,1
8243,3
8244,20
8248,1
8251,8
8254,1
8260,1
8263,2
8264,1
8272,1
8281,1
8285,1
8286,1
8287,3
8288,2
8294,3
8297,1
8300,2
8301,2
8308,1
8311,1
8325,1
8327,1
8329,2
8331,1
8332,3
8336,1
8338,1
8339,1
8340,1
8344,1
8346,8
8347,6
8348,1
8349,1
8351,1
8356,3
8358,2
8364,1
8365,1
8367,1
8368,1
8373,1
8375,3
8377,2
8379,1
8380,1
8381,1
8384,1
8389,1
8391,2
8396,2
8397,3
8404,1
8405,1
8407,1
8414,4
8415,2
8417,1
8418,3
8424,1
8428,1
8429,2
8432,2
8435,1
8436,1
8439,1
8440,1
8442,1
8443,1
8446,1
8448,1
8449,1
8451,1
8454,4
8455,2
8462,2
8475,1
8483,2
8487,1
8489,1
8496,1
8498,1
8500,2
8502,1
8505,2
8509,1
8517,2
8518,1
8519,1
8520,1
8522,1
8523,1
8529,2
8530,1
8535,2
8536,2
8538,2
8541,1
8542,1
8545,1
8547,3
8548,1
8549,2
8558,1
8559,1
8560,2
8561,3
8563,1
8565,4
8566,2
8567,5
8568,1
8573,1
8576,2
8579,1
8582,3
8584,1
8587,3
8594,6
8595,1
8596,1
8601,2
8602,1
8604,3
8605,4
8609,1
8613,1
8622,1
8628,1
8629,35
8630,16
8631,4
8632,1
8637,1
8638,2
8640,1
8643,7
8644,2
8645,3
8647,1
8648,2
8652,5
8657,2
8658,2
8667,1
8670,2
8673,1
8676,1
8680,2
8687,1
8688,1
8689,8
8693,1
8694,1
8697,1
8699,3
8701,1
8706,1
8707,1
8716,1
8719,2
8720,2
8726,4
8727,2
8728,1
8729,2
8732,1
8734,1
8735,1
8737,1
8739,3
8741,6
8742,1
8746,1
8748,1
8749,1
8751,1
8757,5
8759,1
8767,1
8771,1
8773,1
8777,3
8780,1
8782,1
8786,1
8796,1
8800,2
8809,2
8813,1
8814,1
8823,1
8828,1
8829,1
8830,1
8840,1
8843,1
8854,1
8855,1
8859,1
8862,4
8868,3
8869,1
8877,2
8880,1
8884,2
8887,1
8891,5
8892,1
8904,1
8908,1
8910,1
8911,1
8917,3
8919,9
8938,1
8941,1
8943,1
8947,1
8952,1
8953,1
8957,1
8963,2
8966,1
8968,1
8970,2
8974,4
8981,1
8982,1
8990,1
8991,4
8995,1
9005,1
9007,1
9008,5
9011,1
9014,2
9015,2
9019,1
9021,1
9022,2
9023,1
9027,1
9029,1
9034,1
9035,4
9039,1
9044,1
9052,2
9058,1
9060,4
9062,3
9063,1
9065,8
9066,3
9067,4
9069,1
9070,4
9071,3
9073,4
9074,2
9076,2
9077,2
9080,2
9082,2
9083,1
9085,1
9086,1
9087,6
9090,2
9092,1
9093,4
9096,1
9098,3
9099,1
9104,4
9109,1
9111,1
9114,1
9115,1
9121,1
9123,1
9125,1
9126,1
9131,1
9135,1
9138,2
9139,1
9142,2
9157,2
9160,1
9167,1
9169,1
9171,1
9173,1
9177,3
9179,1
9182,4
9183,1
9184,1
9187,1
9191,1
9193,2
9194,1
9201,1
9203,1
9209,1
9220,10
9227,1
9229,1
9231,1
9236,2
9237,1
9239,1
9240,3
9243,2
9246,1
9247,1
9251,1
9253,1
9254,1
9255,1
9259,1
9264,2
9269,1
9281,2
9283,1
9286,1
9287,2
9288,1
9291,1
9293,1
9294,1
9298,2
9302,1
9310,1
9313,1
9314,1
9317,1
9318,1
9319,1
9322,5
9323,2
9324,1
9326,2
9327,29
9328,1
9330,1
9331,1
9334,1
9339,2
9343,1
9344,1
9345,1
9346,5
9347,1
9348,2
9349,5
9350,1
9355,1
9359,11
9369,1
9370,2
9372,2
9377,2
9378,2
9381,1
9386,4
9392,1
9399,1
9410,1
9417,1
9423,1
9429,1
9430,2
9432,1
9434,5
9438,1
9439,1
9443,1
9446,1
9447,1
9448,1
9450,1
9454,1
9456,1
9457,1
9458,1
9460,6
9463,1
9464,1
9465,1
9469,1
9472,4
9478,1
9480,1
9482,2
9484,2
9487,1
9488,2
9490,1
9495,2
9502,1
9507,1
9508,3
9510,2
9516,1
9517,3
9521,1
9522,2
9526,1
9534,1
9535,1
9537,3
9538,1
9540,1
9542,1
9544,1
9545,11
9547,2
9555,1
9562,2
9566,1
9568,1
9569,4
9574,1
9577,1
9579,2
9580,1
9585,1
9592,1
9603,1
9611,3
9615,2
9617,1
9626,1
9629,2
9632,1
9635,2
9637,5
9638,1
9640,5
9642,1
9643,2
9648,3
9654,2
9658,1
9660,1
9661,1
9671,4
9672,1
9674,2
9675,3
9676,1
9677,6
9678,3
9679,4
9680,5
9681,3
9682,1
9686,1
9688,1
9690,5
9691,3
9701,1
9703,1
9718,5
9719,1
9728,1
9730,4
9744,1
9748,1
9749,1
9750,1
9751,1
9752,8
9756,1
9758,1
9762,2
9763,1
9764,2
9765,2
9766,1
9769,2
9770,3
9771,1
9777,3
9778,1
9779,1
9782,1
9787,1
9788,2
9791,1
9794,2
9798,2
9799,1
9803,5
9809,1
9822,1
9826,1
9827,2
9831,2
9835,7
9839,2
9840,2
9847,1
9853,2
9855,4
9856,13
9858,13
9863,1
9868,6
9869,1
9871,1
9872,1
9878,1
9883,1
9884,10
9886,2
9887,1
9888,5
9889,1
9890,3
9891,1
9894,2
9896,1
9900,1
9904,2
9906,1
9910,1
9911,1
9928,1
9929,2
9933,3
9935,1
9937,1
9941,3
9942,3
9943,7
9944,4
9946,2
9947,1
9948,4
9949,2
9950,4
9951,3
9952,3
9953,69
9954,10
9955,1
9958,2
9959,3
9963,3
9965,3
9970,1
9971,3
9972,5
9974,5
9977,2
9978,1
9983,4
9986,5
9987,4
9988,1
9990,4
9992,1
9994,2
9995,6
9998,1
9999,2
10004,1
10005,2
10006,3
10007,15
10008,16
10009,4
10010,9
10011,5
10012,1
10019,1
10021,1
10025,1
10032,1
10033,1
10034,5
10035,10
10036,7
10037,3
10038,13
10039,34
10040,58
10043,1
10046,1
10047,6
10050,2
10051,1
10056,3
10058,1
10059,1
10060,4
10061,1
10071,1
10076,4
10077,1
10078,2
10079,1
10081,1
10082,2
10083,1
10088,1
10091,3
10099,1
10103,1
10104,2
10106,5
10109,1
10110,1
10112,1
10118,1
10119,2
10124,1
10126,1
10129,1
10130,1
10131,1
10133,1
10135,1
10136,1
10139,1
10141,2
10145,2
10146,1
10148,1
10151,1
10153,1
10156,2
10159,1
10160,1
10161,1
10162,1
10166,1
10168,1
10172,2
10176,1
10177,1
10183,2
10184,2
10185,2
10187,1
10188,1
10190,1
10191,1
10197,4
10202,1
10206,1
10209,1
10210,1
10213,1
10214,4
10216,1
10220,2
10225,2
10227,1
10232,1
10234,1
10236,2
10238,2
10240,2
10243,1
10246,1
10248,1
10254,1
10260,1
10263,2
10264,2
10268,1
10269,6
10276,1
10279,1
10281,2
10283,2
10287,1
10293,3
10296,1
10298,1
10300,1
10301,3
10302,1
10305,10
10308,1
10314,1
10318,1
10327,1
10338,1
10340,1
10354,3
10356,4
10358,2
10370,1
10371,1
10372,2
10374,1
10377,1
10379,1
10381,1
10383,2
10384,2
10385,1
10389,1
10390,1
10393,4
10399,1
10400,1
10404,2
10407,1
10408,2
10429,1
10431,1
10433,2
10435,1
10436,1
10443,1
10445,6
10447,1
10451,2
10457,2
10459,2
10461,1
10465,3
10466,1
10467,1
10469,3
10472,1
10473,8
10474,1
10477,1
10478,2
10492,1
10494,1
10498,1
10499,1
10503,1
10509,2
10510,2
10511,2
10513,2
10514,1
10515,1
10516,2
10522,1
10523,1
10524,2
10528,1
10529,1
10530,1
10532,2
10533,1
10534,1
10535,1
10543,1
10544,1
10545,1
10548,1
10549,1
10550,1
10551,1
10552,3
10556,2
10561,1
10562,1
10564,1
10569,2
10575,1
10576,1
10577,2
10581,2
10584,1
10586,1
10588,1
10590,2
10591,1
10592,1
10593,2
10594,2
10595,3
10598,1
10600,2
10602,4
10605,1
10606,1
10608,1
10610,1
10612,1
10615,1
10624,2
10625,1
10626,1
10629,1
10630,1
10633,1
10634,1
10635,2
10636,1
10642,26
10643,3
10649,1
10652,1
10655,2
10658,3
10662,3
10663,3
10664,1
10667,1
10670,3
10671,1
10672,5
10675,1
10678,3
10681,2
10682,1
10685,1
10690,1
10691,2
10692,1
10698,1
10699,4
10700,1
10706,1
10708,1
10719,1
10720,2
10722,1
10726,1
10741,5
10742,2
10743,1
10745,3
10746,1
10749,1
10758,1
10759,1
10760,1
10762,1
10765,2
10773,27
10774,1
10775,2
10777,3
10782,1
10783,4
10784,2
10787,1
10794,2
10802,1
10823,2
10824,1
10838,2
10839,1
10840,2
10846,1
10855,1
10856,2
10857,1
10860,8
10873,1
10875,1
10879,10
10880,2
10882,1
10883,2
10884,2
10885,1
10892,1
10895,1
10896,2
10900,1
10902,2
10906,5
10908,1
10912,1
10917,2
10918,2
10919,2
10920,2
10921,1
10922,1
10923,1
10925,1
10927,2
10928,1
10930,1
10932,1
10935,12
10936,1
10937,1
10939,3
10940,1
10943,1
10945,2
10946,2
10947,2
10950,1
10954,1
10959,1
10962,1
10963,1
10968,1
10970,1
10971,1
10974,10
10977,1
10978,1
10982,1
10985,1
10987,3
10993,1
10999,1
11004,2
11015,1
11019,2
11029,1
11030,2
11031,1
11035,1
11037,1
11039,1
11040,2
11044,2
11049,2
11053,1
11055,1
11056,2
11057,1
11059,1
11061,1
11063,1
11066,4
11067,2
11068,1
11076,2
11078,1
11082,3
11087,1
11089,2
11090,1
11094,2
11095,69
11096,4
11099,3
11100,2
11101,1
11106,1
11108,4
11109,6
11110,1
11112,3
11113,2
11116,1
11118,1
11119,2
11120,3
11123,1
11125,1
11128,1
11129,1
11131,9
11133,2
11135,2
11136,2
11138,2
11141,1
11143,1
11147,1
11149,1
11151,2
11157,2
11158,2
11159,2
11161,1
11163,1
11169,1
11170,1
11172,1
11174,1
11176,3
11178,2
11185,1
11187,1
11189,2
11191,2
11194,1
11199,1
11202,1
11204,1
11208,1
11213,3
11214,4
11217,2
11219,2
11221,3
11224,1
11226,2
11227,1
11232,1
11234,1
11235,1
11237,1
11243,2
11245,2
11250,1
11255,1
11259,1
11262,2
11266,1
11277,2
11282,1
11287,1
11289,2
11291,1
11292,1
11294,3
11296,3
11298,3
11299,2
11301,2
11307,1
11308,8
11311,7
11316,1
11318,2
11321,1
11330,1
11332,1
11334,1
11335,1
11344,1
11345,1
11352,1
11357,4
11359,1
11360,2
11364,2
11369,1
11370,2
11376,1
11378,2
11379,1
11387,4
11389,2
11392,4
11393,3
11394,2
11398,1
11404,1
11406,1
11408,1
11411,2
11412,1
11413,2
11416,5
11417,1
11419,2
11424,2
11429,1
11431,2
11434,1
11435,1
11437,2
11441,1
11442,2
11443,2
11445,1
11448,2
11450,1
11451,1
11460,1
11461,2
11463,1
11467,1
11468,1
11469,1
11471,1
11473,1
11480,1
11481,1
11486,1
11490,2
11491,1
11496,1
11501,2
11505,1
11507,2
11513,1
11514,1
11515,1
11517,1
11518,2
11520,3
11524,1
11527,1
11529,1
11530,2
11532,1
11540,23
11542,3
11543,2
11547,1
11550,1
11552,5
11555,2
11557,1
11559,1
11565,2
11568,1
11577,2
11585,3
11588,2
11599,4
11600,1
11603,3
11605,3
11606,15
11607,1
11608,1
11609,2
11610,1
11616,2
11618,1
11619,1
11622,1
11626,4
11630,2
11632,4
11633,3
11637,1
11639,1
11644,1
11645,1
11648,4
11649,1
11650,8
11651,7
11658,1
11665,2
11666,2
11671,1
11672,1
11673,1
11679,1
11680,2
11681,1
11682,1
11683,1
11688,1
11689,2
11692,2
11697,1
11698,1
11699,3
11704,1
11708,1
11709,4
11713,1
11715,2
11716,2
11718,2
11722,1
11728,1
11731,3
11735,2
11750,1
11753,1
11760,5
11768,1
11769,3
11774,1
11780,2
11782,1
11784,1
11787,1
11789,1
11791,11
11793,1
11794,1
11800,1
11803,1
11806,1
11812,1
11815,1
11816,1
11818,2
11829,2
11832,1
11836,1
11837,2
11841,1
11842,1
11845,3
11847,2
11852,1
11853,5
11854,2
11855,3
11860,1
11861,1
11864,1
11869,1
11876,3
11877,1
11880,1
11884,1
11887,2
11891,2
11892,1
11893,3
11898,4
11899,1
11902,2
11904,1
11905,3
11911,2
11913,3
11914,1
11924,2
11929,1
11933,1
11935,1
11938,1
11940,1
11944,3
11945,1
11948,3
11949,1
11950,2
11951,1
11953,1
11954,3
11955,1
11959,2
11960,2
11961,1
11963,2
11964,5
11966,2
11967,1
11969,14
11970,2
11974,1
11981,1
11984,1
11988,2
11998,1
11999,3
12004,1
12005,3
12008,1
12018,1
12028,1
12029,4
12032,1
12033,1
12042,1
12044,1
12049,2
12051,2
12053,1
12057,1
12062,1
12063,4
12067,5
12071,2
12073,1
12078,3
12080,1
12084,2
12094,2
12104,1
12106,2
12109,2
12111,1
12115,1
12118,1
12120,1
12127,1
12132,1
12134,2
12135,1
12142,1
12152,1
12154,2
12160,1
12162,3
12165,2
12169,1
12176,1
12185,1
12188,1
12191,2
12194,1
12195,2
12198,2
12200,4
12203,4
12207,1
12208,2
12211,1
12219,1
12221,1
12224,2
12225,1
12227,1
12229,1
12231,1
12232,1
12235,1
12236,1
12238,3
12239,1
12241,2
12245,4
12248,4
12250,1
12251,1
12254,1
12255,2
12256,1
12258,2
12260,3
12263,1
12264,1
12269,1
12271,1
12273,1
12274,2
12276,1
12280,1
12281,1
12289,1
12292,5
12296,1
12299,2
12301,1
12310,2
12311,1
12312,3
12319,1
12321,1
12322,1
12324,15
12325,2
12326,2
12328,1
12339,1
12340,4
12341,22
12342,2
12344,1
12345,1
12352,1
12356,1
12358,1
12363,1
12364,4
12366,4
12375,2
12377,1
12378,1
12388,2
12394,6
12400,1
12401,1
12402,1
12403,1
12419,1
12422,2
12423,1
12424,1
12425,3
12437,1
12441,1
12442,2
12444,1
12449,1
12450,4
12451,2
12452,4
12458,1
12460,1
12464,5
12465,2
12468,2
12477,2
12483,1
12486,1
12487,3
12493,1
12495,1
12506,2
12507,2
12512,1
12514,2
12520,2
12524,1
12525,1
12526,1
12528,1
12530,1
12534,1
12535,1
12536,3
12537,5
12539,1
12542,3
12549,1
12556,3
12557,1
12561,2
12565,1
12568,1
12573,4
12575,2
12578,1
12584,1
12585,1
12586,1
12588,4
12589,1
12592,4
12593,3
12594,1
12595,1
12596,1
12600,1
12601,2
12602,4
12603,2
12604,1
12608,1
12609,1
12613,1
12617,2
12619,1
12623,3
12625,1
12628,1
12636,1
12642,1
12645,1
12646,1
12647,1
12653,3
12655,2
12656,1
12657,3
12660,1
12664,3
12667,2
12671,1
12672,1
12674,1
12675,2
12677,1
12679,7
12685,7
12687,1
12688,1
12690,5
12691,10
12701,2
12705,1
12706,2
12708,2
12709,1
12713,1
12715,3
12718,9
12721,1
12722,1
12725,3
12731,2
12732,1
12737,2
12739,1
12740,3
12744,4
12745,2
12746,2
12749,1
12750,2
12751,2
12752,17
12755,1
12760,1
12762,1
12763,1
12764,2
12766,1
12774,1
12775,2
12779,17
12781,1
12785,1
12788,4
12793,1
12810,1
12812,13
12813,9
12815,1
12818,3
12823,1
12825,1
12827,1
12829,7
12830,3
12831,4
12834,4
12837,5
12841,1
12843,1
12844,2
12845,1
12847,2
12851,2
12852,1
12854,2
12858,2
12860,1
12861,4
12863,1
12873,1
12876,3
12879,1
12883,2
12887,4
12894,1
12897,2
12899,1
12906,2
12920,2
12927,1
12930,2
12932,3
12934,1
12938,1
12948,2
12950,1
12952,1
12954,2
12965,2
12967,1
12969,2
12971,1
12974,1
12977,1
12981,2
12982,1
12985,1
12990,1
12991,1
12994,1
13010,2
13014,1
13015,2
13018,2
13020,3
13022,1
13026,1
13027,7
13030,3
13031,1
13034,1
13037,2
13040,1
13043,2
13044,1
13060,3
13063,2
13064,1
13068,1
13074,5
13076,4
13077,1
13078,3
13091,3
13100,22
13104,2
13109,1
13110,3
13113,1
13115,1
13117,1
13118,1
13119,1
13120,1
13123,1
13131,4
13132,1
13141,1
13142,3
13143,1
13144,1
13145,3
13146,2
13147,1
13148,1
13152,1
13153,1
13156,1
13157,1
13161,1
13165,2
13170,1
13178,1
13179,2
13182,4
13190,1
13195,1
13199,2
13200,1
13204,2
13208,2
13211,1
13217,2
13218,1
13219,1
13220,1
13222,6
13224,1
13228,2
13232,1
13235,1
13236,1
13237,1
13238,1
13239,3
13240,1
13241,4
13242,1
13245,1
13247,1
13249,12
13251,1
13252,5
13254,1
13258,1
13259,2
13261,1
13264,2
13268,1
13270,2
13274,1
13277,1
13279,1
13283,2
13286,1
13287,1
13288,1
13290,2
13292,1
13294,2
13297,1
13299,7
13300,2
13301,3
13309,1
13311,3
13314,1
13316,2
13320,2
13321,1
13322,1
13324,1
13326,1
13328,1
13329,2
13332,1
13333,1
13334,1
13335,5
13336,5
13337,2
13338,5
13350,2
13351,1
13354,4
13359,2
13360,2
13361,2
13363,2
13371,2
13374,2
13376,1
13380,1
13388,1
13392,2
13394,3
13398,2
13399,2
13402,2
13405,2
13412,2
13414,1
13415,1
13417,1
13418,1
13420,2
13421,3
13422,1
13423,2
13424,1
13426,1
13427,2
13430,2
13433,1
13437,2
13441,1
13442,1
13443,1
13444,2
13445,1
13448,1
13449,3
13453,1
13456,7
13457,2
13461,2
13462,1
13463,1
13465,1
13466,1
13469,1
13470,2
13473,2
13474,2
13477,1
13478,7
13480,1
13483,7
13486,3
13487,1
13488,2
13489,1
13490,2
13492,1
13493,4
13494,1
13500,2
13509,1
13510,1
13513,1
13531,5
13532,2
13534,3
13545,1
13548,2
13549,2
13555,2
13556,1
13558,1
13560,1
13561,1
13562,1
13569,3
13573,1
13575,2
13581,1
13590,3
13592,2
13594,4
13595,1
13599,1
13605,2
13606,3
13607,1
13613,3
13616,1
13618,3
13623,4
13628,2
13630,2
13632,1
13639,1
13641,1
13642,2
13643,6
13647,1
13648,1
13650,2
13654,1
13657,1
13660,1
13662,1
13671,1
13674,1
13675,1
13677,1
13679,1
13686,4
13691,1
13693,1
13694,1
13695,3
13696,2
13697,1
13698,5
13699,1
13700,2
13705,1
13706,7
13707,3
13708,1
13714,1
13726,3
13729,1
13733,2
13736,2
13737,1
13744,2
13745,2
13750,2
13752,1
13754,4
13755,2
13756,1
13765,1
13766,1
13769,4
13781,1
13782,1
13788,1
13792,1
13795,3
13796,1
13798,1
13804,1
13805,1
13806,1
13807,2
13809,2
13810,3
13811,2
13817,3
13819,1
13820,1
13821,1
13822,2
13826,2
13827,1
13829,4
13830,2
13832,1
13833,1
13835,2
13838,1
13839,1
13843,5
13845,1
13849,1
13852,3
13854,3
13855,1
13860,1
13861,3
13864,1
13866,1
13868,1
13869,1
13873,2
13876,1
13878,19
13880,1
13882,2
13886,1
13899,1
13901,2
13902,5
13903,3
13906,1
13909,1
13912,2
13913,2
13915,1
13918,4
13920,3
13922,1
13924,2
13925,2
13934,3
13935,1
13938,1
13939,1
13941,1
13942,2
13948,2
13950,16
13951,1
13952,1
13954,2
13957,1
13958,1
13959,1
13960,1
13962,2
13964,1
13968,1
13971,4
13972,1
13982,1
13984,3
13987,3
13988,3
13989,1
13991,2
13994,4
14006,2
14017,1
14020,2
14025,1
14026,1
14027,1
14028,1
14032,2
14034,1
14035,2
14037,4
14042,1
14043,2
14044,1
14045,1
14052,2
14053,3
14057,1
14058,1
14059,7
14065,8
14067,1
14068,1
14069,3
14071,3
14077,1
14083,1
14084,1
14087,1
14088,1
14089,1
14091,3
14093,1
14097,2
14098,1
14100,1
14102,15
14106,1
14107,1
14108,1
14109,4
14111,4
14112,1
14115,1
14116,2
14118,4
14119,25
14121,4
14122,4
14123,1
14125,2
14130,1
14132,1
14138,1
14139,1
14140,6
14141,2
14143,3
14152,1
14153,1
14154,1
14156,1
14157,2
14159,1
14163,1
14164,4
14165,5
14166,1
14167,1
14170,1
14178,1
14182,1
14184,3
14187,1
14189,2
14193,6
14195,1
14198,1
14202,1
14204,4
14205,6
14208,13
14209,3
14211,1
14214,2
14215,1
14220,4
14221,1
14222,1
14232,1
14236,5
14237,2
14239,1
14240,1
14244,2
14250,1
14254,2
14257,1
14260,3
14261,1
14262,1
14263,1
14265,2
14267,1
14275,1
14277,1
14280,2
14287,2
14288,1
14290,1
14293,1
14295,1
14302,1
14304,1
14305,1
14306,4
14307,1
14308,1
14310,2
14314,2
14323,2
14326,1
14329,1
14330,1
14331,1
14334,7
14340,1
14341,1
14343,1
14345,1
14347,2
14352,1
14353,2
14356,1
14363,5
14372,3
14376,1
14378,4
14386,3
14392,1
14398,1
14414,1
14416,1
14417,1
14419,1
14420,1
14432,1
14435,1
14445,1
14451,1
14452,1
14453,1
14456,3
14458,1
14462,1
14467,3
14470,1
14472,6
14480,1
14483,1
14485,2
14488,1
14489,1
14490,2
14494,1
14499,1
14505,2
14511,1
14517,1
14519,1
14521,1
14522,1
14523,1
14525,2
14529,1
14534,1
14535,3
14540,1
14541,1
14542,2
14543,12
14545,1
14549,1
14553,2
14556,1
14557,1
14560,1
14566,4
14570,3
14573,8
14577,1
14579,1
14580,1
14582,2
14595,1
14596,1
14599,1
14600,6
14605,1
14606,1
14607,1
14610,1
14611,5
14613,4
14614,1
14616,3
14617,3
14618,2
14619,3
14620,1
14621,4
14623,1
14626,1
14627,3
14629,3
14634,2
14637,1
14639,1
14640,1
14641,1
14647,1
14648,1
14649,1
14651,1
14652,1
14659,1
14662,4
14664,1
14668,8
14669,2
14670,2
14671,3
14672,2
14681,1
14685,1
14690,1
14691,1
14697,3
14700,1
14702,2
14705,3
14706,2
14713,2
14716,2
14735,2
14736,2
14739,2
14740,2
14741,2
14742,1
14743,1
14749,1
14756,1
14758,3
14760,1
14763,4
14764,10
14765,4
14768,1
14771,2
14772,6
14779,1
14783,1
14784,1
14787,2
14788,5
14792,1
14793,3
14794,1
14795,8
14796,1
14797,1
14798,1
14803,5
14805,2
14809,1
14810,8
14811,6
14812,12
14813,6
14814,7
14816,1
14817,2
14821,2
14823,2
14824,8
14825,1
14826,3
14828,3
14829,7
14832,4
14833,2
14834,5
14841,6
14843,1
14845,2
14848,3
14853,1
14856,1
14858,1
14860,1
14862,5
14863,4
14864,2
14867,1
14870,1
14875,1
14880,1
14883,1
14887,1
14892,1
14903,1
14907,3
14908,1
14912,1
14913,1
14915,1
14916,1
14918,2
14922,1
14925,3
14926,2
14929,1
14937,1
14938,4
14946,1
14948,1
14950,1
14951,3
14955,1
14957,1
14960,3
14962,4
14963,1
14966,2
14967,2
14975,3
14977,2
14981,1
14983,2
14984,3
14985,2
14989,2
14990,2
14991,1
14993,1
14994,23
14996,3
14999,2
15003,2
15004,1
15006,6
15007,1
15008,1
15009,2
15010,2
15013,2
15014,2
15017,5
15020,1
15021,3
15025,1
15026,3
15029,2
15036,1
15039,1
15041,2
15042,1
15045,6
15048,2
15049,1
15050,1
15053,4
15056,2
15065,1
15068,1
15069,1
15070,1
15073,1
15074,1
15075,3
15080,1
15083,1
15085,1
15087,1
15088,1
15089,1
15093,1
15094,3
15095,1
15103,2
15104,1
15106,2
15111,7
15112,2
15113,4
15114,4
15118,4
15119,7
15121,3
15123,1
15127,3
15128,3
15129,4
15131,1
15133,1
15134,1
15138,1
15139,5
15146,7
15147,6
15148,1
15149,1
15153,4
15154,2
15156,1
15157,1
15162,1
15164,1
15167,1
15168,1
15173,1
15174,1
15176,1
15178,1
15180,2
15185,1
15186,4
15195,3
15200,1
15203,1
15205,1
15206,2
15207,1
15216,1
15221,4
15222,2
15225,3
15227,1
15229,2
15230,1
15233,1
15235,5
15236,3
15239,1
15240,1
15241,1
15243,1
15246,1
15248,2
15249,1
15251,1
15256,1
15263,1
15272,1
15275,10
15276,1
15277,10
15285,2
15286,2
15289,1
15290,2
15293,1
15294,1
15295,4
15296,1
15303,5
15304,1
15306,2
15307,2
15308,1
15309,2
15313,1
15315,2
15316,1
15322,1
15323,3
15327,1
15328,2
15330,2
15333,2
15334,1
15335,1
15338,2
15341,1
15343,1
15347,1
15348,4
15353,2
15354,2
15358,2
15360,2
15365,1
15369,1
15370,1
15373,5
15374,1
15376,1
15377,1
15379,1
15385,1
15386,1
15388,1
15392,1
15403,3
15405,1
15408,1
15415,1
15417,2
15418,1
15422,1
15425,2
15430,1
15434,3
15436,1
15441,3
15442,1
15443,1
15446,1
15449,1
15450,14
15454,1
15458,1
15459,2
15460,3
15464,3
15468,1
15469,1
15473,1
15475,1
15477,1
15481,7
15482,2
15487,2
15489,1
15491,1
15500,1
15503,1
15504,2
15506,1
15517,4
15518,1
15525,1
15526,1
15531,1
15532,2
15533,1
15538,1
15539,1
15540,1
15542,1
15546,1
15547,1
15548,1
15550,19
15565,1
15566,1
15567,3
15569,1
15572,3
15576,2
15580,1
15581,2
15585,1
15588,2
15590,1
15591,1
15592,5
15593,1
15594,1
15597,1
15605,1
15607,1
15608,4
15612,1
15614,3
15618,1
15623,1
15627,1
15629,2
15633,3
15634,3
15639,1
15642,1
15646,1
15648,1
15649,2
15650,2
15651,2
15659,2
15664,1
15666,8
15667,33
15670,2
15672,1
15677,1
15679,1
15681,1
15685,1
15686,12
15687,1
15688,1
15690,4
15692,1
15695,1
15696,2
15697,1
15700,2
15702,1
15703,1
15704,3
15705,1
15709,4
15710,1
15712,5
15713,1
15716,1
15717,8
15723,1
15725,3
15726,2
15728,1
15742,3
15743,3
15744,3
15748,5
15752,2
15754,3
15756,1
15757,1
15758,3
15760,1
15761,1
15762,1
15765,2
15768,3
15769,1
15770,3
15772,1
15774,7
15777,1
15778,2
15779,1
15781,1
15782,1
15786,1
15787,1
15789,2
15792,2
15793,1
15795,1
15796,1
15799,18
15803,2
15804,4
15807,1
15816,1
15819,5
15824,1
15831,2
15835,1
15841,1
15842,2
15843,2
15850,2
15856,1
15859,1
15860,1
15865,1
15870,1
15871,1
15878,3
15883,4
15887,1
15888,1
15894,1
15897,1
15899,2
15909,1
15910,2
15914,1
15919,1
15920,1
15921,1
15923,1
15925,2
15928,3
15929,2
15930,1
15935,1
15938,1
15940,1
15946,1
15954,1
15955,1
15956,3
15958,1
15960,2
15964,2
15966,1
15968,1
15969,2
15973,1
15981,1
15983,4
15986,3
15989,2
15995,3
15996,6
15997,1
15998,1
16001,1
16003,4
16004,1
16005,1
16007,1
16008,2
16010,1
16013,1
16015,1
16016,1
16018,2
16020,1
16024,2
16025,2
16029,1
16031,1
16033,4
16034,1
16036,1
16038,3
16041,1
16043,2
16053,2
16055,2
16058,1
16060,6
16062,1
16063,1
16064,1
16067,2
16068,1
16069,2
16072,16
16075,1
16077,1
16080,1
16088,8
16094,1
16101,2
16102,2
16105,1
16107,1
16108,11
16112,3
16115,1
16116,4
16117,1
16120,2
16123,1
16124,2
16125,5
16126,1
16132,1
16133,2
16134,6
16139,1
16141,1
16149,1
16151,1
16152,1
16158,1
16161,1
16162,4
16169,3
16171,1
16172,6
16174,1
16176,3
16178,1
16182,2
16183,1
16184,4
16187,2
16190,3
16194,1
16197,1
16202,1
16207,1
16210,2
16212,1
16217,1
16228,4
16235,1
16236,1
16237,1
16239,2
16240,1
16247,1
16248,1
16249,1
16251,1
16255,1
16259,1
16263,1
16266,1
16268,1
16270,4
16272,1
16274,2
16277,5
16279,1
16282,1
16284,5
16285,2
16287,2
16290,5
16301,1
16303,2
16306,1
16312,1
16317,1
16319,2
16324,3
16325,1
16329,6
16330,1
16342,1
16344,1
16345,1
16346,1
16347,2
16348,1
16349,1
16355,1
16359,1
16362,1
16363,1
16366,1
16368,1
16379,1
16380,1
16386,1
16396,2
16397,1
16399,3
16403,2
16406,1
16412,1
16413,1
16416,1
16424,2
16436,1
16437,2
16439,2
16441,1
16442,1
16443,1
16445,1
16446,1
16448,1
16450,1
16455,1
16456,1
16457,1
16472,4
16473,3
16475,1
16476,1
16486,1
16492,1
16496,1
16502,1
16503,1
16506,2
16512,1
16518,3
16519,1
16527,1
16536,1
16541,1
16550,2
16555,1
16558,1
16567,2
16576,1
16577,1
16579,19
16582,1
16584,2
16585,1
16587,2
16589,1
16590,2
16593,1
16594,2
16597,1
16600,1
16603,3
16605,1
16609,1
16615,14
16627,3
16629,1
16631,1
16633,1
16639,4
16647,4
16648,2
16650,1
16655,2
16658,1
16660,1
16662,1
16663,3
16665,5
16669,2
16675,1
16677,2
16679,2
16687,1
16689,2
16690,1
16691,1
16692,1
16697,1
16698,2
16700,1
16704,1
16708,1
16709,2
16713,1
16721,1
16726,1
16728,1
16731,4
16733,3
16736,1
16738,3
16741,1
16742,1
16752,3
16754,2
16764,2
16765,1
16766,3
16772,1
16774,2
16777,2
16779,2
16782,3
16786,4
16787,4
16788,2
16790,1
16791,3
16793,2
16796,2
16798,2
16800,1
16805,1
16810,1
16812,1
16816,1
16819,1
16820,1
16821,3
16822,2
16823,2
16825,1
16827,1
16828,2
16831,1
16833,2
16835,2
16842,1
16843,1
16844,1
16847,3
16850,6
16851,2
16857,1
16858,1
16859,1
16860,4
16862,21
16864,1
16865,4
16869,2
16872,6
16873,1
16875,5
16876,1
16877,1
16878,2
16879,4
16881,1
16883,2
16884,2
16890,3
16897,1
16901,1
16903,1
16904,1
16905,1
16907,1
16908,1
16910,1
16915,1
16916,1
16920,1
16921,1
16927,2
16929,1
16942,1
16943,1
16950,1
16956,2
16962,5
16963,2
16969,1
16971,5
16972,1
16980,1
16981,1
16984,5
16994,2
17001,3
17003,4
17005,1
17007,1
17011,2
17012,1
17015,10
17018,1
17022,1
17025,4
17026,5
17027,1
17028,2
17030,2
17031,1
17034,2
17037,1
17038,1
17043,2
17046,2
17047,2
17051,1
17059,1
17061,1
17062,1
17063,1
17066,1
17072,1
17073,3
17076,5
17077,5
17080,1
17091,2
17096,1
17106,5
17107,6
17109,8
17110,1
17112,1
17113,1
17114,1
17115,1
17126,8
17128,1
17129,1
17131,1
17132,1
17135,4
17136,3
17137,2
17141,5
17145,1
17146,1
17147,1
17148,1
17150,4
17151,2
17153,1
17155,1
17163,1
17164,3
17165,1
17175,1
17186,1
17192,1
17194,1
17198,5
17206,1
17207,1
17208,3
17209,3
17210,3
17211,1
17216,5
17221,2
17226,12
17228,1
17230,10
17231,1
17244,3
17249,1
17250,1
17253,1
17254,1
17263,2
17266,1
17267,1
17274,2
17276,3
17277,4
17281,1
17282,3
17289,2
17290,1
17291,2
17292,1
17293,1
17294,1
17297,1
17298,6
17300,2
17301,2
17302,1
17303,5
17305,2
17306,2
17307,1
17309,3
17311,6
17313,1
17317,1
17321,1
17324,3
17326,1
17328,1
17329,2
17333,1
17334,1
17338,1
17340,1
17341,2
17348,1
17354,1
17358,1
17370,1
17386,1
17387,3
17389,3
17390,2
17394,1
17396,1
17399,1
17401,1
17402,8
17407,2
17419,3
17423,1
17434,1
17443,1
17447,6
17448,1
17449,2
17453,1
17454,4
17456,3
17457,3
17463,1
17466,4
17467,1
17468,1
17470,1
17473,1
17474,2
17475,5
17484,2
17490,1
17491,1
17493,3
17494,1
17496,1
17502,3
17503,1
17507,1
17512,2
17513,1
17514,2
17516,1
17517,1
17522,2
17526,1
17528,2
17531,1
17534,2
17535,1
17538,1
17541,7
17543,1
17546,2
17551,2
17552,2
17553,4
17554,1
17558,8
17559,1
17564,1
17572,1
17573,4
17582,2
17585,2
17587,1
17588,1
17589,4
17591,2
17592,21
17593,3
17594,1
17595,6
17596,9
17597,5
17598,6
17599,2
17600,3
17601,9
17602,8
17603,7
17604,6
17605,12
17606,11
17607,35
17608,8
17609,13
17610,10
17611,20
17612,13
17613,9
17614,4
17620,10
17621,4
17622,6
17623,1
17625,3
17626,8
17627,2
17628,1
17629,5
17630,9
17631,44
17632,2
17633,3
17635,1
17636,2
17637,2
17638,1
17639,2
17641,1
17644,2
17646,2
17647,2
17649,2
17655,1
17657,6
17658,3
17659,1
17663,3
17666,5
17667,1
17668,1
17673,1
17675,1
17677,2
17678,1
17681,3
17684,4
17686,1
17687,2
17688,9
17689,7
17691,2
17692,1
17693,1
17695,1
17696,1
17697,1
17698,1
17699,3
17701,1
17702,2
17703,1
17706,1
17707,4
17710,1
17711,2
17713,1
17714,1
17715,3
17716,2
17718,4
17722,2
17723,8
17724,2
17726,4
17727,7
17728,1
17729,2
17730,2
17731,1
17732,1
17733,5
17734,1
17735,1
17736,1
17738,1
17739,2
17741,4
17744,1
17746,5
17747,2
17749,1
17750,1
17752,5
17753,2
17754,3
17755,1
17757,2
17760,1
17761,1
17763,4
17764,10
17767,1
17768,5
17769,5
17770,8
17771,7
17772,2
17773,10
17774,5
17775,13
17776,6
17777,7
17778,4
17779,10
17780,6
17781,5
17782,4
17783,2
17784,4
17785,8
17786,4
17787,3
17788,7
17789,15
17790,3
17791,1
17793,4
17794,4
17795,2
17796,7
17797,2
17798,22
17799,2
17800,2
17801,9
17802,4
17803,12
17804,22
17805,9
17806,21
17807,2
17810,7
17814,1
17815,1
17816,2
17817,3
17819,69
17822,1
17824,1
17825,4
17826,2
17827,2
17829,4
17830,1
17831,3
17835,1
17836,4
17837,3
17840,2
17841,1
17843,2
17849,1
17851,1
17852,2
17854,1
17855,1
17856,6
17857,3
17863,1
17864,4
17867,2
17869,2
17873,2
17874,1
17875,2
17876,4
17882,1
17885,5
17887,1
17889,1
17891,8
17892,1
17893,17
17895,3
17896,1
17897,5
17898,2
17899,7
17900,13
17901,1
17903,1
17904,1
17905,1
17908,5
17909,18
17911,5
17913,8
17914,7
17915,1
17916,2
17918,5
17920,2
17922,5
17923,3
17927,3
17931,1
17932,1
17933,1
17934,1
17936,1
17937,4
17938,1
17940,2
17941,1
17942,1
17945,4
17946,1
17947,1
17949,3
17951,7
17952,8
17953,4
17955,4
17956,1
17957,2
17958,2
17959,1
17962,2
17963,3
17965,3
17966,5
17967,3
17968,1
17969,2
17971,1
17972,1
17973,4
17974,1
17980,3
17981,3
17982,1
17984,3
17985,3
17987,1
17988,3
17990,2
17993,2
17994,3
17998,2
17999,2
18002,3
18008,2
18011,3
18012,3
18013,2
18017,1
18019,1
18020,1
18023,1
18024,1
18029,1
18030,1
18031,5
18032,1
18033,3
18034,1
18037,1
18038,5
18039,1
18040,1
18041,3
18042,2
18043,2
18047,3
18048,1
18049,3
18051,3
18053,3
18054,6
18056,1
18059,1
18060,1
18061,3
18062,19
18063,8
18064,2
18066,3
18074,1
18076,1
18080,1
18088,2
18090,1
18091,20
18092,8
18094,1
18095,8
18099,7
18101,12
18105,5
18106,9
18109,5
18111,1
18112,22
18114,2
18115,1
18117,1
18120,9
18121,2
18122,1
18123,2
18124,8
18125,6
18127,2
18128,7
18129,6
18130,9
18131,13
18132,4
18133,27
18134,9
18136,3
18137,5
18139,4
18145,2
18146,2
18147,4
18148,36
