name,counts
183,134
184,181
185,44
186,77
187,371
188,68
190,247
191,159
194,159
195,281
196,14
197,337
198,133
199,55
200,11
201,7
202,14
203,11
204,25
205,15
206,22
207,6
208,33
209,11
210,29
211,19
212,16
213,14
214,13
215,41
216,19
217,23
218,7
219,38
220,9
221,8
222,5
223,11
224,9
225,6
226,13
227,25
228,16
229,15
230,15
231,23
232,13
233,10
234,31
235,13
236,6
237,2
238,6
239,7
240,59
241,46
242,24
243,18
244,27
245,13
246,17
247,12
248,3
249,2
250,4
251,5
252,3
253,11
254,2
255,15
256,2
257,5
258,6
259,11
260,5
261,2
263,6
264,6
265,4
266,4
267,7
268,5
269,3
270,7
271,11
272,7
273,1
274,4
275,8
276,5
277,14
278,7
279,65
280,6
281,9
282,21
283,21
284,15
285,9
286,11
287,3
288,6
289,8
290,3
291,5
292,5
293,3
294,4
295,12
296,14
297,11
298,7
299,4
300,5
301,2
302,1
303,3
304,9
305,10
306,4
307,8
308,2
309,15
310,4
311,10
312,5
313,13
314,18
315,6
316,4
317,5
318,3
319,5
320,7
321,4
322,8
323,16
324,8
325,3
326,2
327,1
328,6
329,2
330,4
331,2
333,2
334,10
335,1
336,5
337,4
338,3
339,1
340,4
341,2
342,9
343,13
344,8
345,16
346,12
347,9
348,9
349,3
350,26
351,22
352,4
353,9
354,2
355,12
356,2
357,4
358,5
359,12
360,14
361,3
362,7
363,3
364,3
365,3
366,4
367,3
368,7
369,1
370,2
371,2
372,1
373,3
374,7
375,6
376,3
377,3
378,7
379,4
380,1
381,2
382,13
383,4
384,5
385,1
386,2
387,5
388,9
389,2
390,2
391,11
392,15
393,14
394,8
395,5
396,27
397,6
398,3
399,4
400,3
401,2
402,7
403,3
404,19
405,4
406,11
407,5
408,11
409,2
410,10
411,6
412,4
413,9
414,1
415,9
416,7
417,9
418,6
419,1
420,7
421,11
422,7
423,11
424,3
425,7
426,2
427,5
428,3
429,3
430,14
431,11
433,5
434,24
435,7
436,7
437,2
438,8
439,2
440,3
441,7
442,39
443,3
444,5
445,9
446,2
447,12
448,2
449,170
450,9
451,7
452,4
453,15
454,7
455,11
456,5
457,11
458,8
459,6
460,4
461,1
462,1
463,3
464,3
465,9
466,8
467,2
468,7
469,1
470,6
471,6
472,9
473,3
474,7
475,3
476,4
477,4
478,8
479,3
480,21
481,6
482,15
483,3
484,5
485,15
486,2
487,3
488,1
489,1
490,3
491,4
492,4
493,5
494,2
495,3
496,5
497,17
498,9
499,9
500,5
501,21
502,12
503,5
504,12
505,5
506,1
507,3
508,9
509,13
510,19
511,3
512,5
513,7
515,5
516,5
517,2
518,18
519,5
520,4
521,3
522,10
523,14
524,3
525,3
526,3
527,6
528,18
529,7
530,1
531,8
532,1
533,8
534,2
535,3
536,3
537,2
538,3
539,6
540,29
541,2
542,5
543,10
544,1
545,5
546,12
547,2
548,5
549,8
550,9
551,9
552,2
553,38
554,3
555,8
556,1
557,8
558,5
559,5
560,5
561,16
562,3
563,1
564,2
565,9
566,19
567,29
568,5
569,4
570,7
571,25
572,6
573,3
574,13
575,1
576,17
577,8
578,2
579,7
580,8
581,25
582,5
583,7
584,5
585,5
586,4
587,3
588,17
589,3
590,1
591,3
592,5
593,2
594,7
595,12
596,8
597,8
598,3
599,1
600,11
601,9
602,14
603,7
604,20
605,6
606,4
607,8
608,11
609,3
610,7
611,9
612,7
613,6
614,2
615,5
616,1
617,3
618,8
619,5
620,4
621,3
622,1
623,6
624,4
625,9
626,7
627,3
628,4
629,9
630,4
631,8
632,20
633,10
634,8
635,2
636,7
637,17
638,5
639,7
640,11
641,8
642,12
643,21
644,6
645,8
647,17
648,8
649,6
650,3
651,9
652,6
653,44
654,7
655,9
656,3
657,10
658,4
659,16
660,8
661,3
662,4
663,4
665,5
666,7
667,4
668,2
669,9
670,1
671,8
672,10
673,10
674,13
676,20
677,25
678,26
679,16
680,1
681,1
682,8
683,3
684,4
685,11
686,8
687,1
688,2
689,33
690,10
691,20
692,5
693,8
694,5
695,13
696,6
697,5
698,9
699,7
700,2
701,3
702,1
703,46
704,3
705,28
706,32
707,6
708,8
709,5
710,6
711,9
712,1
713,4
714,13
715,3
716,4
717,1
718,1
719,12
720,9
721,4
722,4
723,1
725,12
726,4
727,5
728,4
729,8
730,16
731,10
732,24
733,20
734,12
735,19
736,8
737,6
738,4
739,8
740,11
741,29
742,4
743,6
744,10
745,20
746,9
747,12
748,10
749,17
750,17
751,8
752,13
753,6
754,1
755,4
756,6
757,5
758,7
759,3
760,6
761,13
762,4
763,5
764,3
765,10
766,4
767,14
768,4
769,35
770,9
771,2
772,7
773,23
774,7
775,10
776,6
777,2
778,17
779,3
780,7
781,5
782,5
783,7
785,12
786,4
787,3
788,1
789,3
790,7
791,6
792,5
793,2
794,8
795,3
796,3
797,1
798,7
799,6
800,7
801,8
802,5
803,7
804,11
805,3
806,3
807,6
808,2
809,7
810,8
811,8
812,21
813,7
814,3
815,7
816,3
817,1
818,4
819,8
820,20
821,9
823,2
824,6
825,7
826,15
827,16
828,7
829,9
830,3
831,2
832,6
833,12
834,3
835,5
836,2
837,16
838,4
839,16
840,2
841,5
842,4
843,8
844,4
845,4
846,11
847,4
848,12
849,5
850,7
851,3
852,3
853,9
854,6
855,3
856,4
857,3
858,11
859,8
860,3
861,1
862,12
863,2
864,1
865,4
866,5
867,2
868,4
869,3
870,2
871,1
872,3
873,6
874,7
875,10
876,1
877,2
878,6
879,5
880,21
881,4
882,15
883,4
884,3
885,6
886,10
887,9
888,5
889,13
890,8
891,4
892,4
893,3
894,6
895,5
896,6
897,11
898,11
899,3
900,2
901,5
902,3
903,21
904,2
905,7
906,8
907,8
908,3
912,5
913,8
914,3
915,19
916,4
917,26
918,6
919,7
920,8
921,11
922,6
923,3
924,9
925,19
926,4
927,7
928,9
929,11
930,15
931,3
932,15
933,2
934,3
935,8
936,5
937,3
938,3
939,5
940,8
941,8
942,2
943,6
944,13
945,19
946,16
947,30
948,20
949,3
950,17
951,10
952,23
953,13
954,4
955,8
956,5
957,9
958,6
959,8
960,6
961,4
962,1
963,7
964,21
965,14
966,12
967,3
968,4
969,5
970,1
971,2
972,5
973,5
974,7
975,4
976,4
977,2
978,6
979,7
980,6
981,3
982,11
983,8
984,3
985,3
986,7
987,5
988,6
989,7
990,14
991,2
992,2
993,16
994,12
996,10
997,9
998,9
999,8
1000,45
1001,5
1002,13
1003,6
1004,3
1005,5
1006,2
1007,4
1008,4
1009,16
1010,9
1011,13
1012,9
1013,18
1014,2
1015,4
1016,14
1017,43
1018,10
1019,10
1020,6
1021,19
1022,7
1023,9
1024,21
1025,6
1026,5
1027,19
1028,4
1029,15
1030,20
1031,7
1032,8
1033,7
1034,16
1035,13
1036,7
1037,16
1038,18
1039,6
1040,18
1041,21
1042,4
1043,27
1044,13
1045,19
1046,11
1047,15
1048,22
1049,20
1050,19
1051,12
1052,10
1053,23
1054,17
1055,12
1056,59
1057,227
1058,228
1059,19
1060,37
1061,34
1062,26
1063,55
1064,108
1065,97
1066,58
1067,142
1068,49
1069,28
