ID,counts
32768,2
32769,1
3,20
4,10
5,9
6,10
7,3
10,1
11,9
12,3
13,9
14,6
18,6
32787,5
22,1
25,1
32795,1
32796,3
33,3
34,1
32803,1
32808,1
41,2
43,2
44,1
45,2
32814,1
49,1
51,2
32821,9
32822,6
32823,1
60,1
61,1
65,1
66,1
68,2
69,12
32838,20
32839,2
32840,6
32846,1
79,1
80,3
32849,3
82,1
84,3
86,7
87,1
32857,1
90,1
32859,1
94,2
98,1
100,1
102,1
32871,11
104,7
105,3
32874,1
32876,1
32786,1
111,3
112,5
113,9
114,5
32883,2
118,4
123,1
32892,4
32895,1
128,1
131,2
132,3
133,2
134,5
135,3
137,3
32906,1
141,1
142,2
143,1
144,9
32914,5
32918,1
152,6
154,4
155,2
161,7
32932,2
165,3
167,4
32937,3
174,3
32943,2
176,3
177,9
32947,1
32948,1
181,4
32951,3
184,3
190,1
191,3
193,3
194,1
32966,2
32967,1
32968,1
201,7
202,1
205,2
32976,2
32977,2
210,2
211,7
212,3
215,3
32984,1
217,1
32986,2
220,54
32989,4
32990,1
225,1
32994,1
227,1
32996,1
229,1
230,12
231,3
33001,1
235,4
33004,1
238,1
239,2
33012,1
33013,2
246,4
33015,1
248,11
33017,1
33020,1
255,3
32811,1
33031,1
264,2
265,2
266,2
267,1
268,2
270,2
273,2
275,1
33044,5
33045,10
33046,11
33047,9
280,2
33049,7
33050,4
33051,18
33052,7
33053,2
286,19
33056,7
33057,1
33058,2
33064,1
33068,1
303,4
33073,1
306,4
32819,1
308,1
33078,2
311,2
33081,23
33082,3
315,1
33084,3
317,1
320,1
322,1
323,1
324,3
325,2
326,2
33095,1
329,4
330,1
331,1
335,3
339,1
340,1
33109,2
33110,25
33111,3
346,2
347,3
348,7
349,2
350,1
354,2
33123,3
359,1
360,1
361,2
362,1
363,1
33132,2
33133,11
366,3
367,1
33137,1
370,1
371,2
33142,1
376,1
33145,1
380,1
382,3
387,2
395,1
397,3
399,1
401,3
402,1
403,1
405,1
33176,2
33179,1
413,1
415,2
419,5
423,3
33192,1
426,1
431,1
433,2
33202,1
33203,1
436,2
33205,1
33206,1
439,1
33209,2
442,1
443,3
33214,1
447,1
449,3
33218,2
451,1
33220,1
453,1
455,5
458,4
460,5
468,1
33248,1
485,1
486,3
487,3
488,3
489,1
490,2
491,3
33260,2
32850,1
494,2
33263,1
503,2
505,3
33275,1
33278,1
33279,1
33280,2
518,2
33288,1
33290,3
33294,4
528,1
530,1
532,3
33304,1
537,1
540,2
33310,1
543,3
544,3
545,1
33314,1
547,1
33316,2
33317,1
33321,3
33324,1
562,1
565,3
33334,3
33335,1
33339,1
33341,1
33344,2
579,3
33348,4
33349,1
33351,1
585,1
587,5
588,2
590,3
591,5
592,1
594,1
33366,1
33368,1
601,2
603,1
33372,1
605,1
606,1
33376,1
609,1
612,1
33383,1
33385,1
620,2
32872,2
627,2
629,1
630,1
631,2
33400,2
33404,1
638,1
33407,1
641,1
33410,1
643,1
33412,1
645,1
646,1
33416,1
651,2
653,2
32877,1
656,1
661,1
662,2
33431,2
664,1
32879,1
669,2
32880,1
675,1
32881,1
33450,1
33452,2
685,2
686,2
33455,2
33456,2
33457,3
690,1
694,1
698,1
699,1
33470,3
703,1
708,7
709,4
710,10
711,10
712,16
713,10
714,18
715,3
717,2
718,26
719,1
722,3
723,3
33492,3
726,1
33495,1
729,1
730,3
731,1
733,2
735,1
736,4
33507,1
33509,1
742,1
743,1
33513,1
33515,1
748,1
754,1
759,1
761,2
127,1
33534,1
768,1
769,1
33538,2
776,1
777,3
778,36
779,6
781,7
783,2
784,2
785,2
787,1
33556,1
789,26
790,12
791,25
794,1
33563,1
796,2
797,1
798,2
800,1
801,1
33570,2
33571,1
32902,1
33575,2
808,13
809,10
810,3
33579,1
812,13
813,6
814,8
33583,1
816,8
817,8
818,3
819,1
820,1
821,1
822,4
823,2
824,3
826,5
33596,1
829,3
832,3
33601,1
835,1
837,2
33606,1
840,1
841,4
842,4
843,1
844,1
846,5
847,1
848,8
851,1
32910,1
33623,1
856,1
857,3
33626,1
860,1
861,1
33630,2
33631,1
864,1
32912,2
867,1
33636,2
33637,1
33638,1
874,1
33644,1
877,1
880,1
882,1
33652,4
33653,4
33654,1
33655,3
888,1
33658,1
892,1
33661,2
33662,1
150,1
903,1
33672,1
907,1
33680,2
914,1
33684,1
33685,2
33689,5
33690,4
33694,2
33695,1
928,1
930,2
931,1
33705,1
941,3
33715,1
33719,1
952,3
33722,1
957,1
33727,3
33731,1
33733,1
33734,1
968,2
33737,1
33739,6
972,1
33741,5
979,1
980,1
33752,2
33754,1
33759,1
992,5
33763,1
1003,2
33782,1
1021,1
1029,2
1030,3
1033,1
1034,1
33803,1
33804,1
33806,1
33808,1
1041,5
33813,2
1049,1
1050,1
175,1
33820,2
1055,5
33824,1
33827,2
1061,1
33830,1
33832,5
1067,5
1069,2
33838,1
33841,1
1074,1
179,1
1080,1
1089,7
1090,1
1093,2
1094,4
1099,1
1102,2
1105,3
1106,2
1108,1
1109,2
1124,1
1129,1
1137,3
32958,1
1143,1
1146,7
1147,1
1150,7
1151,1
1152,1
1153,5
1156,5
33928,1
1161,1
1163,3
1169,2
1171,1
33942,1
1175,1
33946,1
33950,3
33952,1
1186,2
1187,1
33957,1
33959,7
1192,2
1194,4
1196,3
33965,3
33966,2
1201,2
1206,1
33975,1
1208,6
33979,1
1212,1
33981,1
1214,2
33983,1
1218,1
33989,1
1223,1
1226,2
32973,1
1234,1
1236,1
34010,1
1243,2
1245,1
209,1
1257,1
1259,1
34031,1
33867,1
32979,1
1268,1
34037,1
34039,1
1272,6
34042,1
1275,1
1284,1
32983,1
1292,1
1293,1
34062,1
216,8
1298,1
34068,1
34069,2
1303,1
34072,1
1306,1
34075,1
1309,1
34079,4
1314,2
1315,3
34084,2
34088,9
32988,1
1323,2
34095,1
1328,2
1329,3
1331,1
1333,2
34104,3
34105,2
1341,1
34113,1
1346,5
34117,1
34119,2
1352,1
34121,1
34122,1
34127,1
34133,1
1369,1
1376,2
1377,1
34148,1
1387,1
34157,5
34158,5
34160,1
1394,1
1395,6
1396,7
34165,2
1399,1
1400,1
33003,3
236,3
1419,5
1423,1
1424,4
1425,1
34194,2
1427,2
1434,2
34204,1
1437,2
1440,1
1441,4
1446,3
1447,6
34219,1
1452,1
1454,1
34229,1
1463,5
1468,1
1469,7
1473,1
1475,1
34245,2
1478,2
1479,3
1480,2
1482,1
34251,1
34254,1
1490,1
1491,4
1492,1
249,1
1497,3
34267,1
1500,1
1501,1
1503,1
1506,3
1507,1
1508,1
1509,1
34280,2
1514,2
1516,4
34288,1
1521,1
34293,3
1529,1
1531,1
1532,1
1536,4
1537,6
34306,1
1540,1
1541,1
1542,3
1546,3
1555,1
1556,2
1558,3
1560,3
34332,4
1567,1
1568,3
1569,1
1574,1
34343,1
1577,2
1578,1
1580,2
1584,1
34356,1
1589,1
1594,6
1597,2
34366,1
1599,10
1600,2
1602,3
1607,1
1609,2
1610,2
1611,3
1612,1
1613,1
34382,2
34383,1
34385,1
1618,3
34392,1
1626,1
1627,2
1631,3
1634,1
1635,8
1637,3
1643,1
1644,1
1645,1
1646,3
1647,1
33043,12
1655,1
34424,2
1658,2
1659,1
1661,4
34436,6
1669,1
34439,2
1674,1
1675,1
34445,1
1678,2
33048,4
1683,1
1684,1
1685,1
1690,4
34460,1
34463,1
1696,5
1701,1
34470,1
34471,2
34472,1
1708,1
1712,1
34481,2
33054,3
34486,1
1720,1
1721,1
1722,4
1725,2
1726,2
1727,4
1728,1
34498,2
1737,2
1739,2
1744,1
34518,4
1754,2
1756,4
1759,1
34532,3
1767,2
1769,1
34539,1
1772,1
1776,1
1777,2
1783,1
1784,6
1785,1
1786,1
1789,1
1790,3
1791,14
1793,5
34562,2
1797,18
1799,2
1801,2
1803,3
1804,1
1805,14
1806,1
1807,13
1808,1
1809,1
1810,2
1813,1
1814,7
1815,5
1816,5
34585,1
1818,6
1821,1
1822,5
1823,10
1824,8
1825,2
1826,6
1827,4
1828,1
1830,1
305,2
1832,3
1834,3
1835,2
1837,1
34606,1
34607,2
34608,2
1843,44
1844,130
1845,58
1846,30
1847,106
1848,101
1849,121
1850,104
1851,64
1852,97
1853,60
1854,25
1855,50
1865,29
1866,73
1867,29
1868,90
1869,70
1870,41
1871,37
1872,125
1873,27
1874,64
1875,2
1877,6
1878,8
1879,1
1880,1
1881,6
1882,1
1885,2
1886,10
1887,1
1889,1
1890,1
1891,3
1892,1
1893,4
1894,2
1895,1
1896,1
1897,3
1898,6
34667,1
1900,1
1901,2
1902,1
1903,14
1904,4
1905,1
34674,1
1908,3
1910,1
1911,1
1912,6
1913,10
1914,1
1915,3
1916,10
1917,8
1920,1
1921,2
34696,5
1929,15
1931,2
1933,6
1936,1
34706,2
1939,2
1940,11
1941,5
1942,3
1943,6
1944,2
1946,1
34715,3
34716,1
1949,1
1950,1
1951,3
1952,1
1954,1
34724,16
1957,4
1958,1
34727,6
34728,1
34729,2
34732,1
1965,1
1970,2
1972,1
33097,2
33098,2
34750,1
34751,1
1985,1
1989,1
1991,1
34762,1
2000,1
34772,2
2005,3
34774,1
33103,3
34780,1
2016,1
2017,5
2018,2
2020,1
2024,1
34797,1
2030,1
34800,1
2036,1
34808,1
2049,1
34818,1
2052,2
342,4
34823,1
34826,1
34829,2
34831,1
2064,1
2077,1
34846,1
34848,1
2084,1
2085,2
2088,1
33116,1
34859,1
34860,7
2095,1
2096,1
2101,1
34874,1
2109,1
2113,1
2120,1
2122,1
2126,1
34899,1
2134,1
2137,2
2140,2
34909,1
2153,1
2155,1
2156,11
2157,3
2166,5
34939,1
34942,1
34946,2
2180,1
2182,1
2183,1
364,1
2186,1
34957,4
34958,2
365,1
2198,2
34968,1
34970,1
34972,5
34974,1
2207,1
34981,1
2214,2
2216,1
2218,1
34987,2
34988,4
2223,1
2227,1
2228,1
2229,2
2230,5
2235,2
2236,1
35005,3
35006,1
35011,1
2244,1
2248,4
35018,1
2256,4
2264,1
35037,2
35039,1
35041,1
35042,4
2275,12
2276,2
2277,6
35048,1
35053,1
35055,1
35059,1
35067,1
2308,2
35077,1
35078,1
2313,7
2314,2
2317,1
35089,1
2323,1
35094,2
2328,1
2334,1
35106,1
35107,2
35108,1
35115,1
35120,2
35121,1
2360,4
2362,4
2363,1
35134,1
2367,1
35144,1
35150,1
2387,1
2388,2
35158,1
2391,1
35160,1
2394,1
2399,1
2401,1
35176,1
2409,1
2410,1
2411,1
35182,1
35187,2
2421,1
2426,1
2427,1
2429,1
35198,2
33173,1
35201,1
2438,1
2439,1
35211,3
35213,1
2448,1
35220,1
35224,1
35226,1
2459,1
35228,1
2463,1
35232,1
2465,1
35234,1
35235,1
35236,1
2470,2
35239,1
35241,3
2474,1
35244,1
35245,2
2479,2
2480,2
2482,1
2487,1
35256,1
2495,3
2499,1
2500,2
2502,1
35271,1
35277,1
35278,1
2511,2
35289,1
2523,1
35296,2
35299,1
35300,3
35301,1
2534,3
35308,1
2543,1
2550,2
35326,1
2562,1
2568,1
2574,2
2575,1
2577,1
2581,2
2582,2
35361,2
2602,1
2603,1
35375,1
2610,1
435,6
35381,1
35389,1
2624,1
2627,3
35397,1
35398,1
2635,2
35405,3
35413,2
35414,1
2647,3
2649,1
35420,1
35429,1
35434,1
2668,2
35441,1
35444,2
2677,1
35446,1
35450,1
35454,2
2691,1
35462,1
35465,2
35468,3
35471,1
2715,3
35487,1
35491,1
2727,2
2728,1
2730,2
2733,2
35502,1
35509,2
35510,1
2748,3
35527,1
35530,1
35536,1
35541,1
35542,1
35546,1
35548,1
35553,1
2786,1
35558,1
35563,1
2796,2
35566,1
35567,1
35570,4
35571,1
2807,1
35581,1
35582,1
2816,1
35588,1
35590,2
35593,2
35594,1
35595,1
2831,1
35600,4
35601,2
35604,1
35607,2
2841,2
35613,1
35619,1
35624,1
35625,2
35630,2
2865,1
2887,1
35656,1
35658,1
35659,1
2894,1
2895,2
2897,3
35676,4
33254,6
35689,1
35691,2
2924,1
35693,3
2929,2
2930,1
2933,2
2934,1
35708,2
2943,1
2947,1
2952,1
35722,3
2961,1
35731,1
35735,1
35738,1
35748,1
35768,2
35774,1
3009,7
3012,4
35783,1
35785,1
35786,1
33271,1
3022,1
3023,1
35792,1
35795,1
35803,1
3045,1
35822,1
3057,9
35826,3
35834,1
35835,1
35836,1
3069,2
35839,1
3076,1
35854,1
3095,1
3103,1
3104,2
3107,2
35876,1
33286,1
35881,2
3114,3
35884,1
35885,1
3118,2
3121,5
3127,1
35898,1
35899,1
35901,1
3135,3
35907,1
35908,2
3141,1
3145,4
3147,2
35916,1
35918,3
35923,4
35925,1
3159,3
35928,4
35929,1
3165,3
35935,1
35936,1
3169,1
35945,2
35949,1
35950,1
35954,1
3188,1
35958,1
3192,1
3193,2
3195,2
3196,2
3198,1
3199,2
3201,5
3203,2
3205,2
3206,1
3207,1
35982,1
35990,1
35993,1
35995,1
3235,1
3239,1
33308,1
3252,11
36023,1
36026,2
36027,1
3261,1
3268,1
36037,1
3273,3
3274,1
3279,3
36048,2
3282,4
33315,1
3291,1
3294,1
549,2
36068,1
3301,1
3302,6
36072,1
3305,1
36082,2
36084,1
3317,1
3318,1
553,2
36089,6
3323,1
36100,7
3335,2
3342,1
3343,2
36114,3
3349,3
3357,1
36129,1
3362,1
3364,1
36133,1
3370,2
36142,1
3375,1
3380,2
3386,1
3388,5
3389,3
566,3
3398,1
3401,1
36171,1
36174,2
36175,1
36176,4
36177,1
36180,1
36182,1
3419,1
36189,5
3422,1
3423,2
36193,1
571,1
36200,2
36204,1
3438,1
36207,8
36209,1
36212,1
3446,1
36215,2
36216,1
36217,2
36218,1
36219,3
3452,1
36222,2
36223,2
3460,1
36232,1
3469,1
36239,2
36248,4
3481,1
3483,1
3489,1
3492,3
3498,1
36268,1
36269,1
36273,1
3507,2
36276,2
36277,1
36282,2
36283,7
3516,4
36288,2
3522,2
3523,2
36292,1
3525,2
36294,2
3527,1
3530,1
36300,1
3533,1
3537,2
3542,2
36311,1
3546,1
36315,1
3549,3
36319,1
36320,1
36322,2
36324,1
3557,1
36327,2
36329,1
36330,1
3564,2
3565,1
36335,1
3568,1
3569,3
3570,1
3571,4
36345,1
3582,1
3583,2
36352,1
36355,4
598,1
36358,1
36359,1
36361,3
36364,1
36370,2
36374,1
3609,1
3611,1
36382,2
3617,3
36386,1
604,1
36394,1
36398,1
36401,1
3635,1
3636,2
3637,1
36417,1
36419,1
36421,2
3654,3
36426,1
36429,1
36431,1
36434,1
3672,1
3674,1
36446,1
36448,2
3681,1
3683,2
36453,2
36459,2
36461,3
36467,3
36471,1
36472,5
36473,1
3706,4
3707,2
36476,1
36482,1
3716,1
3721,1
36494,1
36496,1
124,1
3735,3
3739,2
36513,1
3746,1
36516,1
36517,1
36521,1
3759,1
36531,1
3764,2
36537,1
36538,1
3774,1
36551,1
36557,9
3791,2
36560,1
3794,3
3796,2
36565,2
36567,1
3801,1
3802,1
2309,1
3815,3
3816,7
36586,1
36587,1
36589,4
3823,1
3824,1
36593,1
36595,1
36598,1
3832,1
3835,2
36608,4
36610,2
3844,3
32862,1
3854,1
3858,1
3861,2
3862,2
36631,4
36632,1
3865,1
36634,1
3867,1
3868,3
3881,1
36650,1
36651,2
3884,2
36654,1
36656,4
3890,1
36664,5
3897,1
3899,1
3901,1
3902,1
36672,2
36673,3
3906,1
36676,1
36677,1
3913,1
3917,2
3920,2
3922,3
36695,1
36697,8
3930,1
3932,1
36702,1
36703,1
3936,1
3938,6
36709,2
36711,1
36713,1
3946,1
36723,1
36727,1
36729,1
36730,1
3964,1
36734,5
36737,1
36738,1
36740,1
3976,1
3978,2
36747,2
36748,1
36753,1
3990,3
3991,5
36761,1
36766,1
4003,3
4004,1
4008,4
36778,2
4011,1
4015,1
4018,1
36788,1
36792,3
4029,1
36798,1
4031,1
36801,3
4037,2
36810,2
4043,2
36815,1
4049,1
4051,2
4054,2
4055,1
4057,2
4059,2
36829,2
36831,1
36833,1
4066,1
36842,3
36843,3
36847,3
4080,1
36850,1
36855,6
36860,8
4094,2
4095,2
4096,1
4098,4
36867,1
4103,1
4104,3
4105,2
4107,2
4108,2
4110,4
36879,1
4114,4
36884,1
4120,2
4121,1
4122,2
4123,1
4126,1
4129,1
4132,1
4133,1
36903,1
4137,1
4143,2
36912,3
4146,1
4147,1
36918,1
4151,1
4152,2
36923,1
36924,1
36925,2
4158,2
36928,1
36929,1
36932,1
4166,1
36935,1
36936,1
36939,1
36940,1
36941,1
4176,1
4182,2
4185,1
36954,1
4187,1
33466,1
4192,1
36961,1
33467,3
36964,1
4197,2
36971,2
36972,1
4206,1
4207,3
36983,1
4222,1
36991,1
36993,1
36994,4
4229,1
4233,3
4234,1
4235,1
37005,1
37006,1
4243,2
4247,2
37016,2
37018,1
37019,1
37021,1
37023,1
37029,2
4262,1
37032,1
37034,2
33479,9
4276,1
4278,1
4281,3
4287,1
4289,1
4294,1
37065,1
4300,1
37069,3
37070,1
37073,1
37076,1
11641,1
37080,1
4314,2
37083,2
4317,2
37086,2
37087,1
4324,1
37095,3
4328,1
37099,3
37101,1
37102,1
37103,1
4339,1
4340,1
37109,1
4342,2
4344,2
37113,2
4355,1
4360,2
37130,7
37132,1
37133,1
37136,1
37137,1
4370,2
37139,2
4377,1
37147,1
37148,1
37149,1
37154,2
4390,1
37160,1
4395,2
37166,1
37169,2
37170,1
37173,2
37176,1
4410,2
37179,1
37184,1
4422,1
37197,1
4430,8
4431,1
37200,21
37201,4
37203,1
37206,2
37207,5
37209,8
4442,1
37212,2
37216,3
37217,3
37218,1
37221,1
37223,3
37232,2
37236,1
37239,4
4472,1
4474,5
37243,2
4478,2
37247,1
37248,4
4483,2
37252,1
4485,1
37255,2
4492,1
37266,2
4500,1
37269,1
4503,1
4505,1
37275,1
37277,1
37280,6
4513,1
37282,1
37284,8
37286,1
37287,8
37288,14
37289,1
37290,1
4523,1
4525,1
4526,2
37296,9
37297,1
37298,2
4533,1
37302,2
4536,1
37305,2
37309,5
4542,1
37312,1
37313,1
4546,11
37317,1
4551,4
37320,4
4554,1
37323,5
37324,1
37325,4
37326,8
37327,2
37328,5
4563,1
4564,1
37334,1
37335,1
37338,1
37340,5
32886,1
37342,4
37343,1
37344,1
37345,1
4578,3
4579,1
4580,1
37351,1
37354,2
4593,2
37364,1
37365,3
37366,1
37376,1
37382,1
37384,2
37387,1
37388,1
37390,1
37393,4
37394,4
37395,4
37397,1
4630,1
4632,1
37402,2
37409,2
37411,10
37412,1
37413,3
37414,1
37415,2
4649,1
37420,1
4655,2
37424,1
37427,1
4663,1
37434,2
37435,2
4676,2
37447,3
37450,1
33549,1
37457,1
4692,1
37461,2
4698,2
37468,2
4703,2
37474,1
37476,2
4710,1
37481,2
37482,1
37485,2
4719,1
37490,1
37492,2
788,4
4731,1
4732,1
37502,3
37506,4
4740,1
33558,1
4742,1
37512,1
4745,23
4746,2
4747,4
37517,3
4754,1
4755,3
4757,1
4758,1
37531,1
4765,1
4766,3
37535,1
4771,2
37545,5
37546,1
37550,1
37553,1
4787,1
33566,1
4795,1
37569,1
37571,1
4805,3
4810,1
4812,1
37584,1
37587,2
4822,1
37592,1
37593,1
4826,3
37595,16
4828,2
37599,1
37601,2
37602,2
4835,1
37606,1
37608,3
37614,1
37618,1
37620,6
37621,2
37624,1
37627,1
37628,2
37629,17
37631,3
4864,1
37633,1
37634,1
37636,1
37638,3
4872,1
33580,1
37642,3
4875,2
37644,2
4877,1
37646,4
37647,1
37648,1
37649,4
37650,1
33582,2
4886,1
37656,1
37657,3
815,2
37662,1
37664,1
4897,2
4901,30
37678,16
37679,1
37680,2
37681,2
37682,2
37683,5
37690,2
37691,2
37694,1
37696,2
37701,6
37702,12
4936,1
37708,3
37711,1
37713,5
37716,1
4952,1
37721,1
37723,1
37728,2
37729,1
37730,1
4968,9
4971,1
4975,1
37748,10
37749,1
4992,1
4993,1
37765,2
37766,1
5004,2
5005,1
5006,1
37775,5
5008,1
37778,1
37780,3
37781,2
37782,3
5018,1
37788,1
5022,2
37793,1
37795,1
37796,2
838,1
5032,1
37803,6
37804,3
37807,1
37808,1
37810,1
37811,3
5048,1
5051,1
37821,1
37822,5
37828,3
37829,4
37830,1
5063,4
5064,1
5066,1
37835,2
37838,2
5074,1
5075,1
37845,1
37847,5
37848,5
5082,1
5084,2
37854,4
37855,3
37856,1
37857,26
5091,1
37860,1
37862,2
37866,1
5102,2
5106,1
37875,1
37877,2
37879,5
37880,1
37881,3
37882,2
37883,1
5116,2
37885,1
37887,1
5121,1
5124,1
37893,1
37894,14
37895,16
37896,8
855,9
37900,5
37901,1
5134,1
5135,1
37909,1
37911,2
37912,1
5145,1
37914,2
37917,5
37918,5
37919,6
37920,11
37921,5
37922,9
37923,11
37924,4
5158,1
37927,7
5160,1
37929,1
37930,5
37931,4
37935,1
37936,3
37937,6
37938,18
37939,3
37941,3
37942,1
37943,5
37944,3
37945,3
37946,7
37947,1
37948,5
37949,3
37950,4
5183,1
37952,3
37953,7
37955,1
37957,3
37960,2
37961,1
37963,1
37966,1
37968,8
37970,7
5203,2
5205,1
5206,2
37976,9
37977,4
37978,4
37979,2
37980,5
37981,1
37982,1
37983,6
37984,4
37985,5
37986,2
37987,9
37988,10
37989,4
37990,4
37991,54
37992,69
37993,14
37994,1
37995,25
37996,6
37997,10
37998,5
37999,1
38000,1
38001,2
5234,3
38003,2
5236,2
38005,6
38006,23
38009,20
5242,1
38011,2
38012,3
38013,3
38014,9
38017,2
38018,1
38019,1
38020,13
38021,8
38022,10
38023,12
38024,15
5257,1
33645,2
5264,1
5266,2
5268,1
5271,2
33648,2
5285,1
33650,1
5297,2
5298,1
5299,5
885,1
5324,1
5332,2
5339,1
890,2
5343,1
5348,3
5351,2
5360,1
5364,1
5369,1
5371,2
5373,1
5377,1
5386,2
5392,2
5400,1
5404,1
5405,1
5415,5
5416,1
5421,2
5426,1
5432,1
5433,1
5440,1
5442,6
5447,1
5451,1
5463,2
5476,2
5484,3
33682,1
5490,2
916,1
5509,1
5514,1
5518,3
5533,1
5543,4
5544,1
5546,1
5551,2
5558,1
5562,1
5579,1
5580,3
5594,2
5597,1
5598,1
5619,2
5629,1
5631,1
5638,2
5639,2
5642,1
5645,1
5649,1
5651,1
5652,2
5657,1
5658,1
5663,1
5665,1
5667,1
5678,2
5692,1
5693,3
5695,1
5696,3
5701,1
5703,3
5706,1
5708,1
5709,1
5712,1
5718,1
5720,1
5728,1
5733,1
5736,1
5749,3
5763,1
5765,9
5771,1
5772,1
5774,1
5779,1
5788,1
5791,2
5792,1
5808,1
969,1
5816,1
5821,1
5823,2
5827,1
5830,1
5833,1
973,2
5842,2
5843,1
5846,2
5847,1
5849,1
5856,2
5860,2
5870,2
5875,1
5876,1
5885,1
5887,1
5888,1
5891,1
5892,2
5896,1
5899,2
5900,2
5916,4
5922,1
5929,2
5931,1
5942,1
5945,1
5946,2
5947,1
5950,1
5955,1
5960,1
5961,1
5969,1
5972,4
5976,1
5977,1
5978,1
5985,1
5997,1
5999,2
6002,2
6004,4
6013,5
6015,1
6018,2
6019,3
6020,1
6021,1
6022,3
6025,1
6027,2
6028,1
6031,1
6033,1
6034,1
6038,1
6040,1
6041,1
6045,2
6047,1
6048,1
6056,2
6058,1
6061,1
6062,2
6068,1
6073,1
6076,3
6080,1
6086,2
6090,3
6093,6
6096,1
6100,1
6105,1
6106,1
6107,2
6121,1
6122,1
6127,1
6135,1
6140,1
6144,1
6145,1
6147,1
6149,1
6160,2
6161,1
6168,1
6169,2
6173,1
6177,1
6178,1
6186,3
6191,2
6193,3
6199,1
6201,1
6209,2
1035,2
6212,1
6213,2
6214,1
1036,1
6220,3
6221,2
6224,2
6225,1
6229,1
6231,2
6233,1
6236,2
6241,1
6249,1
6266,3
6270,1
6276,1
6277,2
6278,1
6279,2
6280,1
6286,1
6287,1
6291,1
6292,1
6307,1
6308,1
6309,3
6319,2
6328,1
6330,1
6332,1
6333,1
6338,2
6340,1
6345,1
6350,1
6352,4
6356,3
6358,1
6363,1
6364,2
6374,2
6380,1
6385,1
6388,2
6395,1
6396,4
6397,1
6400,1
6409,1
6411,1
6413,1
6415,1
6417,1
6422,2
6424,1
6427,2
6436,1
6437,2
6447,3
6450,1
6455,4
6461,1
6462,1
6472,4
6473,3
6476,1
6477,1
6480,1
6481,1
6482,1
6484,2
6500,1
6503,1
6504,1
6506,2
6511,1
6513,1
6517,1
6519,1
6520,2
6524,1
6527,1
6528,2
6535,1
6539,1
6540,1
33858,2
6546,1
6553,3
6555,2
6561,1
6567,1
6573,1
6575,1
6577,1
6578,1
6585,2
6586,1
6587,1
6595,3
6597,2
6600,1
6603,10
6607,2
6613,1
6614,1
6616,1
6617,3
6618,1
6619,5
6621,3
6624,1
6640,1
6641,1
221,6
6644,2
6648,1
6651,3
6654,1
6658,2
6666,2
6672,3
6677,1
6678,1
6700,1
6713,1
6722,1
6724,1
6739,1
6740,1
6741,1
6742,1
6743,2
6756,1
6757,3
6767,1
6768,2
6769,3
6772,3
6776,1
6788,2
6795,1
6797,1
6804,1
6810,1
6815,1
6816,1
6823,1
6825,1
6828,2
6837,1
6854,1
6861,1
6866,2
6888,2
6895,1
6896,1
6897,1
6898,1
6904,1
6907,1
6917,3
6921,1
6922,1
6923,1
6925,1
6927,1
6928,1
6933,1
6942,1
6960,2
6963,1
6972,1
6977,2
6979,1
6986,1
6988,3
6997,2
7003,2
7004,1
7006,1
7014,1
33937,1
7023,1
33939,1
7030,2
7050,2
7055,3
7058,2
7061,1
7063,2
7065,1
7066,3
7071,1
7076,1
7077,1
7085,1
32970,1
7102,1
7115,3
7116,1
7121,2
7122,1
33955,1
7133,2
7148,1
7159,3
7167,1
7169,1
7179,1
7193,2
7197,1
7203,1
7214,1
7215,2
7225,1
7226,2
7230,2
7232,3
7233,1
7246,1
7254,1
7266,1
1211,1
7268,2
1213,2
7282,2
7292,1
7305,1
7309,4
7329,2
7331,1
7346,2
7347,1
7354,4
7357,1
7367,2
7368,2
7370,1
7371,3
7377,1
7379,3
7382,1
7394,2
7395,1
7402,1
7411,2
7414,1
7418,1
7434,1
7438,1
7443,1
7447,1
7455,1
7463,1
7467,2
7471,1
7475,1
7476,1
7477,2
7487,2
7497,1
7502,2
7508,1
7512,1
7521,1
7522,2
7525,1
7530,1
7534,4
7542,1
7565,8
7568,1
7569,2
7570,2
7573,2
7575,2
7581,1
7588,1
7589,3
7593,1
7600,3
7605,4
7610,1
7611,4
7617,1
7619,3
7620,1
7624,2
7629,1
7633,1
7636,2
1274,1
7649,1
7653,1
7660,1
7666,1
7667,1
7673,1
7678,1
7688,1
7690,2
7694,2
7696,1
7701,1
7702,3
34052,1
7708,1
7724,1
7746,1
7751,1
7752,1
7756,4
7767,1
7776,2
7778,1
7786,2
7799,1
7800,2
7801,1
7821,1
7825,2
7831,1
7835,1
7836,1
7837,1
7838,2
7839,2
7845,2
7846,1
7852,2
7854,1
7855,2
7856,1
7857,1
7860,3
7861,2
7863,1
35178,1
7871,1
7876,1
7878,1
7882,1
7884,1
7890,1
7891,1
7892,6
7894,3
7895,3
7897,25
7901,1
7902,6
7903,1
7910,1
7911,2
7916,1
7917,1
7919,1
7920,1
7922,2
7924,1
7925,2
7926,1
7931,2
7939,2
7941,3
7943,1
7946,1
7954,2
7955,2
7961,2
7963,1
7968,1
7970,1
7973,3
7975,3
7983,4
7985,3
7986,1
7990,2
7995,19
8002,1
8003,1
8005,2
8007,1
8009,5
8011,2
8013,1
8016,2
8017,1
8019,1
8022,1
8027,5
8029,2
8030,1
8031,5
8036,2
8038,1
8042,1
8048,1
8059,1
8060,2
8064,1
8078,1
8080,1
8088,1
8090,1
8104,1
8106,1
8107,1
8111,1
8117,1
8119,1
8125,1
8127,2
8133,1
8134,1
8139,2
8144,3
8153,3
1359,1
8158,8
8159,1
8160,1
8166,1
8167,1
8177,1
8178,1
8188,1
8218,1
8245,1
8252,5
8253,5
8257,1
8259,1
8269,1
8273,2
8279,1
1380,1
8284,1
8286,1
8295,1
8299,2
8301,4
8307,1
8322,1
8323,2
8330,1
8333,1
8336,1
8337,1
8338,2
8344,1
8346,1
8369,2
8384,1
8388,2
8391,4
8405,1
8414,1
8420,2
8421,1
8422,1
8425,1
8434,2
8439,1
8446,1
8462,1
8465,1
8469,1
8473,1
8475,1
8477,2
8486,1
34185,1
8511,1
34187,1
8516,3
8518,2
8523,1
8526,1
8528,1
8531,1
8539,1
8543,2
8545,2
8579,1
8588,1
8589,1
8595,2
8598,1
8599,2
8602,1
8613,1
8620,6
8627,2
8628,2
8629,1
8634,1
8637,2
8640,1
8643,2
8653,1
8658,2
8659,1
8667,1
8669,4
8670,2
8672,1
8673,2
8674,1
8683,2
8685,1
8696,1
8704,1
8711,1
8718,6
8719,3
8738,1
8739,1
8741,1
8744,1
8752,1
8753,4
8754,1
8758,1
8760,1
8762,1
8767,2
8771,2
8773,2
8779,1
8780,16
8783,1
8784,1
8797,1
8811,4
8815,3
8819,1
8821,1
8822,1
8827,4
8841,2
8844,1
8845,4
8847,3
8854,5
8861,1
8867,1
34246,1
8870,1
8874,2
8876,2
8877,1
8885,2
8889,2
8892,6
8903,1
8904,1
8906,1
8907,1
8915,2
8921,2
8926,1
8928,2
8935,1
8937,1
8939,2
8940,2
8941,3
8942,1
8943,1
8944,1
8950,1
8967,1
8977,1
8980,1
8993,4
8994,2
1499,2
8996,1
8999,2
28807,1
9005,2
9006,1
9009,1
300,2
9017,1
9018,1
9021,1
9028,1
9030,1
9032,1
9035,1
9037,1
9039,4
9040,1
9042,1
9045,1
9050,2
9052,1
9053,1
34277,2
9069,1
9081,1
9085,1
9088,1
9107,1
9115,1
9123,1
9124,3
9130,2
9132,1
9133,2
9137,1
9144,1
9145,1
9146,3
279,1
9155,1
9158,1
9160,1
9168,1
9172,1
34299,1
9189,1
9191,1
9196,1
9199,3
9209,2
9212,3
9213,1
9219,1
9221,1
1538,1
9246,2
9251,2
9264,1
9276,1
9284,1
9288,1
9314,1
9320,1
9341,2
9345,4
9347,1
9348,1
9349,1
9357,1
9360,2
9361,2
9373,2
9376,2
9381,1
9394,1
9396,6
9402,1
9403,1
9404,1
313,1
9407,1
9423,3
9425,2
9427,1
9433,1
314,1
9436,1
9437,2
9447,2
9449,1
9452,2
9455,1
9460,2
9468,1
9469,1
9477,2
9483,2
9486,1
9489,2
9491,1
9493,1
9497,1
9501,1
9504,1
34352,1
9506,1
9512,2
9513,1
9517,5
9518,1
9519,1
9520,1
9521,1
9522,1
9525,1
9527,1
9529,1
9531,3
9536,1
9549,2
9556,1
34362,1
9569,1
9571,1
9576,4
9580,1
9583,1
9585,3
9595,1
9598,3
9601,1
9612,5
9616,1
9619,1
9620,1
9630,1
9638,1
9646,2
9653,2
9655,2
9671,3
9673,6
9675,1
9676,1
9681,1
9684,10
9689,2
9692,1
9698,2
9704,1
9710,2
9721,1
9722,1
9727,1
9731,2
9734,1
9743,3
9744,1
9753,1
34394,1
9760,2
9763,1
9765,2
9767,1
9768,1
9770,2
9773,1
9774,1
9775,1
9779,1
9783,3
9785,5
34399,1
9799,2
9801,1
9804,3
9813,1
9819,13
9820,23
9821,14
9822,25
9823,15
9824,4
9825,22
9826,6
9827,5
9828,8
9829,15
9830,27
9831,4
9832,12
9833,62
9834,22
9835,35
9836,53
9837,36
9838,50
9839,19
9840,27
9841,20
9842,13
9843,5
9845,7
9846,8
9847,8
9848,67
9849,75
9850,53
9851,36
9852,23
9853,10
9854,42
9855,16
9856,4
9857,1
9858,22
9859,27
9860,24
9861,26
9862,24
9863,14
9864,27
9865,20
9867,1
34414,1
9898,38
9899,17
9900,23
9901,81
9902,18
9903,22
9904,21
9905,53
9906,84
9907,38
9908,47
9909,45
9910,36
9911,90
9912,85
9913,25
9914,22
9915,14
9916,12
9917,15
9918,19
9919,13
9920,25
9921,42
9922,17
9923,31
9924,27
9925,20
9926,47
9927,8
9928,12
9929,9
9930,9
9931,11
9932,5
1695,1
1717,2
1718,1
10359,1
10360,27
10361,26
10362,25
10363,28
10368,1
10378,1
10392,1
10393,1
10395,1
10400,1
10402,4
10403,1
10405,1
10413,1
10416,1
10426,2
10432,1
10439,1
10442,2
10446,1
10449,1
10450,2
10456,1
10459,1
10463,2
10464,2
10480,1
10481,1
10484,2
10494,1
10497,2
1750,1
10506,2
10508,7
10509,4
10511,1
10515,1
10520,1
10521,2
10526,2
10527,1
10535,1
10541,3
10564,5
10565,5
10567,1
10584,1
1764,1
10590,3
10592,1
10595,1
10599,1
10601,2
10630,1
10641,1
10648,6
10650,1
10651,1
10655,1
10666,4
10671,1
10674,2
10676,1
10679,3
10682,1
10683,1
10689,2
10691,1
10692,2
10693,2
10694,4
10697,1
10702,1
23629,1
10709,1
34553,2
10714,1
10720,1
10739,1
10746,3
1794,2
10770,1
10772,2
10776,2
10778,1
10781,1
10796,1
10798,1
10809,2
10810,1
10818,1
34571,1
10824,2
10825,2
10831,1
10833,2
10839,2
10841,1
10843,2
10845,8
10850,1
10852,1
10853,1
10855,2
10856,1
10858,1
10867,2
10879,1
10880,1
10894,2
1817,2
10906,1
10907,1
10925,2
10934,1
10936,1
10938,2
34592,1
10947,2
10976,1
10983,1
10984,1
10996,1
10999,1
11006,1
11009,3
11011,2
11012,6
11013,2
11021,1
11023,4
11024,1
11027,1
11030,1
11032,1
11047,2
11051,2
11055,2
11064,2
11065,1
11071,3
11072,1
11074,1
11076,2
11078,1
11080,1
11081,1
11089,1
11099,1
11101,1
11117,1
11118,2
11122,1
11125,4
11127,1
11134,1
11142,2
11151,3
11153,1
11168,2
11170,4
11174,2
11175,1
11179,1
11181,1
11201,1
11209,1
11212,1
34637,1
11227,1
11233,1
11238,1
11243,1
11244,2
11248,1
11250,1
11266,4
11267,3
11271,1
11272,1
11274,2
11282,1
11288,1
11294,1
11295,3
11296,1
11299,2
11302,4
11303,1
11305,1
11306,3
11310,1
11318,1
11319,2
11320,1
11328,1
11331,1
11332,1
11335,1
11352,1
11353,17
11363,2
11365,2
11367,1
11374,1
11382,3
11384,1
11386,1
11393,2
11395,2
11396,3
11400,1
11403,1
11404,1
11405,1
11407,3
11409,1
11428,1
11435,2
11448,1
11452,1
11458,1
11460,3
11461,9
11463,1
11464,1
11467,3
11468,2
11481,1
11489,1
11496,1
11498,1
11499,1
11508,1
11509,2
11512,1
11513,6
11514,1
11517,1
11518,2
11519,1
11521,3
11527,1
11538,1
11541,1
11551,1
11558,1
11559,1
11560,2
11569,1
34697,1
11578,4
11582,1
11590,1
11597,1
11604,1
11623,1
11624,1
11625,1
1938,2
11631,1
11639,2
34708,2
11643,1
11651,1
11655,1
11656,2
11658,2
11663,1
11678,3
11679,1
1947,2
11687,2
11689,1
11691,1
11692,1
11696,1
11697,2
11699,1
11706,1
11709,1
11714,1
11716,1
11724,1
11734,2
11741,1
11744,1
11745,1
11748,1
11749,2
11753,1
11754,2
11756,3
11759,1
11766,1
11769,1
11775,1
11787,1
11788,1
11792,1
11799,2
11801,1
11802,1
11810,1
11817,8
11819,1
11829,2
11833,2
11837,1
11838,3
11839,1
11840,1
11841,2
11843,2
11849,2
1975,1
11854,1
11861,2
11863,1
11866,1
11882,1
11893,1
11895,2
11903,2
11906,1
11908,1
11909,1
11910,1
11920,2
11921,3
11923,2
11938,1
11939,1
11941,1
11945,6
34759,2
11953,1
11966,1
11970,4
11979,1
11983,1
11984,1
11987,2
12003,1
12005,2
12016,2
12019,1
12021,2
12025,1
12026,3
12042,1
12045,2
12047,1
12068,2
12072,5
12076,1
12085,2
12097,1
34786,2
12113,1
12118,2
12132,1
12133,3
12138,1
34792,1
12147,2
12148,1
12167,1
12169,1
12170,1
33139,1
12175,3
12181,2
12182,1
12184,1
12187,1
12191,2
12195,1
12199,1
12200,1
12203,1
12204,2
12213,1
12217,2
12222,1
12232,1
12234,1
12246,1
12252,1
12259,1
12263,3
12265,2
12274,2
12275,2
12277,1
12279,2
12284,1
12285,2
12286,9
12287,1
12292,1
12300,2
12302,2
12305,2
12307,1
12316,1
12317,2
12318,1
12327,1
12329,2
12336,2
12340,2
12350,1
12352,1
12360,1
12383,2
12387,1
12388,2
12398,2
12399,1
12400,5
12409,2
12427,1
12428,1
12442,1
12450,2
12452,1
12465,1
12466,2
12469,6
12473,2
12501,2
12502,1
12506,2
12507,1
12508,1
34853,1
12519,1
12522,4
12536,1
12546,1
12548,1
12552,1
12560,1
12564,50
12567,6
34864,1
12580,1
12583,2
12584,1
12586,3
12587,1
12593,1
12596,1
12599,5
12601,1
3693,1
12609,1
12613,2
12625,1
12630,1
12636,1
12641,5
12646,1
12651,1
12652,1
12660,2
12662,1
12663,1
12665,1
12671,18
12673,1
12680,1
12685,5
12687,1
12690,3
12707,3
12708,2
12721,1
12724,1
12726,1
12729,1
12731,1
12735,1
12738,1
12739,2
12741,1
12746,1
12747,2
12749,1
12750,3
12751,2
12754,1
12756,1
12777,3
12779,3
12781,1
12786,1
12789,1
12790,1
12795,1
12796,1
12799,1
34902,1
12810,1
12816,1
12823,1
12824,1
12827,1
12835,1
12837,1
12840,1
12844,2
12845,1
12847,2
12848,1
12855,3
12863,2
12864,1
12866,1
12869,1
12870,1
12872,1
12883,1
12884,2
12887,1
12890,1
12892,1
12897,1
12906,1
12917,1
12920,1
12921,1
12931,1
12934,3
12938,1
12942,1
12947,1
12949,2
12952,1
12967,1
12973,3
12974,2
12979,2
12981,2
12988,1
12992,1
12996,2
12998,1
13001,1
13002,1
13006,2
13008,1
13009,1
13011,2
13014,1
13017,1
13019,1
13027,1
13037,1
13041,2
13045,2
13047,1
13048,1
13049,2
13052,2
13053,2
13056,1
13058,2
13059,2
13064,1
13071,2
13084,1
13086,2
13089,1
13094,4
13096,1
13102,1
13113,1
13115,10
13116,2
13123,1
13124,1
13125,1
13126,2
13127,1
13128,1
13129,1
13141,1
13143,1
13149,2
13150,1
13151,1
13159,1
13171,1
13176,1
13196,3
13199,3
13202,1
13204,1
13210,3
13211,1
13212,2
13215,1
13219,2
13222,1
13223,2
2204,1
13226,1
13244,1
13251,5
13257,3
13264,1
13266,2
2213,1
13281,1
13284,1
13290,2
13299,1
13301,2
13307,1
13308,1
13311,1
2220,1
13327,1
13333,2
13343,4
13346,2
13349,3
13352,1
13355,2
13362,2
13365,1
13366,1
34996,1
13370,2
13387,1
13394,1
13395,2
446,1
13401,1
13412,1
13413,2
13414,1
13422,1
13426,1
13436,1
13442,1
13447,1
13454,1
13460,1
13467,1
13469,1
13478,1
13480,86
13495,1
13502,1
13511,1
13516,3
13517,6
13519,2
13526,1
13528,1
13532,1
13535,1
13537,2
13544,2
13558,1
13567,1
13575,1
13578,2
18647,1
13583,8
13585,1
13587,2
13589,1
13594,4
13595,6
13607,1
13608,33
13610,2
13614,3
13615,1
13616,2
13619,3
13620,2
2271,1
13640,2
13649,1
13653,1
35044,1
13661,4
13663,1
13664,3
13667,2
13676,6
13681,1
13682,1
13688,2
13694,1
13700,2
13702,1
13703,1
13706,1
13712,1
13720,2
13733,3
13734,3
13736,1
13737,1
13742,1
13757,3
13765,2
13766,4
13767,4
13773,1
13775,1
13776,1
13777,6
13783,1
13784,10
13785,9
13786,2
13790,1
13795,1
13799,2
13800,12
13801,2
13802,4
13803,3
13804,5
13806,7
13808,1
13813,2
13225,1
13826,6
13827,3
13828,2
13830,2
13837,3
13841,1
13842,4
13843,1
13844,3
13845,4
13846,3
13847,3
13849,6
13850,3
13851,5
13852,1
13855,7
13856,2
13858,2
2310,1
13862,6
13863,3
13866,1
13867,3
13868,4
13869,1
13870,6
13877,1
13878,10
13879,20
13880,7
13881,5
13882,8
13883,11
13884,15
13885,8
13886,3
13887,1
13888,2
13896,1
13898,3
13900,4
13901,5
13904,1
13905,1
13906,4
13912,1
13916,1
13923,2
13924,1
13926,1
13928,2
13929,1
13934,1
13945,3
13946,3
13947,6
13948,1
13951,5
13952,2
13953,5
13956,1
13964,1
13983,1
13984,1
13986,4
13988,2
13990,1
13993,1
14000,1
14002,3
14003,1
14004,1
14007,1
14012,1
14013,1
14017,1
14024,2
14027,2
14028,1
14033,6
14040,3
2340,1
14042,1
14044,1
14045,1
14047,8
14049,1
14050,2
14065,1
14066,1
14073,7
14074,2
14076,1
14078,1
14079,2
14084,3
14085,1
14097,1
14099,1
14102,1
14104,2
14105,8
14106,1
14109,1
14120,1
14121,2
14126,1
14133,2
14136,1
14138,1
13279,1
14146,2
14153,3
14156,1
14159,2
14160,1
14171,1
14174,2
14176,2
14178,2
14181,1
14184,1
14187,1
14188,1
14191,2
14192,1
14195,1
14196,1
14199,1
35135,1
14206,1
14207,3
14211,3
14212,2
14217,1
14218,1
14221,5
14222,2
14232,4
14235,1
14248,1
14252,1
14263,1
14274,1
14275,1
14285,2
14288,1
14289,1
14296,1
14297,2
14299,1
14301,1
14307,2
14308,2
14312,1
14313,1
14319,2
36484,1
14337,1
2390,3
14342,1
14352,1
14356,3
14364,1
14366,2
14368,1
14375,1
14376,2
14379,1
14384,2
14388,1
14389,1
14390,1
14391,1
14394,1
14406,1
14414,1
14421,1
14424,1
14430,2
14431,2
14432,1
14433,1
14439,1
14441,1
14447,1
14457,1
14461,1
14462,2
14465,2
14467,1
14468,2
14480,1
14491,2
14492,4
14493,1
14495,1
14496,2
14504,3
14514,1
2419,1
14516,1
14532,1
14538,1
14539,3
14549,2
14551,3
14558,1
14562,5
14568,4
14570,1
14571,1
14572,1
14577,1
14586,1
14589,2
14592,1
14609,1
14612,1
14614,3
14624,1
14630,1
14664,2
14673,1
14683,2
14684,5
14685,7
14687,1
14688,1
14697,2
14698,3
14700,2
14703,2
14711,5
14718,5
14719,1
14721,1
14722,1
14723,1
14725,1
14733,1
14735,1
14744,1
35227,1
14759,1
14761,1
14763,1
14771,1
14775,2
14777,3
14779,1
14781,1
14785,1
14788,1
35233,1
2467,1
14808,2
2468,1
14818,5
14820,1
14821,1
14827,1
14836,2
14838,1
14850,3
14855,1
14866,3
14867,1
14881,2
14883,3
14890,1
14891,2
14918,1
14919,3
14937,1
14943,1
14946,1
14958,1
14960,1
14961,1
14965,2
14969,1
35263,2
14983,1
14985,2
14994,3
35267,1
15003,2
15016,1
2503,1
15021,2
15023,1
15027,8
15029,2
15031,1
15034,3
15035,1
15044,2
34326,1
15051,1
15054,1
15055,8
15058,1
15060,1
15062,2
15067,1
15070,1
15076,1
15077,1
15081,2
15082,1
15089,2
15090,3
15096,1
15099,2
15100,1
15102,2
15107,1
15108,1
15109,1
15112,1
15114,1
15120,1
15126,2
15130,1
15132,3
15138,1
15144,1
15145,1
15152,1
37603,1
15161,4
15163,1
15166,1
15172,1
15173,1
15174,1
15175,1
15177,2
15178,3
15180,1
15182,2
15186,2
15187,4
15188,1
15190,1
15192,1
15197,1
15199,1
15201,1
15202,2
15205,4
15206,1
15207,1
15208,1
15209,1
15211,1
15213,1
15216,8
15217,3
15221,6
15223,1
15224,3
15229,2
15233,1
15234,4
15235,4
15236,1
15237,3
2540,1
15245,1
15253,1
15254,3
15255,3
15256,2
15262,1
15267,5
15268,1
15269,10
15270,10
15274,1
15276,1
15278,1
15280,1
15285,2
15288,5
15293,1
15295,1
15299,1
15315,1
15324,1
15325,1
15326,1
15328,1
15332,1
15334,2
15337,2
15349,2
15361,1
15369,1
15378,1
15384,15
15388,2
15392,5
15400,4
15412,1
15413,1
15417,2
15422,1
15423,24
15424,1
15428,3
15433,1
15437,1
15454,3
15457,1
15462,1
15465,3
15468,2
15471,2
15474,2
15477,1
15498,1
15503,2
15510,1
15513,2
15515,2
15523,1
15538,1
15542,1
15555,1
15556,1
15565,1
15573,1
15582,1
15590,3
15591,2
15593,2
15596,1
15597,3
15602,5
15609,3
15612,3
15614,2
15618,2
15619,1
15621,3
15622,1
15623,1
15637,15
15638,1
15639,2
2607,2
15648,1
15652,1
15654,6
15656,1
15657,6
15662,1
15667,1
15670,1
15675,1
15676,2
15677,7
15678,1
15682,1
15685,4
15686,3
15688,4
15689,3
15690,4
15691,3
15692,1
15694,2
15695,7
15697,7
15700,1
15702,1
15703,1
15704,1
15708,1
15720,1
15721,1
15723,1
15731,1
15742,1
15743,4
15744,15
15746,1
15750,1
4251,1
15760,1
15762,1
15768,1
15771,1
15772,3
15774,1
15775,1
15776,2
15783,10
15785,2
15787,1
15792,1
15797,1
15811,1
15813,1
15823,2
15826,2
15837,1
15840,4
15845,1
15854,2
15855,3
15873,1
15876,1
15887,4
15897,1
15898,4
15906,1
15908,1
15912,21
15927,1
15938,2
13579,1
15942,1
15945,1
15946,1
15960,1
15964,2
15966,12
15969,1
15982,4
15997,2
15999,1
16003,1
16004,1
16012,1
16016,4
16029,2
16033,2
16040,1
16042,1
16049,1
16058,1
16061,1
35445,1
16078,2
16091,1
16097,1
16099,1
16111,1
16122,1
16125,1
16138,1
16139,2
16147,1
16155,1
16156,1
16165,1
16172,1
16192,1
16199,1
16200,2
16209,1
16211,2
16215,1
16217,1
16218,2
2703,1
16265,1
16281,2
16287,1
16290,4
16291,1
16292,1
16318,1
16323,1
16325,1
16338,1
16353,1
16354,1
16360,1
35496,3
16378,1
16387,4
16389,1
16392,1
35501,1
16402,1
16405,3
16416,1
4911,1
16422,1
16423,2
16426,5
16436,4
16437,1
16451,1
16455,1
16456,40
16461,1
16472,1
16478,1
16481,10
16482,1
16490,1
16496,4
16499,5
16500,2
16503,1
16510,1
16513,1
16514,3
16517,8
16519,2
16524,1
16525,1
16527,2
16540,1
16565,1
16566,1
16569,1
16575,1
16577,1
16578,2
16581,2
16582,2
16586,1
16588,4
16590,1
16609,4
16610,3
16613,2
16615,1
16616,1
16621,2
16630,1
16637,8
16638,2
16640,1
16648,1
16663,2
16671,1
16672,1
16674,1
16676,1
16680,2
16683,1
16687,2
16690,1
16691,2
16695,1
16696,5
16698,2
16699,2
16705,1
16706,1
16715,1
16717,3
16719,6
16720,1
16727,2
16730,1
16770,1
16778,2
16779,1
16784,1
16785,3
16787,1
16789,4
16791,2
16792,1
16815,1
16816,3
1651,1
16824,1
16825,1
16826,1
16827,7
16834,1
16847,1
16848,1
16849,5
16855,1
16861,1
16865,1
16870,1
16885,1
16889,1
16898,1
16899,1
16900,3
16903,1
16909,2
16912,1
16922,2
16927,2
16928,2
16934,1
16936,2
16939,1
16943,3
16944,1
16945,1
16953,1
30133,2
16961,1
16962,1
16965,1
16969,3
16977,1
16984,1
16997,1
16999,2
17003,1
17004,1
17013,2
17015,1
17017,1
17022,2
17028,3
17029,2
17031,2
567,1
17039,1
17042,1
17048,2
17057,1
17058,1
17065,3
17074,2
17076,4
17078,1
17091,1
17097,1
17099,1
17108,1
17116,1
17121,2
17126,1
17128,1
17145,1
17148,1
17149,1
17162,1
17168,1
2862,1
17179,4
17180,2
17185,2
17186,2
17197,2
17201,1
17205,2
17211,1
17213,2
17215,6
17218,1
17226,1
17228,1
17229,2
17234,1
17235,1
17241,1
17242,3
17251,3
17254,1
17275,2
17284,1
17285,1
17296,1
17309,1
17311,1
17315,1
17326,1
17329,2
17330,1
17339,1
17344,1
17350,3
17351,1
17352,2
17357,1
17361,2
17362,1
17366,2
17367,4
17368,4
17373,4
17374,2
17375,1
17376,6
17379,1
17383,11
17393,1
34377,1
17410,3
17417,2
17422,2
34405,2
17426,2
17427,1
17432,1
17434,1
17435,1
17440,1
17442,3
17452,1
17462,1
17463,1
17464,3
17470,1
17475,1
17477,1
17479,1
17483,6
17487,1
17491,2
17497,1
17498,1
17500,1
17502,1
17523,3
17526,2
17532,1
17533,4
17542,1
17545,1
17547,1
17551,2
17555,7
17560,1
17567,1
17579,91
17585,2
17586,2
17588,2
17591,1
17596,2
35701,2
17605,1
17608,1
17619,1
17620,6
17624,2
17627,1
17628,1
34412,2
17635,3
17636,1
17640,1
17650,1
17652,1
17653,1
17654,2
17658,1
17663,2
17666,1
17689,1
17694,1
17696,2
17704,1
17705,1
17715,1
17718,1
17719,1
17731,2
17732,1
17733,2
17738,1
17740,1
17741,1
17746,2
17748,1
17759,7
17765,2
35729,1
17776,1
17778,1
17779,1
17819,1
17823,1
17825,1
17831,1
17833,1
17844,1
17850,2
17873,1
17877,1
17879,1
17899,2
17903,1
17909,1
17916,2
17919,1
17936,1
17941,1
17946,1
17976,1
17982,2
17987,2
17994,1
17998,1
18008,1
18010,1
18026,2
18029,1
18031,3
18034,6
18043,1
18045,1
18052,1
18056,1
18061,2
18062,2
18064,3
18078,1
18096,2
18110,1
18114,1
18120,2
18129,1
18138,1
18150,2
18152,1
18155,2
18164,1
18168,2
18179,1
18183,2
18185,1
18187,2
18191,1
18192,1
18208,1
18216,1
18226,2
18228,1
18231,1
18235,1
18241,1
18250,1
18252,1
18260,2
608,1
18272,1
18281,1
18288,2
18295,2
18297,2
18325,7
18326,1
18328,1
18330,2
18331,1
18332,4
18342,1
18343,1
18353,1
18355,1
18356,1
18357,2
18358,6
18368,1
18376,1
18379,1
18381,2
18392,1
18397,1
18399,3
18402,2
18404,1
18415,1
18427,4
18435,1
18437,2
18439,1
18444,1
18456,4
18464,1
18481,1
18483,1
18488,2
18489,2
18490,2
18496,1
18501,2
18504,1
18510,1
18518,2
18519,2
18522,1
18526,1
18534,1
18536,3
18559,1
18561,1
18574,1
18575,1
18587,1
18588,1
18594,2
18597,1
18606,1
18614,2
18615,1
18623,4
18626,1
18629,1
2803,9
18648,6
3108,7
18657,1
18664,3
18666,1
35882,3
18695,1
18697,3
18707,3
14041,1
18717,1
18722,1
18723,8
18728,1
18729,2
18745,1
18746,3
18755,1
18775,2
18777,1
33359,1
18796,1
18797,2
3133,1
18800,1
18820,1
18821,4
18832,4
18833,1
18846,4
18849,1
18851,1
18864,1
18865,2
18867,4
18869,2
18889,1
18896,3
18899,1
18903,1
18910,1
18917,1
18918,1
18933,1
18935,2
18936,1
18942,1
18943,1
18947,1
18951,1
18953,2
18959,1
18960,2
18961,1
18973,1
18982,3
18998,1
3167,2
19006,1
19008,1
19011,1
19023,1
19028,2
19035,9
19036,2
19039,1
19053,1
19064,1
19068,1
19070,1
19085,1
19096,2
19106,1
19109,1
19116,1
19132,1
19134,3
19135,3
19136,1
19159,1
19170,1
19178,1
19180,1
19183,1
19184,4
19189,1
19195,1
19197,1
19215,1
19227,2
19228,1
19231,3
19236,2
19245,1
19251,2
19257,3
19261,1
19268,1
19274,1
19283,3
19295,1
19302,1
19313,1
19335,1
19337,1
19350,1
19357,1
19360,1
19371,1
19375,3
19379,1
19381,16
19396,1
19401,1
19434,1
19437,1
19440,1
19445,1
19456,1
19462,1
19471,2
19474,1
19478,1
19483,1
19491,1
19496,1
19507,1
19509,1
19513,2
19525,1
19543,1
19548,3
19553,1
19569,6
19582,1
19584,1
19588,1
19597,3
19605,1
19606,16
19615,2
19627,2
19631,1
19636,1
36041,1
19642,1
19645,4
19652,1
19657,1
19665,6
19668,1
19669,2
19673,1
19680,1
19683,2
19684,1
19686,1
36050,2
19695,2
19696,3
19708,1
19719,2
19720,1
19744,2
19746,1
19753,3
19768,2
19774,1
19776,1
19784,1
19786,2
19792,1
19800,1
19801,1
19802,1
19806,1
19807,1
19810,1
19823,2
19826,1
19829,3
19838,2
19841,3
19847,1
19856,1
19857,2
19863,1
19864,1
19868,6
19869,14
19870,6
19871,1
19885,2
19886,2
19891,1
19899,1
19902,5
19904,1
19910,1
19912,1
19918,2
19919,1
19923,2
19925,3
19930,1
19931,4
19934,1
19954,3
19955,1
19959,1
19964,2
19967,1
19968,1
19973,3
19974,1
19976,3
19977,1
19978,1
19979,2
19980,2
19981,1
19990,4
19991,1
19999,2
20001,7
20025,1
20026,1
20033,1
20040,1
20044,1
20046,1
20052,1
20055,1
20058,2
20064,1
20066,1
20067,1
20071,2
20083,1
20084,2
20087,1
20090,3
20095,1
20099,1
20116,1
20121,1
20133,1
20144,2
20154,1
20169,1
20172,1
20185,1
20190,1
20192,1
20194,1
32868,1
20201,1
20211,2
20213,1
20217,4
20220,1
36138,1
20233,1
20239,1
20246,2
20268,1
20275,1
20282,1
20283,3
20288,1
20292,1
20295,2
20296,1
20315,2
20316,1
20326,1
20330,1
20345,1
20357,1
20364,1
20372,1
20373,1
20375,1
20381,1
20386,1
20401,1
20404,2
20406,5
20410,2
20412,1
20415,1
20420,1
20433,2
20438,1
20439,3
20442,7
20443,1
20446,1
3408,2
20450,2
20451,1
20462,2
20471,1
20476,3
20482,2
20485,1
20493,1
20503,2
20508,1
20519,5
20520,1
20522,2
20523,3
20524,1
20527,4
20528,1
20533,1
20539,1
20541,3
20546,4
20547,1
20551,8
20560,1
20561,8
20566,3
20574,2
20578,8
20580,5
20581,16
20582,37
20583,8
20584,3
20585,1
20586,9
20587,2
20589,1
20590,9
20592,2
20593,4
20594,2
20595,4
20596,2
20599,1
20606,1
20613,1
20616,1
20617,3
20628,1
20629,2
20631,2
20632,1
20633,2
687,1
20640,2
20651,9
20655,3
20671,1
36214,2
20683,1
20685,2
20687,1
3448,1
20696,1
20706,1
20709,2
20715,10
20719,2
20720,2
20725,1
20731,1
20737,1
20740,2
20745,3
20748,1
20762,1
20767,2
20772,1
20774,1
20776,1
20785,4
20788,1
20792,1
20800,1
20806,1
20808,3
20814,1
20817,1
20822,1
20823,3
20845,2
20846,2
20847,1
20849,2
20856,1
20858,1
20862,1
20867,2
20882,2
20886,2
36249,1
20889,3
20890,2
20891,2
20895,3
20900,3
20906,1
20909,2
20919,1
20938,2
20939,6
20940,1
20947,1
20955,2
20958,11
20961,1
20965,2
20977,1
20986,1
20991,3
20992,2
3501,1
21014,1
21015,3
21021,2
21041,1
21045,3
21051,1
21054,1
21058,1
21067,2
21073,1
21079,1
21081,1
21084,1
21087,1
21095,2
21097,3
21098,4
21100,1
21113,11
21118,2
21122,1
21130,6
36290,1
21134,1
21140,1
21141,1
21144,1
3526,1
21160,1
21166,1
21168,5
21173,1
21202,1
21215,1
36305,13
21225,1
21244,1
21247,1
21248,1
21250,1
21251,1
21267,2
21268,4
21270,1
21276,1
21282,1
21284,1
21289,3
21291,1
21293,1
21294,1
21300,5
21311,1
21316,2
21319,1
21324,1
21325,1
21327,1
21328,3
21343,1
21349,1
21351,1
21357,1
21388,6
21398,1
21407,1
21417,2
21426,1
21431,1
21434,1
21441,5
21462,1
21463,1
21472,2
21478,1
21490,2
21493,1
36351,1
21504,1
21506,1
21516,2
21527,1
21530,1
21541,7
21545,1
21547,1
21568,1
21571,1
21581,1
21590,1
21610,2
21616,1
21630,1
21643,1
21654,1
21657,1
21668,1
21671,1
21680,1
21682,2
21683,2
21684,1
21688,2
21690,3
21698,1
21701,1
21712,2
21715,1
21719,3
21720,3
21721,1
21729,2
21736,1
21739,1
21742,2
21743,5
724,2
21749,1
21751,2
21753,3
21754,1
21762,3
21763,4
21766,2
21771,1
21772,2
21774,1
21775,1
21778,5
21789,3
21809,1
36403,1
21812,2
21827,1
21830,1
21831,1
21835,1
21842,1
21850,2
21861,1
21870,7
21880,1
21887,1
21893,1
21896,1
21903,1
21906,2
21907,1
21912,1
21917,1
21920,9
21924,2
21929,5
21935,3
21936,1
21947,1
21950,1
146,1
21959,2
21964,3
21966,1
21972,1
21974,3
21976,1
21977,1
21980,5
21989,1
21993,4
22001,3
22017,4
22025,1
22027,1
22030,1
22034,1
22035,1
22047,1
22049,1
22052,1
22053,1
22060,6
22065,2
22068,2
22070,1
22076,1
22081,4
22082,3
22083,4
22084,2
22090,1
22099,1
22101,1
22102,1
22109,2
22111,4
22112,1
22117,2
22119,3
22124,1
22126,1
22127,3
22128,1
22131,1
22134,1
22136,1
22138,4
22139,1
22140,1
22141,1
22142,1
22143,1
22146,1
22152,7
22153,5
22159,1
22162,3
22169,1
22170,1
22172,1
22175,3
22176,1
22178,1
22183,3
22186,1
22187,1
22190,2
3699,1
22197,2
22199,1
22204,2
22205,1
22210,1
22220,1
22221,1
22222,1
3704,1
22231,1
22235,2
22248,2
22250,1
22251,2
22252,1
22257,3
22259,1
22261,1
22268,8
22270,1
22278,1
22280,2
22284,1
22287,1
22288,1
22293,4
22297,1
22311,1
22327,1
22330,1
22335,1
22340,2
22342,1
22343,1
33478,1
22362,2
22370,1
22380,1
22388,1
22390,1
22394,3
22413,1
22416,1
22429,1
22435,4
22439,4
22445,1
22456,1
22461,2
22472,8
22485,5
22486,3
22488,3
22489,2
22492,44
22501,1
22508,2
22509,1
22511,1
22513,2
22516,3
22518,2
22521,4
22522,1
22526,1
22530,6
22531,1
22534,2
22538,6
22548,1
22554,1
22556,1
22558,10
22559,1
22563,1
22566,26
22568,1
22573,1
22578,2
22582,1
22587,1
34577,1
22591,1
22592,1
22595,1
22607,2
22613,1
22620,1
22621,3
22635,2
22637,1
22643,1
22649,1
22652,1
22656,1
22658,1
22665,1
22668,3
22670,1
22674,2
22678,1
22679,1
22683,2
22686,10
22687,1
22691,2
22699,9
22701,1
22702,1
22703,1
22708,3
22710,1
22719,1
22722,1
22730,1
22740,1
22742,1
22749,1
22752,1
22758,1
22759,2
22764,1
22771,9
22772,1
22780,1
22781,2
22785,1
22796,1
22797,1
22798,4
22805,1
22810,2
22817,1
22830,4
22831,9
22833,3
22834,4
22839,1
22840,1
22845,1
22846,1
22865,1
22870,1
22874,1
22876,3
22878,1
22880,1
22890,1
22892,1
36584,3
22905,2
3819,1
763,1
22927,1
22928,1
22933,1
22935,1
22937,2
22955,1
22956,1
22960,1
22966,2
22970,1
22971,1
22976,1
22978,2
22986,7
22989,2
22991,1
22995,1
22996,1
22998,1
23000,3
23001,3
23002,1
23005,1
23006,1
36603,1
23013,1
23014,1
23016,1
23022,2
23036,4
23041,1
23053,1
23057,1
23058,2
23080,1
23082,1
23083,1
23084,1
23093,1
23101,1
23113,1
23115,2
23116,1
23130,1
23132,1
23134,1
23135,1
23159,2
23161,1
23162,1
23176,1
23178,3
23185,7
23189,1
23202,1
23209,1
23217,1
23218,1
25715,1
23231,1
23237,1
23242,4
23243,1
23252,1
23257,1
23264,1
23282,5
23286,1
3883,1
23320,12
23323,1
23333,2
23336,1
23338,4
23341,1
23356,3
23357,1
23367,1
23370,1
23378,1
23391,1
23393,3
23398,1
23406,1
23410,4
23420,1
23421,1
3904,1
23431,1
23437,1
23446,1
23448,2
23461,1
23484,1
23502,1
23505,2
23506,1
23514,2
23516,31
23526,2
23530,1
23532,2
23534,3
23537,1
23538,1
23541,1
23560,1
23561,2
23562,1
23570,1
23584,2
23585,1
23587,1
23602,1
23611,3
23623,2
36706,1
23630,2
23631,1
23636,1
23637,1
23644,1
23651,1
23656,1
23657,1
3943,1
23662,1
23664,2
23668,3
23675,1
23676,1
23678,5
23681,2
23682,1
23684,1
23685,1
23686,5
23687,9
23688,3
23689,6
23690,7
23691,4
23692,1
23694,4
23696,3
23697,5
23698,3
23699,1
23701,1
23702,2
23703,6
23704,3
23705,3
23707,1
23709,3
23711,2
23714,3
23715,2
23719,1
23720,8
23721,5
23722,11
23723,3
23724,10
23725,8
23726,21
23727,23
23728,9
23730,1
23731,2
23732,1
23733,4
23734,4
23735,5
23739,4
23742,1
23747,1
23748,2
23764,1
23773,1
23778,1
23779,2
23796,2
23800,2
23802,2
23806,1
23809,1
23813,1
23814,6
23815,2
23821,1
23822,1
23831,1
23832,2
23850,2
23852,2
23854,1
23856,12
23861,2
23865,2
23867,1
23869,4
23876,2
23879,5
23880,1
23881,2
23882,7
23883,9
23884,2
23885,6
23886,4
23887,3
23888,3
23889,1
23890,2
23892,2
23893,6
23895,3
23898,1
23901,2
23906,1
23910,1
23913,3
23916,1
23920,1
23926,5
23939,1
23949,1
23950,1
23953,2
23956,1
23957,2
23961,2
23962,2
23967,1
23978,2
23984,1
23990,1
23991,5
24000,6
24002,2
24003,1
36771,12
24024,1
24026,4
24029,2
24037,1
24042,1
24051,1
24053,1
4010,2
24063,1
24064,1
24065,1
24067,1
24069,4
24098,1
24107,1
24111,1
24112,1
24129,8
24130,5
24142,1
24143,2
24147,1
24149,1
24150,1
24156,2
24157,3
24164,2
24171,4
24173,1
24206,1
24211,1
24213,1
24223,2
24225,4
24229,4
24231,1
24232,2
24234,1
24239,1
24263,2
24265,2
24268,4
24274,1
24275,6
24277,4
24280,1
24288,1
24289,1
24290,6
24297,1
24300,1
24301,2
36823,2
24335,1
24341,4
24345,1
24347,1
24351,1
36827,1
24356,1
24360,2
24361,2
24363,4
24364,5
24365,1
24366,1
24368,1
24371,1
24374,1
24375,2
24376,3
24382,1
24383,2
24390,1
24392,1
24409,1
24412,1
24416,8
24423,12
24425,1
24434,2
24438,3
24439,1
24442,3
24452,1
24454,1
24460,1
24466,1
24470,3
24472,3
24476,1
24483,2
24491,2
24499,3
24504,1
24505,1
24510,1
24523,1
24532,1
24541,1
4092,2
24561,2
24563,3
36862,1
24566,1
24569,2
24574,1
24589,3
24591,3
24593,1
24599,1
24602,2
24603,1
24606,1
24608,1
24618,1
24623,1
24635,1
24649,1
24652,2
24655,1
4111,1
24670,1
24681,4
24683,1
24692,1
24699,2
24700,1
24708,1
24709,1
24715,1
24716,2
24729,1
24730,2
24732,1
24733,1
24735,1
24736,1
24745,1
24746,2
24753,1
24795,2
24804,1
24805,2
24813,1
24817,1
24831,1
24838,3
24842,1
24847,1
24849,1
24860,1
4144,2
24866,1
24869,1
24871,1
24873,2
36914,1
24882,4
24886,1
24891,1
24893,5
24894,1
24897,1
24899,1
24900,1
24901,1
24908,2
24922,4
24923,4
24924,2
24950,1
24955,1
24964,1
24970,1
24975,5
24979,1
24986,1
24987,1
24997,1
25004,1
25005,1
25021,1
25022,1
25032,1
25035,2
25039,1
25042,1
25048,2
25050,2
25052,1
25056,1
25057,2
25059,1
25061,1
25069,1
25090,2
25094,6
25105,1
25109,4
25115,1
25121,1
36955,2
25125,1
36957,2
1928,1
25151,2
25159,1
25167,1
25176,1
25179,2
25183,1
25185,1
25187,1
25194,2
25198,1
25205,2
25214,1
25216,1
4203,3
25230,1
25234,1
25236,2
25242,1
25244,2
25247,3
25254,2
25260,1
25262,1
25266,1
25275,1
25276,2
25281,1
25282,1
25285,1
25290,2
4215,3
25292,1
25310,1
25312,1
25313,6
25314,1
25325,1
25328,1
25332,2
25333,1
4223,1
25342,3
25344,4
25345,2
25346,1
25350,1
26071,1
25358,2
25361,1
25364,1
25368,1
25370,2
25373,2
25381,2
25385,1
25387,8
25390,1
25391,1
25393,2
25394,2
25399,2
25405,6
25413,3
25414,1
25415,1
25419,1
25425,1
25426,3
25427,1
25428,4
25433,1
25443,1
25446,1
25448,2
25450,1
25453,1
25456,1
25457,1
25472,1
25477,7
25489,1
25496,1
25500,1
25507,2
25509,2
25518,1
25519,9
25523,1
25524,1
25531,2
25532,2
25534,1
25536,1
25544,2
25554,2
25557,1
25562,8
25563,1
25564,3
25573,1
25574,1
25580,1
4264,1
25587,1
25593,1
25594,1
25601,6
25610,5
25611,1
25612,1
25615,2
25617,2
25619,2
25623,1
31405,1
25636,1
25644,1
25663,1
25671,1
37049,2
25691,1
25694,1
25714,1
33590,1
25718,1
25719,1
25724,1
25726,1
25733,1
1948,1
25742,3
25747,2
25754,1
25756,4
25758,1
25773,1
25775,1
25777,2
25796,1
25800,2
25806,3
4301,3
4302,2
25821,3
25828,3
25842,1
25849,1
25852,1
25854,2
25860,1
25862,1
25863,3
25864,1
25868,1
25881,2
37082,1
25888,2
25893,1
25896,1
25900,1
25901,2
25908,1
25909,1
25914,1
25915,1
25921,3
25922,1
25935,1
25940,2
25943,4
25945,3
25948,1
25968,2
25969,2
25972,9
25977,1
25982,1
4331,1
25991,2
25993,3
25994,1
25997,2
25998,1
25999,1
26000,1
26003,3
26004,11
26013,2
26015,1
26022,1
26023,1
26026,1
26057,1
26062,3
4345,1
26078,1
26080,1
26085,1
26086,1
26088,1
26089,3
26097,1
26103,2
26106,1
26107,1
26108,1
26114,2
26120,1
26121,1
26123,1
26137,1
26138,1
26142,1
26144,1
26150,1
26156,1
26158,1
26160,2
26163,1
26164,1
26184,1
26188,1
26191,1
26199,1
26205,1
26211,2
26213,1
4369,1
26217,1
26220,1
26233,2
26234,1
26235,1
26236,5
26237,1
26241,1
26242,2
26243,3
26247,1
26252,1
26253,1
26260,1
26270,1
26272,1
26279,1
26280,1
26281,1
26282,1
26285,1
26286,2
26287,1
26290,1
26292,1
26293,1
26300,1
26305,1
26309,2
26316,2
26322,2
26323,1
26328,1
26332,1
26333,2
26335,2
26338,6
26339,7
26340,6
26341,9
26342,17
26343,9
26344,4
26345,4
26346,23
26347,15
26348,52
26349,40
26350,46
26351,17
26353,24
26356,2
26359,2
26360,1
26361,4
26362,3
26363,5
26364,7
26372,3
26375,1
26376,1
26380,2
26381,1
26383,1
26384,2
26385,1
26386,1
26388,2
26391,1
26393,3
26398,1
26403,1
26406,1
26407,1
26417,1
26429,1
26430,1
4405,1
26435,1
26441,1
26442,2
26443,1
26446,2
26455,1
26459,1
26460,1
37178,1
26465,1
4411,1
26469,4
26480,1
26481,1
26493,1
26502,1
26504,3
26507,1
26527,4
26528,1
26532,1
26545,1
26551,1
26556,1
26558,1
26566,1
26569,2
26590,8
26591,1
26605,1
26606,1
26617,1
26622,1
26624,1
26625,1
26633,3
26639,1
26647,2
26648,1
26652,1
26655,2
26657,1
26674,1
26675,1
26680,1
26688,1
26692,1
26696,1
26702,2
26706,1
26710,1
26726,1
26731,1
26750,1
26752,1
26757,1
26770,1
26774,1
26779,1
26782,1
4464,1
26788,2
26795,1
26811,1
26820,1
26831,3
37240,3
26839,1
26843,2
37242,17
26846,1
26852,1
26855,1
26858,1
26861,1
26866,4
26871,1
26874,1
26878,2
26884,1
26886,1
26887,1
26890,1
26895,1
26896,1
37251,4
26900,1
26912,1
26919,2
26929,2
26934,3
26936,1
26938,1
26950,1
37260,1
26956,1
26958,1
26961,2
26963,1
26965,1
26969,1
26970,1
26972,1
26973,1
26981,1
26982,4
26986,2
26988,1
26990,1
26991,6
26994,1
26995,2
26997,1
27001,1
27002,3
27007,3
27010,2
27012,1
27014,1
27017,3
27020,1
27022,1
27023,1
27029,1
27031,1
27032,1
27033,1
27034,4
27037,1
27040,1
27049,3
27058,1
27065,1
27071,6
27075,1
27082,2
27083,1
27091,1
27092,1
27093,1
27096,3
27106,1
27108,1
27109,3
4519,2
27118,1
27121,1
27127,2
27128,1
27129,1
27135,2
27136,2
27140,2
27141,1
27149,1
27151,1
27152,1
27158,1
27162,1
27163,2
27166,1
27168,1
27171,1
27177,1
27180,1
27194,3
27196,3
27207,1
27213,1
27218,1
27222,1
27228,1
27229,2
27232,1
27235,1
27236,1
27240,1
27243,1
27250,1
37310,1
27257,1
27259,1
27262,1
4544,2
27266,2
27272,6
27275,1
27278,1
27292,1
27293,1
27294,1
27295,1
27297,1
27300,2
27309,1
27310,1
27312,1
27316,4
27317,1
27322,1
27324,4
37322,1
27326,3
27330,1
27331,4
27341,2
4557,1
27348,1
27365,2
27366,2
27370,2
27374,1
27377,1
27378,1
37332,3
27386,1
27396,1
27404,1
27407,1
27409,1
27410,1
27414,1
27415,1
27430,1
27434,7
27435,2
27436,1
27438,1
27451,1
27454,1
27455,1
27456,1
27458,2
27460,2
27461,1
37346,2
27470,1
27472,1
37347,4
27486,1
27488,1
27497,2
27500,2
27501,6
27508,1
26431,1
27519,1
27520,3
27521,1
27526,1
27531,2
27533,1
27548,1
27549,1
27555,1
37361,2
27563,1
27564,1
27566,1
27572,1
27580,2
27581,1
27585,1
27587,1
27588,1
27590,1
27600,1
27608,1
27620,2
27628,2
27630,2
27632,1
27639,1
27647,1
27649,1
27652,1
27656,1
27657,4
27658,1
27681,1
27690,1
27691,1
27697,3
27699,1
27713,31
27715,2
27723,1
27725,2
27738,2
27742,1
27748,3
27750,1
27757,1
27760,1
27768,1
27771,1
37398,1
27787,1
27793,4
27796,1
27802,2
27821,2
27823,3
27824,3
27833,1
27835,1
27836,1
27837,1
27845,1
27847,1
27855,1
27860,1
27864,1
27865,1
27879,1
27880,1
27886,3
27895,1
27897,1
27912,1
27916,2
27921,1
27922,1
27925,1
27926,1
27937,1
27940,1
27942,1
27943,1
27956,1
27969,3
27978,5
27982,1
27993,2
28010,1
28014,1
28019,1
28027,1
28030,1
28031,1
28044,6
28059,1
28064,3
28068,3
28070,1
28074,1
28081,1
28084,3
28091,1
28092,3
28096,2
28098,1
28100,2
28105,1
28106,3
28110,1
37455,1
28125,3
28126,2
28127,2
28129,1
28132,2
28136,1
28138,3
28144,1
28148,1
28153,2
28155,1
28156,1
28157,3
28177,1
28180,1
28190,2
28192,2
28199,1
28201,5
28206,1
28214,7
28215,4
28224,2
28225,1
28230,2
28246,2
28251,1
28256,1
28293,2
28302,3
28304,1
28311,3
28322,1
28327,1
28338,1
28343,1
4724,1
28347,3
28352,1
28356,1
28361,1
28363,1
28364,1
28368,1
28369,1
28371,1
28376,2
28377,2
28382,1
28389,2
28390,1
37500,2
28394,1
28420,1
28423,1
28424,1
28425,1
28427,1
28430,1
28438,1
28439,1
28447,1
28448,1
28450,2
28452,1
28460,1
28462,2
28470,1
37513,2
28474,1
28477,1
28481,1
28505,3
28506,1
28509,2
28510,1
28511,1
28525,3
28526,1
28542,1
28557,5
28562,1
28574,1
28575,1
28581,1
28582,1
28586,1
28596,1
28600,4
28601,1
28608,1
28619,1
28621,1
28642,1
28665,1
28666,2
28668,1
28670,1
28671,1
28680,1
28686,3
28687,1
28689,2
28690,7
28697,4
28706,3
28708,2
28709,1
28712,2
28744,4
28745,3
28757,1
28758,2
28761,1
28767,1
28768,7
28769,23
28770,8
28771,11
28772,3
28774,1
28775,8
28776,4
28777,15
28778,2
28779,6
28783,10
28784,3
28785,2
28786,1
28788,5
28791,3
28793,1
28794,13
28796,5
28797,3
28801,3
28802,11
28803,16
28805,1
4801,2
28810,3
28812,1
28813,5
28814,13
28815,9
28816,5
28817,7
28818,1
28823,1
28824,4
28825,1
28826,12
28827,8
28828,2
28830,1
28846,4
28848,1
28872,2
28879,2
28909,1
28911,1
28917,1
963,1
28932,3
28944,1
28946,1
28955,3
37594,1
28963,5
28970,8
28973,1
28979,3
28984,2
28990,1
4833,1
29002,1
29004,1
29011,4
29016,1
29026,2
4838,1
29034,1
29035,4
29043,1
29044,1
29054,1
29066,1
29067,2
29075,5
29076,23
29080,1
29081,2
29085,1
29092,2
29095,1
29097,1
4850,1
29116,1
29123,2
29125,1
29126,11
29129,1
29131,1
29136,1
29139,5
29141,1
29156,1
29161,1
29165,3
29167,4
29168,17
29170,1
4863,2
37632,3
29201,1
29204,1
29208,1
29210,1
29213,1
29221,1
29228,2
37640,1
29238,1
29246,1
29247,2
29258,6
29259,1
29266,2
29271,1
29291,1
29296,2
29298,1
29304,2
4885,2
29312,2
29318,1
29324,1
29325,1
4888,1
29330,1
29334,4
29342,1
29349,2
29356,1
29361,1
29364,2
29367,1
29380,1
29381,1
29382,5
29389,1
29415,1
29421,1
29423,1
29427,1
29449,1
29451,1
29453,2
29458,1
29463,1
29467,1
29469,1
29472,1
29478,1
29480,1
29488,3
29491,4
29492,6
29493,1
29494,1
29495,2
29502,3
29507,3
29509,1
29512,1
29520,1
29524,1
29526,4
29535,1
29537,2
29542,1
29543,3
29546,1
29547,1
29548,1
29549,2
29551,1
29574,1
29577,2
29582,3
29584,2
29593,3
29598,6
29600,1
29612,1
29615,1
29622,2
29623,1
29635,1
29636,2
2078,2
29643,1
29653,1
29662,4
29665,3
29699,2
29700,1
29702,3
29714,1
29725,1
4955,2
29735,1
29743,2
29749,1
29752,1
29754,1
29771,1
29777,2
29787,1
29789,1
29792,1
29802,1
29809,2
29811,2
29812,1
29813,1
29819,1
29822,1
29826,2
29827,1
29830,1
29835,1
29837,1
29845,1
29851,3
29853,1
29863,1
29872,1
29884,1
29925,2
29928,1
29939,1
29942,1
29943,1
29959,3
29964,1
29965,1
29971,3
29974,2
29975,1
29977,1
29978,2
29980,2
29981,1
29984,1
29985,2
29989,1
30022,2
30040,2
30041,1
30047,1
30056,2
30059,2
30062,1
30065,2
30068,1
30075,1
30085,3
30087,1
30092,3
30098,2
30102,4
30117,1
30119,1
5020,1
30122,3
30126,1
30128,1
30132,1
37790,1
30136,1
30140,1
30144,1
30147,2
30148,3
30149,1
30156,1
30162,4
30168,1
30172,1
30189,1
30202,1
30206,1
30214,1
30217,1
30220,1
30221,1
30222,1
30234,2
30237,2
30238,3
5042,2
30257,2
30269,3
30275,1
30306,1
30318,2
30338,2
30340,2
30341,4
30344,1
30346,2
30347,3
30350,1
30352,1
30353,1
30354,1
30357,1
30374,1
30376,1
30378,1
30407,1
30417,1
30424,2
30426,2
30432,1
30439,2
37843,1
30455,2
30456,1
30468,1
30474,1
5079,2
30484,1
30515,3
30523,2
30526,1
30529,1
21748,1
30541,1
30543,1
30545,1
30548,2
30550,1
30559,2
30560,1
30570,2
30574,1
30575,1
30577,2
30578,1
30586,13
30587,1
30590,1
30593,1
30594,4
30598,1
30612,5
30615,1
30618,1
30639,2
30645,1
30649,4
30662,1
30663,1
5111,1
30671,1
30672,3
30676,1
30685,2
30686,2
30688,1
30690,1
21499,1
30692,1
30698,3
5117,1
30712,1
30719,1
30720,1
30721,1
30724,1
30725,4
30727,1
30728,1
30732,25
30733,1
30738,1
30744,1
30745,6
30746,1
30750,1
5126,1
5127,3
30767,1
30768,1
30770,1
30772,1
30777,1
30780,2
30785,1
30786,1
37899,3
30791,1
30801,1
37902,1
30820,2
30821,1
30823,2
30837,1
30838,1
30841,2
30843,4
30844,2
30852,1
30859,2
30866,3
30868,1
37913,4
30876,1
30877,1
30881,1
30884,1
30893,4
30896,1
30898,1
30900,1
5150,1
30910,2
30911,1
5152,1
30915,1
30919,2
30921,2
5154,8
30926,4
30934,2
37926,4
5159,2
30969,1
30974,1
30984,1
5167,1
31004,1
5168,1
31016,1
31025,2
31026,3
31035,1
31054,1
31057,4
31074,2
31077,2
31079,1
31092,1
5184,1
11947,1
31119,2
31128,4
31139,3
31140,1
31145,4
31148,2
5192,1
31161,1
31167,1
31171,1
31173,1
31176,1
31182,1
31189,1
31192,1
31197,1
5200,4
31204,1
31210,2
31211,2
37974,2
31249,1
31258,5
31272,1
31275,3
5214,1
31307,1
31309,2
31321,3
31322,4
31328,1
31336,1
31352,5
31353,4
31356,1
31361,2
31366,1
31379,1
31381,4
31387,1
31394,1
5233,1
31402,1
38002,1
31411,1
31416,1
31422,1
31424,2
31425,3
31435,1
31439,1
31446,2
31447,1
31448,1
31453,2
5243,2
31463,1
31468,1
31473,2
31480,1
31490,1
31500,1
5250,1
5252,1
31518,1
5254,1
31528,4
31532,1
31534,2
31538,4
31541,1
31552,1
31557,3
31559,1
31560,1
31561,1
31592,3
31603,1
31610,1
31612,1
31617,2
31618,8
31621,1
31627,1
31641,2
31644,1
31648,1
31656,3
31673,1
31674,3
31682,1
31686,1
31687,1
31688,1
31691,1
31693,1
31694,1
31695,1
31707,2
31708,1
31709,5
31710,2
31712,1
31714,1
31726,2
31732,1
31735,1
31736,1
31737,1
31738,2
31745,2
31754,1
31762,1
31763,1
31772,1
31777,2
31782,1
31786,1
31795,2
31796,1
31798,3
31799,1
31802,1
31817,1
31829,3
31844,1
31845,2
31860,1
31861,1
31864,2
31870,2
31872,1
31873,1
31905,2
31910,1
31920,1
31943,1
31950,1
31961,2
31962,4
31968,2
31971,1
31972,1
31973,2
31975,2
31978,1
31979,1
31983,1
31985,1
31988,4
32005,1
32021,1
32024,1
32025,1
32031,9
32032,1
32036,1
32037,1
32038,1
32042,1
32053,1
32057,1
32069,1
32076,2
32077,1
32079,1
32091,1
32095,1
32097,1
32100,1
32101,2
32115,1
32116,4
32129,1
32130,4
32133,5
32135,1
32167,2
32171,1
32185,2
32199,1
32200,1
32206,2
32207,2
32208,1
32210,2
32214,1
32217,3
32218,1
32219,1
32220,4
32236,2
32237,1
32244,1
32251,1
32252,1
32253,1
32260,1
32276,2
32283,1
32290,1
32298,2
32310,2
32311,1
32314,1
32315,1
32324,2
32328,6
32333,1
34040,1
32340,4
32342,3
32356,2
32361,2
32371,1
32378,1
32386,2
32395,1
32398,3
32403,1
32423,1
32425,2
32430,3
32433,1
32459,1
32471,2
32481,1
32485,1
32488,1
2269,1
32503,1
32504,1
32514,1
32517,1
32530,1
32542,1
32549,1
32550,2
32554,1
32563,1
32564,2
32566,2
32567,2
32568,1
32575,1
32581,1
32588,1
32591,1
32592,1
32595,1
32596,1
32598,2
32611,1
32613,2
32618,1
32620,2
32623,1
32642,2
32643,7
32653,2
32662,1
32674,1
32699,2
32703,1
32710,1
32715,9
32718,1
32727,2
32735,1
32741,1
32745,1
32746,1
32748,1
32755,1
32762,1