ID,counts
8192,3
16388,2
8197,1
8198,1
8199,2
8210,1
16403,1
16404,1
16408,2
8217,1
16410,1
15023,1
8220,1
8222,1
16417,1
16418,1
16423,1
8233,2
8235,10
6252,1
13661,1
16432,2
21854,3
8246,2
3797,1
5471,1
8253,1
21856,1
16455,2
16456,2
8271,2
8272,1
8274,1
8275,1
7095,1
16470,1
16473,1
16476,2
16477,2
8287,5
8288,2
8289,6
16484,1
16485,2
8295,2
16493,2
21864,1
8308,8
8309,3
8315,4
8316,1
8318,2
8319,5
8321,1
16514,1
8323,3
8326,3
8327,2
16521,2
16525,1
10947,1
16409,1
13644,2
16537,2
8346,1
8347,1
16543,1
8353,4
16549,2
16551,2
21615,1
8367,2
8369,1
16565,1
8374,1
16567,1
8377,3
16570,1
16373,1
16572,1
15050,1
16575,1
8386,1
18691,1
16588,2
8399,2
16592,1
8403,1
8407,1
16374,1
8412,1
13690,1
8414,2
8415,20
14192,1
8418,1
9595,1
16612,1
16615,3
21884,2
14272,1
8428,2
8431,1
8432,2
8433,1
8434,2
8435,2
8438,2
16632,4
8442,1
8444,1
8446,2
8452,20
8455,2
6871,1
8460,2
15441,2
8464,2
16659,1
8478,4
20528,2
6875,2
8486,16
8487,3
16681,3
8495,1
16691,1
8503,1
8505,2
16699,2
16700,1
8511,1
16705,2
12083,1
8521,1
8523,2
20536,2
8531,1
16724,1
16739,1
16743,1
16747,1
8556,1
8557,5
16751,1
8562,1
14197,1
16761,1
8572,1
16769,1
8578,3
16773,1
16774,1
8583,1
8584,1
8586,2
21911,1
16787,1
16791,1
16794,1
8603,2
8605,2
20549,1
16802,1
16804,1
19185,1
8743,1
16813,1
8630,2
8633,3
12362,1
16831,1
8643,1
16837,1
16839,2
4172,1
16842,1
16845,1
8654,2
11496,1
20560,1
8677,1
8681,2
8684,1
6909,1
13736,1
8690,1
8691,1
8695,2
16889,1
16893,1
8277,1
16896,1
8707,2
8711,1
16905,2
12375,1
6914,1
16914,2
6915,3
12020,1
20569,1
3793,1
3837,2
17749,1
13745,1
8744,1
8747,1
8285,2
13747,2
6223,1
16479,1
16956,4
8767,1
16480,1
8771,1
8772,1
8777,1
8781,1
11021,1
8794,12
8795,19
8293,1
8800,1
8805,1
8808,4
8809,2
8813,1
17006,1
17011,1
17013,1
17020,1
17026,2
17029,2
8838,1
9665,1
17038,3
4205,2
8850,2
8851,3
13226,1
8856,1
21299,1
17057,1
8871,4
8879,2
8880,1
17073,1
17075,1
17076,1
17865,1
8888,5
8889,1
15211,1
8896,1
17091,1
17093,1
8902,1
17096,2
8908,1
8912,1
3769,8
17106,1
19235,2
6298,1
8920,18
17115,3
8924,1
8929,1
17126,1
6951,2
17132,1
17134,2
17137,1
17140,3
8949,2
17142,1
17147,1
8960,2
12028,1
8968,1
8970,3
8972,1
20610,1
8974,1
21303,1
8984,3
8989,1
17183,2
8993,1
17186,3
7119,3
17212,2
9002,1
9005,4
17199,2
17201,2
9013,1
17208,1
17210,1
9020,2
12426,1
9028,4
9029,1
17222,1
17223,1
9037,1
9039,1
17233,1
9043,1
20622,1
9046,1
9049,1
9050,2
9057,2
9062,1
17256,23
9065,1
9066,1
5607,5
9070,1
15165,3
17265,4
9074,1
9076,3
9077,4
9078,1
17271,1
17272,1
4244,3
17274,1
9083,2
9085,1
9086,1
22125,1
9088,8
9089,1
17285,3
17287,1
9099,5
17294,1
9103,1
9104,1
9110,3
8345,2
6980,2
9117,1
9119,2
9121,1
17315,2
17319,1
9129,1
9130,9
9131,2
9133,1
9134,5
17330,3
15580,1
9141,6
6985,1
10943,1
19277,1
17360,1
9169,2
4259,1
9177,1
17371,1
17378,1
9190,1
9196,1
17390,1
9209,4
9211,1
17404,1
17405,1
21311,1
11094,2
17414,1
9224,2
9229,1
9230,1
9231,5
9232,1
17426,1
22019,1
17428,1
17437,1
17438,2
9247,2
20656,1
17445,1
9254,1
17447,4
9256,1
9259,1
17452,1
17458,1
17461,2
9270,3
20660,2
17466,1
15199,1
13834,1
9278,1
9280,1
17473,1
5643,2
20662,1
9286,2
17479,3
21284,1
9289,1
8375,1
9292,2
9293,2
9294,4
17487,1
9298,1
9299,2
17492,1
9308,1
5648,2
19302,1
17510,1
13841,1
17513,1
9322,2
9323,1
17516,2
22133,1
9331,2
17525,2
9334,2
8383,1
9340,2
17533,1
9342,3
22037,1
9346,3
17539,1
9349,1
9351,2
9355,2
9357,1
17550,1
9359,1
5245,1
17554,1
17555,2
17556,1
9365,1
9369,1
17565,1
17566,1
4293,2
9378,1
13851,1
17572,1
9386,1
17579,6
9937,1
17581,2
22045,1
19315,1
17592,1
22047,1
6079,1
9406,1
17600,1
17602,2
22049,1
17608,1
9417,1
19319,1
9426,1
17621,2
11129,2
11498,2
9440,1
9445,6
17638,1
17641,1
9451,1
9452,1
17645,1
17650,1
4591,1
19103,1
17666,1
9475,1
9476,1
17670,2
19683,1
9480,1
17678,1
13869,1
17687,1
19411,1
9503,1
17701,1
17703,1
9520,1
7682,1
9525,1
17721,1
9531,1
9532,2
9535,3
9536,1
12512,1
9539,2
9542,1
9544,2
17737,1
17738,1
9547,10
9548,1
17741,1
17743,1
9553,2
9557,1
9558,4
17754,1
9563,3
22141,1
7825,1
13685,1
17768,2
17772,1
17774,1
20712,1
9586,2
9587,1
9590,1
16959,1
17787,1
9598,2
7061,1
17794,1
16620,2
17802,3
20717,1
17808,1
9617,2
9619,3
9620,1
9622,10
17816,2
17819,11
17823,2
9633,1
20721,1
17834,1
17836,4
9645,1
9647,1
22814,1
17842,2
13897,1
17848,2
12533,1
9664,3
17857,1
9666,7
9667,1
17860,1
9669,2
17863,1
17864,1
5708,1
17869,1
17871,1
17873,14
17875,1
17876,1
9686,3
9692,1
9694,2
17889,2
9699,1
9700,1
9704,1
9705,4
17899,2
17902,1
9715,1
9718,1
17911,1
17915,1
17921,1
9731,2
9735,1
7084,3
9741,2
17934,1
17935,1
17940,1
17943,1
17944,3
9754,1
9755,15
9760,1
17954,1
22107,3
9765,1
17961,1
9772,1
17966,1
20784,4
9776,1
17969,2
17971,2
17975,2
9784,2
9785,1
9790,1
17985,1
18017,1
17992,3
9803,1
9804,1
17997,1
17999,5
9813,1
18012,2
19760,3
12560,1
9829,2
9831,1
9832,1
18026,2
18029,1
18035,19
9846,2
9850,1
9852,1
9854,2
18047,1
9856,3
18050,2
18053,1
18055,1
18060,2
18063,1
18064,3
9876,4
11240,1
18070,1
18075,2
18081,1
9893,2
9894,3
22129,9
9897,2
18090,1
9899,1
3721,2
9901,1
19400,1
9906,1
9843,5
9911,1
9912,1
9915,2
18110,1
9919,3
8742,1
9922,1
9927,1
9929,1
9933,1
18129,1
18131,6
9941,1
18134,5
18135,1
9945,2
18139,2
9953,2
4423,1
18151,2
9960,1
13948,2
18154,2
18159,1
9969,1
9970,1
11219,1
9973,1
9975,1
9976,1
18169,1
18170,1
9979,37
9980,1
9984,1
13952,1
18179,1
9989,1
9994,1
9995,1
9996,1
9997,6
18190,1
18192,2
10007,1
18203,1
10014,1
18209,1
10019,6
18212,1
10021,1
10026,2
18224,1
18225,1
10035,1
10037,13
22157,1
10073,2
18269,1
11237,1
10084,1
10085,1
18280,1
22704,2
18287,1
18288,6
18289,1
5779,1
18292,1
10101,1
18295,2
18068,1
18299,1
10110,1
10111,1
12608,1
10120,1
18326,1
10143,1
18337,1
22706,3
18344,2
10153,1
10155,1
18352,1
10165,2
18358,1
10168,1
18363,1
10172,3
4426,1
18367,1
10176,1
10178,1
18373,1
9889,1
10184,2
13987,1
10197,3
10198,4
18391,1
10202,4
10203,1
10204,4
10205,2
10206,2
18401,1
10217,2
9895,2
18413,1
18415,2
10225,2
16723,1
22163,3
18421,1
18424,1
12628,1
10235,30
22436,4
18430,2
4437,2
18434,3
17526,1
18437,3
22188,23
11798,1
18445,1
19459,1
18452,2
18455,1
18457,1
10270,1
18468,1
10278,1
10280,1
18098,3
18481,1
10291,1
10293,14
10295,2
10303,3
18499,1
11276,1
18103,3
6072,1
18522,1
10331,1
18525,1
11528,1
18527,3
18529,2
10338,1
10340,2
18537,2
18538,8
18539,3
10351,1
18545,2
18549,1
18552,1
10363,3
20842,2
18558,1
20582,1
18569,1
10382,16
10383,2
18576,1
22211,1
18580,1
18582,1
10393,2
10394,1
18587,1
10396,1
7194,1
18590,1
10403,1
18597,1
10406,2
10408,2
10410,2
18604,1
10413,2
10414,1
10416,8
10418,2
18611,1
20260,1
15391,2
18620,1
10442,1
10443,1
10445,10
10446,4
10447,1
18641,2
18642,2
10451,2
10453,1
18646,1
8569,6
10456,1
10457,3
10459,3
4474,2
10462,1
18656,1
18658,1
3943,1
18661,1
10471,6
10473,1
22444,2
10476,1
18671,1
18674,2
10483,1
18678,1
10487,2
18680,3
22228,2
10490,2
4479,2
18684,2
10493,1
10494,1
10499,1
10501,2
10502,3
10503,4
10504,2
10505,1
18699,1
10509,1
10510,1
10511,1
10516,2
10517,1
10520,1
10521,3
18714,1
10525,1
18720,2
10531,1
10533,1
18730,3
10541,1
10543,1
18736,2
12680,2
10549,1
10555,3
10560,1
4716,1
10563,1
10565,3
3780,1
10570,1
10571,1
18764,1
18767,2
10581,1
18778,1
10587,1
9900,2
10603,2
10606,1
19517,2
10609,2
12691,1
10613,1
18806,1
12692,2
10618,1
10620,1
18813,3
10622,1
10626,2
18822,3
18823,1
10632,2
10637,1
10639,1
10640,1
10641,2
18836,2
18838,1
10648,3
13448,1
9967,1
10652,1
10659,1
10664,1
18858,1
10668,2
18862,2
18863,1
10674,2
5811,1
11337,1
18874,1
18875,1
18876,4
10687,3
10689,1
10691,1
10696,1
18889,1
3890,1
14092,1
10704,3
18903,3
6085,3
18907,4
10716,2
10719,1
10720,2
18915,2
10724,1
10725,2
12905,1
14076,1
18922,1
10731,1
18925,2
10738,1
10743,1
6086,1
18939,1
18941,2
18943,1
18948,2
10758,1
10763,2
18962,1
18964,1
10774,1
18970,2
10779,1
10781,2
18975,1
18976,1
18983,1
10792,1
10793,1
10796,2
18990,1
12723,2
10804,2
19001,1
7998,1
19012,2
18091,1
19015,1
19017,1
10827,1
19554,3
19024,1
12728,1
19026,1
19027,1
19031,1
6362,1
22287,2
12730,1
10846,1
19039,2
10454,1
10849,2
19042,1
19043,2
19044,1
10854,3
17001,1
19048,1
10858,1
10862,2
10863,3
19057,2
19058,1
19059,3
10868,2
10869,2
10870,1
10871,1
10874,2
19067,2
13077,1
10455,5
22293,1
10881,1
19081,1
10890,1
5911,1
19085,1
4547,1
15470,2
10905,3
19101,1
19102,1
10911,1
10915,1
10916,1
19114,1
10927,1
19120,2
19122,1
19123,2
19124,1
20277,1
19127,1
10937,1
19130,3
19135,1
10944,1
14112,2
19139,3
10948,1
10949,2
19143,1
10952,1
19146,3
19149,2
19153,1
10962,3
19155,2
10966,2
10967,1
19161,1
10970,1
20943,1
10972,2
19167,2
19170,1
7291,2
6947,1
14823,1
19177,1
10987,1
10988,1
19183,1
10993,1
10994,1
10995,1
19188,1
19190,3
19193,1
19194,1
19196,1
12757,1
11010,1
11013,1
5932,1
19213,2
19214,1
19215,1
11029,1
11030,2
11033,2
5935,6
12762,1
22320,1
11043,2
19237,3
11047,1
11048,1
4572,1
11051,1
20957,1
11057,2
11058,4
11060,1
11061,1
11062,1
19257,1
19258,1
11067,1
11069,1
4576,1
19266,2
19267,6
11076,1
11077,3
11078,4
19273,1
11084,1
11085,3
11087,1
19281,1
19283,1
11093,1
13190,1
19288,1
19291,2
19293,1
11103,1
19301,1
11110,2
11113,1
11116,3
19311,2
11120,1
11122,1
11123,2
11127,3
19321,2
11131,1
11132,8
4493,1
12373,1
11135,1
11137,1
11138,2
19331,1
19332,2
11141,2
11145,2
12919,1
11416,3
22339,1
19348,5
12782,1
19355,1
11164,1
19357,1
11167,1
11168,1
20976,1
11419,2
11175,1
19372,1
19374,1
19377,5
19378,4
11190,1
11192,3
19385,1
11198,1
11200,1
11201,2
19399,1
11208,1
11209,5
11211,3
11212,1
19405,1
11214,1
11216,2
11217,1
11218,1
15523,4
11221,1
11223,2
11224,2
19421,1
19422,1
18923,1
14160,1
11235,1
11236,4
19429,1
19432,12
11242,1
19623,1
11245,3
5830,1
19624,2
11251,1
19446,1
19625,1
11257,2
11259,1
19453,1
11265,1
19627,3
19460,2
12841,1
19468,1
11282,1
19475,1
13714,1
11295,2
8014,1
4614,1
11302,1
19510,2
11320,2
11323,1
11325,1
11327,2
19521,1
11333,1
11335,1
19529,1
11339,1
11341,1
19534,2
12813,1
19537,2
11351,1
19547,2
11362,2
11366,1
12818,1
19571,1
19574,1
11384,2
19578,1
11387,2
11393,2
19588,1
19590,1
11399,2
11400,1
19594,1
19601,1
19602,1
11411,3
19604,1
19605,1
19606,1
19608,2
11418,1
19611,3
21018,1
19614,1
21571,2
11425,1
11426,1
11427,1
11428,2
11429,28
11430,33
11431,19
11432,22
11433,33
11434,30
11435,1
11440,1
11444,6
19643,1
6005,2
19652,1
19653,1
19654,2
21025,1
11464,1
10103,2
19661,1
11472,21
19667,1
11477,1
11479,1
19673,2
19674,1
7375,1
19676,1
19677,2
19678,2
19679,5
11488,4
22117,1
19682,1
11491,3
19684,1
19685,2
19171,3
19688,9
19690,8
19691,3
11500,1
19693,3
19695,1
14022,1
11511,1
11512,1
11517,1
11519,1
19714,1
11525,1
11526,1
22401,1
19720,2
19723,1
19725,1
19726,4
11535,1
15387,1
11537,1
19730,1
19731,2
11541,2
11542,1
11544,2
19738,4
11548,2
19741,1
19747,1
14214,1
11560,1
19753,3
19754,1
11563,1
11566,2
11568,2
19762,1
19763,1
11573,2
19766,3
6025,1
20844,1
19770,1
19771,1
11580,2
19777,2
19778,5
19780,1
21046,1
16764,2
19784,2
19785,1
19786,2
19789,2
11599,1
19792,2
12856,1
11602,1
11603,1
14920,1
11605,7
19798,3
19800,2
11610,2
19804,2
11493,1
14224,4
11624,1
8764,1
12529,1
11633,1
19827,1
5843,4
19832,1
4752,1
21119,4
19837,1
19840,1
11650,1
11499,1
19844,11
19847,1
19849,1
19850,1
11660,1
11666,1
19860,1
19862,1
19863,3
19864,2
11673,1
11674,1
19868,1
19869,2
19872,1
19874,1
11683,2
19877,1
11690,1
19885,1
11694,1
19887,1
19888,1
11701,1
16969,1
11706,4
11707,3
19903,1
11714,1
11717,1
19910,1
19912,3
11722,2
19915,1
19917,2
19918,4
19925,2
11735,2
11736,4
11737,3
19931,2
19936,1
11745,4
19943,1
19944,1
22439,6
4690,1
19954,1
19958,1
14249,1
11779,1
19973,1
19975,1
19977,1
19978,1
19982,1
11791,2
19984,1
11793,1
19987,1
19990,2
17578,1
7428,1
11804,1
16986,1
11806,1
11807,2
20000,1
20001,1
20002,1
20003,3
20009,1
11818,1
7431,3
20015,1
20016,1
20017,1
11578,1
20030,1
11839,1
20032,1
11842,3
20037,2
11849,1
20042,1
20043,2
11852,2
20047,1
11857,1
11534,1
20054,1
22763,1
11864,2
20060,2
12901,1
21574,1
3690,5
21095,1
3692,8
3693,4
3694,24
3695,8
3696,2
17000,2
11890,1
3699,9
3700,9
3701,3
3702,3
3703,3
3704,2
3705,3
3706,12
3707,3
3708,7
3709,5
3710,13
3711,3
3713,4
3714,1
3715,1
3716,3
3717,3
3718,11
20105,5
3722,10
3723,2
3724,4
20109,2
3727,3
20112,1
22765,1
11924,2
3734,4
3735,3
3737,8
20122,2
20123,4
3740,6
3741,2
3742,2
20127,1
20128,2
3745,3
3746,10
3747,8
3748,2
3749,8
3750,5
3753,3
3755,1
3757,1
3758,4
7453,1
20144,2
3761,5
3762,4
3763,10
3764,15
7454,2
3766,7
3767,3
3768,16
20153,6
3770,9
7455,1
3772,4
3773,3
3774,2
3775,10
20160,1
11970,1
3779,7
11972,4
20167,1
11976,1
3785,1
3787,1
11980,2
11982,1
11983,1
3792,1
12920,1
20181,1
3798,1
20186,1
3803,1
20188,1
3806,3
3807,1
20192,1
3810,4
3811,3
12004,2
20203,1
20205,2
3822,1
20208,2
3826,6
18387,1
3828,5
3829,3
12023,1
20217,1
12027,1
3836,2
20221,2
20222,1
12031,1
3840,1
3841,9
3843,2
20229,3
20230,1
12040,2
8834,1
20239,4
3856,1
20242,1
20244,2
3861,17
3862,22
3863,1
12056,1
12058,1
12059,1
3869,1
3870,1
3871,1
3872,3
12065,1
3874,3
3875,3
3876,2
3877,13
3878,7
3879,2
3880,4
20265,1
3882,7
3883,17
3884,1
3885,4
3886,9
3887,5
3889,2
12082,2
3891,2
20276,1
3893,3
3894,1
20279,1
3899,4
3900,1
3901,17
18679,1
3904,4
3906,1
7478,2
3913,26
3914,1
12107,1
20300,2
7391,1
3919,1
3921,5
12115,1
12117,1
3927,2
3929,1
12123,2
3933,2
12126,1
12128,1
12944,3
14047,1
3941,5
3942,3
12945,1
3944,2
12137,2
12143,1
12146,4
3956,8
12149,2
20342,2
20343,2
20344,2
3961,1
20350,1
12159,4
3968,3
3969,1
3970,1
20355,1
12164,3
12165,1
20361,1
20365,1
12174,1
20367,1
18409,1
12184,2
3994,1
3995,1
20384,1
4007,5
4009,1
20395,2
4013,2
12206,1
20400,2
4018,2
20403,1
20404,1
20406,1
12216,1
4026,1
4027,1
16501,1
7772,1
20419,2
20420,1
4038,1
4664,3
12242,1
12243,1
4053,1
10233,4
12249,1
20442,1
4059,1
7773,1
20321,1
12259,2
4072,2
4073,1
4074,1
4079,1
12272,1
12274,1
20467,2
12277,1
4777,2
12284,1
4095,1
11606,1
12297,1
20491,1
20493,1
12302,1
12308,1
12309,1
4119,1
20505,1
12314,1
12315,1
4126,1
6149,1
8839,2
12326,1
12327,2
12328,1
4138,1
4139,1
12332,1
20526,1
20527,5
4144,1
12337,1
20531,2
20532,2
20534,1
20535,1
4152,2
12345,2
12352,1
12353,2
12355,1
20548,1
21174,1
20550,1
20554,2
12364,3
4173,1
12368,1
17080,1
4179,5
12372,2
20565,1
12374,1
20567,3
12377,1
4186,2
4187,2
4190,1
4192,1
4193,5
12386,2
20579,2
4196,1
7526,1
22235,1
20584,1
12393,1
4204,4
12397,1
4797,1
6414,1
4211,2
4212,2
12405,1
12407,1
4216,2
20602,3
4219,2
4221,2
4222,2
4223,1
4225,2
20872,2
20613,1
20615,1
4232,2
4234,2
4237,1
4238,4
4239,2
6168,1
4242,2
4803,1
12436,1
12439,1
20634,1
12444,1
4253,8
4254,1
4255,3
4256,3
12449,2
12450,1
12451,1
4262,1
12455,2
4264,15
4265,16
12461,1
12464,2
12465,1
20659,1
4276,3
12470,1
12473,4
12474,1
4283,1
12476,2
20669,1
12478,1
12481,1
4290,2
12484,1
20677,1
20678,1
6177,1
20681,1
20682,1
4301,1
20329,1
12497,1
4307,4
4309,1
20695,1
10276,1
20704,2
11643,1
4325,1
4326,1
12520,2
4331,1
4818,1
12526,1
12527,1
4337,2
20723,1
15742,1
4345,1
4348,2
12542,1
20735,1
20736,1
12545,1
4354,1
3691,1
13784,1
12551,1
20745,2
20746,1
12556,1
20749,1
12558,1
18477,1
4368,1
4372,2
12565,1
12566,2
3957,5
20761,1
4379,2
12573,1
4385,2
8923,1
4391,1
20782,5
12592,1
20324,1
12594,1
12595,1
16887,1
4405,1
12603,1
20800,5
12610,4
12611,1
12612,1
12615,3
4425,1
20810,2
4427,1
12622,1
4431,1
20817,2
4436,1
20821,3
4438,1
12633,1
12635,1
4444,1
4447,1
12641,2
12696,1
4451,1
12644,1
12646,2
4456,1
20841,1
12650,2
12652,1
20848,4
5877,1
12660,1
12662,1
20855,1
4473,1
20858,1
12671,1
12672,3
4481,1
12674,1
14061,2
12676,3
12678,1
20871,1
4488,1
6210,1
4494,1
12687,1
12152,1
20883,2
4500,2
13038,1
12694,1
20888,1
8191,1
4507,7
20893,2
12702,1
4511,1
12706,1
4516,2
20901,2
20902,1
20903,2
20904,2
20905,1
12714,1
4523,2
20915,2
4533,1
20919,2
4536,1
4537,1
20922,3
12731,1
4540,4
4543,1
12972,2
8950,1
4551,4
13047,1
20940,3
12749,5
12750,6
12751,1
12752,1
4561,1
22606,3
20950,1
4568,13
4570,2
4571,9
12764,2
12765,4
12767,19
12768,4
12769,1
20962,1
12773,2
4583,3
4584,2
4517,1
14610,1
4588,5
4589,3
4590,14
20975,2
12784,1
4593,3
4596,5
20981,1
4600,2
4601,1
20986,1
20987,2
6229,1
12804,2
4613,1
20998,1
12807,1
12808,2
12810,2
6231,2
12812,2
4621,2
21006,1
4625,2
4626,4
21011,1
8883,1
4631,6
4868,1
12826,2
4635,1
4636,1
19249,1
21253,4
4641,2
12835,1
4647,3
21033,1
4650,1
21036,1
21037,2
4654,1
12848,1
7520,2
4662,1
21048,2
4665,1
10335,1
12860,1
12861,1
7605,1
4673,3
12867,1
12869,1
4678,1
12873,1
4683,6
21068,2
14434,1
12882,1
21076,1
21077,1
21078,8
18532,1
12892,1
19898,1
21086,2
4703,1
4708,1
4709,1
17169,1
4712,1
21097,1
21098,1
12908,2
21103,1
12914,1
12915,1
21109,1
22633,4
21112,3
12923,1
12925,2
4735,2
4736,1
21123,1
6469,1
21129,1
21130,1
21136,2
17176,1
4756,2
21141,1
21142,1
12951,1
4763,1
12956,1
12958,1
4768,1
12961,1
13083,1
12964,1
22641,1
21161,3
11343,1
4779,7
4780,5
12974,1
4789,5
12982,1
12985,3
4795,3
12989,2
21182,1
12992,4
4896,1
21186,1
11723,1
4805,1
12998,1
4809,2
21282,1
4814,2
13008,1
21201,1
21202,2
13011,1
21204,2
13014,2
4823,2
4825,54
4826,2
21211,1
4830,1
13031,2
14544,1
4845,1
21230,1
21288,1
21234,1
20327,1
21237,4
4855,2
4856,3
21243,1
21244,7
4864,15
13057,1
13058,2
13060,1
4869,3
21254,2
4871,1
4872,1
4908,2
21258,1
5345,2
4877,1
4878,2
13071,3
20621,1
4881,3
4882,6
4883,5
4884,3
4885,2
4887,1
4889,16
4890,6
4891,9
4892,3
4893,1
4894,2
4895,2
13088,1
11762,1
4898,5
4899,2
4900,1
4901,4
4904,2
13097,1
21292,2
4909,1
4913,5
4915,7
4916,1
13109,1
4918,39
4919,36
4920,15
21305,1
4924,1
4925,1
4926,2
4917,1
21312,1
4932,1
4936,1
4937,1
4938,2
4939,11
4941,1
4942,4
4943,2
13138,1
21331,1
4950,1
4951,1
4953,3
22671,3
4956,1
13149,1
21342,1
4960,2
12713,1
4962,6
4963,1
11817,1
13158,11
4967,1
21352,1
4969,1
21357,3
4974,1
4976,4
4977,3
4978,3
4979,1
13172,1
4982,1
4983,1
13176,1
4985,2
13178,1
4987,2
4988,3
4989,1
4990,2
4991,26
4992,5
4993,17
4994,8
4995,4
4998,11
4999,6
5000,1
5001,3
21386,2
21387,3
5004,1
5006,1
21391,2
21394,1
5011,1
13206,3
22183,1
21401,1
21402,2
6441,1
13214,2
5028,3
13221,2
18171,2
5033,2
5034,4
5035,1
13229,9
13230,3
5039,2
13233,2
13235,1
5044,1
5045,1
21434,1
21435,1
21436,1
5054,1
21441,3
13250,1
21443,1
5062,1
6305,1
5064,1
13259,3
5068,3
13261,1
13262,2
13264,3
21457,3
5074,3
5075,1
20082,1
13270,3
13272,1
21468,1
10405,2
5088,3
5089,1
13283,2
21478,1
21480,1
5097,1
21487,1
5107,3
13301,1
5111,3
22811,3
13306,1
21501,1
21506,2
21507,2
4535,1
13318,1
5130,2
13323,1
6446,1
13327,1
21521,1
21522,1
21523,1
13332,1
13333,2
21528,1
6320,1
5154,1
13348,1
13349,5
20822,1
21544,2
13356,12
21549,2
5168,1
21553,4
21554,3
13363,1
22813,4
15310,3
5176,1
14516,3
5179,1
5180,4
21565,2
13374,1
13375,1
13376,1
21344,1
13379,2
5188,1
5190,2
5195,1
21585,6
21586,1
13155,3
21588,1
5356,1
21594,1
21595,4
13410,2
21607,1
13422,3
6448,1
13426,1
21621,2
21623,1
17258,1
20906,1
5248,1
13441,1
5251,1
5253,1
5256,1
8904,1
22722,1
13454,1
13165,1
21648,8
21652,2
21653,1
5272,1
13466,1
13467,1
21660,1
21661,1
5278,1
5281,2
5282,1
5284,5
5285,1
21670,1
21361,3
13487,1
5297,1
13490,1
21685,1
5303,2
5304,1
13497,1
5306,1
5309,1
5311,8
5312,1
5313,2
5316,1
13511,1
9079,17
5325,1
18637,4
21712,2
4269,2
21715,1
21719,1
5337,3
21725,2
17363,1
13537,5
13538,5
5348,1
21733,2
5351,2
13544,1
21738,1
21739,1
13548,1
10450,2
13550,2
5362,2
5364,1
21749,1
21751,1
21754,1
13563,1
13567,3
3725,2
13570,1
5380,1
6358,1
5384,1
21769,2
21770,1
21771,1
13580,1
21773,4
21774,1
5391,2
13584,1
21777,4
21778,2
21780,1
5398,1
5401,5
5404,1
14554,1
21790,1
9093,2
13600,1
5409,3
21794,3
5411,1
21797,2
5414,1
21799,4
13608,1
21802,2
5421,2
10461,1
21808,4
21809,4
5427,1
13620,1
13193,1
13624,1
5434,1
22751,2
13194,2
5439,1
5440,2
13634,1
13195,1
5444,1
5445,1
21833,1
5451,1
21836,2
13645,1
5454,1
10467,2
21844,2
13198,1
5462,2
5467,2
13660,3
5469,1
5470,1
21855,3
5472,1
13666,1
21859,4
22758,2
13672,2
21867,1
13676,2
21869,1
21870,1
5487,1
13684,1
21877,3
5498,2
13692,1
6378,1
21886,2
13697,1
13698,1
21891,1
13703,1
21896,1
18668,1
21898,1
21899,1
5517,1
13710,1
21903,2
21906,1
9113,2
13722,3
21915,1
13724,1
5367,1
21921,1
5540,5
13735,2
5544,2
5545,1
5547,1
5548,2
5550,1
21936,1
5553,2
13746,1
5555,2
5556,1
5559,1
13753,1
13754,1
5565,4
13758,1
5568,4
21954,4
13765,1
17313,1
20044,3
21963,1
5583,1
5586,1
21972,1
21973,1
5590,7
13783,1
5592,1
21979,1
5599,1
21985,1
5603,1
5604,1
5605,1
13798,32
21991,2
5608,6
5609,1
5610,3
13803,1
5612,3
5615,2
5618,2
22004,1
5622,1
5624,2
13817,2
5627,1
13820,1
21418,1
5630,1
13827,1
5636,2
13829,1
22023,1
5640,1
7457,1
5642,1
13835,2
13836,1
13840,1
22033,3
22035,3
22036,3
13845,1
22038,3
14596,1
22042,3
22043,1
22044,1
13853,1
5663,1
5665,1
22050,2
5670,3
21425,3
22057,2
13866,1
5677,1
22062,2
22063,1
5680,1
22066,2
5683,1
22068,1
22077,2
22078,2
5695,1
13889,1
22087,2
22088,6
6191,1
22092,5
22094,1
22095,2
6464,1
22097,11
22098,3
22099,5
22100,8
22101,7
5718,2
22104,1
13914,1
6415,2
5050,1
6416,1
5730,1
13243,1
5733,2
22118,1
5737,2
22122,3
13932,5
6418,2
5742,1
22128,8
5745,19
22131,3
5748,2
13246,1
9081,1
13944,1
6420,3
22138,6
22140,2
5757,2
22142,2
18709,1
22144,1
22146,2
22147,2
22150,1
13959,1
13960,1
13961,1
5770,1
5773,1
5774,1
22160,2
5778,1
13251,3
13972,2
5781,2
22167,1
22168,2
13980,1
13984,1
5794,1
22179,1
3739,4
3697,17
22185,2
13996,1
3698,12
22190,3
22191,15
21448,1
11891,1
14622,2
10832,1
15988,1
14011,3
22204,1
14013,2
10528,1
22210,1
14019,1
7798,2
14496,1
14023,1
22217,1
5835,1
14028,2
5839,1
14034,1
22227,3
5844,13
5845,1
14038,1
5847,1
22232,2
5850,1
14043,1
20090,4
14046,1
18725,2
5857,1
5862,2
14056,1
5867,1
22252,1
21458,1
5870,5
22255,1
22257,1
22258,1
14067,1
22261,2
22262,6
14071,2
22266,2
5883,2
22268,3
22269,2
22274,1
14085,3
22278,1
22280,1
22281,3
22284,4
14095,1
14096,1
22291,1
5908,1
5909,1
22295,1
5912,1
14105,2
14106,1
22299,1
22300,3
22301,1
22304,1
14113,1
22309,1
22310,2
5930,1
22316,1
5933,1
14126,2
22319,7
14128,1
22321,2
22324,1
22325,3
22326,2
22327,8
5944,1
22836,2
20111,1
11914,2
22336,1
5955,1
14148,1
20108,5
21732,1
14159,2
5968,1
5091,1
5972,1
14166,2
5979,1
18747,2
22372,1
22373,1
22375,2
5993,1
22381,2
22382,6
14191,1
22384,5
22388,1
22846,1
3732,2
22397,2
14206,3
22399,1
18752,1
22403,1
14213,2
22406,1
22408,4
14217,2
14219,2
6466,1
14222,1
22416,2
6033,2
22418,2
7787,1
22425,1
11930,1
22430,5
22431,4
6050,1
11931,1
14244,1
22437,6
6054,1
6055,4
22440,10
6057,1
22442,1
6060,7
22445,3
6064,1
6065,2
22451,3
5112,1
22456,20
22457,20
22458,26
22459,35
22460,30
22461,17
22462,43
22463,19
22464,9
5658,2
14277,2
14278,10
22472,3
6089,2
22474,1
22476,2
6093,4
22479,1
6096,1
14289,2
6477,1
22487,3
6104,2
6105,2
22491,1
6108,4
6109,1
6111,8
22498,4
22499,5
22500,4
22504,1
22505,1
22509,3
13843,1
22513,1
22514,3
6132,3
22518,1
22525,2
22027,1
22530,2
22532,1
22533,1
22534,2
22536,3
22537,1
22538,2
6158,1
6159,1
22546,1
22549,1
22550,2
22552,4
6169,4
22555,1
22556,2
22558,18
22559,2
22561,1
4460,1
22563,1
22564,1
22569,10
22571,2
22573,10
22574,5
22575,8
22577,2
22580,2
22582,4
14391,2
6201,1
22587,1
6204,1
6207,1
14401,1
22594,1
22598,8
14409,1
6218,1
22603,6
22604,1
14413,1
6222,1
22607,2
22610,6
22611,1
22612,4
22613,2
6230,2
22615,1
22616,4
6233,1
22618,7
22619,4
6237,1
22622,2
22623,3
22624,9
6241,1
22626,1
3771,11
22630,2
14441,2
6251,4
22636,1
22637,1
22638,3
22640,1
14449,1
14450,1
22644,1
6261,1
22648,9
22649,1
6266,2
6268,2
6269,1
22656,1
6275,5
22662,4
22663,7
22665,3
22666,1
22667,4
22668,1
22669,1
22670,2
14479,1
22673,2
22675,1
22676,7
6293,1
22678,1
14488,1
22681,3
14490,1
22683,1
22684,1
6302,2
6303,2
22688,8
22689,4
22690,5
22692,3
22695,8
14504,1
22697,2
6315,1
22700,2
22701,4
22702,2
22703,8
14512,1
22705,3
6322,1
22707,4
22708,1
22709,6
22710,1
22712,2
14523,8
14524,1
22717,2
6334,2
22719,7
22721,5
13850,1
22725,4
22726,7
22727,2
22728,2
22729,1
6347,1
22734,2
6352,4
6353,2
6354,1
6355,1
6357,1
14550,1
6359,1
14553,2
22746,3
22748,2
22750,1
6367,2
22752,1
6370,1
22755,6
22756,3
14566,1
22759,2
22760,2
22761,5
22762,4
14571,1
22764,1
14573,2
22766,1
22767,5
22768,4
22769,2
22772,2
6391,1
22780,1
22781,1
22783,7
6401,2
6404,1
14599,4
5389,1
22795,1
22796,1
22797,7
22798,1
22799,2
14608,5
7896,1
22802,7
14611,1
22804,1
22805,1
22806,7
22807,2
22808,1
22809,3
6427,2
14621,1
6430,2
22815,7
22817,3
6434,1
22821,2
14630,1
22823,5
22824,2
22825,1
22826,3
22827,1
22828,3
22829,1
14638,1
22832,3
14641,1
6451,3
6452,3
22837,2
22838,1
6455,1
22840,2
21556,1
6460,1
6461,2
12763,2
22847,4
22848,9
22849,1
14658,2
22851,6
22853,1
6470,1
20674,1
22858,1
22859,6
12002,1
6478,3
22864,2
6482,2
22867,2
17465,1
14682,2
6504,2
6505,1
14739,1
21566,1
14711,1
6522,1
14716,1
6529,1
6530,1
20676,2
6536,2
14729,5
14730,2
14732,1
14733,1
6543,2
6544,3
14744,2
17475,1
6549,6
6552,5
13380,1
6554,2
6564,1
6565,1
20884,1
14763,2
12018,1
6413,1
14786,2
6595,2
6596,1
14789,1
14790,1
6599,1
14795,1
22588,1
20133,3
14802,2
14132,1
14812,1
14819,1
5201,1
20220,1
6634,2
14827,1
6636,2
6639,2
18856,2
3839,1
21589,1
14848,6
6571,1
12033,1
14856,1
14858,1
6673,1
10671,2
14878,1
14879,1
14882,1
14884,1
14885,1
14886,2
14887,1
6696,1
6697,1
6698,1
6700,2
6701,1
6704,2
16137,1
14908,1
14909,10
6718,2
14912,1
6722,2
6728,2
12047,1
20237,1
14938,1
3855,2
6750,1
10683,1
3858,1
14958,1
6767,1
6768,1
14961,2
6776,1
6778,1
18879,2
14974,1
14977,1
6786,2
6788,1
6798,5
6803,2
14996,2
14997,1
14998,1
6807,1
15003,3
6817,1
6818,1
6819,2
6820,2
15015,1
15017,1
15018,1
15019,1
15020,1
15021,1
6831,1
6833,1
6835,1
15029,1
10697,1
15037,1
6847,2
15042,1
6851,1
6852,1
6853,2
20257,1
15048,9
15049,1
6858,2
6374,1
6861,1
15058,1
17141,1
15060,3
15063,1
6872,4
15065,1
15067,1
6876,1
15081,1
15082,1
20263,1
6895,1
6897,2
6898,1
6901,1
6902,1
17535,1
6908,4
20266,1
15106,1
15107,2
6919,1
6920,1
15114,1
6923,1
6926,3
15119,1
15121,1
17416,1
15127,1
6936,2
15129,1
6938,1
12186,1
6942,1
15139,1
6949,2
15142,1
15143,3
15145,1
15146,6
15147,1
20274,2
6961,10
22687,2
6970,2
15163,1
12780,1
15167,3
15168,3
15169,2
6978,2
6979,1
15172,4
15175,6
15177,2
6989,1
6992,1
7002,1
5884,2
7009,2
7010,1
7018,3
7019,1
9362,1
7028,1
7029,1
7033,1
7035,5
15228,1
19329,1
20288,1
6635,1
14395,1
15239,1
15242,1
4575,1
15252,1
15253,1
15259,1
7071,1
7078,1
15276,1
7086,1
7090,1
15283,1
7094,1
15287,1
4328,1
7108,1
22332,1
7114,2
17570,2
22605,1
15311,1
15314,1
7125,1
7130,2
15323,1
15324,1
13478,1
7145,2
18787,1
15344,1
15346,1
3923,1
7156,1
7159,1
15352,1
7162,11
7165,2
7166,4
15361,1
7170,1
7171,3
7174,3
7175,1
15371,1
6659,3
15380,1
7190,1
10756,1
15386,1
9391,1
7199,1
7202,2
15397,1
15398,108
15399,3
15400,1
15401,3
7210,4
5298,1
7214,1
7215,1
15412,2
15413,1
15414,1
15415,1
15416,1
15417,5
20320,1
7234,1
15427,1
15431,3
7246,1
13496,1
7251,1
7257,1
7258,1
7260,2
15458,2
7267,1
15463,1
9404,1
7274,2
7275,3
15469,1
7278,4
7283,2
7287,3
10772,1
15483,1
7293,7
7295,1
15493,2
15496,1
15500,1
9410,1
15505,1
7315,1
15512,1
15513,1
15514,1
11155,1
6683,1
15524,1
15528,1
15529,5
21703,1
15533,12
7342,1
7344,1
15537,9
15538,8
15547,1
15549,2
7358,1
7359,3
15553,1
13515,1
7366,1
7371,1
7373,2
7374,1
15567,1
3960,1
19886,1
15577,1
7386,1
5327,1
22614,3
15581,1
7390,2
6693,1
7395,1
7398,1
7401,1
7402,3
7404,3
7407,1
15600,2
3966,1
7418,3
15611,2
5157,1
7425,1
7427,1
15620,3
8065,1
15624,2
7434,2
15628,3
20354,1
15631,1
7441,1
15635,3
7444,1
7447,1
7451,2
15645,1
15646,1
15647,1
15649,1
7459,1
12161,2
15663,1
15668,2
22617,4
7493,3
15687,1
7496,1
7499,1
15696,1
7507,2
20163,1
5160,1
7513,1
7514,2
16271,1
7516,6
7517,1
15712,2
20709,2
7524,2
15718,3
10889,1
15728,2
15729,2
15730,1
15731,1
15732,2
7545,3
22800,2
7550,1
7551,1
7556,4
7557,6
15750,1
7559,1
15753,1
3760,2
15756,1
7565,2
7566,2
15759,1
15767,1
5435,1
7578,2
7579,1
15772,1
15773,1
15782,22
15783,5
7593,1
7594,1
7595,6
21746,1
7598,4
7599,2
7600,1
15793,2
16286,1
10825,1
9255,3
3967,1
20985,1
7623,2
15819,1
7629,1
15823,1
15825,1
7637,1
15832,1
6735,1
15841,1
7650,1
21164,2
15846,3
7658,1
20931,1
15856,3
7677,3
15874,1
4011,1
5378,1
13581,2
7700,3
15894,1
15895,1
13573,1
7712,1
15907,1
7721,1
13576,1
15926,2
10847,1
7740,2
7750,2
7751,2
6532,1
7853,1
7759,1
7761,1
13583,8
15964,4
15965,6
7776,2
15969,3
15971,1
20172,1
19046,3
10855,1
7790,2
7796,1
7797,2
15990,1
7800,1
15993,1
15994,1
7803,3
7804,1
7805,3
7806,2
7807,3
7808,2
7809,10
21782,1
7819,1
16013,1
16015,1
16017,1
16020,2
7830,1
7834,1
16031,3
16032,3
16038,1
7848,1
16042,3
10866,1
16050,2
7865,1
16061,1
16064,1
16066,1
16069,1
7879,1
16073,1
7884,1
4627,2
16085,1
21267,1
16095,1
16096,2
7910,1
16337,1
7913,1
13357,1
7921,1
19070,1
16340,1
16126,1
7939,1
7945,2
7949,1
16152,2
13615,1
7968,1
20589,1
16162,1
7973,3
7975,2
7977,1
7986,1
7991,1
16184,2
19082,1
16190,1
22803,2
16192,1
13623,1
16206,1
15090,1
16214,4
16221,1
8030,3
16226,1
21819,1
8036,1
16234,5
8043,1
8044,1
10899,1
16245,2
16250,1
16256,1
16257,1
8066,1
21385,1
8072,3
8073,1
16268,1
8079,1
16273,1
16366,1
12271,1
8092,1
8094,3
8098,2
16292,3
16293,1
8103,1
16296,1
4757,2
4082,1
16304,1
8113,2
16306,3
12275,1
8118,1
8120,1
16313,2
16315,3
8124,9
8125,1
16319,1
21002,2
16324,1
8133,1
8136,1
8137,1
16331,1
8140,3
16334,2
8145,1
16339,7
8148,7
8149,2
8152,3
14456,1
8155,1
9546,1
16378,1
16350,2
8160,2
14457,1
8166,1
6823,1
8172,2
8173,8
8174,8
16312,1
16368,1
8179,1
8181,1
8182,1
8183,2
16376,1
16377,1
8186,2
12287,1
16381,5
8190,2
16383,1