name,counts
9,1
10,1
14,9
15,4
16,4
17,3
19,1
23,3
25,2
28,1
29,6
31,2
33,1
34,1
36,1
40,1
41,1
42,6
43,3
46,2
47,2
49,1
51,2
53,3
56,1
57,1
59,1
65,1
66,1
71,1
74,1
75,1
76,3
77,1
81,1
88,1
89,4
92,3
94,1
95,1
96,1
99,2
100,1
104,1
108,2
112,3
113,4
119,2
120,3
124,1
125,2
126,18
127,2
128,3
130,1
131,1
132,4
134,3
144,1
146,1
149,1
153,2
156,1
158,2
164,1
165,1
168,2
169,1
174,1
175,6
177,1
180,1
182,1
183,1
187,2
190,1
191,1
192,16
193,6
194,2
197,1
202,1
205,1
210,1
212,2
214,1
224,1
225,3
226,3
227,1
233,1
234,1
241,1
244,3
246,2
247,4
248,1
250,1
251,2
252,1
253,2
254,5
257,5
258,2
260,1
262,5
264,1
265,2
266,1
267,2
269,9
270,1
271,2
277,1
278,1
279,4
280,2
282,2
283,2
285,1
286,3
287,9
292,1
293,2
294,1
301,1
302,4
306,2
309,1
310,3
312,1
313,3
319,1
320,3
321,4
322,2
323,1
324,7
326,1
327,1
329,2
330,19
332,1
335,5
337,4
339,1
341,1
345,2
346,2
347,1
348,6
349,1
350,26
355,1
358,9
359,4
360,2
363,1
365,1
367,1
368,3
371,1
373,1
374,4
376,1
377,2
378,2
379,1
380,4
381,1
382,1
383,1
386,2
387,2
389,1
390,1
392,2
397,1
401,1
402,1
403,3
404,6
409,2
410,1
412,2
413,1
417,2
418,4
419,3
420,1
421,1
422,1
423,1
427,1
428,1
429,6
430,1
431,2
433,1
434,2
439,3
442,1
454,3
463,15
464,12
465,2
468,1
473,1
475,1
476,3
478,1
479,4
480,4
485,1
486,2
487,3
492,1
494,2
495,1
496,1
497,1
499,3
500,1
501,1
502,2
503,1
507,1
514,1
518,1
519,2
520,1
521,1
522,1
523,2
527,1
528,3
529,2
530,1
542,3
545,2
546,1
548,8
551,5
552,1
554,1
555,4
557,3
559,3
560,1
563,2
569,1
570,2
571,3
572,1
574,2
576,1
577,1
578,2
582,1
587,3
588,1
592,1
593,2
595,4
596,1
598,2
602,1
605,1
607,1
609,1
610,1
612,5
614,2
619,2
620,2
622,40
632,9
633,1
634,3
637,2
639,1
640,1
647,1
648,2
649,1
651,1
652,1
656,1
671,1
672,1
674,1
678,1
680,1
681,2
684,2
690,1
692,1
699,4
700,2
712,1
713,2
715,4
716,2
720,1
721,1
726,1
732,1
734,2
735,1
740,1
741,1
745,3
753,2
756,1
759,1
761,1
764,2
767,1
770,1
772,7
774,1
776,1
785,1
788,1
789,2
791,1
793,2
799,2
801,1
802,2
806,2
809,4
812,4
815,1
823,1
825,1
832,1
833,1
835,1
838,1
839,1
842,3
843,1
846,1
847,1
850,4
853,1
854,1
859,2
860,13
861,10
865,3
870,1
876,1
877,2
879,5
880,1
883,1
884,1
896,3
899,1
903,2
904,1
905,1
909,1
913,2
916,1
919,5
920,1
921,1
922,1
929,1
932,1
933,1
935,1
939,1
941,2
943,2
944,1
946,3
947,1
952,3
953,1
955,3
956,4
957,3
961,2
965,2
966,1
971,3
976,2
979,1
985,2
986,2
989,1
992,1
994,4
999,1
1007,1
1011,1
1016,2
1025,2
1030,1
1031,1
1035,5
1039,31
1040,2
1042,3
1046,1
1048,4
1050,1
1054,1
1061,2
1062,1
1063,1
1065,2
1066,1
1071,1
1074,1
1076,1
1077,2
1079,3
1091,1
1095,2
1103,3
1104,1
1111,1
1121,2
1127,1
1128,1
1137,1
1138,2
1140,1
1144,1
1145,1
1151,1
1152,3
1157,1
1161,1
1164,4
1168,1
1170,1
1173,1
1176,2
1178,1
1182,3
1184,2
1186,1
1193,1
1194,5
1196,1
1197,2
1201,2
1207,1
1213,4
1215,1
1235,3
1237,3
1239,16
1244,1
1245,1
1248,1
1250,2
1255,1
1258,1
1259,10
1261,2
1264,4
1267,11
1270,1
1276,6
1281,3
1282,1
1283,1
1288,2
1300,4
1301,3
1307,1
1309,1
1310,1
1312,1
1320,1
1321,1
1329,1
1330,1
1336,2
1337,8
1338,2
1339,1
1340,1
1348,1
1349,4
1354,1
1356,1
1358,1
1360,1
1362,1
1364,2
1367,1
1368,3
1369,1
1375,1
1376,1
1377,1
1378,3
1379,2
1383,2
1385,1
1387,1
1388,1
1389,1
1391,2
1392,1
1393,1
1394,1
1400,2
1401,1
1406,1
1412,2
1413,2
1417,1
1430,1
1433,3
1435,1
1439,1
1440,1
1446,1
1447,2
1449,2
1451,3
1455,1
1468,1
1474,1
1475,1
1478,1
1480,1
1482,1
1483,1
1485,3
1487,3
1488,1
1490,1
1492,3
1493,1
1499,1
1502,1
1506,1
1509,1
1510,1
1515,1
1516,1
1517,1
1522,1
1528,1
1530,2
1532,1
1533,2
1534,2
1535,4
1537,1
1540,1
1541,1
1545,1
1546,1
1549,1
1552,2
1553,1
1555,1
1562,6
1564,1
1566,1
1567,1
1568,1
1572,2
1574,2
1575,2
1576,1
1581,4
1582,3
1589,2
1591,1
1597,1
1599,1
1601,1
1605,4
1612,1
1614,1
1624,1
1629,3
1636,1
1637,2
1639,1
1652,1
1659,1
1663,1
1666,1
1672,1
1680,3
1682,1
1686,2
1687,1
1692,1
1694,1
1697,1
1700,2
1701,1
1711,2
1713,1
1720,3
1724,2
1728,1
1733,1
1734,1
1736,1
1737,1
1744,2
1746,1
1748,6
1749,2
1750,2
1762,4
1763,2
1765,2
1768,1
1769,1
1770,1
1772,1
1777,1
1778,1
1782,1
1787,1
1795,2
1797,2
1798,1
1801,1
1802,1
1803,5
1805,1
1806,1
1808,1
1811,2
1812,1
1813,1
1818,1
1819,3
1820,2
1821,3
1822,1
1827,2
1830,1
1834,6
1837,1
1839,1
1840,2
1841,2
1842,3
1845,2
1846,4
1848,3
1850,1
1851,12
1852,1
1853,2
1857,1
1858,1
1860,1
1861,23
1870,1
1873,1
1876,1
1882,1
1884,3
1893,1
1896,5
1897,3
1904,1
1907,1
1909,2
1910,1
1913,1
1914,1
1929,2
1930,2
1933,2
1939,1
1943,1
1946,1
1948,1
1951,1
1952,2
1954,1
1961,1
1964,2
1968,4
1976,8
1977,1
1983,1
1985,1
1989,1
1992,1
1993,1
1994,2
1997,4
1998,1
2000,1
2001,2
2004,9
2005,2
2006,1
2007,2
2009,1
2011,1
2018,1
2019,1
2020,1
2026,2
2027,3
2029,1
2031,2
2032,1
2034,2
2036,8
2037,1
2039,1
2040,1
2042,3
2047,10
2053,2
2054,1
2057,1
2060,1
2064,2
2071,3
2072,2
2077,2
2080,1
2081,1
2082,1
2086,1
2087,1
2091,1
2093,2
2100,1
2106,1
2107,1
2112,2
2114,1
2115,2
2117,4
2122,1
2123,3
2128,1
2129,2
2133,2
2135,2
2136,1
2141,1
2143,1
2146,3
2147,1
2149,8
2150,1
2153,2
2154,2
2156,1
2158,4
2160,2
2161,1
2165,1
2175,1
2177,3
2178,1
2181,1
2190,2
2192,7
2197,1
2199,4
2202,5
2203,1
2204,1
2205,2
2206,1
2209,4
2215,3
2217,1
2219,1
2220,1
2224,1
2226,1
2228,1
2234,1
2247,1
2250,1
2251,1
2252,2
2253,1
2254,1
2257,2
2270,1
2274,3
2277,2
2280,4
2281,3
2284,1
2286,1
2289,1
2290,1
2292,1
2297,1
2299,1
2300,1
2304,1
2308,1
2309,2
2312,3
2315,2
2316,2
2319,1
2323,1
2326,1
2327,2
2331,1
2334,2
2338,1
2339,1
2343,6
2344,2
2347,1
2348,1
2350,2
2351,1
2354,1
2355,5
2357,3
2359,1
2360,4
2363,1
2364,1
2367,1
2369,3
2371,2
2372,1
2373,1
2374,1
2375,3
2376,1
2380,1
2381,1
2383,3
2384,1
2386,1
2387,1
2394,2
2398,2
2399,8
2400,4
2403,1
2404,2
2408,1
2410,4
2414,1
2435,1
2438,1
2439,2
2441,14
2444,4
2446,2
2448,2
2453,2
2455,1
2456,7
2459,1
2462,1
2463,2
2465,1
2466,1
2467,1
2471,2
2474,1
2478,1
2481,1
2482,4
2483,1
2487,1
2491,7
2492,1
2493,1
2494,1
2496,1
2497,4
2498,10
2499,1
2502,2
2504,1
2505,1
2507,2
2510,1
2512,4
2514,5
2516,1
2521,2
2522,4
2523,3
2528,1
2532,1
2534,7
2537,3
2539,1
2543,1
2545,4
2546,3
2547,2
2550,1
2551,3
2553,1
2554,2
2555,4
2556,2
2557,6
2558,2
2561,4
2562,2
2563,1
2570,1
2576,22
2577,21
2578,48
2579,12
2580,9
2582,1
2584,2
2585,18
2586,42
2587,24
2588,7
2589,18
2590,20
2591,30
2592,21
2593,16
2594,12
2595,11
2596,10
2597,1
2599,1
2601,11
2604,1
2607,6
2608,14
2609,35
2610,7
2611,13
2612,19
2613,8
2614,5
2615,8
2616,2
2617,3
2618,1
2620,1
2621,1
2622,5
2623,5
2624,17
2625,1
2626,8
2627,9
2628,46
2629,4
2631,8
2632,1
2633,5
2634,24
3019,2
3020,4
3021,12
3022,27
3023,19
3024,5
3025,9
3026,11
3027,5
3029,6
3030,13
3031,8
3032,5
3033,13
3034,8
3035,21
3036,15
3037,13
3038,84
3039,66
3040,151
3041,34
3042,76
3123,4
3124,5
3129,47
3132,1
3134,6
3137,1
3138,1
3139,1
3140,2
3142,3
3143,12
3145,3
3147,3
3148,13
3152,6
3155,9
3157,1
3159,1
3161,1
3162,2
3163,1
3164,1
3165,1
3166,2
3167,1
3168,1
3170,3
3171,4
3174,1
3177,3
3178,2
3180,1
3181,1
3186,1
3188,2
3189,1
3190,4
3192,1
3193,2
3195,2
3199,6
3202,1
3203,5
3206,2
3207,1
3208,1
3209,1
3210,2
3213,3
3218,9
3220,1
3222,1
3224,3
3228,1
3231,1
3233,2
3234,2
3249,1
3256,4
3258,2
3259,4
3261,3
3262,1
3263,1
3265,1
3266,1
3271,2
3272,3
3273,3
3274,1
3284,4
3286,1
3290,3
3294,1
3299,5
3300,3
3301,1
3302,4
3303,2
3304,8
3308,3
3309,3
3310,1
3311,1
3313,1
3315,1
3317,1
3320,1
3321,2
3323,1
3324,4
3325,2
3326,2
3327,1
3328,1
3329,1
3330,1
3334,1
3335,2
3337,1
3338,2
3339,1
3342,2
3345,3
3347,4
3349,1
3350,1
3351,1
3352,1
3354,3
3356,1
3360,3
3365,2
3371,1
3372,2
3374,2
3377,1
3381,5
3386,1
3387,1
3392,1
3396,1
3401,1
3402,1
3403,2
3407,1
3408,1
3412,1
3413,3
3414,1
3416,4
3418,1
3419,2
3420,1
3421,2
3422,66
3423,2
3424,1
3425,10
3431,2
3439,1
3448,5
3450,1
3451,1
3454,2
3457,1
3461,1
3463,1
3465,5
3466,7
3467,3
3472,1
3479,1
3481,1
3484,1
3485,2
3486,2
3487,1
3488,4
3489,2
3493,2
3495,2
3499,1
3500,9
3502,2
3503,1
3504,1
3505,1
3506,2
3508,2
3513,2
3515,2
3516,1
3518,2
3519,2
3523,2
3526,2
3527,1
3528,2
3529,3
3534,1
3542,1
3545,2
3546,1
3548,1
3549,1
3555,1
3557,1
3558,2
3560,1
3561,1
3562,3
3563,1
3567,1
3569,2
3570,5
3572,1
3574,1
3576,1
3577,2
3579,1
3581,2
3582,1
3583,1
3586,2
3587,1
3588,1
3589,1
3590,1
3592,3
3594,2
3596,2
3598,6
3601,2
3602,1
3603,2
3606,1
3608,2
3613,1
3614,1
3619,1
3621,2
3622,1
3623,1
3628,3
3633,3
3634,1
3637,1
3638,2
3641,1
3646,2
3648,2
3652,1
3654,1
3655,1
3656,2
3657,5
3659,1
3661,4
3662,3
3663,1
3667,1
3671,1
3673,1
3674,1
3675,4
3676,1
3677,3
3678,3
3679,1
3680,3
3681,3
3682,1
3683,1
3684,1
3685,1
3688,1
3690,1
3691,1
3694,1
3695,2
3697,2
3698,2
3700,1
3701,1
3702,6
3704,4
3705,1
3707,4
3709,1
3711,1
3712,3
3713,5
3716,3
3717,2
3718,3
3720,1
3721,3
3723,2
3726,2
3742,1
3746,1
3747,1
3752,1
3754,3
3756,2
3758,1
3761,5
3765,2
3768,3
3769,1
3773,1
3776,3
3785,3
3794,2
3795,1
3800,4
3802,1
3804,1
3807,2
3809,2
3812,2
3813,1
3814,5
3815,2
3816,1
3817,2
3822,1
3826,2
3831,1
3832,2
3833,1
3834,2
3835,4
3837,1
3838,3
3839,1
3842,1
3843,2
3844,3
3845,1
3847,1
3849,1
3850,1
3853,2
3856,1
3860,1
3861,3
3862,11
3864,1
3865,5
3866,1
3867,1
3874,1
3877,2
3880,1
3887,2
3889,2
3891,2
3895,1
3896,2
3898,1
3900,3
3901,4
3902,2
3903,3
3914,1
3916,1
3919,2
3923,2
3928,1
3929,1
3934,1
3938,2
3942,2
3948,1
3949,2
3950,2
3951,2
3956,2
3960,1
3961,3
3966,4
3971,2
3975,2
3979,3
3981,4
3982,2
3987,2
3991,1
3992,3
4007,1
4010,2
4011,3
4013,1
4017,3
4021,1
4024,2
4025,1
4026,1
4028,2
4032,1
4042,2
4044,1
4045,1
4046,1
4047,3
4058,1
4059,1
4061,3
4063,7
4064,1
4065,3
4067,1
4068,1
4071,1
4072,1
4079,1
4087,1
4095,1
4096,3
4101,1
4103,1
4105,1
4108,4
4110,1
4112,2
4113,2
4117,4
4118,2
4119,2
4120,1
4126,1
4130,1
4134,3
4136,5
4142,3
4143,2
4144,1
4145,1
4149,5
4154,1
4155,2
4156,9
4157,1
4160,2
4166,1
4171,4
4172,1
4177,1
4185,3
4192,3
4197,1
4200,3
4203,5
4205,1
4206,1
4207,1
4209,3
4211,3
4215,1
4216,2
4218,4
4221,3
4222,1
4223,1
4226,1
4227,1
4233,1
4234,1
4235,1
4236,2
4247,1
4250,1
4254,1
4262,4
4268,1
4270,1
4279,1
4280,2
4283,1
4289,1
4292,1
4293,1
4295,3
4307,1
4310,2
4312,2
4318,4
4322,2
4329,3
4332,1
4336,4
4338,1
4340,1
4341,1
4343,4
4344,1
4347,2
4348,2
4349,1
4351,1
4352,1
4354,2
4356,1
4357,3
4358,5
4359,1
4361,3
4362,3
4364,4
4366,1
4368,1
4369,1
4370,1
4374,2
4376,3
4382,7
4388,1
4393,2
4398,4
4401,1
4406,1
4407,1
4409,2
4410,2
4412,1
4413,1
4418,2
4419,1
4424,3
4425,3
4427,3
4431,1
4432,1
4433,1
4437,1
4439,1
4442,1
4443,2
4444,1
4447,3
4450,1
4451,1
4461,1
4462,2
4466,2
4468,1
4473,2
4476,1
4477,2
4478,1
4480,1
4481,1
4482,1
4483,1
4486,1
4487,1
4488,1
4493,2
4494,10
4498,1
4503,1
4507,1
4508,1
4512,5
4514,1
4516,2
4518,2
4519,1
4520,1
4521,3
4522,2
4523,1
4526,4
4527,3
4528,2
4529,1
4533,1
4534,1
4537,1
4538,3
4539,1
4541,2
4542,1
4543,1
4549,2
4551,1
4552,1
4554,1
4555,5
4559,1
4564,2
4565,2
4566,1
4574,3
4575,5
4576,3
4577,2
4579,2
4580,2
4581,2
4582,1
4590,1
4591,2
4592,3
4594,1
4595,2
4596,3
4597,4
4599,3
4600,3
4602,1
4603,1
4604,1
4605,4
4609,1
4611,1
4612,1
4618,1
4623,2
4624,1
4625,1
4631,1
4632,1
4637,2
4638,7
4644,1
4649,1
4651,1
4652,2
4655,1
4660,1
4663,2
4664,2
4665,1
4670,1
4671,1
4673,4
4677,1
4678,1
4679,1
4684,1
4689,2
4691,1
4692,2
4696,1
4703,1
4707,1
4708,1
4709,1
4712,1
4714,1
4715,1
4718,2
4719,1
4720,1
4722,1
4723,1
4724,1
4726,1
4731,2
4733,1
4735,2
4736,1
4738,1
4739,1
4743,1
4744,4
4745,4
4748,2
4750,3
4753,3
4756,1
4763,1
4766,1
4767,4
4768,1
4769,1
4770,1
4777,1
4779,1
4781,1
4783,3
4784,1
4786,1
4788,2
4789,1
4790,17
4791,7
4796,1
4798,2
4801,1
4805,1
4810,1
4812,2
4813,4
4817,1
4824,1
4825,1
4826,1
4828,1
4835,1
4838,1
4840,1
4841,2
4843,1
4844,2
4847,7
4848,5
4850,3
4852,4
4859,1
4863,1
4864,3
4865,1
4866,2
4867,2
4868,1
4870,2
4873,1
4874,1
4876,1
4877,1
4879,1
4882,1
4885,1
4886,1
4890,2
4892,1
4893,1
4896,2
4899,1
4900,1
4901,3
4902,2
4903,1
4904,5
4907,1
4909,3
4910,3
4911,1
4912,1
4913,1
4916,3
4918,1
4920,2
4921,2
4923,4
4924,3
4925,1
4927,1
4928,4
4929,2
4930,1
4937,2
4941,1
4943,1
4950,2
4951,1
4956,3
4957,1
4960,1
4962,1
4965,2
4968,1
4973,1
4974,2
4976,2
4977,1
4979,2
4983,7
4984,15
4985,1
4988,2
4989,2
4993,8
4994,1
4996,2
4998,2
4999,1
5000,1
5001,1
5006,2
5007,2
5008,7
5009,1
5016,3
5017,1
5020,1
5021,1
5026,1
5029,1
5030,4
5031,1
5039,2
5042,1
5044,2
5046,5
5050,1
5060,1
5061,3
5062,1
5063,2
5065,5
5066,1
5067,2
5068,4
5070,1
5073,1
5077,1
5078,1
5079,3
5080,1
5081,1
5082,1
5086,5
5088,1
5091,1
5092,1
5093,1
5096,1
5104,6
5109,2
5114,2
5115,1
5121,2
5125,1
5130,1
5136,3
5142,4
5146,5
5152,2
5157,1
5158,1
5159,3
5161,1
5162,2
5166,1
5169,3
5170,2
5174,4
5175,4
5177,1
5185,1
5189,2
5190,1
5192,3
5193,1
5195,1
5196,1
5199,1
5203,1
5205,1
5209,2
5211,1
5212,14
5216,3
5217,1
5218,1
5222,1
5225,1
5232,2
5234,1
5236,3
5237,2
5238,1
5243,4
5254,1
5256,1
5264,2
5265,2
5271,2
5273,1
5274,1
5283,1
5284,1
5293,1
5295,2
5296,1
5299,4
5300,1
5301,1
5303,1
5305,1
5311,2
5320,1
5323,1
5328,1
5330,1
5343,1
5345,4
5346,8
5347,6
5348,17
5349,1
5350,4
5351,7
5354,2
5357,2
5358,1
5362,2
5370,1
5371,2
5373,1
5375,1
5376,2
5377,1
5378,1
5379,1
5384,3
5385,1
5386,4
5389,1
5395,4
5398,2
5400,2
5403,2
5404,1
5405,1
5406,1
5407,1
5408,3
5414,1
5416,1
5417,6
5418,3
5437,1
5438,3
5439,1
5442,1
5446,1
5447,1
5451,3
5452,1
5455,2
5456,1
5458,1
5459,2
5460,1
5463,1
5465,3
5466,1
5468,1
5469,1
5471,1
5478,1
5479,7
5482,2
5483,1
5484,2
5503,1
5508,12
5510,2
5512,1
5513,2
5516,2
5517,2
5518,1
5526,2
5527,1
5528,2
5529,1
5530,4
5535,1
5536,1
5543,2
5548,1
5550,2
5558,1
5560,1
5565,1
5571,2
5572,1
5574,3
5576,1
5578,1
5580,1
5586,2
5588,1
5594,1
5595,1
5597,1
5598,2
5599,2
5601,1
5605,1
5607,1
5608,1
5615,1
5626,2
5628,1
5629,3
5634,1
5635,1
5636,1
5637,1
5639,3
5640,1
5641,1
5646,2
5647,1
5648,1
5650,1
5653,1
5657,2
5659,1
5660,2
5661,10
5662,1
5664,2
5667,1
5668,1
5669,1
5670,1
5672,1
5674,1
5675,7
5678,3
5679,2
5687,1
5689,2
5692,1
5695,1
5696,3
5699,1
5700,1
5702,8
5703,2
5705,1
5709,1
5710,1
5712,1
5719,4
5722,7
5723,5
5726,1
5734,2
5737,1
5738,1
5742,3
5752,1
5753,1
5756,1
5757,2
5758,3
5761,4
5762,4
5767,8
5770,1
5773,1
5775,2
5783,1
5784,2
5792,1
5793,1
5795,6
5798,5
5800,1
5806,1
5807,6
5808,4
5809,2
5810,2
5813,1
5818,4
5820,1
5821,3
5823,1
5824,10
5825,3
5826,2
5829,1
5832,1
5833,2
5835,1
5840,1
5842,5
5843,1
5845,1
5846,1
5855,2
5856,3
5859,3
5860,2
5863,1
5864,3
5865,2
5869,2
5870,11
5871,1
5872,6
5873,2
5879,1
5880,2
5883,1
5884,1
5886,1
5891,2
5894,1
5895,4
5899,9
5900,4
5901,2
5902,1
5904,2
5906,2
5913,1
5914,4
5920,1
5924,1
5926,1
5927,2
5929,1
5932,1
5933,6
5934,1
5935,1
5936,1
5941,1
5944,2
5950,3
5954,6
5957,1
5958,1
5959,1
5961,1
5963,1
5964,3
5972,1
5975,3
5976,3
5981,4
5982,1
5983,2
5985,1
5987,1
5989,1
5997,5
6003,4
6006,1
6007,1
6008,1
6017,1
6018,1
6019,2
6021,1
6031,3
6032,2
6034,4
6035,4
6037,1
6042,2
6051,5
6052,1
6055,1
6058,1
6061,1
6062,3
6067,3
6069,4
6070,1
6077,1
6081,2
6082,2
6084,3
6086,2
6088,1
6091,2
6092,1
6096,2
6099,2
6102,1
6105,1
6106,1
6111,5
6112,1
6114,5
6116,3
6121,3
6122,3
6123,1
6124,4
6125,1
6127,5
6128,1
6129,3
6130,2
6131,2
6135,1
6136,1
6138,3
6140,3
6141,2
6144,1
6146,1
6151,2
6153,1
6154,1
6155,2
6156,3
6158,1
6160,2
6163,2
6165,1
6166,2
6168,1
6169,5
6172,1
6174,1
6175,3
6179,5
6180,1
6183,2
6186,2
6188,4
6190,3
6192,6
6193,5
6195,7
6196,1
6198,11
6199,7
6201,1
6202,1
6203,1
6206,1
6211,2
6212,1
6214,1
6215,1
6218,4
6220,2
6221,1
6223,4
6226,1
6228,7
6229,1
6231,4
6232,2
6233,2
6234,4
6235,2
6237,2
6239,5
6240,2
6242,2
6243,3
6245,2
6247,7
6249,2
6250,1
6255,1
6256,2
6257,1
6258,6
6259,2
6260,4
6261,1
6266,1
6267,3
6269,1
6270,2
6272,4
6276,3
6280,6
6283,3
6284,7
6285,1
6286,1
6287,2
6290,1
6294,1
6295,2
6297,2
6298,7
6299,1
6300,2
6301,1
6303,1
6304,5
6305,11
6306,3
6307,2
6308,2
6309,4
6310,5
6312,1
6314,3
6315,1
6316,2
6317,1
6319,2
6320,3
6323,1
6324,3
6325,2
6326,1
6327,3
6328,1
6329,2
6331,3
6332,4
6333,6
6334,1
6335,3
6336,7
6338,3
6340,1
6341,5
6344,6
6345,3
6347,2
6348,1
6349,2
6351,2
6352,1
6353,1
6354,1
6355,2
6356,2
6357,4
6358,6
6360,4
6361,9
6363,1
6364,2
6366,2
6367,2
6368,4
6369,4
6371,2
6372,1
6373,9
6374,1
6375,2
6379,1
6381,7
6382,3
6383,3
6384,3
6385,3
6386,1
6389,5
6391,4
6392,2
6393,2
6394,1
6395,3
6396,1
6397,19
6398,4
6399,2
6400,2
6402,2
6403,6
6404,1
6407,2
6408,4
6409,1
6410,2
6411,1
6413,20
6414,7
6416,4
6418,12
6419,6
6420,1
6421,1
6422,4
6424,11
6425,1
6428,9
6429,4
6430,14
6431,7
6432,4
6433,4
