name,counts
469,1
8193,3
2,82
3,5
4,3
5,1
6,4
7,1
9,2
8202,1
8204,1
8205,1
15,3
8208,1
3001,1
20,1
8213,1
22,3
8215,19
24,5
8217,1
26,4
27,17
8221,2
30,3
31,5
33,2
34,4
35,4
8228,2
37,6
38,6
39,3
40,3
41,9
42,2
8236,1
45,3
8238,2
47,7
8240,1
49,4
50,3
51,2
52,8
53,3
8246,1
55,1
56,4
57,1
58,1
59,4
60,3
61,5
62,11
63,1
66,7
67,4
68,1
69,4
8262,5
71,1
8264,2
73,3
74,3
75,4
8268,1
77,8
78,1
79,11
80,5
81,1
82,1
8275,1
8276,1
85,4
86,10
87,2
89,3
90,3
91,15
92,1
93,6
94,6
95,5
96,12
97,2
98,2
8292,1
102,1
8295,1
104,3
105,2
106,1
107,7
108,1
8301,1
110,4
111,1
8304,1
8305,2
114,2
8308,2
8309,1
119,1
120,1
121,4
122,7
8315,5
124,3
125,13
126,3
127,1
128,7
129,4
130,2
131,1
277,1
133,2
135,3
8328,2
137,3
138,1
23,1
140,2
141,2
8334,3
143,2
144,1
145,5
146,5
149,1
150,1
151,2
8344,1
153,1
154,1
8347,2
156,4
8349,1
8350,1
8351,1
8352,3
161,4
8219,1
165,2
166,1
167,4
168,1
169,2
171,1
172,1
173,9
8366,7
29,5
8368,1
177,3
178,2
179,1
8372,2
8373,4
8374,1
8375,5
185,1
186,1
187,4
189,1
8382,1
192,1
193,4
194,2
8387,1
196,1
197,2
198,3
199,6
200,1
201,2
8394,2
203,2
8396,8
206,3
207,7
208,3
8401,13
8402,5
6623,1
8404,5
213,2
8406,7
215,1
8408,3
8409,1
8410,2
219,1
8413,4
222,2
225,3
8418,5
227,1
8420,4
229,4
230,3
8423,1
8424,2
8425,1
234,1
235,1
236,1
8432,1
241,8
1099,1
245,13
247,1
8442,2
8443,3
8444,1
8445,2
8446,15
8447,4
256,1
8449,4
8450,6
259,1
8453,2
262,2
8455,1
264,1
265,1
267,2
269,1
271,1
8464,2
8465,1
8466,1
8467,1
276,4
8469,2
279,1
280,5
8474,1
8475,7
8476,4
8477,6
8478,6
288,1
8481,1
290,1
8483,1
8484,2
293,7
294,1
8488,6
8489,2
8491,2
8492,2
8493,1
302,1
303,3
305,1
306,2
307,5
8500,2
309,1
310,4
311,1
312,2
8505,1
314,3
8508,5
8509,4
8510,1
8511,3
320,5
322,3
324,1
54,4
329,1
330,1
8247,1
8524,2
333,3
8526,1
336,3
8529,2
339,2
340,1
341,4
8534,2
343,2
344,3
8537,3
347,3
348,1
8541,4
350,11
8543,2
353,1
8546,1
355,1
356,4
8549,1
8550,1
8551,2
8552,2
362,1
365,3
366,2
370,1
8563,1
374,1
8567,3
8568,4
8569,3
378,8
8571,2
8574,1
8575,2
8582,1
391,1
393,1
399,4
400,3
401,2
286,4
8259,1
405,2
8598,4
8599,2
8600,1
409,3
411,1
8604,3
8605,1
8607,3
416,2
8609,1
418,1
420,4
8613,3
423,1
425,1
8619,2
429,5
8622,1
8624,12
434,1
8627,18
8628,5
437,6
8630,7
442,4
443,3
444,1
445,1
447,3
8640,2
451,3
8646,1
8647,2
457,1
459,2
8653,4
463,5
465,4
467,1
468,2
8661,1
471,1
8664,1
474,2
475,1
476,2
477,1
478,3
479,7
480,3
8673,1
482,4
483,4
8676,2
8677,2
486,7
488,6
489,2
490,1
491,5
8684,1
8685,5
8686,1
8687,7
496,1
497,1
8691,2
500,2
501,2
8694,2
503,1
8696,2
507,1
508,3
509,3
510,14
8703,3
513,3
17,2
8710,4
8712,2
521,17
8714,2
8715,1
524,7
8717,1
526,3
527,6
528,6
8722,1
8723,2
8724,1
533,1
534,1
8281,1
8731,1
542,1
8735,3
8736,3
8737,2
546,1
8740,2
8741,1
8742,13
554,1
8747,1
8748,1
560,2
8753,1
562,1
8755,1
8756,1
8757,2
566,3
6921,1
8760,2
8761,1
8762,2
8287,1
573,2
574,1
8767,2
576,6
8769,5
8771,4
8772,4
8774,21
8289,2
8777,3
8781,1
590,2
591,1
8785,1
596,2
8789,6
8790,1
8791,12
600,1
601,1
8794,1
8795,1
604,3
8797,1
8798,2
8799,2
8800,9
8801,3
5203,2
8804,3
8805,1
614,2
8808,2
617,4
618,2
8811,1
8812,2
621,1
8814,5
8815,2
8816,5
8817,1
8818,3
627,2
8820,3
630,2
8823,4
8824,11
8825,7
8826,5
8827,5
8828,12
8829,14
8830,5
8831,1
8832,10
8834,7
643,1
644,1
645,1
646,1
8839,1
8840,5
8843,2
8846,3
8848,6
8849,2
8850,3
659,1
8852,8
8853,4
662,1
8855,3
8857,1
666,3
667,2
8861,1
670,1
8863,2
8864,1
8865,2
674,5
8867,2
8868,1
8869,1
678,1
679,1
8872,6
8873,6
682,3
8875,3
684,1
8877,2
690,2
8883,1
8884,1
8885,3
694,1
8887,1
8888,1
8890,1
6943,1
701,7
8894,2
703,1
8896,54
8897,6
706,1
8899,4
8900,1
8901,6
8902,12
711,1
8904,4
8905,3
8906,3
715,2
8908,7
8909,1
8911,1
8912,7
8913,4
8914,2
723,8
724,1
725,1
8918,1
8919,17
728,2
8921,2
730,2
8923,11
8924,6
8925,2
8926,1
8928,2
8930,7
123,3
8933,5
743,1
745,1
746,1
8939,3
8940,7
8941,2
8942,4
751,2
8944,14
8946,7
8947,3
8948,3
757,2
758,1
8951,1
760,1
761,7
8954,4
8955,4
8957,2
8958,1
8959,4
8960,11
769,2
770,1
771,3
772,2
773,4
8966,1
8967,2
8968,4
777,1
8970,1
8972,4
8973,6
8974,7
8975,5
784,2
8977,6
8978,6
8979,3
8980,4
8981,1
8982,5
8983,1
792,5
8985,6
8986,3
8987,1
8988,3
8989,2
8990,4
8991,6
8992,1
8993,2
8994,7
8995,1
8996,3
8997,1
8999,4
9000,8
809,1
9004,5
9005,3
9006,4
9010,20
9011,11
9012,22
9013,18
9014,4
9015,6
9016,22
9017,24
9018,49
827,1
9020,14
9021,17
830,1
9023,18
832,3
833,2
834,2
838,1
8332,1
842,1
848,2
849,1
851,1
854,1
857,8
860,1
863,10
864,3
865,2
874,1
875,1
876,5
877,4
878,5
880,2
881,2
882,2
884,1
885,6
886,1
890,5
892,1
893,1
8341,3
896,2
897,1
8486,2
904,1
907,1
908,1
910,1
912,2
913,5
915,1
916,2
919,1
920,1
921,1
926,2
929,2
930,2
931,8
932,5
933,1
935,1
936,1
937,2
939,1
940,2
943,1
945,1
946,1
948,1
158,1
950,1
956,1
957,1
959,1
160,3
963,1
12,1
966,1
8517,1
968,2
969,3
970,2
974,8
976,1
977,2
163,1
984,2
985,1
987,2
995,1
998,1
1012,2
1013,2
1015,4
1017,2
1019,2
1021,2
1024,1
1030,1
1033,1
1034,1
1035,2
1037,1
1038,1
1039,1
1040,1
8218,1
1043,1
1044,1
174,18
1052,2
1053,1
1057,1
1063,1
1064,5
1066,1
1069,8
1070,2
1073,2
1075,1
1077,8
1078,1
1079,1
1083,1
1084,2
1085,3
1086,4
1089,1
1091,3
1092,11
1093,3
1095,3
1097,3
183,3
1103,11
1107,1
1108,1
1113,2
1114,1
8378,2
1120,1
1123,2
1124,1
1125,9
1127,1
1128,1
1129,1
1134,1
1136,1
1137,1
1140,2
1142,1
1146,1
1147,2
1148,1
1149,1
1152,2
1156,3
1157,2
1160,1
1161,1
8222,4
1164,2
1165,4
1166,1
1168,1
195,7
1172,1
1173,1
1174,1
1175,2
1177,3
1178,1
1180,1
8389,1
1184,2
1186,5
1188,1
1189,1
1190,2
1193,15
1194,8
1195,9
1197,1
1199,2
8392,6
1205,6
1206,2
1207,1
1208,4
1212,1
1214,2
1221,15
1224,2
204,4
1227,4
1228,1
1229,1
1232,1
1233,5
1236,2
8398,4
1238,2
1239,1
8399,10
1245,2
1573,1
1253,2
209,2
1257,3
1258,2
8498,2
1260,1
1261,1
1264,1
1267,1
8405,2
1281,1
1283,1
1284,1
1286,1
1287,3
1288,1
1289,6
1291,2
1292,2
1293,1
1297,2
1301,2
1302,3
217,7
1304,1
1313,3
1315,1
1318,3
1327,1
1336,2
1339,3
1341,1
1346,1
1350,1
1355,1
1356,2
1357,4
1358,2
1359,1
8419,3
1593,1
228,2
1371,1
1372,1
1378,1
1380,2
1381,1
1384,1
1385,1
1387,2
1389,2
1391,1
232,2
1394,1
1395,6
1396,2
1398,2
233,2
8230,1
1404,2
1407,1
1408,4
1409,1
1419,1
1421,28
1422,2
1425,1
1426,3
1428,1
1430,1
1433,1
1438,3
1440,2
1443,1
8433,1
1449,1
8434,1
1454,2
1456,2
1458,2
1459,2
1461,3
1465,1
1466,6
1467,1
1468,1
1469,6
1471,1
1472,3
1473,14
1475,3
1476,1
1477,40
1478,4
1479,6
1480,1
1481,7
1482,5
1484,1
1487,19
1488,8
1489,9
1490,5
1491,2
1492,4
1493,19
1494,14
1495,7
1496,9
1498,10
1499,25
1500,5
1501,11
1502,1
1503,13
1504,2
1505,4
1507,5
1508,6
1509,5
1510,2
1511,13
1512,11
1513,6
1514,10
1517,8
1518,9
1519,6
1520,4
1521,8
1522,6
1523,11
1524,8
1525,6
1526,1
1527,5
1528,2
1529,4
1530,14
1531,13
1532,10
1533,5
1534,9
1535,5
1536,6
1537,11
1538,8
1539,6
1540,1
257,1
1546,1
1550,1
1554,1
1555,1
1557,2
1558,3
1560,2
1561,1
1562,5
1563,2
1564,2
1567,1
1568,3
8454,1
1574,3
1575,2
1576,1
1579,1
1580,2
1584,1
1586,2
1587,2
1588,1
1589,2
1590,3
1591,2
1592,2
7092,6
1595,1
1601,6
1605,2
1606,2
1607,3
1609,2
1610,2
1612,4
1613,1
1614,2
1616,1
1618,3
1619,2
1620,5
1622,1
1623,3
1624,1
1626,12
1627,2
1628,6
1629,6
1632,3
1633,18
1634,6
1635,7
1636,9
1637,25
1638,22
1639,5
1640,11
1641,1
1642,3
1643,5
1644,6
1645,12
1646,5
1647,7
1648,4
1649,4
1650,3
1651,3
1652,4
1653,16
1654,4
1655,2
1656,11
1657,6
1658,1
1659,6
1660,5
1661,9
1662,6
1663,3
1664,2
1665,1
1666,6
1667,5
1668,1
1669,3
1670,4
1671,3
1672,2
1673,2
1674,1
1675,7
1676,3
1678,2
1680,2
1681,2
1682,2
282,4
1697,4
283,4
1701,1
1705,1
1708,1
1710,4
285,4
1712,2
1713,2
1714,1
1717,5
1722,1
1731,1
1739,1
1742,1
1749,2
1751,1
1752,1
1755,2
1756,1
1757,1
1765,1
1769,1
1771,1
296,1
1780,1
297,1
1784,2
1785,1
1791,1
1792,4
1794,2
1797,2
1798,1
1802,1
1803,1
1805,1
1806,1
1808,2
1810,1
1811,2
1812,3
1813,6
1814,5
1815,5
1816,1
1817,5
1818,2
1819,9
1820,10
1821,14
1822,12
1823,2
1824,10
1825,11
1826,8
1827,10
1828,8
1829,6
1830,6
1831,2
1832,10
1833,3
1834,14
1835,26
1836,8
1837,5
1838,11
1839,13
1840,3
1841,1
1842,2
1843,2
1844,2
308,1
1853,5
1854,6
1855,4
1856,2
1858,2
1859,2
1860,8
1861,4
1862,3
1863,1
1864,5
1865,3
1866,5
8503,3
1868,7
1869,1
1870,2
1871,1
1872,1
1873,15
1874,5
1875,2
1876,7
1877,3
1878,5
1880,1
1881,3
1882,3
1883,3
1884,2
1885,3
1886,1
1887,8
1888,2
1889,10
1890,2
1891,1
1892,1
1893,2
1895,1
8792,1
1900,2
1902,2
1903,1
1904,9
1906,1
1907,3
1908,1
318,2
1910,1
46,1
1914,1
1919,1
1920,1
8512,2
1923,3
1925,1
1926,1
1927,1
1928,2
1932,3
1933,1
1935,1
1936,1
8655,2
1944,1
8516,1
1946,1
1947,2
1948,1
1951,2
1952,3
1955,3
1957,1
1958,5
1959,4
1961,1
1963,2
1966,1
1967,2
1968,1
1973,1
1974,1
1979,1
1983,4
1986,3
1987,2
1988,3
1990,1
332,1
1998,2
2000,1
8250,1
2004,2
2005,1
2007,2
2009,1
2013,1
2015,2
2016,2
2019,3
2020,2
2021,1
337,1
2024,2
2025,1
2026,1
2034,1
2035,2
2036,1
2037,2
2038,3
2039,1
2040,2
2041,1
2043,3
2044,32
2045,6
2046,4
2047,13
2048,5
2049,7
2054,3
2055,9
2056,5
2057,2
2058,5
2059,19
2060,16
2061,2
2064,1
2070,1
345,3
2072,3
2073,1
2076,3
2079,5
2082,5
2084,3
2085,3
2087,1
2089,1
6889,1
2092,1
2093,1
2095,3
2098,4
2099,2
8542,13
2103,1
2105,10
2107,2
70,1
2110,3
2111,6
2113,7
2114,2
2115,1
2116,2
2117,1
2118,1
8545,2
2120,4
2121,4
2122,3
2123,1
2124,2
354,1
2127,3
2128,2
2131,1
2132,3
2135,1
2136,9
2137,2
2138,2
2139,15
2140,4
2141,9
2142,6
2143,2
2145,3
2146,25
2147,8
2148,11
2149,1
2150,3
2152,1
2153,3
2154,4
2155,15
2156,4
2162,1
2163,1
2165,4
2166,1
2168,6
2172,5
2173,1
2174,20
2175,20
2176,8
2177,11
2178,10
2179,1
2180,4
2181,5
2182,1
2184,13
2185,6
2186,4
2187,2
2188,2
2189,15
2190,6
2191,9
2192,2
2194,7
2196,1
2198,1
2201,1
2202,1
2214,3
2215,2
2216,1
8198,2
8562,1
2225,3
2226,2
2227,2
2228,2
2230,2
2231,9
2232,3
2233,7
2234,2
2235,1
2238,3
2239,1
2243,2
2244,8
2245,5
2246,7
2247,14
2248,7
2249,21
2250,3
375,3
2252,3
2253,4
2254,16
2255,16
2256,15
2257,35
2258,8
2259,12
2260,3
2261,2
2264,1
2267,1
2268,1
2269,5
2270,2
2273,2
2282,4
2285,1
2289,1
2292,2
2293,1
2294,3
2295,4
2298,1
2300,2
2309,3
8533,2
2311,6
2313,1
2314,1
2316,1
2317,6
2319,3
2321,1
2322,2
2326,1
2327,2
2328,3
2331,2
2332,9
2333,1
2334,2
2336,1
2339,3
2341,1
2345,1
2346,1
2348,1
2353,3
2355,1
2358,1
2359,2
2360,7
2361,2
2367,2
2369,1
2370,1
2371,5
2372,4
2373,5
2376,5
2377,1
2378,6
2385,1
2387,1
2388,1
2389,2
2390,1
2391,3
2392,5
2394,1
8591,1
2398,1
2399,3
8592,1
2403,1
2411,7
2412,1
2413,1
2416,2
2419,1
2420,2
2426,3
2427,2
16,1
2433,1
2434,3
2435,2
2436,2
2437,1
2438,1
2440,2
2443,1
2445,2
2455,1
2456,2
2457,5
2458,7
2459,1
2462,1
2464,1
2466,2
2467,1
2468,2
2469,3
2472,1
2474,2
2476,1
2477,1
2480,1
2481,2
2482,1
2483,1
2484,3
3145,1
2488,1
2489,2
2490,3
2491,2
2494,2
2811,4
2504,1
2505,6
2506,1
2508,4
2509,2
2510,1
2511,1
2513,4
8267,1
2517,4
2518,3
8612,1
2523,1
2525,3
421,7
2529,1
2530,4
2533,1
2534,4
357,2
2536,2
2537,1
2540,2
2542,1
2543,1
2544,1
2549,1
2553,2
5887,1
2559,1
2563,3
2565,3
2566,2
2567,2
2571,1
2574,1
2576,2
2579,1
2580,2
2586,4
2588,2
2590,1
2591,2
2592,1
2594,2
2595,4
2596,1
2597,1
2603,1
2604,9
2605,1
8274,1
2611,4
2613,4
2614,1
2616,2
436,1
2620,1
8629,1
2626,1
2628,3
438,1
2633,1
8271,1
2637,1
2640,1
2646,1
2651,1
8634,2
2656,5
2658,1
2661,2
2662,1
2663,1
8637,1
2673,1
2678,3
2681,1
2682,10
2684,1
448,1
2693,1
2694,2
2696,1
2697,3
2698,3
2699,1
2706,5
2707,2
2708,1
2714,3
2722,3
2723,2
2724,1
2726,1
2731,3
2736,3
2737,2
2742,1
2743,1
2745,1
2749,1
2752,3
8651,2
2764,2
2767,1
2771,2
2776,1
2779,2
2785,6
2787,1
2789,1
8657,2
2792,3
2793,1
2795,4
2796,2
2798,2
2800,1
2802,1
2804,1
2806,2
3199,7
2812,2
2813,3
2814,2
2815,2
2819,1
2823,1
8663,2
2828,1
2829,6
2831,1
2832,2
2834,12
2835,17
2836,10
2837,7
2838,1
2839,4
2840,2
2842,1
2843,6
2844,3
2845,2
2846,29
2847,13
2848,2
2849,1
2851,2
2852,1
2856,2
8668,1
2859,1
2860,9
2861,16
2862,4
2863,2
2864,5
2865,5
2866,23
2867,11
2868,1
2869,1
2870,5
2873,6
2874,2
2876,10
2877,8
2878,7
2879,2
2881,6
2882,10
2883,5
2884,5
2885,3
2887,2
2889,1
2890,2
2891,2
2892,3
2894,3
2895,1
2896,4
2899,3
2900,1
2904,11
2905,22
2906,21
2907,3
2908,4
2909,6
2910,1
2911,6
2912,6
2913,2
2914,1
2916,4
2917,2
2918,4
2920,13
2921,5
2922,9
2923,3
2924,3
2927,1
2928,5
2930,9
2931,3
2932,2
2933,1
2936,3
2937,4
2938,2
2939,14
2940,1
2941,3
2942,1
2943,12
2944,10
2945,4
2946,3
2947,1
2948,1
2949,10
2950,7
2951,9
2953,2
2954,10
2955,7
2956,9
2957,1
2958,1
493,1
2960,1
2961,1
2962,5
2963,10
2964,11
2965,3
2966,1
2967,1
2968,1
2969,1
2970,1
495,1
2972,1
2976,1
2978,1
2981,3
2982,3
8689,5
2984,2
2985,3
2987,5
2989,2
2990,3
2994,1
2995,2
2996,3
2997,2
2998,1
2999,4
3000,3
8692,1
3002,1
3003,1
3004,1
3006,1
3007,4
3008,2
3009,1
1867,5
3012,1
3013,2
3014,3
3015,1
3016,4
3017,2
3018,1
3019,1
3020,6
3021,5
3022,1
3023,27
3024,7
3025,9
3026,14
3027,6
3028,14
3029,11
3030,8
3031,2
3033,3
3034,3
3035,1
3036,2
3037,2
3038,1
3039,1
3040,1
3041,1
3042,1
3043,3
3044,1
7334,1
3047,1
3048,1
3049,1
3050,6
3051,7
3052,1
3055,3
3059,2
3061,1
3065,3
3066,1
3067,2
3069,4
3072,2
3073,3
3075,1
3077,1
3078,1
3080,2
3081,1
3082,3
3085,1
3087,1
3092,2
3093,3
3094,2
3099,1
3102,4
3104,1
3105,4
3107,7
3109,2
3110,4
3111,21
3112,3
3114,1
3115,1
3117,8
3119,7
3121,2
3122,2
3124,5
8713,2
3129,1
3133,1
3134,2
3137,2
3138,1
3139,4
3140,5
3141,1
3142,6
3143,5
8288,1
3147,1
3148,1
5884,1
3150,2
525,3
3153,1
3156,2
3157,33
3160,1
3161,4
3164,5
255,1
3169,1
3173,2
3174,3
3176,1
3180,3
3181,16
3182,1
3183,5
3184,1
3191,1
3195,5
3196,7
3197,17
3198,24
8725,3
3200,15
3201,9
3202,12
3203,12
3204,6
3206,5
3207,13
3208,10
3209,42
3210,32
3211,67
3212,83
3213,37
3214,65
3215,50
3216,18
3217,9
3218,22
3219,22
3220,6
3221,9
3222,6
3223,4
3224,1
3225,2
3226,13
3227,5
3228,1
3229,6
3230,9
3231,35
3232,29
3233,13
3234,16
3235,19
3236,20
3237,34
3238,11
3239,26
3240,32
3241,49
3242,15
3243,40
3244,67
3245,13
3246,7
3247,14
3248,43
3249,39
3250,13
3251,5
3252,3
3256,2
3257,1
543,3
3261,9
3262,1
3263,2
3264,1
3265,8
3268,2
3270,1
3273,1
3275,10
3276,3
3277,3
3278,5
3279,9
3280,18
3281,19
3282,75
3283,50
3284,18
3285,7
3286,5
3287,1
3288,25
3289,24
3290,6
3291,18
3292,22
3293,17
3294,9
3295,26
3296,6
3297,7
3298,7
3299,6
3300,4
3301,13
3302,3
3303,25
3304,30
3305,65
3306,65
3307,18
3308,18
3309,30
3310,7
3311,4
3312,4
3313,12
3314,3
3315,2
3316,5
3319,3
3320,1
8746,1
4651,1
3334,3
1921,1
3337,1
3339,1
3350,19
3351,17
3352,24
3353,32
3354,16
3355,12
3356,30
3357,33
3358,14
3359,12
3360,36
3361,47
3362,18
3363,9
3364,8
3365,19
3367,1
3369,5
3370,78
3371,27
3372,16
3373,82
3374,85
3375,89
3376,6
3377,12
3378,12
3379,18
3380,1
3381,2
3383,7
3384,5
3385,6
3386,6
3387,4
3388,7
3389,8
3390,8
3391,9
3392,14
3393,21
3394,22
3395,10
3396,9
3397,7
3398,10
3399,25
3400,12
3401,4
3402,2
3403,1
3404,10
3405,43
3406,14
3407,7
3408,5
3409,3
3410,4
3412,4
3413,12
3414,40
3415,12
3416,4
3417,25
3418,13
3419,2
3420,7
3421,6
3422,5
8763,2
579,1
3494,2
3495,19
3500,19
3502,1
3503,2
3504,1
3505,2
3506,1
3510,2
3512,1
3513,1
3515,1
3517,13
3518,5
3519,4
3522,4
3523,1
3525,1
3526,1
3527,1
3529,1
3533,1
3535,4
3536,6
3538,2
3539,1
3540,2
8782,1
3543,1
3546,3
3549,1
3550,2
3552,1
3553,1
3554,3
3555,2
593,1
3560,2
3561,2
3562,1
3563,1
3569,1
3572,1
3573,2
3574,1
3575,7
3576,3
8788,6
3579,3
3580,1
3583,3
3584,2
3587,1
3589,1
3591,1
3593,1
3596,1
3598,2
3599,2
3600,8
3601,37
3602,8
3603,10
3604,12
3605,5
602,3
605,2
608,1
609,2
8806,1
8809,1
8810,2
623,1
625,1
626,1
8819,3
8822,3
635,1
636,1
638,1
2857,2
648,1
8313,2
651,3
8314,2
656,3
8851,1
661,1
8318,1
8319,1
680,1
4777,1
683,2
8407,2
695,1
8893,1
702,2
705,1
8597,1
8898,1
709,2
710,1
8903,1
712,1
713,3
8915,1
8916,2
8917,4
726,1
8920,2
738,1
8931,2
741,1
8935,1
748,2
8943,10
754,1
755,1
8949,1
8953,7
765,1
768,3
8961,2
8964,1
427,1
4639,80
4640,112
4641,76
4642,4
4643,20
4644,37
4645,45
4646,24
4647,18
4648,2
4649,1
775,2
4652,1
4654,2
4655,1
4656,1
776,1
4660,1
4663,3
4666,1
4668,3
4670,2
4673,1
4674,1
4675,1
4677,1
4679,1
4681,1
4682,1
4683,1
4684,2
4685,1
4686,2
4690,2
4691,1
782,3
4696,2
4697,3
4698,1
4700,2
4701,4
4703,1
8976,3
4707,2
4708,6
4712,1
4713,1
4714,1
4718,1
4719,4
787,1
4724,1
4725,1
4726,1
4727,1
788,2
4730,1
4732,1
4733,2
4736,1
791,1
8984,6
4757,7
4760,2
4765,2
795,2
4772,1
4776,1
796,3
4781,2
4782,1
359,1
4789,1
4791,2
4793,1
4796,1
4799,1
4800,3
4802,3
4803,2
4804,2
4806,4
4808,2
4811,1
4815,1
4821,2
4822,2
4823,2
4824,1
4832,1
523,1
4834,1
4843,1
4844,3
4847,1
4848,2
4849,1
4850,1
9001,3
4857,1
4864,1
4872,1
812,2
435,4
4878,2
4879,1
4881,2
4882,1
4883,1
4885,1
4886,1
4887,2
4889,3
4892,2
4896,3
4897,1
4899,1
4902,1
4903,3
4905,2
4907,1
4909,1
4914,4
819,3
4922,1
4925,1
4929,1
4932,1
4939,1
4942,1
824,1
8348,1
4949,1
4950,3
825,1
4952,1
4953,2
4957,2
9019,4
4968,1
4970,1
4974,2
7656,1
4980,1
9022,8
4982,1
4986,1
4987,1
4988,1
4989,1
4992,1
4996,1
4997,1
5002,2
5006,2
5008,1
5010,1
5011,3
5012,1
5013,1
5014,4
5018,1
5023,1
5024,1
5028,3
5031,3
5032,3
5033,1
5035,3
5037,4
5040,2
5052,1
5056,1
5057,1
5058,4
5061,1
5067,6
5075,1
5076,1
5080,1
5081,1
5083,1
5093,1
5094,3
5102,3
5103,3
5104,2
5105,2
5109,1
5112,1
5115,1
5118,1
2219,1
5129,3
5136,2
5137,1
5138,3
5143,4
5144,4
5145,1
5146,2
5147,3
5148,1
5152,2
5153,1
5157,1
5161,1
5162,1
5163,3
5165,7
5166,2
5171,1
5174,1
5176,1
5177,1
5179,2
5181,1
5185,1
5188,1
5189,1
5190,2
5196,1
5197,1
5198,3
5199,1
5202,1
4963,4
5206,2
5208,1
5209,5
5210,3
5214,2
5221,2
5223,1
5224,1
5225,2
2629,1
5241,1
5245,4
5246,1
5247,2
5248,1
5250,1
5251,4
5254,3
5259,1
5260,3
5262,1
5263,1
5264,2
5266,38
5269,1
5270,1
5272,1
5273,1
5274,1
5275,2
5276,5
5279,1
5280,1
5281,1
5282,1
5284,1
5289,1
5293,4
5294,6
5300,1
5303,2
5305,1
5306,2
5310,2
5311,1
5312,3
5316,3
5323,2
5324,3
5326,2
5330,9
5331,1
5332,3
5333,1
5335,2
5336,4
5338,2
5340,6
5341,21
5345,1
5347,1
5354,6
5357,1
5361,3
5364,1
5368,1
5370,1
5377,1
5381,1
5382,2
5383,2
5385,1
5396,1
5400,1
5402,2
5403,1
5405,10
5412,2
5424,5
5426,1
5427,1
5428,3
5429,1
5431,2
5435,4
5436,1
5437,1
5441,3
5443,2
5445,2
5448,4
5449,3
5450,1
5453,1
5456,3
5458,2
5465,2
5466,1
5468,2
5470,1
182,1
5472,1
5473,1
5474,2
5478,1
5482,1
5483,1
5490,1
5496,1
5498,1
5499,1
5500,1
5501,4
5503,2
5506,2
5507,1
5509,1
5514,3
5525,1
5529,1
5530,6
5533,3
5538,2
5542,1
5548,3
5549,1
5550,1
5551,2
5554,2
5561,11
5562,1
5563,1
5567,1
5568,1
5569,1
5570,3
5571,2
5572,1
5575,4
5576,9
5577,4
5578,18
5580,6
5581,2
5582,9
5583,19
5584,6
5585,5
5586,2
5587,4
5588,4
5590,1
5592,2
5596,1
5599,6
5606,1
8370,1
5615,1
5616,9
5619,1
5623,1
5627,1
5629,1
5632,1
5633,1
5636,1
5637,2
5638,1
5640,2
5641,2
5644,3
5646,2
5647,3
5649,2
5651,5
5654,1
5657,4
5659,1
5660,1
5661,2
5662,5
5663,1
5664,12
5665,3
5666,6
5667,8
5668,2
5669,4
5671,2
5674,7
5675,7
5677,1
5680,2
5682,2
5684,8
5688,6
5689,2
5690,1
5691,5
5692,1
5693,1
5695,1
5696,3
5697,7
5698,1
5699,1
5700,1
5701,2
5702,2
5703,1
5704,6
5705,1
5706,3
5707,2
5708,5
5709,1
5713,2
5714,2
5716,1
5718,2
5719,1
5721,3
5725,2
5726,1
5731,1
5733,1
5734,1
5736,1
5737,1
5741,1
5743,1
5744,1
5746,1
5747,4
5748,4
5750,1
5753,1
5757,2
5760,5
5761,1
5765,2
5766,6
5768,11
5770,3
5771,1
5772,5
5773,5
5775,2
5776,2
5777,1
5779,1
5780,1
5782,1
5784,6
5786,2
5788,2
5790,3
5791,1
5792,6
5794,1
5795,2
5797,2
5799,15
5800,1
5801,1
5805,2
5807,2
5810,4
5811,2
5812,2
5813,4
739,1
5817,3
5822,1
5825,1
5826,3
5830,1
5835,1
5840,2
5841,1
5842,5
5844,2
5848,1
5850,1
5851,4
5852,1
5853,4
5855,4
5859,4
5861,3
5866,2
5867,2
5868,5
5870,1
5871,2
5873,1
5874,2
8379,1
5881,3
455,2
5885,2
5886,5
8277,1
5893,5
5894,4
5895,1
5898,3
5901,4
5904,1
5908,1
5911,2
5916,1
5917,1
5919,1
5921,2
5925,1
5926,1
5927,1
5928,1
5932,2
5933,2
5935,1
5937,1
5938,1
5939,1
5941,1
5943,5
5946,1
5950,1
5951,1
5952,2
5956,5
5957,4
5958,2
5959,1
5962,1
8678,1
5969,2
5974,1
5976,6
5979,1
5983,3
5984,1
5990,5
5992,2
5997,2
5998,5
5999,3
6001,1
6003,2
6006,1
6009,2
6015,2
6018,1
6019,2
6020,2
6024,1
6027,2
6028,2
6029,1
6030,4
6032,3
6034,3
6035,3
6036,11
6037,1
6043,1
6045,3
6049,3
6050,2
6051,3
6053,12
6055,1
6058,3
6065,1
6066,1
6069,1
6070,1
6074,1
6077,2
6078,5
6079,3
6081,1
6085,2
6087,2
8386,1
6089,1
6090,1
6093,2
6096,1
6098,1
6101,1
6103,1
6106,2
6107,2
6113,1
6114,2
6117,3
6119,1
6123,3
6125,1
6126,2
6127,4
6130,2
6132,2
6136,1
6138,1
6141,1
6142,2
6143,4
6146,2
6147,1
6149,3
6152,1
6153,2
6154,1
6155,1
6156,4
6157,1
6159,1
6160,1
6162,3
6163,6
6164,1
6166,5
6168,1
6171,1
6172,1
6173,3
6174,2
6178,1
6179,10
6180,2
6181,4
6183,3
6184,1
6185,1
6186,4
6192,2
6196,2
6200,2
6202,1
6204,4
6206,1
6210,3
6211,1
6217,2
6221,1
6224,1
6225,1
6226,1
6231,4
6232,3
6233,2
6234,1
6238,1
6240,2
6244,1
6245,2
6249,2
6251,1
6255,1
6257,3
6261,1
6262,1
6263,1
6266,3
6272,1
6275,5
6277,6
6279,4
6283,2
6284,3
6285,1
6286,1
6287,3
6292,2
6297,2
6298,1
6299,3
6300,6
6301,2
6304,2
6306,4
6309,3
6310,1
6312,2
6313,3
6314,1
6315,6
6316,2
6320,1
6327,2
6330,1
6334,1
6338,3
6339,2
6340,4
6341,2
6342,1
6343,1
6344,1
6348,1
6349,1
6352,1
6353,1
6354,1
6361,1
6363,1
6364,1
6366,1
6368,3
6370,1
6373,1
6374,1
6377,2
6378,4
6379,1
6382,1
6384,1
6389,4
6390,1
6400,1
6401,1
6404,2
6406,1
6409,1
6411,1
6413,4
6415,3
6419,1
6421,1
6422,2
6423,1
6424,2
6427,12
6429,1
6430,1
6431,2
6432,1
6433,1
6436,1
6440,1
6447,1
6450,1
6452,1
6454,1
6457,1
6460,1
6461,2
6462,2
6463,1
6464,1
6467,1
6468,1
6477,1
6478,2
6479,1
6489,3
6492,2
6493,2
6495,4
6497,4
6498,4
6500,1
6507,4
6508,2
6511,2
6512,1
6513,1
6518,1
6522,1
6524,13
6525,1
6527,1
6528,7
6529,3
6530,3
6531,2
6534,1
6535,1
6536,3
6537,5
6538,1
6545,3
6550,1
6552,2
6555,2
6556,4
6565,2
6567,1
8675,1
6581,1
6584,1
6585,1
492,2
6590,2
6595,1
6596,1
6600,3
6603,1
6606,1
6607,2
6613,1
6616,2
6617,1
6620,1
6621,1
8391,1
6625,1
6626,1
6630,1
6635,1
6638,2
6639,1
221,1
6643,1
6646,1
6650,2
6652,1
6659,1
6660,1
6663,1
6664,2
6665,1
6667,2
6672,2
6676,3
6677,2
6678,1
6683,2
6684,2
6685,1
6686,2
6687,2
6688,3
6689,1
6692,2
6695,1
6696,1
6699,1
6700,2
6708,2
6712,2
6713,1
6714,2
6717,2
6718,3
6720,2
6721,2
6726,2
6729,6
6730,2
6731,1
6732,1
6736,1
6738,1
6740,2
6743,1
6752,1
6755,1
6758,4
4657,1
6763,2
6764,2
6765,2
6766,2
6767,1
6769,2
6772,6
6776,1
6779,1
6780,3
6782,1
6784,6
6785,1
6789,1
6790,1
6792,1
226,1
6794,1
6795,2
6796,2
6797,1
6798,5
499,2
6800,1
6801,4
6803,1
6807,1
6813,1
6814,1
8683,1
6816,1
6817,1
6818,1
6822,2
6823,1
6824,1
6825,1
2503,1
6829,1
6830,1
6832,1
6833,1
6834,1
6835,5
6836,1
6837,2
6838,1
6851,1
6853,1
6854,1
8338,1
6856,5
6859,7
6861,1
6862,1
6866,2
6868,4
6869,21
6870,1
6872,1
6876,1
6880,2
6881,1
6883,1
6886,3
502,1
6891,1
6894,1
6899,1
6906,1
6907,3
6908,3
6909,2
6910,2
6913,1
6916,2
6917,2
6918,1
6919,1
6920,1
8738,1
6923,1
6925,2
6926,1
6929,1
6930,1
6931,2
6933,1
6935,3
6936,2
6937,1
6940,4
231,1
6946,1
6949,1
8666,2
6954,1
6957,1
6961,2
6965,1
6966,1
6967,1
6968,1
6971,2
6973,1
6975,1
6976,48
6977,1
6978,2
6984,1
210,2
6989,1
6992,1
6993,1
6994,5
6995,3
6996,11
6997,18
6998,24
6999,1
7000,8
7002,3
7003,1
7004,1
7005,2
7006,7
7007,5
7008,8
7009,2
7010,5
7011,1
7012,4
7013,19
7014,14
7015,13
7016,7
7017,14
7018,39
7019,21
7020,16
7021,32
7022,4
7023,1
7024,18
7025,1
7027,4
7028,2
7029,1
7033,1
7038,1
7039,5
7040,1
7041,1
7044,1
7045,1
7047,1
7049,1
7053,2
7055,3
7060,1
7061,1
7062,2
7066,1
7067,1
7068,2
7070,1
7075,2
7077,1
7079,3
7080,1
7083,2
7085,2
7086,3
7087,5
7088,5
7089,10
7090,14
7091,10
8965,10
7093,13
7094,16
7095,14
7096,2
7097,7
7098,11
7099,4
7100,8
7101,2
7102,1
7103,6
7104,8
7105,2
7106,6
7107,9
7108,2
7109,2
7110,7
7111,1
7112,5
7113,2
7114,3
7116,1
7118,1
7121,3
7124,1
7125,1
7126,1
7129,1
7131,1
7136,1
7137,1
7138,7
7139,6
7140,2
7144,3
7148,2
7152,1
7153,1
7154,2
7156,1
7158,1
511,1
7161,2
7162,1
7164,3
7166,3
7167,1
7169,1
7170,4
7171,1
7173,1
7174,1
7175,7
7176,9
7177,2
7181,3
7182,2
7184,2
7187,1
7188,1
7190,1
7191,1
7193,2
7201,26
7203,3
7205,3
7206,7
7207,5
7208,2
7210,6
7211,5
7213,10
7215,1
7217,2
7219,1
7228,9
7229,2
7230,1
7235,2
7240,3
7244,1
7245,2
7247,1
7249,1
7254,1
7255,1
7258,1
7259,2
7262,2
7263,1
7264,3
7268,1
7275,1
7277,2
7279,2
7282,1
7284,1
7291,2
7294,1
8699,1
7296,3
7297,1
103,1
7306,2
7311,2
7313,1
7316,1
7318,1
485,1
7321,1
7322,2
7325,2
7326,2
7329,5
7330,1
376,2
7337,1
7342,1
7349,1
7351,1
7352,1
8701,1
7358,1
7359,1
7361,1
7362,1
7363,1
7367,1
7370,1
7371,1
7372,5
7375,1
7377,1
7380,2
7383,6
7384,2
7388,1
7390,1
7391,2
7393,1
7395,2
7398,3
7400,1
7404,1
7405,1
7412,1
7415,1
7416,1
7417,1
7418,1
7420,1
7421,2
1237,2
7429,4
7430,2
7432,1
7433,4
7434,17
7435,5
7436,18
7437,13
7438,14
7439,15
7440,16
7441,26
7442,27
7443,8
7444,1
7445,3
7446,3
7447,1
7448,10
7449,2
7452,1
7454,8
7455,4
7456,4
7458,2
1243,1
7460,1
7461,2
7463,1
7464,1
7465,2
794,1
7467,19
7468,2
7470,2
7471,1
7474,1
7477,1
7479,3
7481,1
7484,3
7485,3
7487,1
7491,1
7492,1
7496,1
7499,1
7500,1
7503,1
7509,1
7514,1
7517,1
7520,2
7521,2
7522,1
7523,2
7524,2
7530,1
7531,3
7536,1
7540,1
7541,1
7543,1
7549,2
7550,2
7552,2
7553,6
7554,4
7555,14
7556,1
7557,1
7559,1
7561,1
7562,2
7563,1
7564,2
7568,1
7569,1
7573,2
7574,3
7576,1
7577,1
7580,2
7582,1
7583,9
7585,1
7588,2
7589,1
7592,1
7593,4
7596,1
7601,1
253,1
7607,1
7608,1
7610,2
7613,2
7619,2
7621,1
7624,6
7632,1
254,1
7636,1
7638,2
7639,2
7640,1
7643,3
7645,1
7647,4
7648,1
7649,1
7650,7
7652,1
7653,1
7654,2
7655,1
349,2
7662,3
7663,1
7664,1
7667,1
7676,3
7677,2
7678,1
7680,1
7683,1
7685,1
7688,2
7691,2
7693,1
7694,3
7695,2
7697,1
7698,1
7706,1
7711,1
7713,1
7715,2
7720,4
7721,2
7722,2
7724,1
7729,3
7730,1
7733,2
7736,2
7737,3
7745,1
7749,4
7751,1
7752,3
7753,1
7757,1
7758,1
7763,2
7765,1
7766,2
7768,2
7772,3
7774,3
7775,1
7776,1
7779,2
7780,3
7783,6
7784,2
7788,2
7790,9
7795,2
7798,1
7799,1
7803,6
7804,2
7805,7
7806,2
7810,1
7811,3
7812,3
7815,2
7817,2
7826,1
7827,2
7828,1
7833,1
7835,1
7836,3
7837,1
7839,1
7840,2
7841,2
7843,6
7844,3
7850,1
7855,1
7858,4
7861,1
7865,1
7866,1
7869,1
325,1
7873,2
7874,2
7878,4
7881,2
7883,2
7884,2
7902,3
7911,6
7916,2
7922,2
8720,1
7931,2
7936,2
7940,1
7941,1
7943,1
7944,1
7945,3
7946,1
7948,2
7951,2
7955,3
7957,2
7960,3
7962,4
7967,3
7970,1
7973,3
7979,1
7980,1
7987,1
7988,1
7990,1
7992,1
7997,2
7999,1
8008,1
8009,4
8016,1
8017,1
8018,1
8020,6
8021,3
8024,1
8025,7
8028,1
8030,1
8035,1
8036,1
8037,1
8038,1
8042,2
8043,1
8052,3
8055,1
8056,1
8057,1
8058,1
8059,1
8064,2
8068,6
8072,1
818,2
8083,1
8085,1
8089,1
8090,1
8091,1
8093,1
8095,2
8096,1
8098,1
8099,1
8100,2
8102,1
8103,1
8104,2
8105,1
8106,3
8108,1
8109,2
8110,4
8111,1
8112,6
8113,9
8114,1
8115,3
8116,6
8117,1
8118,4
8127,4
8128,5
8129,1
8130,1
8131,1
8134,1
8727,1
8138,1
8140,1
8141,1
8142,1
8148,8
8150,1
8151,1
8155,1
8156,1
8158,8
8159,3
8163,3
8165,1
8166,1
8167,7
8168,1
8170,3
8171,8
8176,2
8177,1
8179,2
8183,4
8186,2
8187,5
8189,2
8191,1
