name,counts
2,1
3,7
4,1
5,2
6,6
7,7
8,8
9,2
10,3
11,3
12,86
13,85
14,4
16,7
17,5
18,7
20,12
22,1
23,7
24,6
25,7
26,3
28,16
29,1
30,7
31,5
32,2
33,5
34,16
35,1
36,3
37,2
38,4
41,3
42,7
45,3
46,6
47,1
48,1
49,2
50,3
51,3
52,2
53,7
54,3
55,1
56,3
57,3
58,6
59,4
60,4
61,8
62,7
63,4
64,6
65,2
68,1
70,2
71,2
73,2
74,6
75,7
76,5
77,1
78,5
79,1
80,34
83,1
84,1
86,10
88,7
89,4
90,4
93,2
94,12
95,1
97,5
99,5
100,3
101,2
102,2
103,5
104,5
105,2
106,2
107,3
108,3
109,1
111,1
112,2
115,1
116,4
117,2
118,2
119,6
120,2
122,1
123,3
125,5
126,1
127,3
128,5
129,1
130,19
131,1
132,5
133,6
134,3
135,1
136,13
138,2
139,1
142,4
145,3
147,2
148,2
149,4
150,2
151,3
152,1
153,1
154,2
155,4
157,2
159,3
160,1
162,6
163,1
165,4
166,2
167,1
168,10
169,10
171,2
172,5
173,12
174,16
175,14
177,1
178,2
179,5
180,6
181,8
182,1
184,1
187,4
188,4
189,6
190,9
191,7
192,3
193,2
194,2
195,7
196,22
197,27
198,7
199,3
200,17
201,43
202,24
203,4
204,2
205,6
206,3
207,3
208,4
209,1
210,1
211,1
212,7
213,4
214,5
217,5
218,3
220,4
221,3
222,2
223,1
224,3
225,4
226,3
227,5
229,3
230,2
231,2
232,5
233,3
234,2
235,6
236,4
237,2
238,17
239,11
240,1
241,14
242,1
243,1
244,7
245,1
246,1
247,1
248,1
249,2
250,1
251,1
252,3
253,1
254,4
255,5
256,5
257,9
258,3
259,1
265,2
267,7
268,12
269,2
270,6
271,1
272,2
273,10
274,1
275,2
276,2
277,2
278,12
279,7
281,1
282,2
283,3
284,10
285,8
288,1
289,3
290,11
292,6
294,5
295,5
296,4
298,3
299,9
300,3
301,2
302,2
303,60
304,26
305,2
306,6
308,9
309,3
310,17
311,6
312,3
313,3
314,6
315,7
316,2
318,5
319,1
320,3
322,1
323,1
324,1
325,8
326,2
327,2
329,10
331,2
332,12
333,3
334,1
335,2
336,3
338,3
340,2
341,1
342,1
343,1
347,3
348,3
349,1
351,3
352,4
353,1
354,5
355,9
356,3
358,3
359,2
360,4
361,4
364,4
366,3
367,6
368,4
370,3
371,29
372,1
373,3
374,1
376,5
377,2
378,1
379,13
380,2
382,1
383,1
384,1
385,1
386,3
387,4
388,2
391,4
392,1
393,3
394,1
396,3
398,12
399,7
400,9
401,12
402,9
403,3
404,2
405,3
406,2
407,2
408,4
409,3
411,3
413,2
414,1
415,2
416,3
418,8
419,4
420,3
421,2
422,1
423,2
424,6
425,1
426,12
427,1
428,1
429,6
430,1
431,2
432,8
433,2
434,3
435,1
436,1
437,5
438,2
440,12
442,6
444,2
445,4
446,1
448,3
449,2
450,2
451,3
452,1
454,2
455,3
456,1
457,8
458,2
459,1
461,1
462,4
464,1
466,2
467,1
468,1
469,1
470,2
471,10
472,2
473,2
474,4
475,3
476,2
477,1
478,8
479,7
480,7
481,4
482,7
483,4
486,2
488,1
491,1
494,1
495,2
496,1
497,1
498,1
499,1
500,2
501,2
502,3
503,2
504,4
505,2
506,2
507,4
509,2
510,5
511,5
513,1
514,3
515,2
516,12
518,2
519,2
521,3
522,5
523,2
525,5
526,1
527,2
528,22
529,3
530,6
531,1
532,1
533,1
534,4
535,4
536,6
537,1
538,4
539,2
540,6
541,11
542,5
543,2
544,5
545,7
546,7
547,7
548,2
549,4
550,10
551,1
552,2
553,2
554,4
555,2
556,3
557,9
558,1
560,7
561,4
562,7
563,1
565,1
566,2
570,4
571,5
572,2
573,2
574,1
575,2
576,2
578,2
580,4
581,1
582,1
583,3
584,3
586,3
587,1
588,3
589,5
590,4
591,2
595,2
596,1
597,2
598,4
599,5
600,2
602,4
603,3
604,1
605,3
606,2
607,3
609,2
610,1
612,4
614,1
615,1
616,1
617,5
618,8
619,1
620,4
621,1
622,1
623,1
624,5
626,1
627,2
629,1
630,42
631,3
633,2
634,2
635,2
636,1
637,5
638,6
639,1
640,5
641,5
642,2
643,7
644,5
645,1
646,4
647,5
648,1
649,6
650,6
651,8
652,1
653,18
654,4
655,8
656,29
657,3
658,1
659,3
660,1
661,3
662,10
663,6
664,6
665,3
666,3
667,1
668,8
669,6
670,1
671,4
672,5
673,3
674,13
676,3
677,9
678,1
679,3
680,2
681,1
684,1
685,4
686,1
687,3
688,1
689,3
692,1
693,13
694,2
695,1
696,2
697,1
698,3
699,3
700,2
701,5
702,2
703,2
704,5
705,3
707,7
708,1
709,2
710,2
711,1
714,3
715,6
716,1
717,1
718,3
720,2
721,4
722,5
723,17
724,3
725,8
728,7
729,2
730,4
731,1
732,1
733,3
734,2
735,2
736,13
737,1
738,3
739,1
740,15
741,4
742,3
743,2
744,3
746,7
747,4
748,1
749,3
750,14
751,3
752,2
753,7
754,4
755,2
756,3
757,3
758,2
759,3
760,7
761,1
762,9
763,2
764,1
765,5
766,5
767,10
768,9
769,10
770,2
771,5
772,10
773,3
774,5
775,6
776,8
777,1
778,9
779,6
780,4
782,10
783,12
784,7
785,5
786,2
787,1
788,6
789,10
791,4
793,6
794,3
795,2
796,3
797,3
798,7
800,5
801,3
802,4
803,5
804,4
805,10
806,3
807,5
808,6
809,1
810,8
811,9
812,1
813,2
814,3
815,10
817,1
818,1
819,7
820,12
825,5
826,2
827,1
828,2
830,2
831,2
832,1
833,6
834,1
835,5
836,15
837,10
838,12
839,4
840,15
841,5
842,9
843,3
844,4
845,13
846,8
847,4
848,1
849,5
850,1
851,3
852,7
853,5
854,7
855,9
856,6
857,8
858,9
861,6
862,7
863,2
864,9
866,1
867,1
869,1
870,1
871,5
872,5
873,2
874,11
875,2
876,2
877,1
878,1
879,4
881,1
882,3
884,1
885,3
886,1
887,1
888,4
891,1
892,67
893,1
894,2
895,3
896,4
897,4
898,5
899,2
900,2
901,3
902,2
903,4
906,2
907,1
908,1
909,5
911,2
912,2
913,2
914,4
915,30
916,3
919,3
920,6
923,4
924,5
927,3
929,9
930,8
931,4
932,12
933,4
934,12
935,12
936,6
937,3
938,7
939,3
940,2
941,14
942,10
943,4
944,2
945,2
946,4
947,5
948,4
949,12
950,5
951,3
952,7
953,4
954,10
955,6
956,3
957,3
958,3
959,4
961,6
962,28
963,2
964,9
965,14
966,16
967,1
968,6
969,3
970,4
972,9
973,6
974,4
975,1
976,3
977,10
978,1
979,9
980,4
981,5
982,6
983,8
984,13
985,3
986,9
987,6
988,9
989,13
990,12
991,2
992,4
993,6
994,39
995,8
996,7
997,13
998,9
999,6
1000,6
1001,3
1002,28
1003,2
1004,9
1005,4
1006,1
1007,9
1008,4
1009,1
1011,1
1012,5
1013,3
1014,6
1015,1
1016,3
1017,6
1018,4
1019,4
1020,7
1021,1
1022,4
1025,14
1026,4
1027,6
1028,8
1029,6
1030,11
1031,3
1032,4
1033,3
1034,2
1035,6
1036,1
1037,4
1038,8
1039,10
1040,3
1041,2
1042,3
1043,1
1044,3
1045,5
1046,5
1048,42
1049,8
1050,8
1051,8
1052,10
1053,8
1054,13
1055,5
1056,11
1057,16
1058,5
1059,1
1060,4
1062,11
1063,1
1064,10
1065,8
1066,7
1067,1
1068,7
1069,1
1070,6
1071,1
1072,5
1074,6
1075,9
1076,5
1077,1
1078,15
1079,12
1080,5
1082,2
1083,5
1084,1
1085,1
1086,3
1087,1
1088,8
1089,2
1090,4
1091,1
1092,8
1093,7
1094,1
1095,2
1096,6
1097,8
1098,12
1099,3
1100,3
1101,7
1103,7
1104,2
1105,2
1106,3
1107,6
1108,4
1109,2
1110,1
1111,1
1112,2
1114,1
1115,2
1116,1
1117,3
1118,1
1119,2
1120,6
1121,3
1122,1
1123,1
1124,5
1125,1
1126,2
1127,2
1129,2
1130,1
1131,3
1132,3
1133,7
1134,6
1135,5
1136,2
1137,2
1138,1
1139,2
1140,2
1141,1
1142,1
1143,3
1144,1
1145,1
1146,5
1147,8
1148,2
1149,3
1150,3
1151,5
1152,3
1153,5
1154,3
1155,3
1156,2
1157,5
1158,4
1159,4
1160,1
1162,4
1163,3
1164,6
1165,7
1166,3
1167,2
1168,2
1169,4
1170,3
1171,4
1172,4
1173,2
1174,1
1175,2
1177,20
1178,19
1179,5
1180,5
1181,3
1183,1
1184,1
1185,3
1186,2
1188,9
1189,2
1191,1
1193,2
1194,1
1195,1
1196,1
1201,3
1202,2
1203,3
1206,1
1207,2
1208,2
1210,3
1211,2
1212,2
1213,3
1214,1
1215,1
1217,1
1218,2
1219,1
1220,3
1221,1
1223,3
1224,2
1225,2
1226,1
1228,4
1229,9
1230,5
1231,1
1232,1
1233,1
1235,21
1236,3
1237,5
1238,1
1239,1
1242,3
1243,14
1244,2
1245,7
1247,4
1248,2
1249,3
1250,10
1251,4
1252,5
1253,4
1254,3
1255,3
1256,1
1257,1
1258,5
1259,2
1260,2
1261,1
1262,3
1263,13
1264,2
1265,13
1266,2
1267,1
1268,4
1269,4
1270,5
1271,5
1273,2
1274,7
1275,7
1276,2
1277,3
1278,1
1279,3
1280,1
1281,4
1282,1
1284,3
1286,3
1287,1
1290,1
1291,6
1292,6
1293,2
1294,7
1295,1
1296,1
1300,4
1301,11
1302,1
1303,8
1304,3
1305,4
1306,6
1307,8
1308,6
1309,2
1310,6
1311,6
1312,3
1313,1
1314,10
1315,1
1316,4
1317,1
1318,4
1319,4
1320,5
1321,3
1322,3
1323,3
1325,2
1326,4
1327,2
1328,3
1329,2
1330,1
1331,1
1332,1
1334,3
1335,3
1337,2
1338,3
1339,1
1340,1
1341,4
1342,2
1343,1
1344,2
1345,2
1346,2
1348,1
1349,5
1351,4
1352,2
1353,3
1354,1
1355,3
1356,1
1357,3
1358,1
1359,3
1360,2
1361,1
1362,11
1363,31
1364,3
1365,3
1366,4
1367,1
1368,3
1369,4
1370,6
1371,3
1372,1
1373,6
1374,1
1375,1
1376,1
1378,2
1380,6
1381,11
1382,10
1383,4
1384,7
1385,2
1386,6
1387,4
1389,2
1390,11
1391,1
1392,1
1393,2
1394,2
1395,1
1396,1
1397,2
1398,1
1399,5
1400,4
1401,3
1402,2
1403,17
1404,2
1405,6
1406,7
1407,2
1409,3
1410,2
1411,2
1412,4
1413,6
1415,2
1418,2
1419,1
1420,13
1421,3
1422,3
1423,3
1424,5
1425,1
1426,5
1427,2
1428,3
1429,2
1430,2
1431,3
1432,8
1434,6
1436,4
1439,1
1440,2
1441,4
1442,3
1444,2
1445,1
1446,2
1447,1
1448,2
1449,3
1450,1
1451,2
1452,3
1454,2
1455,1
1456,10
1458,31
1459,4
1460,12
1461,1
1462,4
1464,38
1465,5
1466,3
1467,2
1468,3
1469,2
1470,2
1472,1
1473,3
1474,2
1475,4
1476,2
1477,1
1478,1
1479,10
1480,3
1482,3
1483,4
1484,2
1485,1
1486,5
1487,5
1489,3
1491,6
1492,2
1494,4
1495,8
1496,1
1497,3
1498,9
1499,4
1500,4
1501,1
1502,17
1503,11
1504,1
1505,8
1506,5
1507,19
1508,27
1509,29
1510,2
1511,40
1512,4
1513,58
1514,158
1515,5
1516,63
1517,42
1518,32
1519,34
1520,12
1521,14
1522,7
1523,11
1524,8
1525,11
1526,2
1527,2
1528,7
1529,33
1530,6
1531,6
1532,1
1534,2
1535,10
1536,7
1537,8
1538,2
1539,2
1540,3
1541,4
1542,2
1544,4
1545,4
1546,27
1547,4
1548,1
1549,7
1550,2
1551,4
1552,8
1553,16
1554,4
1555,3
1556,11
1557,3
1558,3
1559,5
1561,2
1562,6
1563,1
1564,1
1565,5
1566,1
1567,5
1568,3
1569,3
1570,3
1571,1
1572,1
1573,15
1574,14
1575,7
1576,1
1578,3
1579,10
1580,2
1581,5
1583,5
1584,1
1585,3
1586,4
1587,2
1588,2
1590,1
1591,1
1592,5
1593,3
1594,2
1595,1
1596,2
1597,4
1598,2
1599,2
1600,4
1601,1
1602,6
1603,2
1604,3
1605,4
1606,3
1607,1
1608,1
1609,5
1610,6
1611,2
1612,4
1613,4
1614,2
1615,1
1616,4
1617,3
1618,10
1619,7
1620,1
1621,13
1622,9
1623,2
1624,2
1626,1
1628,3
1629,2
1630,4
1632,2
1633,2
1635,2
1636,3
1637,3
1638,4
1639,1
1640,1
1641,1
1642,1
1643,4
1644,1
1645,2
1646,1
1647,18
1648,1
1649,2
1650,1
1651,1
1652,3
1653,5
1654,4
1655,1
1656,2
1657,5
1658,4
1659,10
1660,1
1661,2
1662,1
1663,1
1664,3
1666,3
1667,1
1669,1
1670,1
1672,4
1673,3
1675,5
1676,3
1677,4
1678,1
1679,2
1680,1
1681,3
1682,2
1683,1
1684,2
1685,3
1686,4
1687,1
1688,3
1689,1
1690,2
1691,3
1692,4
1694,5
1695,2
1697,3
1698,1
1699,1
1700,3
1701,3
1702,7
1703,6
1704,6
1705,2
1707,6
1708,3
1709,2
1710,1
1711,2
1712,1
1713,3
1714,2
1715,4
1716,1
1717,4
1718,4
1719,6
1720,6
1721,22
1722,5
1723,4
1725,1
1726,3
1727,9
1728,6
1729,7
1730,5
1731,1
1732,6
1733,1
1734,1
1737,2
1738,2
1739,1
1740,6
1741,3
1742,42
1743,1
1746,1
1747,3
1749,2
1750,2
1751,3
1752,1
1753,5
1754,1
1755,1
1757,5
1758,2
1759,11
1761,3
1762,1
1764,2
1765,1
1766,1
1767,20
1768,2
1770,1
1771,1
1772,1
1775,5
1776,2
1778,5
1779,5
1780,17
1781,1
1782,2
1784,2
1785,4
1786,1
1787,5
1788,2
1789,3
1790,4
1791,2
1792,1
1793,1
1795,2
1796,1
1797,3
1798,9
1799,3
1800,2
1803,4
1804,7
1805,4
1806,3
1807,9
1808,75
1809,55
1810,1
1876,4
1877,6
1879,1
1880,2
1881,3
1882,16
1883,4
1884,1
1885,3
1887,3
1889,3
1890,1
1891,18
1893,5
1895,2
1896,11
1897,9
1898,3
1899,1
1900,2
1901,4
1902,2
1904,2
1905,2
1906,6
1908,1
1909,2
1910,10
1911,1
1912,7
1913,3
1915,1
1916,1
1917,8
1918,2
1919,2
1920,5
1921,5
1922,4
1923,3
1924,2
1925,2
1926,1
1927,20
1928,39
1929,9
1930,4
1931,3
1932,2
1933,3
1934,7
1935,5
1936,12
1937,7
1938,3
1939,4
1942,2
1945,6
1946,2
1947,6
1948,1
1949,4
1950,17
1951,4
1952,2
1953,1
1954,3
1955,4
1956,5
1959,3
1960,2
1961,6
1962,2
1963,4
1964,20
1965,7
1966,3
1967,20
1968,3
1969,3
1970,1
1971,2
1972,2
1974,73
1975,2
1976,6
1977,26
1978,2
1979,9
1980,1
1981,1
1982,7
1983,3
1984,3
1985,3
1986,9
1987,8
1988,3
1989,1
1990,7
1991,4
1993,3
1995,3
1996,1
1997,2
1999,1
2000,2
2001,3
2002,1
2004,3
2005,27
2006,7
2007,11
2008,9
2010,10
2011,5
2012,7
2013,5
2014,6
2015,3
2016,1
2017,7
2018,4
2019,13
2021,1
2022,5
2023,5
2024,4
2025,2
2026,6
2027,6
2028,1
2029,18
2030,5
2031,2
2032,5
2034,24
2035,23
2036,1
2037,1
2038,5
2040,5
2042,3
2044,4
2045,1
2046,1
2047,2
2052,3
2053,2
2054,3
2055,2
2057,5
2058,3
2059,2
2061,6
2063,2
2064,2
2065,9
2066,1
2067,4
2068,2
2069,1
2070,5
2071,1
2072,4
2073,2
2074,2
2075,2
2076,2
2077,5
2078,6
2079,1
2080,1
2081,1
2082,2
2083,3
2084,3
2086,2
2087,4
2088,3
2089,2
2091,4
2092,2
2094,2
2095,2
2096,3
2097,1
2099,7
2100,1
2101,2
2102,5
2104,1
2105,2
2106,3
2109,1
2111,4
2112,1
2113,4
2115,4
2116,2
2117,2
2118,2
2120,2
2121,1
2122,13
2123,3
2124,2
2125,3
2126,1
2128,1
2129,3
2130,2
2131,1
2132,2
2133,2
2134,14
2135,2
2136,3
2138,4
2140,5
2142,3
2143,27
2145,1
2147,6
2148,4
2149,2
2153,1
2154,5
2155,3
2156,2
2158,6
2159,1
2160,2
2161,5
2164,3
2165,6
2166,3
2167,1
2168,18
2169,4
2170,3
2171,7
2172,4
2173,2
2174,3
2176,7
2177,5
2179,4
2180,9
2181,5
2182,3
2183,3
2184,4
2185,2
2186,1
2187,5
2188,2
2189,5
2190,6
2191,2
2194,2
2195,1
2196,10
2197,4
2198,2
2199,24
2200,5
2201,1
2203,4
2204,2
2205,7
2206,2
2207,2
2208,1
2209,1
2210,1
2211,1
2212,1
2213,3
2214,5
2215,4
2216,6
2217,2
2218,7
2219,5
2221,4
2222,2
2223,1
2225,3
2226,2
2227,3
2228,3
2229,4
2230,3
2231,1
2232,13
2233,3
2236,8
2237,3
2238,3
2239,2
2240,2
2241,7
2242,12
2243,7
2244,4
2245,3
2246,10
2247,7
2249,14
2250,3
2251,9
2252,5
2253,1
2254,2
2255,6
2257,4
2259,3
2260,2
2261,30
2262,1
2263,7
2264,2
2265,28
2266,17
2267,12
2268,2
2269,6
2270,5
2271,2
2272,6
2273,7
2274,4
2275,2
2276,6
2277,6
2278,27
2279,18
2280,1
2281,3
2282,1
2283,7
2284,2
2285,20
2286,9
2287,2
2288,1
2289,2
2290,1
2292,2
2294,4
2295,3
2296,2
2297,1
2298,2
2299,5
2302,1
2303,1
2304,1
2305,1
2306,2
2307,6
2308,4
2309,4
2311,1
2312,1
2314,11
2315,6
2316,4
2317,3
2319,5
2321,4
2323,5
2324,4
2325,11
2326,3
2327,1
2329,5
2330,2
2331,7
2332,5
2333,3
2334,3
2335,5
2336,4
2337,4
2338,3
2339,2
2340,6
2341,15
2342,5
2343,1
2344,3
2345,2
2346,1
2347,6
2348,2
2349,1
2350,2
2351,1
2352,2
2353,1
2354,3
2355,3
2356,2
2358,5
2360,3
2362,1
2363,2
2365,5
2366,3
2367,1
2368,3
2369,3
2370,1
2371,1
2372,1
2373,2
2374,1
2375,2
2376,2
2377,3
2378,2
2379,8
2380,4
2381,12
2382,1
2383,3
2384,6
2385,4
2386,3
2389,3
2390,7
2391,7
2392,3
2393,10
2394,9
2395,5
2396,6
2397,1
2404,4
2405,4
2407,4
2408,5
2409,11
2410,6
2412,8
2413,4
2414,3
2417,2
2418,5
2420,2
2421,2
2422,10
2423,3
2425,5
2426,2
2427,9
2428,2
2429,2
2430,4
2431,8
2432,3
2433,9
2434,4
2435,1
2436,6
2437,8
2438,6
2439,4
2440,1
2441,7
2443,3
2444,4
2445,2
2446,5
2447,2
2448,1
2449,8
2450,3
2451,4
2452,5
2453,4
2454,8
2455,17
2456,6
2457,4
2458,2
2459,6
2460,7
2461,3
2462,7
2463,5
2464,6
2465,1
2466,5
2467,3
2468,3
2469,3
2470,4
2471,7
2472,1
2473,5
2475,5
2476,2
2477,1
2478,1
2479,10
2480,5
2481,6
2483,5
2484,4
2485,2
2486,2
2487,6
2488,4
2489,10
2490,1
2491,8
2492,3
2493,7
2494,28
2495,20
2496,14
2497,3
2498,1
2499,1
2500,3
2501,5
2502,1
2504,2
2505,2
2506,3
2507,5
2508,1
2510,6
2511,6
2512,2
2513,2
2514,8
2515,43
2516,66
2517,23
2518,11
2519,30
2520,13
2521,3
2522,4
2523,5
2524,6
2525,1
2527,26
2528,1
2529,4
2530,5
2531,14
2533,7
2535,1
2536,1
2538,5
2539,1
2540,2
2541,11
2542,2
2544,3
2545,1
2547,1
2548,6
2549,2
2550,3
2551,1
2552,3
2553,1
2554,5
2555,3
2557,1
2559,4
2560,2
2561,1
2562,8
2563,3
2565,2
2567,7
2569,3
2570,1
2571,6
2572,5
2573,3
2575,2
2576,1
2577,2
2578,6
2579,12
2580,4
2581,3
2582,2
2583,7
2584,3
2586,12
2587,7
2588,16
2589,7
2590,13
2591,8
2592,5
2593,5
2594,2
2595,6
2596,2
2599,2
2600,6
2601,42
2602,13
2603,20
2604,39
2605,26
2606,2
2607,3
2608,1
2609,10
2610,2
2611,3
2612,10
2613,11
2614,6
2615,16
2616,1
2617,9
2618,6
2619,4
2620,7
2621,5
2623,5
2624,8
2625,4
2626,3
2628,4
2629,1
2630,2
2632,3
2633,1
2634,5
2635,3
2636,1
2638,1
2639,3
2640,4
2641,4
2642,3
2643,11
2644,31
2645,11
2646,1
2647,3
2648,33
2649,6
2650,21
2651,2
2652,2
2653,7
2654,2
2655,4
2656,11
2657,1
2658,2
2659,6
2660,15
2661,7
2662,2
2663,1
2664,7
2665,1
2666,4
2667,1
2668,2
2669,4
2670,4
2671,3
2672,5
2673,4
2674,1
2675,4
2676,4
2678,4
2679,2
2680,2
2681,2
2682,3
2683,1
2686,1
2687,2
2688,4
2689,1
2691,6
2692,10
2693,1
2694,2
2695,4
2696,1
2698,1
2699,4
2701,27
2702,3
2703,1
2704,2
2705,5
2706,6
2707,3
2709,2
2710,5
2711,1
2712,10
2713,1
2714,16
2715,1
2717,5
2718,2
2719,6
2721,1
2722,3
2723,6
2724,1
2725,1
2726,4
2727,3
2728,2
2729,5
2730,9
2731,5
2732,1
2733,6
2734,6
2735,3
2737,3
2738,5
2739,3
2740,1
2741,19
2742,4
2743,6
2745,3
2749,6
2750,3
2751,2
2752,5
2753,15
2756,6
2757,2
2758,10
2759,2
2760,6
2761,1
2762,4
2763,3
2764,2
2765,2
2766,1
2767,2
2768,1
2769,2
2770,5
2771,4
2772,2
2774,3
2775,1
2776,4
2777,8
2778,3
2779,6
2780,1
2781,3
2782,2
2783,1
2784,4
2786,5
2787,5
2788,4
2789,1
2790,2
2791,5
2792,19
2794,3
2795,4
2796,2
2797,1
2798,3
2799,5
2800,3
2801,1
2802,4
2803,5
2804,3
2805,1
2807,3
2810,12
2811,2
2812,2
2813,2
2814,1
2815,4
2819,1
2820,6
2821,5
2823,4
2824,2
2825,1
2826,3
2827,3
2828,2
2829,5
2830,4
2831,2
2832,5
2833,2
2835,1
2836,12
2837,7
2838,3
2839,10
2840,10
2841,7
2842,2
2843,3
2844,11
2845,1
2846,4
2847,2
2848,3
2849,3
2850,9
2851,3
2852,19
2853,1
2854,2
2855,1
2856,4
2857,16
2858,4
2859,1
2860,9
2861,2
2862,5
2864,22
2866,2
2868,2
2869,1
2870,1
2871,6
2872,5
2873,7
2874,3
2875,3
2877,1
2878,3
2879,1
2881,1
2882,2
2883,5
2884,1
2885,1
2886,3
2887,2
2891,4
2892,1
2893,3
2894,1
2895,8
2896,4
2898,2
2902,4
2903,2
2904,1
2905,1
2906,5
2909,1
2910,4
2911,3
2912,2
2913,1
2914,1
2915,2
2917,8
2918,1
2919,20
2920,1
2921,2
2922,12
2923,2
2924,2
2925,8
2926,2
2927,2
2928,2
2930,1
2931,4
2932,3
2934,4
2935,3
2937,2
2939,5
2942,2
2943,2
2944,2
2945,4
2946,4
2948,5
2949,4
2950,3
2951,2
2952,6
2953,2
2954,3
2955,2
2956,8
2957,4
2958,2
2959,4
2960,3
2961,3
2962,9
2963,1
2964,3
2965,1
2966,1
2967,5
2968,1
2969,6
2970,2
2972,17
2973,2
2974,1
2976,1
2977,11
2978,4
2979,3
2980,4
2981,2
2982,3
2983,2
2984,5
2985,2
2986,1
2987,1
2988,6
2989,1
2990,12
2991,4
2992,1
2993,3
2994,1
2996,3
2997,4
2998,1
2999,1
3000,18
3001,4
3002,13
3004,2
3006,2
3007,2
3009,1
3011,3
3012,4
3013,19
3014,3
3016,2
3017,22
3019,2
3022,1
3023,2
3024,5
3025,4
3026,2
3027,2
3028,10
3029,1
3030,2
3031,1
3032,2
3033,4
3035,3
3036,2
3037,2
3038,4
3039,3
3040,2
3041,1
3042,1
3045,1
3046,8
3047,1
3049,1
3050,7
3051,1
3052,5
3053,1
3055,3
3056,2
3057,2
3058,2
3060,3
3061,8
3062,1
3063,16
3065,10
3066,2
3067,3
3068,4
3069,4
3070,2
3071,11
3072,7
3075,2
3076,5
3077,4
3080,9
3081,3
3083,3
3085,4
3086,8
3087,5
3088,22
3089,2
3090,2
3091,2
3092,1
3095,3
3096,2
3097,1
3098,2
3099,2
3100,1
3101,1
3102,4
3103,38
3104,7
3105,2
3106,1
3107,3
3108,1
3109,4
3110,19
3111,19
3112,2
3114,1
3115,4
3116,6
3117,12
3118,6
3119,14
3120,2
3121,8
3123,22
3124,20
3125,3
3126,6
3127,4
3128,2
3129,1
3130,4
3131,4
3132,3
3133,1
3134,1
3135,7
3136,1
3137,18
3138,4
3139,1
3140,3
3141,6
3142,3
3143,1
3144,10
3145,2
3146,7
3147,1
3148,2
3149,2
3150,4
3151,6
3153,2
3154,1
3155,4
3156,1
3158,10
3159,5
3160,5
3161,8
3162,7
3163,5
3164,2
3165,1
3166,2
3168,1
3169,2
3171,15
3172,8
3173,10
3174,10
3175,5
3176,1
3178,2
3179,5
3181,2
3182,3
3183,5
3184,2
3185,1
3186,4
3188,1
3189,6
3190,3
3191,1
3192,2
3193,3
3195,2
3198,12
3200,3
3201,5
3203,16
3204,4
3205,1
3206,2
3207,2
3209,6
3210,7
3211,12
3212,2
3214,1
3216,2
3217,1
3218,1
3219,1
3220,2
3221,1
3223,1
3225,4
3226,1
3227,5
3228,1
3229,6
3231,1
3232,3
3233,3
3235,5
3236,6
3237,3
3238,2
3243,1
3244,3
3245,2
3247,5
3248,2
3249,5
3250,2
3251,2
3252,1
3253,3
3254,1
3256,2
3261,3
3262,3
3263,1
3264,4
3265,6
3266,3
3267,5
3268,2
3269,1
3270,7
3271,10
3272,3
3273,6
3274,3
3275,2
3276,5
3278,2
3279,5
3280,1
3281,3
3282,4
3284,2
3285,4
3286,10
3287,1
3288,2
3289,7
3290,2
3291,3
3292,6
3293,5
3294,3
3295,8
3297,1
3298,1
3299,4
3300,4
3301,12
3302,8
3303,4
3304,4
3306,7
3307,4
3308,3
3310,6
3311,2
3312,8
3313,2
3315,2
3316,1
3318,4
3320,4
3321,8
3322,2
3323,10
3325,16
3326,2
3327,6
3328,3
3329,1
3332,3
3333,2
3335,1
3336,3
3337,2
3338,3
3339,3
3340,2
3341,2
3342,4
3343,5
3344,2
3346,1
3347,1
3349,4
3350,1
3351,4
3352,8
3353,3
3355,2
3356,1
3357,8
3358,2
3359,1
3361,3
3364,2
3365,1
3367,1
3368,5
3369,3
3370,1
3372,1
3374,1
3376,11
3377,5
3378,8
3379,3
3380,4
3382,3
3383,6
3384,2
3385,1
3388,2
3389,2
3392,2
3393,5
3394,17
3395,1
3396,6
3397,5
3398,5
3399,9
3400,1
3402,2
3403,2
3404,7
3405,8
3406,5
3407,6
3408,10
3409,3
3410,17
3411,2
3412,2
3413,4
3414,7
3415,3
3416,1
3417,4
3418,5
3419,8
3420,6
3421,2
3422,3
3423,6
3424,3
3425,2
3426,1
3427,2
3428,1
3429,1
3430,1
3432,3
3433,2
3436,2
3438,1
3440,3
3441,3
3442,2
3443,2
3444,1
3445,1
3447,2
3449,22
3451,3
3452,1
3453,17
3454,1
3457,3
3458,4
3459,2
3460,1
3461,4
3462,2
3463,1
3464,1
3466,1
3467,1
3468,3
3469,1
3470,4
3471,1
3473,2
3474,1
3476,1
3477,3
3478,1
3479,4
3480,1
3482,6
3483,2
3485,3
3486,9
3487,4
3489,1
3490,5
3491,1
3493,3
3494,1
3495,2
3496,1
3497,4
3498,2
3499,4
3501,1
3502,1
3503,3
3504,1
3505,2
3506,1
3507,10
3508,2
3509,6
3510,2
3512,1
3513,1
3514,2
3515,10
3516,12
3517,5
3518,1
3519,2
3520,2
3522,7
3523,3
3524,2
3525,1
3526,7
3527,1
3528,3
3529,4
3530,3
3531,3
3532,6
3534,2
3535,8
3536,5
3538,1
3539,5
3541,3
3542,1
3543,2
3544,1
3545,3
3546,7
3547,5
3548,5
3549,1
3550,1
3551,1
3552,1
3553,1
3554,2
3556,2
3557,1
3558,4
3560,6
3561,1
3562,5
3565,2
3567,4
3568,3
3570,6
3571,4
3572,2
3574,1
3576,7
3577,5
3578,2
3579,1
3580,2
3581,4
3582,3
3583,6
3584,1
3585,8
3586,20
3587,1
3588,4
3589,5
3590,30
3591,1
3592,5
3594,4
3595,3
3596,3
3597,2
3598,4
3599,2
3600,5
3601,2
3602,4
3603,7
3604,1
3606,1
3607,17
3608,1
3609,4
3610,10
3611,1
3612,8
3613,3
3614,6
3616,19
3617,4
3618,5
3619,4
3622,2
3623,6
3624,1
3625,3
3626,1
3627,1
3628,2
3629,1
3631,1
3632,3
3633,1
3635,1
3636,1
3637,6
3638,4
3639,2
3640,6
3641,3
3642,4
3643,2
3644,2
3646,3
3647,1
3648,2
3649,1
3650,6
3651,1
3652,1
3653,4
3654,2
3656,1
3657,2
3658,2
3660,6
3661,10
3662,2
3663,1
3664,5
3665,7
3666,8
3667,8
3668,1
3670,3
3671,4
3672,1
3673,9
3674,4
3675,3
3676,5
3677,10
3678,2
3679,6
3680,15
3681,4
3682,9
3683,26
3684,26
3685,6
3686,10
3687,10
3688,3
3689,3
3690,2
3691,3
3692,3
3693,5
3694,7
3695,4
3696,2
3697,4
3698,6
3699,4
3700,3
3702,3
3703,1
3704,2
3705,5
3706,3
3707,3
3708,1
3709,23
3710,6
3711,6
3712,61
3713,3
3714,3
3715,6
3718,2
3719,5
3720,8
3721,1
3722,3
3723,2
3724,1
3725,1
3726,5
3727,1
3728,2
3729,7
3730,1
3732,19
3733,4
3734,10
3735,8
3736,11
3737,6
3738,3
3739,5
3740,3
3742,2
3743,1
3744,5
3745,9
3746,12
3747,4
3748,1
3749,3
3750,2
3751,1
3752,2
3754,4
3755,10
3756,1
3758,22
3759,3
3760,2
3761,1
3762,1
3763,3
3764,3
3765,1
3766,4
3768,4
3769,1
3770,2
3771,10
3773,5
3776,1
3777,1
3779,1
3780,7
3781,2
3782,3
3783,2
3784,2
3786,1
3787,9
3788,1
3789,5
3790,3
3791,3
3793,4
3794,10
3795,1
3797,2
3798,8
3799,4
3800,22
3802,3
3803,7
3804,6
3805,1
3807,1
3808,3
3809,8
3811,2
3812,3
3813,2
3814,1
3815,2
3816,1
3817,1
3818,6
3819,2
3820,4
3821,2
3822,3
3823,2
3824,3
3825,4
3826,2
3827,6
3828,8
3830,5
3831,3
3832,3
3833,2
3834,4
3836,4
3837,2
3838,2
3839,1
3840,3
3841,3
3842,1
3843,5
3844,13
3845,1
3846,6
3848,5
3849,6
3850,4
3851,4
3852,1
3853,5
3854,4
3855,4
3856,3
3859,6
3861,4
3862,8
3863,3
3864,20
3865,3
3866,2
3867,5
3868,10
3869,7
3870,4
3871,4
3872,4
3873,8
3874,11
3875,1
3878,1
3879,2
3881,4
3882,5
3883,3
3884,1
3885,2
3886,5
3887,4
3888,5
3889,2
3890,3
3891,3
3892,8
3893,12
3894,1
3895,1
3896,4
3897,9
3898,1
3899,4
3900,4
3902,12
3903,3
3904,3
3905,32
3906,1
3907,5
3908,3
3909,3
3910,96
3911,102
3912,3
3913,80
3914,255
3915,59
3916,23
3917,11
3918,21
3919,70
3920,227
3921,26
3922,20
3923,2
3924,4
3925,12
3926,6
3927,7
3928,2
3930,18
3931,18
3933,1
3934,3
3935,6
3936,4
3937,2
3938,12
3939,5
3940,5
3941,25
3942,3
3943,2
3946,6
3947,2
3948,13
3949,22
3950,3
3951,5
3952,7
3953,172
3954,62
3955,4
3956,23
3957,12
3958,33
3959,23
3960,6
3961,25
3962,16
3963,117
3964,107
3965,34
